MADNESS runtime initialized with 10 threads in the pool and affinity -1 -1 -1

--------------------------------------------
   MADNESS 0.10.1 multiresolution suite
--------------------------------------------

   number of processors ... 2
    processor frequency ... 2.095028e+09
            host system ... linux-gnu
          configured by ... bsundahl
          configured on ... login
          configured at ... Mon May 21 11:22:55 EDT 2018
                    CXX ... mpicxx
               CXXFLAGS ...  -O3 -Wall -Wno-strict-aliasing -Wno-deprecated -Wno-unused-local-typedefs  -ffast-math -march=native
             tuning for ... default
                    MPI ... multiple
 multi-threaded runtime ... Intel TBB
                   BLAS ... Intel MKL 10209 19645 MFLOP/s
               compiled ... 11:23:28  on  May 21 2018
input filename:  Na.mdns

Atomic units being used to read input coordinates

Cubic point group

 The point group is D2h

Construct XC Functional from LIBXC Library

input line was:  hf 
 1.000 HF exchange 

screening parameters
 rhotol, rhomin 1.000000e-07 0.000000e+00
         ggatol 1.000000e-04
polarized  false 


Solving NDIM= 3  with thresh 1.000000e-05     k 8    conv 1.000000e-04 




 MADNESS Hartree-Fock and Density Functional Theory Program
 ----------------------------------------------------------



 geometry
   eprec 1.0e-06
   units atomic
   Na            0.00000000           0.00000000           0.00000000
 end


             restart  false
    restart from AOs  false
 number of processes  2
   no. of io servers  1
   vnuc load bal fac  12
      load bal parts  2
     simulation cube  -5.000000e+01 5.000000e+01
        total charge  1.000000e+00
            smearing  0.000000e+00
 number of electrons  5 5
  number of orbitals  5 5
     spin restricted  true
       xc functional   hf 
          xc library  libxc
 initial guess basis  6-31g
 max krylov subspace  5
    compute protocol  [1.000000e-04, 1.000000e-06]
  energy convergence  1.000000e-05
 density convergence  1.000000e-04
    maximum rotation  2.500000e-01
    polynomial order  -1
       truncate mode  1
  maximum iterations  40
 Convergence criteria are density delta & BSH residual.
        plot density  false
        plot coulomb  false
        plot orbital  0 -1
        plot npoints  101
        plot  volume  default
  canonical orbitals 
 psp or all electron  all electron
timer:           initialize     0.46s     0.46s

Solving NDIM= 3  with thresh 1.000000e-05     k 8    conv 1.000000e-04 

timer:     Project vnuclear     0.17s     0.17s
data distribution info before redistributing
   total:  20507
   procs: 10660 9847 
data distribution info after redistributing
   total:  20507
   procs: 10095 10412 

Solving NDIM= 3  with thresh 1.000000e-04     k 6    conv 1.000000e-04 


Solving NDIM= 3  with thresh 1.000000e-04     k 6    conv 1.000000e-04 

timer:     Project vnuclear     0.20s     0.20s
timer:     project ao basis     0.22s     0.22s
guess dens trace 1.099994e+01
timer:        guess density     0.18s     0.18s
data distribution info before redistributing
   total:  46457
   procs: 23061 23396 
data distribution info after redistributing
   total:  46457
   procs: 23061 23396 
timer:        guess loadbal     0.21s     0.21s
timer:   guess Coulomb potn     0.35s     0.35s
timer:       guess lda potn     0.08s     0.08s
data distribution info before redistributing
   total:  49977
   procs: 24949 25028 
data distribution info after redistributing
   total:  49977
   procs: 24957 25020 
timer:        guess loadbal     0.31s     0.31s
timer:        guess overlap     0.02s     0.02s
timer:    KEmat reconstruct     0.00s     0.00s
timer:  KEmat differentiate     0.13s     0.13s
timer:       KEmat compress     0.03s     0.03s
timer: KEmat inner products     0.04s     0.04s
timer:     guess Kinet potn     0.21s     0.21s
timer:           guess fock     0.17s     0.17s
timer:      guess eigen sol     0.00s     0.00s
grouping alpha orbitals into sets
set  0    0  -  0
set  1    1  -  4
timer: guess orbital groupi     0.01s     0.01s
timer:     project ao basis     0.19s     0.19s

Iteration 0 at time 3.2s

timer:       Make densities     0.01s     0.01s
data distribution info before redistributing
   total:  48262
   procs: 24110 24152 
data distribution info after redistributing
   total:  48262
   procs: 24110 24152 
timer:       Load balancing     0.29s     0.29s
timer:       Nuclear energy     0.01s     0.01s
timer:              Coulomb     0.14s     0.14s
timer:                V*psi     0.05s     0.05s
timer:          HF exchange     0.90s     0.90s
timer:        Truncate Vpsi     0.01s     0.01s
timer:            PE matrix     0.01s     0.01s
timer:   KE compute loadbal     0.00s     0.00s
timer:            KE redist     0.02s     0.02s
timer:    KEmat reconstruct     0.00s     0.00s
timer:  KEmat differentiate     0.09s     0.09s
timer:       KEmat compress     0.02s     0.02s
timer: KEmat inner products     0.04s     0.04s
timer:            KE matrix     0.16s     0.16s
timer: Make fock matrix res     0.00s     0.00s
timer: Diagonalization Fock     0.00s     0.00s
timer: Diagonalization rest     0.05s     0.05s

              kinetic     161.12022071
         nonlocal psp       0.00000000
   nuclear attraction    -385.55944317
              coulomb      76.61551620
                  PCM       0.00000000
 exchange-correlation     -13.83103949
    nuclear-repulsion       0.00000000
                total    -161.65474575

timer: Compute residual stu     0.01s     0.01s
entering apply
timer:            Apply BSH     0.45s     0.45s
timer:     Truncate new psi     0.03s     0.03s
residuals [4.151826e-03, 1.128332e-02, 1.605973e-02, 1.605897e-02, 1.606021e-02]
BSH residual: rms 1.355203e-02    max 1.606021e-02
timer:         BSH residual     0.01s     0.01s
timer: Update subspace stuf     0.01s     0.01s
Subspace solution [*]   1.00000000

timer:   Subspace transform     0.00s     0.00s
Norm of vector changes alpha : rms 1.355203e-02    max 1.606021e-02
ORTHOG2a: maxq trantol 1.536162e-04 2.000000e-06
timer:       Orthonormalize     0.03s     0.03s

Iteration 1 at time 5.6s

timer:       Make densities     0.01s     0.01s
data distribution info before redistributing
   total:  54825
   procs: 27397 27428 
data distribution info after redistributing
   total:  54825
   procs: 27397 27428 
timer:       Load balancing     0.33s     0.33s
delta rho 1.979454e-02 1.979454e-02 residuals 1.606021e-02 0.000000e+00
timer:       Nuclear energy     0.01s     0.01s
timer:              Coulomb     0.15s     0.15s
timer:                V*psi     0.05s     0.05s
timer:          HF exchange     0.94s     0.94s
timer:        Truncate Vpsi     0.01s     0.01s
timer:            PE matrix     0.01s     0.01s
timer:   KE compute loadbal     0.00s     0.00s
timer:            KE redist     0.03s     0.03s
timer:    KEmat reconstruct     0.00s     0.00s
timer:  KEmat differentiate     0.08s     0.08s
timer:       KEmat compress     0.02s     0.02s
timer: KEmat inner products     0.04s     0.04s
timer:            KE matrix     0.16s     0.16s
timer: Make fock matrix res     0.00s     0.00s
timer: Diagonalization Fock     0.00s     0.00s
timer: Diagonalization rest     0.03s     0.03s

              kinetic     161.60445436
         nonlocal psp       0.00000000
   nuclear attraction    -386.44681780
              coulomb      77.05857025
                  PCM       0.00000000
 exchange-correlation     -13.89253649
    nuclear-repulsion       0.00000000
                total    -161.67632968

timer: Compute residual stu     0.01s     0.01s
entering apply
timer:            Apply BSH     0.44s     0.44s
timer:     Truncate new psi     0.03s     0.03s
residuals [2.360799e-04, 2.067811e-03, 3.298143e-03, 3.298233e-03, 3.297842e-03]
BSH residual: rms 2.718949e-03    max 3.298233e-03
timer:         BSH residual     0.01s     0.01s
timer: Update subspace stuf     0.01s     0.01s
Subspace solution [*]  -0.23717919   1.23717919

timer:   Subspace transform     0.01s     0.01s
Norm of vector changes alpha : rms 3.314391e-03    max 4.003339e-03
ORTHOG2a: maxq trantol 8.372201e-05 2.000000e-06
timer:       Orthonormalize     0.03s     0.03s

Iteration 2 at time 8.0s

timer:       Make densities     0.01s     0.01s
delta rho 2.534938e-03 2.534938e-03 residuals 3.298233e-03 0.000000e+00
timer:       Nuclear energy     0.01s     0.01s
timer:              Coulomb     0.15s     0.15s
timer:                V*psi     0.05s     0.05s
timer:          HF exchange     0.90s     0.90s
timer:        Truncate Vpsi     0.01s     0.01s
timer:            PE matrix     0.02s     0.02s
timer:   KE compute loadbal     0.00s     0.00s
timer:            KE redist     0.03s     0.03s
timer:    KEmat reconstruct     0.00s     0.00s
timer:  KEmat differentiate     0.09s     0.09s
timer:       KEmat compress     0.02s     0.02s
timer: KEmat inner products     0.04s     0.04s
timer:            KE matrix     0.16s     0.16s
timer: Make fock matrix res     0.00s     0.00s
timer: Diagonalization Fock     0.00s     0.00s
timer: Diagonalization rest     0.03s     0.03s

              kinetic     161.68931239
         nonlocal psp       0.00000000
   nuclear attraction    -386.59340070
              coulomb      77.13014634
                  PCM       0.00000000
 exchange-correlation     -13.90264278
    nuclear-repulsion       0.00000000
                total    -161.67658475

timer: Compute residual stu     0.01s     0.01s
entering apply
timer:            Apply BSH     0.46s     0.46s
timer:     Truncate new psi     0.04s     0.04s
residuals [8.080015e-05, 3.300225e-04, 3.130391e-04, 3.131243e-04, 3.130059e-04]
BSH residual: rms 2.861666e-04    max 3.300225e-04
timer:         BSH residual     0.01s     0.01s
timer: Update subspace stuf     0.02s     0.02s
Subspace solution [*]   0.04962290  -0.32708841   1.27746551

timer:   Subspace transform     0.01s     0.01s
Norm of vector changes alpha : rms 3.899778e-04    max 4.440068e-04
ORTHOG2a: maxq trantol 2.806897e-05 2.000000e-06
timer:       Orthonormalize     0.03s     0.03s

Iteration 3 at time 10.1s

timer:       Make densities     0.01s     0.01s
delta rho 3.883338e-04 3.883338e-04 residuals 3.300225e-04 0.000000e+00
timer:       Nuclear energy     0.01s     0.01s
timer:              Coulomb     0.14s     0.14s
timer:                V*psi     0.05s     0.05s
timer:          HF exchange     0.90s     0.90s
timer:        Truncate Vpsi     0.01s     0.01s
timer:            PE matrix     0.02s     0.02s
timer:   KE compute loadbal     0.00s     0.00s
timer:            KE redist     0.02s     0.02s
timer:    KEmat reconstruct     0.00s     0.00s
timer:  KEmat differentiate     0.09s     0.09s
timer:       KEmat compress     0.03s     0.03s
timer: KEmat inner products     0.04s     0.04s
timer:            KE matrix     0.16s     0.16s
timer: Make fock matrix res     0.00s     0.00s
timer: Diagonalization Fock     0.00s     0.00s
timer: Diagonalization rest     0.03s     0.03s

              kinetic     161.68928468
         nonlocal psp       0.00000000
   nuclear attraction    -386.59269635
              coulomb      77.12933572
                  PCM       0.00000000
 exchange-correlation     -13.90252061
    nuclear-repulsion       0.00000000
                total    -161.67659656

timer: Compute residual stu     0.01s     0.01s
entering apply
timer:            Apply BSH     0.46s     0.46s
timer:     Truncate new psi     0.04s     0.04s
residuals [3.104185e-05, 7.779188e-05, 4.405715e-05, 4.413838e-05, 4.433195e-05]
BSH residual: rms 5.073406e-05    max 7.779188e-05
timer:         BSH residual     0.01s     0.01s
timer: Update subspace stuf     0.03s     0.03s
Subspace solution [*]  -0.01789631   0.12050414  -0.51655872   1.41395089

timer:   Subspace transform     0.01s     0.01s
Norm of vector changes alpha : rms 6.670927e-05    max 1.142403e-04
ORTHOG2a: maxq trantol 1.072704e-05 2.000000e-06
timer:       Orthonormalize     0.03s     0.03s

Iteration 4 at time 12.2s

timer:       Make densities     0.01s     0.01s
delta rho 1.023782e-04 1.023782e-04 residuals 7.779188e-05 0.000000e+00
timer:       Nuclear energy     0.01s     0.01s
timer:              Coulomb     0.14s     0.14s
timer:                V*psi     0.05s     0.05s
timer:          HF exchange     0.81s     0.81s
timer:        Truncate Vpsi     0.01s     0.01s
timer:            PE matrix     0.01s     0.01s
timer:   KE compute loadbal     0.00s     0.00s
timer:            KE redist     0.02s     0.02s
timer:    KEmat reconstruct     0.00s     0.00s
timer:  KEmat differentiate     0.08s     0.08s
timer:       KEmat compress     0.02s     0.02s
timer: KEmat inner products     0.04s     0.04s
timer:            KE matrix     0.15s     0.15s
timer: Make fock matrix res     0.00s     0.00s
timer: Diagonalization Fock     0.00s     0.00s
timer: Diagonalization rest     0.03s     0.03s

              kinetic     161.69150050
         nonlocal psp       0.00000000
   nuclear attraction    -386.59572334
              coulomb      77.13022470
                  PCM       0.00000000
 exchange-correlation     -13.90259858
    nuclear-repulsion       0.00000000
                total    -161.67659671

timer: Compute residual stu     0.01s     0.01s
entering apply
timer:            Apply BSH     0.45s     0.45s
timer:     Truncate new psi     0.04s     0.04s
residuals [1.515208e-05, 2.838949e-05, 1.226872e-05, 1.227280e-05, 1.291433e-05]
BSH residual: rms 1.734054e-05    max 2.838949e-05
timer:         BSH residual     0.01s     0.01s
timer: Update subspace stuf     0.03s     0.03s
Subspace solution [*]   0.00248930  -0.01688386   0.07738618  -0.40892585   1.34593423

timer:   Subspace transform     0.01s     0.01s
Norm of vector changes alpha : rms 2.193042e-05    max 3.943963e-05
ORTHOG2a: maxq trantol 9.136592e-06 2.000000e-06
timer:       Orthonormalize     0.03s     0.03s

Iteration 5 at time 14.2s

timer:       Make densities     0.01s     0.01s
delta rho 4.282434e-05 4.282434e-05 residuals 2.838949e-05 0.000000e+00
timer:       Nuclear energy     0.01s     0.01s
timer:              Coulomb     0.14s     0.14s
timer:                V*psi     0.05s     0.05s
timer:          HF exchange     0.89s     0.89s
timer:        Truncate Vpsi     0.01s     0.01s
timer:            PE matrix     0.01s     0.01s
timer:   KE compute loadbal     0.00s     0.00s
timer:            KE redist     0.02s     0.02s
timer:    KEmat reconstruct     0.00s     0.00s
timer:  KEmat differentiate     0.08s     0.08s
timer:       KEmat compress     0.02s     0.02s
timer: KEmat inner products     0.04s     0.04s
timer:            KE matrix     0.15s     0.15s
timer: Make fock matrix res     0.00s     0.00s
timer: Diagonalization Fock     0.00s     0.00s
timer: Diagonalization rest     0.03s     0.03s

              kinetic     161.69244320
         nonlocal psp       0.00000000
   nuclear attraction    -386.59697495
              coulomb      77.13056384
                  PCM       0.00000000
 exchange-correlation     -13.90262895
    nuclear-repulsion       0.00000000
                total    -161.67659685


Converged!

timer:              Overlap     0.01s     0.01s
timer:      focka eigen sol     0.00s     0.00s
timer:        Transform MOs     0.01s     0.01s
 
alpha eigenvalues
[*] -40.75937544  -3.07367106  -1.79711301  -1.79710930  -1.79710801


 Dipole Moment (a.u.)
 -----------

     x:  3.058240e-11
     y:  3.070438e-11
     z:  2.628056e-11
 Total Dipole Moment:  5.068244e-11 

timer:               dipole     0.01s     0.01s
Orbitals are eigenvectors - energies are eigenvalues

Analysis of alpha MO vectors
timer:      Analyze vectors     0.16s     0.16s
timer: Compute eigen gesv a     0.00s     0.00s
  MO   0 : occ=1.00 : energy= -40.75937544 : center=(-0.00,-0.00,-0.00) : radius=0.17
           Na(0)   s( 0)-0.998  
  MO   1 : occ=1.00 : energy=  -3.07367106 : center=(-0.00,-0.00,-0.00) : radius=0.86
           Na(0)   s( 1) 1.028    Na(0)   s( 0)-0.246  
  MO   2 : occ=1.00 : energy=  -1.79711301 : center=(0.00,-0.00,-0.00) : radius=0.90
           Na(0)  pz( 4) 0.880    Na(0)  py( 3) 0.472  
  MO   3 : occ=1.00 : energy=  -1.79710930 : center=(-0.00,-0.00,0.00) : radius=0.90
           Na(0)  py( 3) 0.879    Na(0)  pz( 4)-0.470  
  MO   4 : occ=1.00 : energy=  -1.79710801 : center=(-0.00,0.00,-0.00) : radius=0.90
           Na(0)  px( 2)-0.997  

Solving NDIM= 3  with thresh 1.000000e-06     k 8    conv 1.000000e-04 

timer:     Project vnuclear     0.21s     0.21s
timer:     project ao basis     0.27s     0.27s

Iteration 0 at time 16.6s

timer:       Make densities     0.01s     0.01s
data distribution info before redistributing
   total:  47571
   procs: 23783 23788 
data distribution info after redistributing
   total:  47571
   procs: 23783 23788 
timer:       Load balancing     0.26s     0.26s
timer:       Nuclear energy     0.03s     0.03s
timer:              Coulomb     0.52s     0.52s
timer:                V*psi     0.09s     0.09s
timer:          HF exchange     1.69s     1.69s
timer:        Truncate Vpsi     0.02s     0.02s
timer:            PE matrix     0.01s     0.01s
timer:   KE compute loadbal     0.00s     0.00s
timer:            KE redist     0.03s     0.03s
timer:    KEmat reconstruct     0.00s     0.00s
timer:  KEmat differentiate     0.09s     0.09s
timer:       KEmat compress     0.03s     0.03s
timer: KEmat inner products     0.04s     0.04s
timer:            KE matrix     0.17s     0.17s
timer: Make fock matrix res     0.00s     0.00s
timer: Diagonalization Fock     0.00s     0.00s
timer: Diagonalization rest     0.05s     0.05s

              kinetic     161.69163555
         nonlocal psp       0.00000000
   nuclear attraction    -386.59603230
              coulomb      77.13041263
                  PCM       0.00000000
 exchange-correlation     -13.90258349
    nuclear-repulsion       0.00000000
                total    -161.67656761

timer: Compute residual stu     0.02s     0.02s
entering apply
timer:            Apply BSH     1.55s     1.55s
timer:     Truncate new psi     0.06s     0.06s
residuals [1.769843e-04, 1.868440e-04, 2.067957e-04, 2.066132e-04, 2.067133e-04]
BSH residual: rms 1.971892e-04    max 2.067957e-04
timer:         BSH residual     0.01s     0.01s
timer: Update subspace stuf     0.00s     0.00s
Subspace solution [*]   1.00000000

timer:   Subspace transform     0.00s     0.00s
Norm of vector changes alpha : rms 1.971892e-04    max 2.067957e-04
ORTHOG2a: maxq trantol 1.004113e-05 2.000000e-08
timer:       Orthonormalize     0.02s     0.02s

Iteration 1 at time 21.3s

timer:       Make densities     0.01s     0.01s
data distribution info before redistributing
   total:  55257
   procs: 27629 27628 
data distribution info after redistributing
   total:  55257
   procs: 27605 27652 
timer:       Load balancing     0.26s     0.26s
delta rho 5.080951e-04 5.080951e-04 residuals 2.067957e-04 0.000000e+00
timer:       Nuclear energy     0.01s     0.01s
timer:              Coulomb     0.44s     0.44s
timer:                V*psi     0.09s     0.09s
timer:          HF exchange     1.88s     1.88s
timer:        Truncate Vpsi     0.02s     0.02s
timer:            PE matrix     0.01s     0.01s
timer:   KE compute loadbal     0.00s     0.00s
timer:            KE redist     0.03s     0.03s
timer:    KEmat reconstruct     0.01s     0.01s
timer:  KEmat differentiate     0.13s     0.13s
timer:       KEmat compress     0.04s     0.04s
timer: KEmat inner products     0.05s     0.05s
timer:            KE matrix     0.23s     0.23s
timer: Make fock matrix res     0.00s     0.00s
timer: Diagonalization Fock     0.00s     0.00s
timer: Diagonalization rest     0.05s     0.05s

              kinetic     161.68050422
         nonlocal psp       0.00000000
   nuclear attraction    -386.58406146
              coulomb      77.12870892
                  PCM       0.00000000
 exchange-correlation     -13.90211139
    nuclear-repulsion       0.00000000
                total    -161.67695971

timer: Compute residual stu     0.02s     0.02s
entering apply
timer:            Apply BSH     1.67s     1.67s
timer:     Truncate new psi     0.06s     0.06s
residuals [1.947635e-05, 3.699619e-05, 3.144595e-05, 3.156460e-05, 3.150058e-05]
BSH residual: rms 3.074249e-05    max 3.699619e-05
timer:         BSH residual     0.02s     0.02s
timer: Update subspace stuf     0.01s     0.01s
Subspace solution [*]  -0.12142203   1.12142203

timer:   Subspace transform     0.01s     0.01s
Norm of vector changes alpha : rms 3.422268e-05    max 4.060326e-05
ORTHOG2a: maxq trantol 1.844365e-06 2.000000e-08
timer:       Orthonormalize     0.03s     0.03s

Iteration 2 at time 26.4s

timer:       Make densities     0.02s     0.02s
delta rho 1.616212e-04 1.616212e-04 residuals 3.699619e-05 0.000000e+00
timer:       Nuclear energy     0.01s     0.01s
timer:              Coulomb     0.33s     0.33s
timer:                V*psi     0.08s     0.08s
timer:          HF exchange     1.82s     1.82s
timer:        Truncate Vpsi     0.02s     0.02s
timer:            PE matrix     0.01s     0.01s
timer:   KE compute loadbal     0.00s     0.00s
timer:            KE redist     0.03s     0.03s
timer:    KEmat reconstruct     0.01s     0.01s
timer:  KEmat differentiate     0.12s     0.12s
timer:       KEmat compress     0.04s     0.04s
timer: KEmat inner products     0.04s     0.04s
timer:            KE matrix     0.21s     0.21s
timer: Make fock matrix res     0.00s     0.00s
timer: Diagonalization Fock     0.00s     0.00s
timer: Diagonalization rest     0.05s     0.05s

              kinetic     161.67791118
         nonlocal psp       0.00000000
   nuclear attraction    -386.58168697
              coulomb      77.12887009
                  PCM       0.00000000
 exchange-correlation     -13.90205448
    nuclear-repulsion       0.00000000
                total    -161.67696019

timer: Compute residual stu     0.02s     0.02s
entering apply
timer:            Apply BSH     1.59s     1.59s
timer:     Truncate new psi     0.06s     0.06s
residuals [3.577871e-06, 1.031284e-05, 6.561933e-06, 6.689019e-06, 6.624148e-06]
BSH residual: rms 7.082897e-06    max 1.031284e-05
timer:         BSH residual     0.01s     0.01s
timer: Update subspace stuf     0.01s     0.01s
Subspace solution [*]   0.02167372  -0.32855415   1.30688043

timer:   Subspace transform     0.01s     0.01s
Norm of vector changes alpha : rms 8.703586e-06    max 1.327821e-05
ORTHOG2a: maxq trantol 6.333092e-07 2.000000e-08
timer:       Orthonormalize     0.02s     0.02s

Iteration 3 at time 30.9s

timer:       Make densities     0.01s     0.01s
delta rho 6.142112e-05 6.142112e-05 residuals 1.031284e-05 0.000000e+00
timer:       Nuclear energy     0.01s     0.01s
timer:              Coulomb     0.33s     0.33s
timer:                V*psi     0.07s     0.07s
timer:          HF exchange     1.89s     1.89s
timer:        Truncate Vpsi     0.02s     0.02s
timer:            PE matrix     0.01s     0.01s
timer:   KE compute loadbal     0.00s     0.00s
timer:            KE redist     0.03s     0.03s
timer:    KEmat reconstruct     0.01s     0.01s
timer:  KEmat differentiate     0.14s     0.14s
timer:       KEmat compress     0.04s     0.04s
timer: KEmat inner products     0.04s     0.04s
timer:            KE matrix     0.23s     0.23s
timer: Make fock matrix res     0.00s     0.00s
timer: Diagonalization Fock     0.00s     0.00s
timer: Diagonalization rest     0.05s     0.05s

              kinetic     161.67705977
         nonlocal psp       0.00000000
   nuclear attraction    -386.58091699
              coulomb      77.12893458
                  PCM       0.00000000
 exchange-correlation     -13.90203693
    nuclear-repulsion       0.00000000
                total    -161.67695958


Converged!

timer:              Overlap     0.01s     0.01s
timer:      focka eigen sol     0.00s     0.00s
timer:        Transform MOs     0.02s     0.02s
 
alpha eigenvalues
[*] -40.75975855  -3.07369155  -1.79719376  -1.79719362  -1.79719348


 Dipole Moment (a.u.)
 -----------

     x:  1.280880e-09
     y:  1.288421e-09
     z:  1.095040e-09
 Total Dipole Moment:  2.121271e-09 

timer:               dipole     0.01s     0.01s
Orbitals are eigenvectors - energies are eigenvalues

Analysis of alpha MO vectors
timer:      Analyze vectors     0.24s     0.24s
timer: Compute eigen gesv a     0.00s     0.00s
  MO   0 : occ=1.00 : energy= -40.75975855 : center=(-0.00,-0.00,-0.00) : radius=0.17
           Na(0)   s( 0) 0.998  
  MO   1 : occ=1.00 : energy=  -3.07369155 : center=(-0.00,-0.00,-0.00) : radius=0.86
           Na(0)   s( 1)-1.028    Na(0)   s( 0) 0.246  
  MO   2 : occ=1.00 : energy=  -1.79719376 : center=(0.00,0.00,-0.00) : radius=0.90
           Na(0)  pz( 4)-0.903    Na(0)  px( 2) 0.428  
  MO   3 : occ=1.00 : energy=  -1.79719362 : center=(-0.00,-0.00,-0.00) : radius=0.90
           Na(0)  py( 3) 0.950    Na(0)  px( 2) 0.279  
  MO   4 : occ=1.00 : energy=  -1.79719348 : center=(-0.00,0.00,-0.00) : radius=0.90
           Na(0)  px( 2)-0.858    Na(0)  pz( 4)-0.407    Na(0)  py( 3) 0.309  
timer:             plotting     0.00s     0.00s

    Parallel environment
    --------------------
                  #nodes    2
       #threads per node    10+main+server = 12
          #total threads    24

  RMI message statistics (min / avg / max)
  ----------------------
   #messages in server q    5.00e+00 / 5.00e+00 / 5.00e+00
 #messages sent per node    3.45e+05 / 3.53e+05 / 3.61e+05
    #bytes sent per node    3.04e+09 / 3.06e+09 / 3.08e+09
 #messages recv per node    3.45e+05 / 3.53e+05 / 3.61e+05
    #bytes recv per node    3.04e+09 / 3.06e+09 / 3.08e+09
        #msgs systemwide    7.06e+05
       #bytes systemwide    6.12e+09

  Thread pool statistics (min / avg / max)
  ----------------------
         #tasks per node    0.00e+00 / 0.00e+00 / 0.00e+00
     #max q len per node    0.00e+00 / 0.00e+00 / 0.00e+00
  #hi-pri tasks per node    0.00e+00 / 0.00e+00 / 0.00e+00

         Total wall time    34.2s
         Total  cpu time    34.2s

