MADNESS runtime initialized with 13 threads in the pool and affinity -1 -1 -1

--------------------------------------------
   MADNESS 0.10.1 multiresolution suite
--------------------------------------------

   number of processors ... 1
    processor frequency ... 2.094997e+09
            host system ... linux-gnu
          configured by ... bsundahl
          configured on ... login
          configured at ... Mon May 21 11:22:55 EDT 2018
                    CXX ... mpicxx
               CXXFLAGS ...  -O3 -Wall -Wno-strict-aliasing -Wno-deprecated -Wno-unused-local-typedefs  -ffast-math -march=native
             tuning for ... default
                    MPI ... multiple
 multi-threaded runtime ... Intel TBB
                   BLAS ... Intel MKL 22583 22583 MFLOP/s
               compiled ... 11:23:28  on  May 21 2018
input filename:  Cl.mdns

Angstrom being used to read input coordinates (1 Bohr = 1.88972613 Angstrom)

Cubic point group

 The point group is D2h

Construct XC Functional from LIBXC Library

input line was:  hf 
 1.000 HF exchange 

screening parameters
 rhotol, rhomin 1.000000e-07 0.000000e+00
         ggatol 1.000000e-04
polarized  false 


Solving NDIM= 3  with thresh 1.000000e-05     k 8    conv 1.000000e-04 




 MADNESS Hartree-Fock and Density Functional Theory Program
 ----------------------------------------------------------



 geometry
   eprec 1.0e-06
   units atomic
   Cl            0.00000000           0.00000000           0.00000000
 end


             restart  false
    restart from AOs  false
 number of processes  1
   no. of io servers  1
   vnuc load bal fac  12
      load bal parts  2
     simulation cube  -5.000000e+01 5.000000e+01
        total charge  -1.000000e+00
            smearing  0.000000e+00
 number of electrons  9 9
  number of orbitals  9 9
     spin restricted  true
       xc functional   hf 
          xc library  libxc
 initial guess basis  6-31g
 max krylov subspace  5
    compute protocol  [1.000000e-04, 1.000000e-06]
  energy convergence  1.000000e-05
 density convergence  1.000000e-04
    maximum rotation  2.500000e-01
    polynomial order  -1
       truncate mode  1
  maximum iterations  20
 Convergence criteria are density delta & BSH residual.
        plot density  false
        plot coulomb  false
        plot orbital  0 -1
        plot npoints  101
        plot  volume  default
  canonical orbitals 
    calc derivatives 
 psp or all electron  all electron
timer:           initialize     0.41s     0.40s

Solving NDIM= 3  with thresh 1.000000e-04     k 6    conv 1.000000e-04 


Solving NDIM= 3  with thresh 1.000000e-04     k 6    conv 1.000000e-04 

timer:     Project vnuclear     0.26s     0.26s
timer:     project ao basis     0.23s     0.23s
guess dens trace 1.699990e+01
timer:        guess density     0.33s     0.33s
timer:   guess Coulomb potn     0.47s     0.47s
timer:       guess lda potn     0.17s     0.17s
timer:        guess overlap     0.01s     0.01s
timer:    KEmat reconstruct     0.01s     0.01s
timer:  KEmat differentiate     0.23s     0.23s
timer:       KEmat compress     0.05s     0.05s
timer: KEmat inner products     0.03s     0.03s
timer:     guess Kinet potn     0.32s     0.32s
timer:           guess fock     0.43s     0.43s
timer:      guess eigen sol     0.00s     0.00s
grouping alpha orbitals into sets
set  0    0  -  0
set  1    1  -  1
set  2    2  -  4
set  3    5  -  8
timer: guess orbital groupi     0.03s     0.03s
timer:     project ao basis     0.27s     0.27s

Iteration 0 at time 3.1s

timer:       Make densities     0.03s     0.03s
timer:       Load balancing     0.00s     0.00s
timer:       Nuclear energy     0.01s     0.01s
timer:              Coulomb     0.18s     0.18s
timer:                V*psi     0.16s     0.16s
timer:          HF exchange     3.46s     3.46s
timer:        Truncate Vpsi     0.06s     0.06s
timer:            PE matrix     0.01s     0.01s
timer:    KEmat reconstruct     0.01s     0.01s
timer:  KEmat differentiate     0.22s     0.22s
timer:       KEmat compress     0.05s     0.05s
timer: KEmat inner products     0.03s     0.03s
timer:            KE matrix     0.31s     0.31s
timer: Make fock matrix res     0.00s     0.00s
timer: Diagonalization Fock     0.00s     0.00s
timer: Diagonalization rest     0.12s     0.12s

              kinetic     461.42921244
         nonlocal psp       0.00000000
   nuclear attraction   -1106.43930520
              coulomb     213.58038325
                  PCM       0.00000000
 exchange-correlation     -28.03402315
    nuclear-repulsion       0.00000000
                total    -459.46373266

timer: Compute residual stu     0.04s     0.04s
entering apply
timer:            Apply BSH     1.02s     1.02s
timer:     Truncate new psi     0.13s     0.13s
residuals [3.996800e-03, 8.459612e-03, 6.333394e-03, 6.332812e-03, 6.332709e-03, 8.025111e-02, 3.665312e-01, 3.665317e-01, 3.665291e-01]
BSH residual: rms 2.133548e-01    max 3.665317e-01
timer:         BSH residual     0.03s     0.03s
timer: Update subspace stuf     0.03s     0.03s
Subspace solution [*]   1.00000000

timer:   Subspace transform     0.00s     0.00s
  restricting step for alpha orbitals: 6 7 8
Norm of vector changes alpha : rms 2.133548e-01    max 3.665317e-01
ORTHOG2a: maxq trantol 2.415485e-03 1.111111e-06
timer:       Orthonormalize     0.06s     0.06s

Iteration 1 at time 9.1s

timer:       Make densities     0.03s     0.03s
timer:       Load balancing     0.00s     0.00s
delta rho 9.491631e-02 9.491631e-02 residuals 3.665317e-01 0.000000e+00
timer:       Nuclear energy     0.01s     0.01s
timer:              Coulomb     0.21s     0.21s
timer:                V*psi     0.16s     0.16s
timer:          HF exchange     3.14s     3.14s
timer:        Truncate Vpsi     0.06s     0.06s
timer:            PE matrix     0.01s     0.01s
timer:    KEmat reconstruct     0.01s     0.01s
timer:  KEmat differentiate     0.21s     0.21s
timer:       KEmat compress     0.04s     0.04s
timer: KEmat inner products     0.03s     0.03s
timer:            KE matrix     0.28s     0.28s
timer: Make fock matrix res     0.00s     0.00s
timer: Diagonalization Fock     0.00s     0.00s
timer: Diagonalization rest     0.11s     0.11s

              kinetic     457.92125150
         nonlocal psp       0.00000000
   nuclear attraction   -1096.26663434
              coulomb     206.32802538
                  PCM       0.00000000
 exchange-correlation     -27.53010985
    nuclear-repulsion       0.00000000
                total    -459.54746731

timer: Compute residual stu     0.03s     0.03s
entering apply
timer:            Apply BSH     0.96s     0.96s
timer:     Truncate new psi     0.12s     0.12s
residuals [2.489480e-04, 1.826432e-03, 2.174317e-03, 2.174465e-03, 2.175380e-03, 3.893584e-02, 1.337270e-01, 1.337233e-01, 1.337325e-01]
BSH residual: rms 7.830339e-02    max 1.337325e-01
timer:         BSH residual     0.03s     0.03s
timer: Update subspace stuf     0.05s     0.05s
Subspace solution [*]   0.28239411   0.71760589

timer:   Subspace transform     0.01s     0.01s
Norm of vector changes alpha : rms 3.638265e-02    max 6.122143e-02
ORTHOG2a: maxq trantol 1.057110e-03 1.111111e-06
timer:       Orthonormalize     0.07s     0.07s

Iteration 2 at time 14.7s

timer:       Make densities     0.04s     0.04s
delta rho 2.957288e-02 2.957288e-02 residuals 1.337325e-01 0.000000e+00
timer:       Nuclear energy     0.01s     0.01s
timer:              Coulomb     0.20s     0.20s
timer:                V*psi     0.16s     0.16s
timer:          HF exchange     3.19s     3.19s
timer:        Truncate Vpsi     0.06s     0.06s
timer:            PE matrix     0.01s     0.01s
timer:    KEmat reconstruct     0.01s     0.01s
timer:  KEmat differentiate     0.21s     0.21s
timer:       KEmat compress     0.04s     0.04s
timer: KEmat inner products     0.03s     0.03s
timer:            KE matrix     0.29s     0.29s
timer: Make fock matrix res     0.00s     0.00s
timer: Diagonalization Fock     0.00s     0.00s
timer: Diagonalization rest     0.09s     0.09s

              kinetic     459.16042674
         nonlocal psp       0.00000000
   nuclear attraction   -1099.63262665
              coulomb     208.59343228
                  PCM       0.00000000
 exchange-correlation     -27.69543416
    nuclear-repulsion       0.00000000
                total    -459.57420178

timer: Compute residual stu     0.03s     0.03s
entering apply
timer:            Apply BSH     0.95s     0.95s
timer:     Truncate new psi     0.12s     0.12s
residuals [1.070977e-04, 4.133220e-04, 4.586311e-04, 4.590426e-04, 4.599605e-04, 4.234428e-03, 4.163541e-02, 4.163897e-02, 4.163757e-02]
BSH residual: rms 2.408260e-02    max 4.163897e-02
timer:         BSH residual     0.03s     0.03s
timer: Update subspace stuf     0.08s     0.08s
Subspace solution [*]  -0.01314902  -0.47764813   1.49079715

timer:   Subspace transform     0.02s     0.02s
Norm of vector changes alpha : rms 1.667644e-02    max 2.878456e-02
ORTHOG2a: maxq trantol 6.163222e-04 1.111111e-06
timer:       Orthonormalize     0.06s     0.06s

Iteration 3 at time 20.4s

timer:       Make densities     0.03s     0.03s
delta rho 1.054163e-02 1.054163e-02 residuals 4.163897e-02 0.000000e+00
timer:       Nuclear energy     0.00s     0.00s
timer:              Coulomb     0.19s     0.19s
timer:                V*psi     0.16s     0.16s
timer:          HF exchange     3.14s     3.14s
timer:        Truncate Vpsi     0.06s     0.06s
timer:            PE matrix     0.01s     0.01s
timer:    KEmat reconstruct     0.01s     0.01s
timer:  KEmat differentiate     0.20s     0.20s
timer:       KEmat compress     0.04s     0.04s
timer: KEmat inner products     0.05s     0.05s
timer:            KE matrix     0.30s     0.30s
timer: Make fock matrix res     0.00s     0.00s
timer: Diagonalization Fock     0.00s     0.00s
timer: Diagonalization rest     0.10s     0.10s

              kinetic     459.61618721
         nonlocal psp       0.00000000
   nuclear attraction   -1100.82708225
              coulomb     209.38910620
                  PCM       0.00000000
 exchange-correlation     -27.75433067
    nuclear-repulsion       0.00000000
                total    -459.57611951

timer: Compute residual stu     0.04s     0.04s
entering apply
timer:            Apply BSH     0.95s     0.95s
timer:     Truncate new psi     0.13s     0.13s
residuals [4.917294e-05, 8.579390e-05, 7.519706e-05, 7.594770e-05, 6.965867e-05, 2.006299e-03, 4.619909e-03, 4.621411e-03, 4.620759e-03]
BSH residual: rms 2.750832e-03    max 4.621411e-03
timer:         BSH residual     0.04s     0.04s
timer: Update subspace stuf     0.11s     0.11s
Subspace solution [*]   0.00272585   0.03515334   0.01373106   0.94838975

timer:   Subspace transform     0.02s     0.02s
Norm of vector changes alpha : rms 1.884137e-03    max 3.152066e-03
ORTHOG2a: maxq trantol 7.008839e-05 1.111111e-06
timer:       Orthonormalize     0.06s     0.06s

Iteration 4 at time 26.1s

timer:       Make densities     0.03s     0.03s
delta rho 1.192098e-03 1.192098e-03 residuals 4.621411e-03 0.000000e+00
timer:       Nuclear energy     0.00s     0.00s
timer:              Coulomb     0.19s     0.19s
timer:                V*psi     0.17s     0.17s
timer:          HF exchange     3.32s     3.32s
timer:        Truncate Vpsi     0.06s     0.06s
timer:            PE matrix     0.01s     0.01s
timer:    KEmat reconstruct     0.01s     0.01s
timer:  KEmat differentiate     0.21s     0.21s
timer:       KEmat compress     0.04s     0.04s
timer: KEmat inner products     0.03s     0.03s
timer:            KE matrix     0.30s     0.30s
timer: Make fock matrix res     0.00s     0.00s
timer: Diagonalization Fock     0.00s     0.00s
timer: Diagonalization rest     0.10s     0.10s

              kinetic     459.57342218
         nonlocal psp       0.00000000
   nuclear attraction   -1100.69431231
              coulomb     209.29227881
                  PCM       0.00000000
 exchange-correlation     -27.74757822
    nuclear-repulsion       0.00000000
                total    -459.57618955

timer: Compute residual stu     0.03s     0.03s
entering apply
timer:            Apply BSH     0.97s     0.97s
timer:     Truncate new psi     0.13s     0.13s
residuals [4.035164e-05, 7.080976e-05, 5.266263e-05, 5.657852e-05, 5.481086e-05, 2.161788e-04, 1.044624e-03, 1.043581e-03, 1.044680e-03]
BSH residual: rms 6.086424e-04    max 1.044680e-03
timer:         BSH residual     0.04s     0.04s
timer: Update subspace stuf     0.14s     0.14s
Subspace solution [*]   0.00175026  -0.00454038  -0.04406698  -0.34958540   1.39644249

timer:   Subspace transform     0.03s     0.03s
Norm of vector changes alpha : rms 3.808954e-04    max 6.227488e-04
ORTHOG2a: maxq trantol 2.627646e-05 1.111111e-06
timer:       Orthonormalize     0.07s     0.07s

Iteration 5 at time 32.1s

timer:       Make densities     0.03s     0.03s
delta rho 4.558617e-04 4.558617e-04 residuals 1.044680e-03 0.000000e+00
timer:       Nuclear energy     0.01s     0.01s
timer:              Coulomb     0.21s     0.21s
timer:                V*psi     0.17s     0.17s
timer:          HF exchange     3.31s     3.31s
timer:        Truncate Vpsi     0.06s     0.06s
timer:            PE matrix     0.01s     0.01s
timer:    KEmat reconstruct     0.01s     0.01s
timer:  KEmat differentiate     0.22s     0.22s
timer:       KEmat compress     0.05s     0.05s
timer: KEmat inner products     0.03s     0.03s
timer:            KE matrix     0.30s     0.30s
timer: Make fock matrix res     0.00s     0.00s
timer: Diagonalization Fock     0.00s     0.00s
timer: Diagonalization rest     0.09s     0.09s

              kinetic     459.59184513
         nonlocal psp       0.00000000
   nuclear attraction   -1100.72810719
              coulomb     209.30910517
                  PCM       0.00000000
 exchange-correlation     -27.74903380
    nuclear-repulsion       0.00000000
                total    -459.57619068

timer: Compute residual stu     0.03s     0.03s
entering apply
timer:            Apply BSH     0.95s     0.95s
timer:     Truncate new psi     0.14s     0.14s
residuals [2.586370e-05, 5.746107e-05, 3.351504e-05, 3.325322e-05, 3.380457e-05, 6.464706e-05, 5.370755e-05, 5.380271e-05, 5.324857e-05]
BSH residual: rms 4.730090e-05    max 6.464706e-05
timer:         BSH residual     0.04s     0.04s
timer: Update subspace stuf     0.14s     0.14s
Subspace solution [*]  -0.00074845  -0.00861025  -0.05344819   0.17588561   0.88692128

timer:   Subspace transform     0.03s     0.03s
Norm of vector changes alpha : rms 4.993599e-05    max 6.202221e-05
ORTHOG2a: maxq trantol 2.223580e-05 1.111111e-06
timer:       Orthonormalize     0.06s     0.06s

Iteration 6 at time 38.0s

timer:       Make densities     0.03s     0.03s
delta rho 5.911262e-05 5.911262e-05 residuals 6.464706e-05 0.000000e+00
timer:       Nuclear energy     0.01s     0.01s
timer:              Coulomb     0.21s     0.21s
timer:                V*psi     0.17s     0.17s
timer:          HF exchange     3.26s     3.26s
timer:        Truncate Vpsi     0.06s     0.06s
timer:            PE matrix     0.01s     0.01s
timer:    KEmat reconstruct     0.01s     0.01s
timer:  KEmat differentiate     0.21s     0.21s
timer:       KEmat compress     0.04s     0.04s
timer: KEmat inner products     0.03s     0.03s
timer:            KE matrix     0.29s     0.29s
timer: Make fock matrix res     0.00s     0.00s
timer: Diagonalization Fock     0.00s     0.00s
timer: Diagonalization rest     0.09s     0.09s

              kinetic     459.59345413
         nonlocal psp       0.00000000
   nuclear attraction   -1100.73016743
              coulomb     209.30963853
                  PCM       0.00000000
 exchange-correlation     -27.74911611
    nuclear-repulsion       0.00000000
                total    -459.57619089


Converged!

timer:              Overlap     0.01s     0.01s
timer:      focka eigen sol     0.00s     0.00s
timer:        Transform MOs     0.03s     0.03s
 
alpha eigenvalues
[*] -104.50604448 -10.22957844  -7.69602034  -7.69601728  -7.69601110  -0.73332567  -0.15029088  -0.15028992  -0.15028848


 Dipole Moment (a.u.)
 -----------

     x:  1.663653e-07
     y:  1.661123e-07
     z:  1.665808e-07
 Total Dipole Moment:  2.881317e-07 

timer:               dipole     0.00s     0.00s
Orbitals are eigenvectors - energies are eigenvalues

Analysis of alpha MO vectors
timer:      Analyze vectors     0.37s     0.37s
timer: Compute eigen gesv a     0.00s     0.00s
  MO   0 : occ=1.00 : energy=-104.50604448 : center=(0.00,0.00,0.00) : radius=0.11
           Cl(0)   s( 0) 0.997  
  MO   1 : occ=1.00 : energy= -10.22957844 : center=(0.00,0.00,0.00) : radius=0.48
           Cl(0)   s( 1)-1.031    Cl(0)   s( 0) 0.287  
  MO   2 : occ=1.00 : energy=  -7.69602034 : center=(0.00,0.00,0.00) : radius=0.45
           Cl(0)  pz( 4)-0.885    Cl(0)  px( 2)-0.428  
  MO   3 : occ=1.00 : energy=  -7.69601728 : center=(0.00,0.00,0.00) : radius=0.45
           Cl(0)  py( 3) 0.972  
  MO   4 : occ=1.00 : energy=  -7.69601110 : center=(0.00,0.00,0.00) : radius=0.45
           Cl(0)  px( 2) 0.894    Cl(0)  pz( 4)-0.409  
  MO   5 : occ=1.00 : energy=  -0.73332567 : center=(-0.00,-0.00,-0.00) : radius=1.74
           Cl(0)   s( 5)-0.707    Cl(0)   s( 9)-0.397    Cl(0)   s( 1) 0.374  
  MO   6 : occ=1.00 : energy=  -0.15029088 : center=(-0.00,-0.00,-0.00) : radius=2.26
           Cl(0)  px( 6) 0.476    Cl(0)  pz( 8) 0.403    Cl(0)  px(10) 0.378    Cl(0)  pz(12) 0.320    Cl(0)  px( 2)-0.192  
  MO   7 : occ=1.00 : energy=  -0.15028992 : center=(0.00,-0.00,-0.00) : radius=2.26
           Cl(0)  py( 7) 0.555    Cl(0)  py(11) 0.441    Cl(0)  px( 6)-0.262    Cl(0)  py( 3)-0.225    Cl(0)  px(10)-0.208  
  MO   8 : occ=1.00 : energy=  -0.15028848 : center=(-0.00,-0.00,0.00) : radius=2.26
           Cl(0)  pz( 8) 0.464    Cl(0)  pz(12) 0.369    Cl(0)  px( 6)-0.326    Cl(0)  py( 7)-0.283    Cl(0)  px(10)-0.259    Cl(0)  py(11)-0.225    Cl(0)  pz( 4)-0.188  

Solving NDIM= 3  with thresh 1.000000e-06     k 8    conv 1.000000e-04 

timer:     Project vnuclear     0.37s     0.37s
timer:     project ao basis     0.40s     0.40s

Iteration 0 at time 44.1s

timer:       Make densities     0.03s     0.03s
timer:       Load balancing     0.00s     0.00s
timer:       Nuclear energy     0.04s     0.04s
timer:              Coulomb     0.49s     0.49s
timer:                V*psi     0.31s     0.31s
timer:          HF exchange     7.01s     7.01s
timer:        Truncate Vpsi     0.10s     0.10s
timer:            PE matrix     0.02s     0.02s
timer:    KEmat reconstruct     0.01s     0.01s
timer:  KEmat differentiate     0.22s     0.22s
timer:       KEmat compress     0.05s     0.05s
timer: KEmat inner products     0.04s     0.04s
timer:            KE matrix     0.31s     0.31s
timer: Make fock matrix res     0.00s     0.00s
timer: Diagonalization Fock     0.00s     0.00s
timer: Diagonalization rest     0.16s     0.16s

              kinetic     459.59345059
         nonlocal psp       0.00000000
   nuclear attraction   -1100.72998529
              coulomb     209.30947785
                  PCM       0.00000000
 exchange-correlation     -27.74909191
    nuclear-repulsion       0.00000000
                total    -459.57614876

timer: Compute residual stu     0.09s     0.09s
entering apply
timer:            Apply BSH     4.27s     4.27s
timer:     Truncate new psi     0.30s     0.30s
residuals [1.764322e-04, 1.613172e-04, 2.026308e-04, 2.024998e-04, 2.026554e-04, 1.879149e-04, 2.142799e-04, 2.130401e-04, 2.139327e-04]
BSH residual: rms 1.979527e-04    max 2.142799e-04
timer:         BSH residual     0.06s     0.06s
timer: Update subspace stuf     0.03s     0.03s
Subspace solution [*]   1.00000000

timer:   Subspace transform     0.01s     0.01s
Norm of vector changes alpha : rms 1.979527e-04    max 2.142799e-04
ORTHOG2a: maxq trantol 7.398460e-06 1.111111e-08
timer:       Orthonormalize     0.12s     0.12s

Iteration 1 at time 57.9s

timer:       Make densities     0.06s     0.06s
timer:       Load balancing     0.00s     0.00s
delta rho 7.699873e-04 7.699873e-04 residuals 2.142799e-04 0.000000e+00
timer:       Nuclear energy     0.02s     0.02s
timer:              Coulomb     0.75s     0.75s
timer:                V*psi     0.26s     0.26s
timer:          HF exchange     9.38s     9.38s
timer:        Truncate Vpsi     0.09s     0.09s
timer:            PE matrix     0.02s     0.02s
timer:    KEmat reconstruct     0.02s     0.02s
timer:  KEmat differentiate     0.38s     0.38s
timer:       KEmat compress     0.08s     0.08s
timer: KEmat inner products     0.05s     0.05s
timer:            KE matrix     0.53s     0.53s
timer: Make fock matrix res     0.00s     0.00s
timer: Diagonalization Fock     0.00s     0.00s
timer: Diagonalization rest     0.14s     0.14s

              kinetic     459.58086954
         nonlocal psp       0.00000000
   nuclear attraction   -1100.71979410
              coulomb     209.31114233
                  PCM       0.00000000
 exchange-correlation     -27.74913623
    nuclear-repulsion       0.00000000
                total    -459.57691846

timer: Compute residual stu     0.07s     0.07s
entering apply
timer:            Apply BSH     4.32s     4.32s
timer:     Truncate new psi     0.30s     0.30s
residuals [1.884000e-05, 2.403432e-05, 1.512845e-05, 1.504697e-05, 1.510561e-05, 2.058480e-05, 1.551243e-05, 1.509866e-05, 1.542050e-05]
BSH residual: rms 1.746802e-05    max 2.403432e-05
timer:         BSH residual     0.06s     0.06s
timer: Update subspace stuf     0.06s     0.06s
Subspace solution [*]  -0.03676337   1.03676337

timer:   Subspace transform     0.02s     0.02s
Norm of vector changes alpha : rms 1.772544e-05    max 2.466245e-05
ORTHOG2a: maxq trantol 1.810246e-06 1.111111e-08
timer:       Orthonormalize     0.11s     0.11s

Iteration 2 at time 74.7s

timer:       Make densities     0.05s     0.05s
delta rho 2.141803e-04 2.141803e-04 residuals 2.403432e-05 0.000000e+00
timer:       Nuclear energy     0.01s     0.01s
timer:              Coulomb     0.55s     0.55s
timer:                V*psi     0.29s     0.29s
timer:          HF exchange     7.85s     7.85s
timer:        Truncate Vpsi     0.10s     0.10s
timer:            PE matrix     0.02s     0.02s
timer:    KEmat reconstruct     0.01s     0.01s
timer:  KEmat differentiate     0.31s     0.31s
timer:       KEmat compress     0.08s     0.08s
timer: KEmat inner products     0.04s     0.04s
timer:            KE matrix     0.45s     0.45s
timer: Make fock matrix res     0.00s     0.00s
timer: Diagonalization Fock     0.00s     0.00s
timer: Diagonalization rest     0.15s     0.15s

              kinetic     459.57845932
         nonlocal psp       0.00000000
   nuclear attraction   -1100.71821446
              coulomb     209.31203466
                  PCM       0.00000000
 exchange-correlation     -27.74920027
    nuclear-repulsion       0.00000000
                total    -459.57692075

timer: Compute residual stu     0.07s     0.07s
entering apply
timer:            Apply BSH     4.63s     4.63s
timer:     Truncate new psi     0.34s     0.34s
residuals [3.986625e-06, 5.458577e-06, 5.145392e-06, 4.817398e-06, 5.097582e-06, 1.782954e-06, 1.507505e-05, 1.467011e-05, 1.482743e-05]
BSH residual: rms 9.350329e-06    max 1.507505e-05
timer:         BSH residual     0.07s     0.07s
timer: Update subspace stuf     0.10s     0.10s
Subspace solution [*]   0.00274660  -0.29433081   1.29158420

timer:   Subspace transform     0.03s     0.03s
Norm of vector changes alpha : rms 1.073765e-05    max 1.719157e-05
ORTHOG2a: maxq trantol 1.360821e-06 1.111111e-08
timer:       Orthonormalize     0.12s     0.12s

Iteration 3 at time 90.1s

timer:       Make densities     0.06s     0.06s
delta rho 9.825260e-05 9.825260e-05 residuals 1.507505e-05 0.000000e+00
timer:       Nuclear energy     0.02s     0.02s
timer:              Coulomb     0.80s     0.80s
timer:                V*psi     0.33s     0.33s
timer:          HF exchange     9.29s     9.29s
timer:        Truncate Vpsi     0.11s     0.11s
timer:            PE matrix     0.02s     0.02s
timer:    KEmat reconstruct     0.03s     0.03s
timer:  KEmat differentiate     0.38s     0.38s
timer:       KEmat compress     0.08s     0.08s
timer: KEmat inner products     0.04s     0.04s
timer:            KE matrix     0.54s     0.54s
timer: Make fock matrix res     0.00s     0.00s
timer: Diagonalization Fock     0.00s     0.00s
timer: Diagonalization rest     0.15s     0.15s

              kinetic     459.57720537
         nonlocal psp       0.00000000
   nuclear attraction   -1100.71676078
              coulomb     209.31182448
                  PCM       0.00000000
 exchange-correlation     -27.74918657
    nuclear-repulsion       0.00000000
                total    -459.57691750


Converged!

timer:              Overlap     0.01s     0.01s
timer:      focka eigen sol     0.00s     0.00s
timer:        Transform MOs     0.06s     0.06s
 
alpha eigenvalues
[*] -104.50576496 -10.22946836  -7.69586721  -7.69586670  -7.69586622  -0.73338492  -0.15030719  -0.15030714  -0.15030712


 Dipole Moment (a.u.)
 -----------

     x:  -2.312689e-08
     y:  4.989067e-08
     z:  -1.290512e-07
 Total Dipole Moment:  1.402788e-07 

timer:               dipole     0.00s     0.00s
Orbitals are eigenvectors - energies are eigenvalues

Analysis of alpha MO vectors
timer:      Analyze vectors     0.66s     0.66s
timer: Compute eigen gesv a     0.00s     0.00s
  MO   0 : occ=1.00 : energy=-104.50576496 : center=(0.00,-0.00,0.00) : radius=0.11
           Cl(0)   s( 0) 0.997  
  MO   1 : occ=1.00 : energy= -10.22946836 : center=(0.00,0.00,-0.00) : radius=0.48
           Cl(0)   s( 1)-1.031    Cl(0)   s( 0) 0.287  
  MO   2 : occ=1.00 : energy=  -7.69586721 : center=(0.00,-0.00,0.00) : radius=0.45
           Cl(0)  px( 2)-0.703    Cl(0)  pz( 4)-0.552    Cl(0)  py( 3) 0.434  
  MO   3 : occ=1.00 : energy=  -7.69586670 : center=(-0.00,-0.00,0.00) : radius=0.45
           Cl(0)  py( 3)-0.889    Cl(0)  pz( 4)-0.344    Cl(0)  px( 2)-0.279  
  MO   4 : occ=1.00 : energy=  -7.69586622 : center=(0.00,0.00,-0.00) : radius=0.45
           Cl(0)  pz( 4) 0.751    Cl(0)  px( 2)-0.644  
  MO   5 : occ=1.00 : energy=  -0.73338492 : center=(-0.00,0.00,-0.00) : radius=1.74
           Cl(0)   s( 5) 0.707    Cl(0)   s( 9) 0.397    Cl(0)   s( 1)-0.374  
  MO   6 : occ=1.00 : energy=  -0.15030719 : center=(0.00,0.00,0.00) : radius=2.26
           Cl(0)  px( 6) 0.516    Cl(0)  px(10) 0.410    Cl(0)  pz( 8) 0.342    Cl(0)  pz(12) 0.272    Cl(0)  px( 2)-0.209  
  MO   7 : occ=1.00 : energy=  -0.15030714 : center=(-0.00,-0.00,0.00) : radius=2.26
           Cl(0)  pz( 8) 0.444    Cl(0)  py( 7)-0.409    Cl(0)  pz(12) 0.353    Cl(0)  py(11)-0.325    Cl(0)  px( 6)-0.190    Cl(0)  pz( 4)-0.180  
  MO   8 : occ=1.00 : energy=  -0.15030712 : center=(-0.00,-0.00,0.00) : radius=2.26
           Cl(0)  py( 7) 0.465    Cl(0)  py(11) 0.369    Cl(0)  px( 6)-0.314    Cl(0)  pz( 8) 0.294    Cl(0)  px(10)-0.249    Cl(0)  pz(12) 0.234    Cl(0)  py( 3)-0.188  
timer:          derivatives     0.77s     0.77s

 Derivatives (a.u.)
 -----------

  atom        x            y            z          dE/dx        dE/dy        dE/dz
 ------ ------------ ------------ ------------ ------------ ------------ ------------
     0     0.000000     0.000000     0.000000    -0.000001    -0.000001     0.000001
timer:             plotting     0.00s     0.00s

    Parallel environment
    --------------------
                  #nodes    1
       #threads per node    13+main = 14
          #total threads    14

  RMI message statistics (min / avg / max)
  ----------------------
   #messages in server q    0.00e+00 / 0.00e+00 / 0.00e+00
 #messages sent per node    0.00e+00 / 0.00e+00 / 0.00e+00
    #bytes sent per node    0.00e+00 / 0.00e+00 / 0.00e+00
 #messages recv per node    0.00e+00 / 0.00e+00 / 0.00e+00
    #bytes recv per node    0.00e+00 / 0.00e+00 / 0.00e+00
        #msgs systemwide    0.00e+00
       #bytes systemwide    0.00e+00

  Thread pool statistics (min / avg / max)
  ----------------------
         #tasks per node    0.00e+00 / 0.00e+00 / 0.00e+00
     #max q len per node    0.00e+00 / 0.00e+00 / 0.00e+00
  #hi-pri tasks per node    0.00e+00 / 0.00e+00 / 0.00e+00

         Total wall time    103.9s
         Total  cpu time    104.0s

