MADNESS runtime initialized with 13 threads in the pool and affinity -1 -1 -1

--------------------------------------------
   MADNESS 0.10.1 multiresolution suite
--------------------------------------------

   number of processors ... 1
    processor frequency ... 2.094986e+09
            host system ... linux-gnu
          configured by ... bsundahl
          configured on ... login
          configured at ... Mon May 21 11:22:55 EDT 2018
                    CXX ... mpicxx
               CXXFLAGS ...  -O3 -Wall -Wno-strict-aliasing -Wno-deprecated -Wno-unused-local-typedefs  -ffast-math -march=native
             tuning for ... default
                    MPI ... multiple
 multi-threaded runtime ... Intel TBB
                   BLAS ... Intel MKL 22387 22387 MFLOP/s
               compiled ... 11:23:28  on  May 21 2018
input filename:  Cl.mdns

Angstrom being used to read input coordinates (1 Bohr = 1.88972613 Angstrom)

Cubic point group

 The point group is D2h

Construct XC Functional from LIBXC Library

input line was:  b3lyp 
 1.000 hyb_gga_xc_b3lyp 
 0.200 HF exchange 

screening parameters
 rhotol, rhomin 1.000000e-07 0.000000e+00
         ggatol 1.000000e-04
polarized  false 


Solving NDIM= 3  with thresh 1.000000e-05     k 8    conv 1.000000e-04 




 MADNESS Hartree-Fock and Density Functional Theory Program
 ----------------------------------------------------------



 geometry
   eprec 1.0e-06
   units atomic
   Cl            0.00000000           0.00000000           0.00000000
 end


             restart  false
    restart from AOs  false
 number of processes  1
   no. of io servers  1
   vnuc load bal fac  12
      load bal parts  2
     simulation cube  -5.000000e+01 5.000000e+01
        total charge  -1.000000e+00
            smearing  0.000000e+00
 number of electrons  9 9
  number of orbitals  9 9
     spin restricted  true
       xc functional   b3lyp 
          xc library  libxc
 initial guess basis  6-31g
 max krylov subspace  5
    compute protocol  [1.000000e-04, 1.000000e-06]
  energy convergence  1.000000e-05
 density convergence  1.000000e-04
    maximum rotation  2.500000e-01
    polynomial order  -1
       truncate mode  1
  maximum iterations  20
 Convergence criteria are density delta & BSH residual.
        plot density  false
        plot coulomb  false
        plot orbital  0 -1
        plot npoints  101
        plot  volume  default
  canonical orbitals 
    calc derivatives 
 psp or all electron  all electron
timer:           initialize     0.41s     0.41s

Solving NDIM= 3  with thresh 1.000000e-04     k 6    conv 1.000000e-04 


Solving NDIM= 3  with thresh 1.000000e-04     k 6    conv 1.000000e-04 

timer:     Project vnuclear     0.28s     0.28s
timer:     project ao basis     0.25s     0.25s
guess dens trace 1.699990e+01
timer:        guess density     0.37s     0.37s
timer:   guess Coulomb potn     0.49s     0.49s
timer:       guess lda potn     0.18s     0.18s
timer:        guess overlap     0.01s     0.01s
timer:    KEmat reconstruct     0.01s     0.01s
timer:  KEmat differentiate     0.25s     0.25s
timer:       KEmat compress     0.05s     0.05s
timer: KEmat inner products     0.03s     0.03s
timer:     guess Kinet potn     0.34s     0.34s
timer:           guess fock     0.47s     0.47s
timer:      guess eigen sol     0.00s     0.00s
grouping alpha orbitals into sets
set  0    0  -  0
set  1    1  -  1
set  2    2  -  4
set  3    5  -  8
timer: guess orbital groupi     0.03s     0.03s
timer:     project ao basis     0.29s     0.29s

Iteration 0 at time 3.4s

timer:       Make densities     0.03s     0.03s
timer:       Load balancing     0.00s     0.00s
timer:       Nuclear energy     0.01s     0.01s
timer:              Coulomb     0.18s     0.18s
timer:        DFT potential     0.55s     0.55s
timer:                V*psi     0.27s     0.27s
timer:          HF exchange     3.70s     3.70s
timer:        Truncate Vpsi     0.11s     0.11s
timer:            PE matrix     0.02s     0.02s
timer:    KEmat reconstruct     0.01s     0.01s
timer:  KEmat differentiate     0.20s     0.20s
timer:       KEmat compress     0.05s     0.05s
timer: KEmat inner products     0.03s     0.03s
timer:            KE matrix     0.28s     0.28s
timer: Make fock matrix res     0.00s     0.00s
timer: Diagonalization Fock     0.00s     0.00s
timer: Diagonalization rest     0.14s     0.14s

              kinetic     461.42921888
         nonlocal psp       0.00000000
   nuclear attraction   -1106.43930372
              coulomb     213.58038132
                  PCM       0.00000000
 exchange-correlation     -28.76908005
    nuclear-repulsion       0.00000000
                total    -460.19878357

timer: Compute residual stu     0.04s     0.04s
entering apply
timer:            Apply BSH     1.55s     1.55s
timer:     Truncate new psi     0.14s     0.14s
residuals [4.221369e-03, 8.823544e-03, 7.058750e-03, 7.059597e-03, 7.061172e-03, 1.146007e-01, 3.777526e-01, 3.777542e-01, 3.777538e-01]
BSH residual: rms 2.214778e-01    max 3.777542e-01
timer:         BSH residual     0.03s     0.03s
timer: Update subspace stuf     0.03s     0.03s
Subspace solution [*]   1.00000000

timer:   Subspace transform     0.00s     0.00s
  restricting step for alpha orbitals: 6 7 8
Norm of vector changes alpha : rms 2.214778e-01    max 3.777542e-01
ORTHOG2a: maxq trantol 6.763125e-04 1.111111e-06
timer:       Orthonormalize     0.06s     0.06s

Iteration 1 at time 10.9s

timer:       Make densities     0.03s     0.03s
timer:       Load balancing     0.00s     0.00s
delta rho 1.015879e-01 1.015879e-01 residuals 3.777542e-01 0.000000e+00
timer:       Nuclear energy     0.01s     0.01s
timer:              Coulomb     0.21s     0.21s
timer:        DFT potential     0.62s     0.62s
timer:                V*psi     0.26s     0.26s
timer:          HF exchange     3.12s     3.12s
timer:        Truncate Vpsi     0.11s     0.11s
timer:            PE matrix     0.01s     0.01s
timer:    KEmat reconstruct     0.01s     0.01s
timer:  KEmat differentiate     0.19s     0.19s
timer:       KEmat compress     0.04s     0.04s
timer: KEmat inner products     0.03s     0.03s
timer:            KE matrix     0.27s     0.27s
timer: Make fock matrix res     0.00s     0.00s
timer: Diagonalization Fock     0.00s     0.00s
timer: Diagonalization rest     0.13s     0.13s

              kinetic     457.30112737
         nonlocal psp       0.00000000
   nuclear attraction   -1095.27037044
              coulomb     205.90274217
                  PCM       0.00000000
 exchange-correlation     -28.21437021
    nuclear-repulsion       0.00000000
                total    -460.28087112

timer: Compute residual stu     0.04s     0.04s
entering apply
timer:            Apply BSH     1.41s     1.41s
timer:     Truncate new psi     0.13s     0.13s
residuals [2.420587e-04, 1.072649e-03, 2.738584e-03, 2.738512e-03, 2.738777e-03, 9.313613e-02, 1.952086e-01, 1.952088e-01, 1.952087e-01]
BSH residual: rms 1.169128e-01    max 1.952088e-01
timer:         BSH residual     0.03s     0.03s
timer: Update subspace stuf     0.05s     0.05s
Subspace solution [*]   0.35356764   0.64643236

timer:   Subspace transform     0.01s     0.01s
Norm of vector changes alpha : rms 4.601109e-02    max 7.299407e-02
ORTHOG2a: maxq trantol 2.423449e-03 1.111111e-06
timer:       Orthonormalize     0.06s     0.06s

Iteration 2 at time 17.8s

timer:       Make densities     0.03s     0.03s
delta rho 4.334209e-02 4.334209e-02 residuals 1.952088e-01 0.000000e+00
timer:       Nuclear energy     0.01s     0.01s
timer:              Coulomb     0.21s     0.21s
timer:        DFT potential     0.61s     0.61s
timer:                V*psi     0.29s     0.29s
timer:          HF exchange     3.22s     3.22s
timer:        Truncate Vpsi     0.11s     0.11s
timer:            PE matrix     0.01s     0.01s
timer:    KEmat reconstruct     0.01s     0.01s
timer:  KEmat differentiate     0.19s     0.19s
timer:       KEmat compress     0.04s     0.04s
timer: KEmat inner products     0.03s     0.03s
timer:            KE matrix     0.27s     0.27s
timer: Make fock matrix res     0.00s     0.00s
timer: Diagonalization Fock     0.00s     0.00s
timer: Diagonalization rest     0.11s     0.11s

              kinetic     459.16806310
         nonlocal psp       0.00000000
   nuclear attraction   -1100.09632886
              coulomb     209.05091347
                  PCM       0.00000000
 exchange-correlation     -28.43848789
    nuclear-repulsion       0.00000000
                total    -460.31584018

timer: Compute residual stu     0.04s     0.04s
entering apply
timer:            Apply BSH     1.50s     1.50s
timer:     Truncate new psi     0.13s     0.13s
residuals [1.406419e-04, 6.322062e-04, 6.562130e-04, 6.551917e-04, 6.612467e-04, 1.299784e-02, 1.073163e-02, 1.073326e-02, 1.073302e-02]
BSH residual: rms 7.573557e-03    max 1.299784e-02
timer:         BSH residual     0.03s     0.03s
timer: Update subspace stuf     0.08s     0.08s
Subspace solution [*]   0.02110745   0.04005846   0.93883409

timer:   Subspace transform     0.02s     0.02s
Norm of vector changes alpha : rms 7.060926e-03    max 1.237190e-02
ORTHOG2a: maxq trantol 6.937024e-04 1.111111e-06
timer:       Orthonormalize     0.06s     0.06s

Iteration 3 at time 25.0s

timer:       Make densities     0.03s     0.03s
delta rho 9.262366e-03 9.262366e-03 residuals 1.299784e-02 0.000000e+00
timer:       Nuclear energy     0.00s     0.00s
timer:              Coulomb     0.19s     0.19s
timer:        DFT potential     0.58s     0.58s
timer:                V*psi     0.25s     0.25s
timer:          HF exchange     3.10s     3.10s
timer:        Truncate Vpsi     0.10s     0.10s
timer:            PE matrix     0.02s     0.02s
timer:    KEmat reconstruct     0.01s     0.01s
timer:  KEmat differentiate     0.19s     0.19s
timer:       KEmat compress     0.04s     0.04s
timer: KEmat inner products     0.03s     0.03s
timer:            KE matrix     0.27s     0.27s
timer: Make fock matrix res     0.00s     0.00s
timer: Diagonalization Fock     0.00s     0.00s
timer: Diagonalization rest     0.11s     0.11s

              kinetic     459.56599968
         nonlocal psp       0.00000000
   nuclear attraction   -1100.82523110
              coulomb     209.40671599
                  PCM       0.00000000
 exchange-correlation     -28.46427618
    nuclear-repulsion       0.00000000
                total    -460.31679160

timer: Compute residual stu     0.04s     0.04s
entering apply
timer:            Apply BSH     1.50s     1.50s
timer:     Truncate new psi     0.13s     0.13s
residuals [6.812185e-05, 4.546480e-04, 3.299050e-04, 3.302870e-04, 3.305060e-04, 2.532983e-03, 1.301514e-02, 1.301317e-02, 1.301318e-02]
BSH residual: rms 7.564785e-03    max 1.301514e-02
timer:         BSH residual     0.03s     0.03s
timer: Update subspace stuf     0.11s     0.11s
Subspace solution [*]  -0.04065852  -0.00014047  -0.10677840   1.14757738

timer:   Subspace transform     0.02s     0.02s
Norm of vector changes alpha : rms 3.563255e-03    max 6.091095e-03
ORTHOG2a: maxq trantol 7.718036e-05 1.111111e-06
timer:       Orthonormalize     0.06s     0.06s

Iteration 4 at time 31.9s

timer:       Make densities     0.03s     0.03s
delta rho 3.332165e-03 3.332165e-03 residuals 1.301514e-02 0.000000e+00
timer:       Nuclear energy     0.01s     0.01s
timer:              Coulomb     0.21s     0.21s
timer:        DFT potential     0.60s     0.60s
timer:                V*psi     0.27s     0.27s
timer:          HF exchange     3.23s     3.23s
timer:        Truncate Vpsi     0.10s     0.10s
timer:            PE matrix     0.02s     0.02s
timer:    KEmat reconstruct     0.01s     0.01s
timer:  KEmat differentiate     0.19s     0.19s
timer:       KEmat compress     0.05s     0.05s
timer: KEmat inner products     0.03s     0.03s
timer:            KE matrix     0.27s     0.27s
timer: Make fock matrix res     0.00s     0.00s
timer: Diagonalization Fock     0.00s     0.00s
timer: Diagonalization rest     0.12s     0.12s

              kinetic     459.61320021
         nonlocal psp       0.00000000
   nuclear attraction   -1100.75953453
              coulomb     209.28532431
                  PCM       0.00000000
 exchange-correlation     -28.45601925
    nuclear-repulsion       0.00000000
                total    -460.31702926

timer: Compute residual stu     0.04s     0.04s
entering apply
timer:            Apply BSH     1.52s     1.52s
timer:     Truncate new psi     0.14s     0.14s
residuals [4.307315e-05, 1.802002e-04, 1.190706e-04, 1.203991e-04, 1.132978e-04, 7.000332e-04, 5.176664e-03, 5.175947e-03, 5.175144e-03]
BSH residual: rms 2.998820e-03    max 5.176664e-03
timer:         BSH residual     0.03s     0.03s
timer: Update subspace stuf     0.14s     0.14s
Subspace solution [*]   0.04734774  -0.04371772   0.54061359  -1.39548329   1.85123968

timer:   Subspace transform     0.02s     0.02s
Norm of vector changes alpha : rms 4.070430e-03    max 6.971869e-03
ORTHOG2a: maxq trantol 6.724816e-05 1.111111e-06
timer:       Orthonormalize     0.06s     0.06s

Iteration 5 at time 39.1s

timer:       Make densities     0.03s     0.03s
delta rho 1.283215e-03 1.283215e-03 residuals 5.176664e-03 0.000000e+00
timer:       Nuclear energy     0.01s     0.01s
timer:              Coulomb     0.18s     0.18s
timer:        DFT potential     0.58s     0.58s
timer:                V*psi     0.27s     0.27s
timer:          HF exchange     3.23s     3.23s
timer:        Truncate Vpsi     0.10s     0.10s
timer:            PE matrix     0.02s     0.02s
timer:    KEmat reconstruct     0.01s     0.01s
timer:  KEmat differentiate     0.19s     0.19s
timer:       KEmat compress     0.05s     0.05s
timer: KEmat inner products     0.03s     0.03s
timer:            KE matrix     0.28s     0.28s
timer: Make fock matrix res     0.00s     0.00s
timer: Diagonalization Fock     0.00s     0.00s
timer: Diagonalization rest     0.11s     0.11s

              kinetic     459.65003111
         nonlocal psp       0.00000000
   nuclear attraction   -1100.88360205
              coulomb     209.37928807
                  PCM       0.00000000
 exchange-correlation     -28.46270709
    nuclear-repulsion       0.00000000
                total    -460.31698996

timer: Compute residual stu     0.04s     0.04s
entering apply
timer:            Apply BSH     1.49s     1.49s
timer:     Truncate new psi     0.14s     0.14s
residuals [3.550304e-05, 1.485325e-04, 9.080523e-05, 8.670372e-05, 7.648403e-05, 2.621005e-04, 1.029407e-02, 1.028968e-02, 1.029141e-02]
BSH residual: rms 5.942990e-03    max 1.029407e-02
timer:         BSH residual     0.03s     0.03s
timer: Update subspace stuf     0.14s     0.14s
Subspace solution [*]   0.01131056  -0.04915446   0.04333728   0.54781778   0.44668884

timer:   Subspace transform     0.02s     0.02s
Norm of vector changes alpha : rms 2.776142e-03    max 4.784691e-03
ORTHOG2a: maxq trantol 4.081098e-05 1.111111e-06
timer:       Orthonormalize     0.06s     0.06s

Iteration 6 at time 46.2s

timer:       Make densities     0.03s     0.03s
delta rho 6.988359e-04 6.988359e-04 residuals 1.029407e-02 0.000000e+00
timer:       Nuclear energy     0.01s     0.01s
timer:              Coulomb     0.19s     0.19s
timer:        DFT potential     0.62s     0.62s
timer:                V*psi     0.26s     0.26s
timer:          HF exchange     3.18s     3.18s
timer:        Truncate Vpsi     0.11s     0.11s
timer:            PE matrix     0.02s     0.02s
timer:    KEmat reconstruct     0.01s     0.01s
timer:  KEmat differentiate     0.20s     0.20s
timer:       KEmat compress     0.05s     0.05s
timer: KEmat inner products     0.03s     0.03s
timer:            KE matrix     0.29s     0.29s
timer: Make fock matrix res     0.00s     0.00s
timer: Diagonalization Fock     0.00s     0.00s
timer: Diagonalization rest     0.11s     0.11s

              kinetic     459.64335701
         nonlocal psp       0.00000000
   nuclear attraction   -1100.81514116
              coulomb     209.31284198
                  PCM       0.00000000
 exchange-correlation     -28.45812015
    nuclear-repulsion       0.00000000
                total    -460.31706232

timer: Compute residual stu     0.04s     0.04s
entering apply
timer:            Apply BSH     1.51s     1.51s
timer:     Truncate new psi     0.14s     0.14s
residuals [2.701238e-05, 1.241810e-04, 5.404311e-05, 5.420212e-05, 5.433369e-05, 1.435008e-04, 8.588981e-04, 8.576514e-04, 8.608729e-04]
BSH residual: rms 5.011019e-04    max 8.608729e-04
timer:         BSH residual     0.05s     0.05s
timer: Update subspace stuf     0.14s     0.14s
Subspace solution [*]  -0.02012563  -0.02300329  -0.00112753   0.10860183   0.93565461

timer:   Subspace transform     0.03s     0.03s
Norm of vector changes alpha : rms 1.876874e-04    max 3.080260e-04
ORTHOG2a: maxq trantol 5.949198e-05 1.111111e-06
timer:       Orthonormalize     0.06s     0.06s

Iteration 7 at time 53.4s

timer:       Make densities     0.03s     0.03s
delta rho 5.405049e-04 5.405049e-04 residuals 8.608729e-04 0.000000e+00
timer:       Nuclear energy     0.01s     0.01s
timer:              Coulomb     0.18s     0.18s
timer:        DFT potential     0.61s     0.61s
timer:                V*psi     0.28s     0.28s
timer:          HF exchange     3.11s     3.11s
timer:        Truncate Vpsi     0.10s     0.10s
timer:            PE matrix     0.02s     0.02s
timer:    KEmat reconstruct     0.01s     0.01s
timer:  KEmat differentiate     0.19s     0.19s
timer:       KEmat compress     0.04s     0.04s
timer: KEmat inner products     0.03s     0.03s
timer:            KE matrix     0.27s     0.27s
timer: Make fock matrix res     0.00s     0.00s
timer: Diagonalization Fock     0.00s     0.00s
timer: Diagonalization rest     0.12s     0.12s

              kinetic     459.66076757
         nonlocal psp       0.00000000
   nuclear attraction   -1100.84345745
              coulomb     209.32466811
                  PCM       0.00000000
 exchange-correlation     -28.45904131
    nuclear-repulsion       0.00000000
                total    -460.31706308

timer: Compute residual stu     0.04s     0.04s
entering apply
timer:            Apply BSH     1.52s     1.52s
timer:     Truncate new psi     0.15s     0.15s
residuals [2.016946e-05, 9.332271e-05, 2.516846e-05, 2.524157e-05, 2.541713e-05, 4.731291e-05, 4.046418e-05, 3.991076e-05, 4.023499e-05]
BSH residual: rms 4.487035e-05    max 9.332271e-05
timer:         BSH residual     0.04s     0.04s
timer: Update subspace stuf     0.14s     0.14s
Subspace solution [*]   0.00379812  -0.05203303  -0.03484962  -0.03134208   1.11442662

timer:   Subspace transform     0.02s     0.02s
Norm of vector changes alpha : rms 4.637245e-05    max 9.169012e-05
ORTHOG2a: maxq trantol 5.897965e-05 1.111111e-06
timer:       Orthonormalize     0.06s     0.06s

Iteration 8 at time 60.5s

timer:       Make densities     0.03s     0.03s
delta rho 1.963686e-04 1.963686e-04 residuals 9.332271e-05 0.000000e+00
timer:       Nuclear energy     0.01s     0.01s
timer:              Coulomb     0.19s     0.19s
timer:        DFT potential     0.59s     0.59s
timer:                V*psi     0.25s     0.25s
timer:          HF exchange     3.11s     3.11s
timer:        Truncate Vpsi     0.11s     0.11s
timer:            PE matrix     0.02s     0.02s
timer:    KEmat reconstruct     0.01s     0.01s
timer:  KEmat differentiate     0.20s     0.20s
timer:       KEmat compress     0.05s     0.05s
timer: KEmat inner products     0.03s     0.03s
timer:            KE matrix     0.28s     0.28s
timer: Make fock matrix res     0.00s     0.00s
timer: Diagonalization Fock     0.00s     0.00s
timer: Diagonalization rest     0.11s     0.11s

              kinetic     459.66629900
         nonlocal psp       0.00000000
   nuclear attraction   -1100.85050202
              coulomb     209.32636335
                  PCM       0.00000000
 exchange-correlation     -28.45922402
    nuclear-repulsion       0.00000000
                total    -460.31706369

timer: Compute residual stu     0.04s     0.04s
entering apply
timer:            Apply BSH     1.49s     1.49s
timer:     Truncate new psi     0.14s     0.14s
residuals [1.881370e-05, 9.152857e-05, 2.013455e-05, 2.019847e-05, 2.306973e-05, 4.379684e-05, 1.849984e-05, 1.771953e-05, 1.929879e-05]
BSH residual: rms 3.804071e-05    max 9.152857e-05
timer:         BSH residual     0.03s     0.03s
timer: Update subspace stuf     0.14s     0.14s
Subspace solution [*]  -0.01073729  -0.00732457  -0.01649702   0.07263200   0.96192688

timer:   Subspace transform     0.02s     0.02s
Norm of vector changes alpha : rms 3.804986e-05    max 9.098675e-05
ORTHOG2a: maxq trantol 5.800293e-05 1.111111e-06
timer:       Orthonormalize     0.06s     0.06s

Iteration 9 at time 67.5s

timer:       Make densities     0.03s     0.03s
delta rho 4.779298e-05 4.779298e-05 residuals 9.152857e-05 0.000000e+00
timer:       Nuclear energy     0.01s     0.01s
timer:              Coulomb     0.19s     0.19s
timer:        DFT potential     0.59s     0.59s
timer:                V*psi     0.26s     0.26s
timer:          HF exchange     3.09s     3.09s
timer:        Truncate Vpsi     0.11s     0.11s
timer:            PE matrix     0.02s     0.02s
timer:    KEmat reconstruct     0.01s     0.01s
timer:  KEmat differentiate     0.20s     0.20s
timer:       KEmat compress     0.05s     0.05s
timer: KEmat inner products     0.03s     0.03s
timer:            KE matrix     0.28s     0.28s
timer: Make fock matrix res     0.00s     0.00s
timer: Diagonalization Fock     0.00s     0.00s
timer: Diagonalization rest     0.11s     0.11s

              kinetic     459.66683393
         nonlocal psp       0.00000000
   nuclear attraction   -1100.85106448
              coulomb     209.32639807
                  PCM       0.00000000
 exchange-correlation     -28.45923105
    nuclear-repulsion       0.00000000
                total    -460.31706353


Converged!

timer:              Overlap     0.01s     0.01s
timer:      focka eigen sol     0.00s     0.00s
timer:        Transform MOs     0.03s     0.03s
 
alpha eigenvalues
[*] -101.20106994  -9.13556855  -6.89169469  -6.89168427  -6.89167875  -0.48182972  -0.02914768  -0.02914752  -0.02914741


 Dipole Moment (a.u.)
 -----------

     x:  1.398105e-05
     y:  -7.037693e-07
     z:  5.434402e-06
 Total Dipole Moment:  1.501658e-05 

timer:               dipole     0.00s     0.00s
Orbitals are eigenvectors - energies are eigenvalues

Analysis of alpha MO vectors
timer:      Analyze vectors     0.37s     0.37s
timer: Compute eigen gesv a     0.00s     0.00s
  MO   0 : occ=1.00 : energy=-101.20106994 : center=(0.00,0.00,0.00) : radius=0.11
           Cl(0)   s( 0)-0.997  
  MO   1 : occ=1.00 : energy=  -9.13556855 : center=(-0.00,0.00,-0.00) : radius=0.49
           Cl(0)   s( 1)-1.028    Cl(0)   s( 0) 0.286  
  MO   2 : occ=1.00 : energy=  -6.89169469 : center=(-0.00,-0.00,-0.00) : radius=0.45
           Cl(0)  py( 3)-0.725    Cl(0)  px( 2)-0.654  
  MO   3 : occ=1.00 : energy=  -6.89168427 : center=(-0.00,0.00,-0.00) : radius=0.45
           Cl(0)  pz( 4)-0.957    Cl(0)  py( 3) 0.256  
  MO   4 : occ=1.00 : energy=  -6.89167875 : center=(-0.00,0.00,0.00) : radius=0.45
           Cl(0)  px( 2) 0.743    Cl(0)  py( 3)-0.625  
  MO   5 : occ=1.00 : energy=  -0.48182972 : center=(-0.00,0.00,0.00) : radius=1.71
           Cl(0)   s( 5) 0.730    Cl(0)   s( 1)-0.384    Cl(0)   s( 9) 0.372  
  MO   6 : occ=1.00 : energy=  -0.02914768 : center=(-0.00,-0.00,-0.00) : radius=2.32
           Cl(0)  pz( 8) 0.467    Cl(0)  py( 7) 0.390    Cl(0)  pz(12) 0.376    Cl(0)  py(11) 0.313    Cl(0)  pz( 4)-0.193  
  MO   7 : occ=1.00 : energy=  -0.02914752 : center=(-0.00,0.00,-0.00) : radius=2.32
           Cl(0)  py( 7)-0.469    Cl(0)  py(11)-0.377    Cl(0)  px( 6) 0.301    Cl(0)  pz( 8) 0.290    Cl(0)  px(10) 0.242    Cl(0)  pz(12) 0.233    Cl(0)  py( 3) 0.193  
  MO   8 : occ=1.00 : energy=  -0.02914741 : center=(0.00,0.00,-0.00) : radius=2.32
           Cl(0)  px( 6) 0.528    Cl(0)  px(10) 0.425    Cl(0)  pz( 8)-0.304    Cl(0)  pz(12)-0.245    Cl(0)  px( 2)-0.218  

Solving NDIM= 3  with thresh 1.000000e-06     k 8    conv 1.000000e-04 

timer:     Project vnuclear     0.36s     0.36s
timer:     project ao basis     0.39s     0.39s

Iteration 0 at time 74.1s

timer:       Make densities     0.03s     0.03s
timer:       Load balancing     0.00s     0.00s
timer:       Nuclear energy     0.03s     0.03s
timer:              Coulomb     0.49s     0.49s
timer:        DFT potential     0.90s     0.90s
timer:                V*psi     0.45s     0.45s
timer:          HF exchange     7.24s     7.24s
timer:        Truncate Vpsi     0.16s     0.16s
timer:            PE matrix     0.02s     0.02s
timer:    KEmat reconstruct     0.01s     0.01s
timer:  KEmat differentiate     0.21s     0.21s
timer:       KEmat compress     0.06s     0.06s
timer: KEmat inner products     0.04s     0.04s
timer:            KE matrix     0.31s     0.31s
timer: Make fock matrix res     0.00s     0.00s
timer: Diagonalization Fock     0.00s     0.00s
timer: Diagonalization rest     0.20s     0.20s

              kinetic     459.66641299
         nonlocal psp       0.00000000
   nuclear attraction   -1100.85029755
              coulomb     209.32610162
                  PCM       0.00000000
 exchange-correlation     -28.45920948
    nuclear-repulsion       0.00000000
                total    -460.31699242

timer: Compute residual stu     0.11s     0.11s
entering apply
timer:            Apply BSH     7.19s     7.19s
timer:     Truncate new psi     0.44s     0.44s
residuals [1.761830e-04, 1.607673e-04, 2.027993e-04, 2.025772e-04, 2.022659e-04, 2.127084e-04, 2.147710e-04, 2.143057e-04, 2.140935e-04]
BSH residual: rms 2.008586e-04    max 2.147710e-04
timer:         BSH residual     0.08s     0.08s
timer: Update subspace stuf     0.03s     0.03s
Subspace solution [*]   1.00000000

timer:   Subspace transform     0.02s     0.02s
Norm of vector changes alpha : rms 2.008586e-04    max 2.147710e-04
ORTHOG2a: maxq trantol 4.623441e-06 1.111111e-08
timer:       Orthonormalize     0.14s     0.14s

Iteration 1 at time 92.4s

timer:       Make densities     0.08s     0.08s
timer:       Load balancing     0.00s     0.00s
delta rho 8.108010e-04 8.108010e-04 residuals 2.147710e-04 0.000000e+00
timer:       Nuclear energy     0.04s     0.04s
timer:              Coulomb     1.09s     1.09s
timer:        DFT potential     2.67s     2.67s
timer:                V*psi     0.72s     0.72s
timer:          HF exchange    12.19s    12.19s
timer:        Truncate Vpsi     0.27s     0.27s
timer:            PE matrix     0.04s     0.04s
timer:    KEmat reconstruct     0.03s     0.03s
timer:  KEmat differentiate     0.44s     0.44s
timer:       KEmat compress     0.13s     0.13s
timer: KEmat inner products     0.05s     0.05s
timer:            KE matrix     0.65s     0.65s
timer: Make fock matrix res     0.00s     0.00s
timer: Diagonalization Fock     0.00s     0.00s
timer: Diagonalization rest     0.54s     0.54s

              kinetic     459.64863855
         nonlocal psp       0.00000000
   nuclear attraction   -1100.83320643
              coulomb     209.32578637
                  PCM       0.00000000
 exchange-correlation     -28.45897912
    nuclear-repulsion       0.00000000
                total    -460.31776063

timer: Compute residual stu     0.26s     0.26s
entering apply
timer:            Apply BSH    18.39s    18.39s
timer:     Truncate new psi     1.10s     1.10s
residuals [1.895134e-05, 1.658983e-05, 9.383858e-06, 9.577756e-06, 9.612067e-06, 2.938361e-05, 4.527150e-05, 4.611398e-05, 4.608856e-05]
BSH residual: rms 2.994461e-05    max 4.611398e-05
timer:         BSH residual     0.12s     0.12s
timer: Update subspace stuf     0.08s     0.08s
Subspace solution [*]   0.00372530   0.99627470

timer:   Subspace transform     0.03s     0.03s
Norm of vector changes alpha : rms 2.983161e-05    max 4.594268e-05
ORTHOG2a: maxq trantol 2.033612e-06 1.111111e-08
timer:       Orthonormalize     0.13s     0.13s

Iteration 2 at time 131.9s

timer:       Make densities     0.05s     0.05s
delta rho 2.187313e-04 2.187313e-04 residuals 4.611398e-05 0.000000e+00
timer:       Nuclear energy     0.02s     0.02s
timer:              Coulomb     0.58s     0.58s
timer:        DFT potential     1.39s     1.39s
timer:                V*psi     0.46s     0.46s
timer:          HF exchange     8.06s     8.06s
timer:        Truncate Vpsi     0.17s     0.17s
timer:            PE matrix     0.02s     0.02s
timer:    KEmat reconstruct     0.01s     0.01s
timer:  KEmat differentiate     0.29s     0.29s
timer:       KEmat compress     0.07s     0.07s
timer: KEmat inner products     0.04s     0.04s
timer:            KE matrix     0.41s     0.41s
timer: Make fock matrix res     0.00s     0.00s
timer: Diagonalization Fock     0.00s     0.00s
timer: Diagonalization rest     0.24s     0.24s

              kinetic     459.64601381
         nonlocal psp       0.00000000
   nuclear attraction   -1100.83238094
              coulomb     209.32767984
                  PCM       0.00000000
 exchange-correlation     -28.45907829
    nuclear-repulsion       0.00000000
                total    -460.31776559

timer: Compute residual stu     0.14s     0.14s
entering apply
timer:            Apply BSH     8.56s     8.56s
timer:     Truncate new psi     0.57s     0.57s
residuals [4.617149e-06, 3.898723e-06, 2.112169e-06, 2.151859e-06, 2.180811e-06, 1.805567e-05, 9.989543e-05, 1.002976e-04, 9.995174e-05]
BSH residual: rms 5.812384e-05    max 1.002976e-04
timer:         BSH residual     0.09s     0.09s
timer: Update subspace stuf     0.11s     0.11s
Subspace solution [*]   0.00142003   0.61225780   0.38632217

timer:   Subspace transform     0.05s     0.05s
Norm of vector changes alpha : rms 2.077784e-05    max 3.553711e-05
ORTHOG2a: maxq trantol 1.087703e-06 1.111111e-08
timer:       Orthonormalize     0.14s     0.14s

Iteration 3 at time 153.7s

timer:       Make densities     0.06s     0.06s
delta rho 3.276484e-05 3.276484e-05 residuals 1.002976e-04 0.000000e+00
timer:       Nuclear energy     0.02s     0.02s
timer:              Coulomb     0.57s     0.57s
timer:        DFT potential     1.53s     1.53s
timer:                V*psi     0.51s     0.51s
timer:          HF exchange     7.95s     7.95s
timer:        Truncate Vpsi     0.18s     0.18s
timer:            PE matrix     0.03s     0.03s
timer:    KEmat reconstruct     0.02s     0.02s
timer:  KEmat differentiate     0.32s     0.32s
timer:       KEmat compress     0.09s     0.09s
timer: KEmat inner products     0.05s     0.05s
timer:            KE matrix     0.48s     0.48s
timer: Make fock matrix res     0.00s     0.00s
timer: Diagonalization Fock     0.00s     0.00s
timer: Diagonalization rest     0.26s     0.26s

              kinetic     459.64504855
         nonlocal psp       0.00000000
   nuclear attraction   -1100.83046449
              coulomb     209.32665139
                  PCM       0.00000000
 exchange-correlation     -28.45900099
    nuclear-repulsion       0.00000000
                total    -460.31776554


Converged!

timer:              Overlap     0.02s     0.02s
timer:      focka eigen sol     0.00s     0.00s
timer:        Transform MOs     0.05s     0.05s
 
alpha eigenvalues
[*] -101.20131628  -9.13554143  -6.89163309  -6.89163257  -6.89163175  -0.48187234  -0.02916791  -0.02916790  -0.02916786


 Dipole Moment (a.u.)
 -----------

     x:  1.621598e-06
     y:  -1.714154e-07
     z:  1.552427e-06
 Total Dipole Moment:  2.251442e-06 

timer:               dipole     0.00s     0.00s
Orbitals are eigenvectors - energies are eigenvalues

Analysis of alpha MO vectors
timer:      Analyze vectors     0.57s     0.57s
timer: Compute eigen gesv a     0.00s     0.00s
  MO   0 : occ=1.00 : energy=-101.20131628 : center=(0.00,-0.00,0.00) : radius=0.11
           Cl(0)   s( 0) 0.996  
  MO   1 : occ=1.00 : energy=  -9.13554143 : center=(0.00,-0.00,-0.00) : radius=0.49
           Cl(0)   s( 1) 1.027    Cl(0)   s( 0)-0.286  
  MO   2 : occ=1.00 : energy=  -6.89163309 : center=(0.00,0.00,-0.00) : radius=0.45
           Cl(0)  py( 3)-0.763    Cl(0)  pz( 4) 0.495    Cl(0)  px( 2)-0.394  
  MO   3 : occ=1.00 : energy=  -6.89163257 : center=(-0.00,0.00,0.00) : radius=0.45
           Cl(0)  py( 3)-0.628    Cl(0)  px( 2) 0.561    Cl(0)  pz( 4)-0.522  
  MO   4 : occ=1.00 : energy=  -6.89163175 : center=(0.00,0.00,0.00) : radius=0.45
           Cl(0)  px( 2) 0.715    Cl(0)  pz( 4) 0.682  
  MO   5 : occ=1.00 : energy=  -0.48187234 : center=(0.00,-0.00,-0.00) : radius=1.71
           Cl(0)   s( 5) 0.730    Cl(0)   s( 1)-0.384    Cl(0)   s( 9) 0.372  
  MO   6 : occ=1.00 : energy=  -0.02916791 : center=(-0.00,-0.00,0.00) : radius=2.32
           Cl(0)  px( 6) 0.524    Cl(0)  px(10) 0.421    Cl(0)  pz( 8)-0.305    Cl(0)  pz(12)-0.245    Cl(0)  px( 2)-0.216  
  MO   7 : occ=1.00 : energy=  -0.02916790 : center=(-0.00,-0.00,-0.00) : radius=2.32
           Cl(0)  pz( 8)-0.495    Cl(0)  pz(12)-0.398    Cl(0)  py( 7)-0.344    Cl(0)  py(11)-0.276    Cl(0)  pz( 4) 0.204    Cl(0)  px( 6)-0.179  
  MO   8 : occ=1.00 : energy=  -0.02916786 : center=(-0.00,0.00,-0.00) : radius=2.32
           Cl(0)  py( 7) 0.499    Cl(0)  py(11) 0.402    Cl(0)  px( 6)-0.297    Cl(0)  pz( 8)-0.239    Cl(0)  px(10)-0.239    Cl(0)  py( 3)-0.206    Cl(0)  pz(12)-0.192  
timer:          derivatives     0.75s     0.75s

 Derivatives (a.u.)
 -----------

  atom        x            y            z          dE/dx        dE/dy        dE/dz
 ------ ------------ ------------ ------------ ------------ ------------ ------------
     0     0.000000     0.000000     0.000000     0.000016    -0.000005    -0.000018
timer:             plotting     0.00s     0.00s

    Parallel environment
    --------------------
                  #nodes    1
       #threads per node    13+main = 14
          #total threads    14

  RMI message statistics (min / avg / max)
  ----------------------
   #messages in server q    0.00e+00 / 0.00e+00 / 0.00e+00
 #messages sent per node    0.00e+00 / 0.00e+00 / 0.00e+00
    #bytes sent per node    0.00e+00 / 0.00e+00 / 0.00e+00
 #messages recv per node    0.00e+00 / 0.00e+00 / 0.00e+00
    #bytes recv per node    0.00e+00 / 0.00e+00 / 0.00e+00
        #msgs systemwide    0.00e+00
       #bytes systemwide    0.00e+00

  Thread pool statistics (min / avg / max)
  ----------------------
         #tasks per node    0.00e+00 / 0.00e+00 / 0.00e+00
     #max q len per node    0.00e+00 / 0.00e+00 / 0.00e+00
  #hi-pri tasks per node    0.00e+00 / 0.00e+00 / 0.00e+00

         Total wall time    167.8s
         Total  cpu time    167.8s

