MADNESS runtime initialized with 13 threads in the pool and affinity -1 -1 -1

--------------------------------------------
   MADNESS 0.10.1 multiresolution suite
--------------------------------------------

   number of processors ... 1
    processor frequency ... 2.094996e+09
            host system ... linux-gnu
          configured by ... bsundahl
          configured on ... login
          configured at ... Mon May 21 11:22:55 EDT 2018
                    CXX ... mpicxx
               CXXFLAGS ...  -O3 -Wall -Wno-strict-aliasing -Wno-deprecated -Wno-unused-local-typedefs  -ffast-math -march=native
             tuning for ... default
                    MPI ... multiple
 multi-threaded runtime ... Intel TBB
                   BLAS ... Intel MKL 22548 22548 MFLOP/s
               compiled ... 11:23:28  on  May 21 2018
input filename:  Cl.mdns

Angstrom being used to read input coordinates (1 Bohr = 1.88972613 Angstrom)

Cubic point group

 The point group is D2h

Construct XC Functional from LIBXC Library

input line was:  b3lyp 
 1.000 hyb_gga_xc_b3lyp 
 0.200 HF exchange 

screening parameters
 rhotol, rhomin 1.000000e-07 0.000000e+00
         ggatol 1.000000e-04
polarized  true 


Solving NDIM= 3  with thresh 1.000000e-05     k 8    conv 1.000000e-04 




 MADNESS Hartree-Fock and Density Functional Theory Program
 ----------------------------------------------------------



 geometry
   eprec 1.0e-06
   units atomic
   Cl            0.00000000           0.00000000           0.00000000
 end


             restart  false
    restart from AOs  false
 number of processes  1
   no. of io servers  1
   vnuc load bal fac  12
      load bal parts  2
     simulation cube  -5.000000e+01 5.000000e+01
        total charge  0.000000e+00
            smearing  0.000000e+00
 number of electrons  9 8
  number of orbitals  9 8
     spin restricted  false
       xc functional   b3lyp 
          xc library  libxc
 initial guess basis  6-31g
 max krylov subspace  5
    compute protocol  [1.000000e-04, 1.000000e-06]
  energy convergence  1.000000e-05
 density convergence  1.000000e-04
    maximum rotation  2.500000e-01
    polynomial order  -1
       truncate mode  1
  maximum iterations  20
 Convergence criteria are density delta & BSH residual.
        plot density  false
        plot coulomb  false
        plot orbital  0 -1
        plot npoints  101
        plot  volume  default
  canonical orbitals 
    calc derivatives 
 psp or all electron  all electron
timer:           initialize     0.43s     0.43s

Solving NDIM= 3  with thresh 1.000000e-04     k 6    conv 1.000000e-04 


Solving NDIM= 3  with thresh 1.000000e-04     k 6    conv 1.000000e-04 

timer:     Project vnuclear     0.28s     0.28s
timer:     project ao basis     0.23s     0.23s
guess dens trace 1.699990e+01
timer:        guess density     0.35s     0.35s
timer:   guess Coulomb potn     0.49s     0.49s
timer:       guess lda potn     0.19s     0.19s
timer:        guess overlap     0.01s     0.01s
timer:    KEmat reconstruct     0.01s     0.01s
timer:  KEmat differentiate     0.23s     0.23s
timer:       KEmat compress     0.05s     0.05s
timer: KEmat inner products     0.03s     0.03s
timer:     guess Kinet potn     0.32s     0.32s
timer:           guess fock     0.44s     0.44s
timer:      guess eigen sol     0.00s     0.00s
grouping alpha orbitals into sets
set  0    0  -  0
set  1    1  -  1
set  2    2  -  4
set  3    5  -  8
grouping beta orbitals into sets
set  0    0  -  0
set  1    1  -  1
set  2    2  -  4
set  3    5  -  7
timer: guess orbital groupi     0.06s     0.06s
timer:     project ao basis     0.28s     0.28s

Iteration 0 at time 3.3s

timer:       Make densities     0.06s     0.06s
timer:       Load balancing     0.00s     0.00s
timer:       Nuclear energy     0.01s     0.01s
timer:              Coulomb     0.19s     0.19s
timer:        DFT potential     1.13s     1.13s
timer:                V*psi     0.30s     0.30s
timer:          HF exchange     3.55s     3.55s
timer:        Truncate Vpsi     0.11s     0.11s
timer:        DFT potential     0.86s     0.86s
timer:                V*psi     0.26s     0.26s
timer:          HF exchange     2.66s     2.66s
timer:        Truncate Vpsi     0.10s     0.10s
timer:            PE matrix     0.02s     0.02s
timer:    KEmat reconstruct     0.01s     0.01s
timer:  KEmat differentiate     0.20s     0.20s
timer:       KEmat compress     0.04s     0.04s
timer: KEmat inner products     0.03s     0.03s
timer:            KE matrix     0.28s     0.28s
timer: Make fock matrix res     0.00s     0.00s
timer:            PE matrix     0.01s     0.01s
timer:    KEmat reconstruct     0.01s     0.01s
timer:  KEmat differentiate     0.18s     0.18s
timer:       KEmat compress     0.04s     0.04s
timer: KEmat inner products     0.03s     0.03s
timer:            KE matrix     0.25s     0.25s
timer: Make fock matrix res     0.00s     0.00s
timer: Diagonalization Fock     0.00s     0.00s
timer: Diagonalization rest     0.16s     0.16s
timer: Diagonalization Fock     0.00s     0.00s
timer: Diagonalization rest     0.15s     0.15s

              kinetic     459.02918462
         nonlocal psp       0.00000000
   nuclear attraction   -1093.84338980
              coulomb     202.88832360
                  PCM       0.00000000
 exchange-correlation     -28.20400796
    nuclear-repulsion       0.00000000
                total    -460.12988953

timer: Compute residual stu     0.04s     0.04s
entering apply
timer:            Apply BSH     1.55s     1.55s
timer:     Truncate new psi     0.14s     0.14s
residuals [4.185480e-03, 8.224679e-03, 6.521969e-03, 6.520897e-03, 6.636830e-03, 1.815701e-02, 2.509659e-02, 2.509832e-02, 2.263843e-02]
BSH residual: rms 1.604234e-02    max 2.509832e-02
timer:         BSH residual     0.03s     0.03s
timer: Compute residual stu     0.03s     0.03s
entering apply
timer:            Apply BSH     1.41s     1.41s
timer:     Truncate new psi     0.13s     0.13s
residuals [4.178795e-03, 8.135367e-03, 6.469332e-03, 6.468270e-03, 6.869979e-03, 7.934588e-03, 2.970688e-02, 2.971031e-02]
BSH residual: rms 1.597926e-02    max 2.971031e-02
timer:         BSH residual     0.03s     0.03s
timer: Update subspace stuf     0.06s     0.06s
Subspace solution [*]   1.00000000

timer:   Subspace transform     0.01s     0.01s
Norm of vector changes alpha : rms 1.604234e-02    max 2.509832e-02
ORTHOG2a: maxq trantol 1.074183e-03 1.111111e-06
timer:       Orthonormalize     0.06s     0.06s
Norm of vector changes beta : rms 1.597926e-02    max 2.971031e-02
ORTHOG2a: maxq trantol 9.120751e-04 1.250000e-06
timer:       Orthonormalize     0.06s     0.06s

Iteration 1 at time 17.5s

timer:       Make densities     0.06s     0.06s
timer:       Load balancing     0.00s     0.00s
delta rho 2.979042e-02 2.591906e-02 residuals 2.971031e-02 0.000000e+00
timer:       Nuclear energy     0.01s     0.01s
timer:              Coulomb     0.20s     0.20s
timer:        DFT potential     1.11s     1.11s
timer:                V*psi     0.25s     0.25s
timer:          HF exchange     3.22s     3.22s
timer:        Truncate Vpsi     0.10s     0.10s
timer:        DFT potential     0.86s     0.86s
timer:                V*psi     0.23s     0.23s
timer:          HF exchange     2.71s     2.71s
timer:        Truncate Vpsi     0.08s     0.08s
timer:            PE matrix     0.02s     0.02s
timer:    KEmat reconstruct     0.01s     0.01s
timer:  KEmat differentiate     0.19s     0.19s
timer:       KEmat compress     0.04s     0.04s
timer: KEmat inner products     0.03s     0.03s
timer:            KE matrix     0.27s     0.27s
timer: Make fock matrix res     0.00s     0.00s
timer:            PE matrix     0.01s     0.01s
timer:    KEmat reconstruct     0.01s     0.01s
timer:  KEmat differentiate     0.17s     0.17s
timer:       KEmat compress     0.04s     0.04s
timer: KEmat inner products     0.03s     0.03s
timer:            KE matrix     0.25s     0.25s
timer: Make fock matrix res     0.00s     0.00s
timer: Diagonalization Fock     0.00s     0.00s
timer: Diagonalization rest     0.14s     0.14s
timer: Diagonalization Fock     0.00s     0.00s
timer: Diagonalization rest     0.13s     0.13s

              kinetic     459.08453567
         nonlocal psp       0.00000000
   nuclear attraction   -1093.91855563
              coulomb     202.84847218
                  PCM       0.00000000
 exchange-correlation     -28.19410888
    nuclear-repulsion       0.00000000
                total    -460.17965666

timer: Compute residual stu     0.04s     0.04s
entering apply
timer:            Apply BSH     1.50s     1.50s
timer:     Truncate new psi     0.14s     0.14s
residuals [3.065793e-04, 1.238572e-03, 9.842834e-04, 9.848282e-04, 9.924669e-04, 7.918122e-03, 5.357054e-03, 5.357090e-03, 8.829365e-03]
BSH residual: rms 4.744617e-03    max 8.829365e-03
timer:         BSH residual     0.03s     0.03s
timer: Compute residual stu     0.03s     0.03s
entering apply
timer:            Apply BSH     1.37s     1.37s
timer:     Truncate new psi     0.13s     0.13s
residuals [3.028026e-04, 1.149504e-03, 9.552741e-04, 9.553667e-04, 9.098839e-04, 2.965456e-03, 4.684458e-03, 4.681693e-03]
BSH residual: rms 2.662765e-03    max 4.684458e-03
timer:         BSH residual     0.03s     0.03s
timer: Update subspace stuf     0.11s     0.11s
Subspace solution [*]  -0.20439997   1.20439997

timer:   Subspace transform     0.01s     0.01s
Norm of vector changes alpha : rms 5.505117e-03    max 9.854401e-03
ORTHOG2a: maxq trantol 5.496744e-04 1.111111e-06
timer:       Orthonormalize     0.07s     0.07s
Norm of vector changes beta : rms 3.212747e-03    max 5.726633e-03
ORTHOG2a: maxq trantol 3.832328e-04 1.250000e-06
timer:       Orthonormalize     0.06s     0.06s

Iteration 2 at time 31.3s

timer:       Make densities     0.06s     0.06s
delta rho 1.282677e-02 9.079671e-03 residuals 8.829365e-03 0.000000e+00
timer:       Nuclear energy     0.01s     0.01s
timer:              Coulomb     0.18s     0.18s
timer:        DFT potential     1.10s     1.10s
timer:                V*psi     0.25s     0.25s
timer:          HF exchange     3.26s     3.26s
timer:        Truncate Vpsi     0.10s     0.10s
timer:        DFT potential     0.83s     0.83s
timer:                V*psi     0.23s     0.23s
timer:          HF exchange     2.78s     2.78s
timer:        Truncate Vpsi     0.08s     0.08s
timer:            PE matrix     0.02s     0.02s
timer:    KEmat reconstruct     0.01s     0.01s
timer:  KEmat differentiate     0.19s     0.19s
timer:       KEmat compress     0.04s     0.04s
timer: KEmat inner products     0.03s     0.03s
timer:            KE matrix     0.27s     0.27s
timer: Make fock matrix res     0.00s     0.00s
timer:            PE matrix     0.01s     0.01s
timer:    KEmat reconstruct     0.01s     0.01s
timer:  KEmat differentiate     0.17s     0.17s
timer:       KEmat compress     0.04s     0.04s
timer: KEmat inner products     0.03s     0.03s
timer:            KE matrix     0.25s     0.25s
timer: Make fock matrix res     0.00s     0.00s
timer: Diagonalization Fock     0.00s     0.00s
timer: Diagonalization rest     0.14s     0.14s
timer: Diagonalization Fock     0.00s     0.00s
timer: Diagonalization rest     0.12s     0.12s

              kinetic     459.39625682
         nonlocal psp       0.00000000
   nuclear attraction   -1094.38200720
              coulomb     203.01062207
                  PCM       0.00000000
 exchange-correlation     -28.20645657
    nuclear-repulsion       0.00000000
                total    -460.18158486

timer: Compute residual stu     0.04s     0.04s
entering apply
timer:            Apply BSH     1.48s     1.48s
timer:     Truncate new psi     0.15s     0.15s
residuals [6.426662e-05, 4.179900e-04, 3.503718e-04, 3.497463e-04, 3.390431e-04, 3.399696e-03, 1.246660e-03, 1.251959e-03, 2.205624e-03]
BSH residual: rms 1.493808e-03    max 3.399696e-03
timer:         BSH residual     0.04s     0.04s
timer: Compute residual stu     0.03s     0.03s
entering apply
timer:            Apply BSH     1.36s     1.36s
timer:     Truncate new psi     0.14s     0.14s
residuals [8.041292e-05, 3.936389e-04, 3.471405e-04, 3.454190e-04, 3.336331e-04, 1.789805e-03, 1.483303e-03, 1.486740e-03]
BSH residual: rms 1.007877e-03    max 1.789805e-03
timer:         BSH residual     0.03s     0.03s
timer: Update subspace stuf     0.17s     0.17s
Subspace solution [*]   0.02231416  -0.48167533   1.45936117

timer:   Subspace transform     0.02s     0.02s
Norm of vector changes alpha : rms 2.287710e-03    max 5.474101e-03
ORTHOG2a: maxq trantol 1.236249e-04 1.111111e-06
timer:       Orthonormalize     0.06s     0.06s
Norm of vector changes beta : rms 1.626090e-03    max 2.819367e-03
ORTHOG2a: maxq trantol 1.323918e-04 1.250000e-06
timer:       Orthonormalize     0.06s     0.06s

Iteration 3 at time 45.2s

timer:       Make densities     0.06s     0.06s
delta rho 6.197751e-03 4.368505e-03 residuals 3.399696e-03 0.000000e+00
timer:       Nuclear energy     0.01s     0.01s
timer:              Coulomb     0.21s     0.21s
timer:        DFT potential     1.04s     1.04s
timer:                V*psi     0.23s     0.23s
timer:          HF exchange     3.34s     3.34s
timer:        Truncate Vpsi     0.09s     0.09s
timer:        DFT potential     0.91s     0.91s
timer:                V*psi     0.23s     0.23s
timer:          HF exchange     2.81s     2.81s
timer:        Truncate Vpsi     0.08s     0.08s
timer:            PE matrix     0.02s     0.02s
timer:    KEmat reconstruct     0.01s     0.01s
timer:  KEmat differentiate     0.19s     0.19s
timer:       KEmat compress     0.04s     0.04s
timer: KEmat inner products     0.03s     0.03s
timer:            KE matrix     0.27s     0.27s
timer: Make fock matrix res     0.00s     0.00s
timer:            PE matrix     0.01s     0.01s
timer:    KEmat reconstruct     0.01s     0.01s
timer:  KEmat differentiate     0.17s     0.17s
timer:       KEmat compress     0.04s     0.04s
timer: KEmat inner products     0.03s     0.03s
timer:            KE matrix     0.24s     0.24s
timer: Make fock matrix res     0.00s     0.00s
timer: Diagonalization Fock     0.00s     0.00s
timer: Diagonalization rest     0.14s     0.14s
timer: Diagonalization Fock     0.00s     0.00s
timer: Diagonalization rest     0.13s     0.13s

              kinetic     459.53901737
         nonlocal psp       0.00000000
   nuclear attraction   -1094.55931003
              coulomb     203.04864761
                  PCM       0.00000000
 exchange-correlation     -28.21031667
    nuclear-repulsion       0.00000000
                total    -460.18196172

timer: Compute residual stu     0.04s     0.04s
entering apply
timer:            Apply BSH     1.49s     1.49s
timer:     Truncate new psi     0.16s     0.16s
residuals [3.559737e-05, 1.242509e-04, 8.049469e-05, 8.363145e-05, 9.558700e-05, 1.433867e-03, 3.293278e-04, 3.293945e-04, 5.534716e-04]
BSH residual: rms 5.394007e-04    max 1.433867e-03
timer:         BSH residual     0.03s     0.03s
timer: Compute residual stu     0.03s     0.03s
entering apply
timer:            Apply BSH     1.36s     1.36s
timer:     Truncate new psi     0.15s     0.15s
residuals [3.565150e-05, 1.292295e-04, 7.367890e-05, 7.373340e-05, 8.000811e-05, 7.377311e-04, 4.047490e-04, 4.051589e-04]
BSH residual: rms 3.367975e-04    max 7.377311e-04
timer:         BSH residual     0.03s     0.03s
timer: Update subspace stuf     0.22s     0.22s
Subspace solution [*]   0.02741444  -0.03090942  -0.44149239   1.44498738

timer:   Subspace transform     0.02s     0.02s
Norm of vector changes alpha : rms 1.002529e-03    max 2.787071e-03
ORTHOG2a: maxq trantol 7.639675e-05 1.111111e-06
timer:       Orthonormalize     0.06s     0.06s
Norm of vector changes beta : rms 5.589658e-04    max 1.400365e-03
ORTHOG2a: maxq trantol 7.105732e-05 1.250000e-06
timer:       Orthonormalize     0.06s     0.06s

Iteration 4 at time 59.3s

timer:       Make densities     0.06s     0.06s
delta rho 2.163949e-03 1.450097e-03 residuals 1.433867e-03 0.000000e+00
timer:       Nuclear energy     0.01s     0.01s
timer:              Coulomb     0.20s     0.20s
timer:        DFT potential     1.13s     1.13s
timer:                V*psi     0.25s     0.25s
timer:          HF exchange     3.27s     3.27s
timer:        Truncate Vpsi     0.10s     0.10s
timer:        DFT potential     0.84s     0.84s
timer:                V*psi     0.23s     0.23s
timer:          HF exchange     2.79s     2.79s
timer:        Truncate Vpsi     0.09s     0.09s
timer:            PE matrix     0.03s     0.03s
timer:    KEmat reconstruct     0.01s     0.01s
timer:  KEmat differentiate     0.21s     0.21s
timer:       KEmat compress     0.04s     0.04s
timer: KEmat inner products     0.03s     0.03s
timer:            KE matrix     0.30s     0.30s
timer: Make fock matrix res     0.00s     0.00s
timer:            PE matrix     0.01s     0.01s
timer:    KEmat reconstruct     0.01s     0.01s
timer:  KEmat differentiate     0.18s     0.18s
timer:       KEmat compress     0.04s     0.04s
timer: KEmat inner products     0.03s     0.03s
timer:            KE matrix     0.26s     0.26s
timer: Make fock matrix res     0.00s     0.00s
timer: Diagonalization Fock     0.00s     0.00s
timer: Diagonalization rest     0.14s     0.14s
timer: Diagonalization Fock     0.00s     0.00s
timer: Diagonalization rest     0.13s     0.13s

              kinetic     459.58487065
         nonlocal psp       0.00000000
   nuclear attraction   -1094.62477073
              coulomb     203.07036183
                  PCM       0.00000000
 exchange-correlation     -28.21252992
    nuclear-repulsion       0.00000000
                total    -460.18206817

timer: Compute residual stu     0.04s     0.04s
entering apply
timer:            Apply BSH     1.53s     1.53s
timer:     Truncate new psi     0.15s     0.15s
residuals [2.575804e-05, 9.396764e-05, 5.389776e-05, 5.289671e-05, 6.214616e-05, 6.441158e-04, 1.419357e-04, 1.421050e-04, 1.127042e-04]
BSH residual: rms 2.326145e-04    max 6.441158e-04
timer:         BSH residual     0.04s     0.04s
timer: Compute residual stu     0.03s     0.03s
entering apply
timer:            Apply BSH     1.35s     1.35s
timer:     Truncate new psi     0.14s     0.14s
residuals [2.774091e-05, 8.743266e-05, 4.586320e-05, 4.579681e-05, 2.284891e-05, 3.113991e-04, 1.037059e-04, 1.037107e-04]
BSH residual: rms 1.282659e-04    max 3.113991e-04
timer:         BSH residual     0.03s     0.03s
timer: Update subspace stuf     0.28s     0.28s
Subspace solution [*]  -0.01829613   0.08381720  -0.00124512  -0.89514438   1.83086843

timer:   Subspace transform     0.02s     0.02s
Norm of vector changes alpha : rms 6.373960e-04    max 1.873037e-03
ORTHOG2a: maxq trantol 5.299363e-05 1.111111e-06
timer:       Orthonormalize     0.07s     0.07s
Norm of vector changes beta : rms 3.224613e-04    max 8.717245e-04
ORTHOG2a: maxq trantol 3.974199e-05 1.250000e-06
timer:       Orthonormalize     0.06s     0.06s

Iteration 5 at time 73.4s

timer:       Make densities     0.06s     0.06s
delta rho 8.371436e-04 5.555966e-04 residuals 6.441158e-04 0.000000e+00
timer:       Nuclear energy     0.01s     0.01s
timer:              Coulomb     0.20s     0.20s
timer:        DFT potential     1.10s     1.10s
timer:                V*psi     0.25s     0.25s
timer:          HF exchange     3.10s     3.10s
timer:        Truncate Vpsi     0.09s     0.09s
timer:        DFT potential     0.83s     0.83s
timer:                V*psi     0.23s     0.23s
timer:          HF exchange     2.76s     2.76s
timer:        Truncate Vpsi     0.08s     0.08s
timer:            PE matrix     0.02s     0.02s
timer:    KEmat reconstruct     0.01s     0.01s
timer:  KEmat differentiate     0.19s     0.19s
timer:       KEmat compress     0.04s     0.04s
timer: KEmat inner products     0.03s     0.03s
timer:            KE matrix     0.27s     0.27s
timer: Make fock matrix res     0.00s     0.00s
timer:            PE matrix     0.01s     0.01s
timer:    KEmat reconstruct     0.01s     0.01s
timer:  KEmat differentiate     0.17s     0.17s
timer:       KEmat compress     0.04s     0.04s
timer: KEmat inner products     0.03s     0.03s
timer:            KE matrix     0.25s     0.25s
timer: Make fock matrix res     0.00s     0.00s
timer: Diagonalization Fock     0.00s     0.00s
timer: Diagonalization rest     0.13s     0.13s
timer: Diagonalization Fock     0.00s     0.00s
timer: Diagonalization rest     0.13s     0.13s

              kinetic     459.57908889
         nonlocal psp       0.00000000
   nuclear attraction   -1094.61718516
              coulomb     203.06853079
                  PCM       0.00000000
 exchange-correlation     -28.21249195
    nuclear-repulsion       0.00000000
                total    -460.18205744

timer: Compute residual stu     0.03s     0.03s
entering apply
timer:            Apply BSH     1.50s     1.50s
timer:     Truncate new psi     0.15s     0.15s
residuals [2.060296e-05, 7.647171e-05, 6.145525e-05, 6.216601e-05, 7.608042e-05, 1.621416e-04, 6.892602e-05, 6.931833e-05, 9.233967e-05]
BSH residual: rms 8.437636e-05    max 1.621416e-04
timer:         BSH residual     0.04s     0.04s
timer: Compute residual stu     0.03s     0.03s
entering apply
timer:            Apply BSH     1.37s     1.37s
timer:     Truncate new psi     0.13s     0.13s
residuals [2.107470e-05, 7.170033e-05, 4.710187e-05, 4.707965e-05, 3.380089e-05, 9.713286e-05, 5.697097e-05, 5.744388e-05]
BSH residual: rms 5.824833e-05    max 9.713286e-05
timer:         BSH residual     0.03s     0.03s
timer: Update subspace stuf     0.27s     0.27s
Subspace solution [*]  -0.00835658   0.04343825   0.03424246  -0.49414373   1.42481960

timer:   Subspace transform     0.02s     0.02s
Norm of vector changes alpha : rms 1.881619e-04    max 5.251288e-04
ORTHOG2a: maxq trantol 3.497718e-05 1.111111e-06
timer:       Orthonormalize     0.06s     0.06s
Norm of vector changes beta : rms 1.029627e-04    max 2.387667e-04
ORTHOG2a: maxq trantol 2.529724e-05 1.250000e-06
timer:       Orthonormalize     0.06s     0.06s

Iteration 6 at time 87.3s

timer:       Make densities     0.06s     0.06s
delta rho 4.114178e-04 3.438580e-04 residuals 1.621416e-04 0.000000e+00
timer:       Nuclear energy     0.01s     0.01s
timer:              Coulomb     0.19s     0.19s
timer:        DFT potential     1.16s     1.16s
timer:                V*psi     0.25s     0.25s
timer:          HF exchange     3.26s     3.26s
timer:        Truncate Vpsi     0.10s     0.10s
timer:        DFT potential     0.83s     0.83s
timer:                V*psi     0.22s     0.22s
timer:          HF exchange     2.73s     2.73s
timer:        Truncate Vpsi     0.08s     0.08s
timer:            PE matrix     0.02s     0.02s
timer:    KEmat reconstruct     0.01s     0.01s
timer:  KEmat differentiate     0.21s     0.21s
timer:       KEmat compress     0.04s     0.04s
timer: KEmat inner products     0.03s     0.03s
timer:            KE matrix     0.29s     0.29s
timer: Make fock matrix res     0.00s     0.00s
timer:            PE matrix     0.02s     0.02s
timer:    KEmat reconstruct     0.01s     0.01s
timer:  KEmat differentiate     0.18s     0.18s
timer:       KEmat compress     0.04s     0.04s
timer: KEmat inner products     0.03s     0.03s
timer:            KE matrix     0.25s     0.25s
timer: Make fock matrix res     0.00s     0.00s
timer: Diagonalization Fock     0.00s     0.00s
timer: Diagonalization rest     0.13s     0.13s
timer: Diagonalization Fock     0.00s     0.00s
timer: Diagonalization rest     0.13s     0.13s

              kinetic     459.57294977
         nonlocal psp       0.00000000
   nuclear attraction   -1094.60887918
              coulomb     203.06613334
                  PCM       0.00000000
 exchange-correlation     -28.21229998
    nuclear-repulsion       0.00000000
                total    -460.18209605

timer: Compute residual stu     0.03s     0.03s
entering apply
timer:            Apply BSH     1.51s     1.51s
timer:     Truncate new psi     0.15s     0.15s
residuals [1.938640e-05, 6.767872e-05, 2.867875e-05, 2.958846e-05, 3.562843e-05, 5.066650e-05, 2.986482e-05, 3.069299e-05, 4.375010e-05]
BSH residual: rms 3.977535e-05    max 6.767872e-05
timer:         BSH residual     0.04s     0.04s
timer: Compute residual stu     0.03s     0.03s
entering apply
timer:            Apply BSH     1.38s     1.38s
timer:     Truncate new psi     0.14s     0.14s
residuals [1.952086e-05, 6.557928e-05, 1.979742e-05, 1.983040e-05, 9.827533e-06, 4.891852e-05, 2.457514e-05, 2.423271e-05]
BSH residual: rms 3.381504e-05    max 6.557928e-05
timer:         BSH residual     0.03s     0.03s
timer: Update subspace stuf     0.28s     0.28s
Subspace solution [*]  -0.00191007   0.02474712  -0.05428427  -0.16274234   1.19418956

timer:   Subspace transform     0.02s     0.02s
Norm of vector changes alpha : rms 5.342797e-05    max 1.170528e-04
ORTHOG2a: maxq trantol 3.565045e-05 1.111111e-06
timer:       Orthonormalize     0.06s     0.06s
Norm of vector changes beta : rms 3.934846e-05    max 6.991679e-05
ORTHOG2a: maxq trantol 3.004519e-05 1.250000e-06
timer:       Orthonormalize     0.06s     0.06s

Iteration 7 at time 101.3s

timer:       Make densities     0.06s     0.06s
delta rho 1.659847e-04 1.267294e-04 residuals 6.767872e-05 0.000000e+00
timer:       Nuclear energy     0.01s     0.01s
timer:              Coulomb     0.17s     0.17s
timer:        DFT potential     1.12s     1.12s
timer:                V*psi     0.25s     0.25s
timer:          HF exchange     3.23s     3.23s
timer:        Truncate Vpsi     0.10s     0.10s
timer:        DFT potential     0.85s     0.85s
timer:                V*psi     0.23s     0.23s
timer:          HF exchange     2.76s     2.76s
timer:        Truncate Vpsi     0.09s     0.09s
timer:            PE matrix     0.02s     0.02s
timer:    KEmat reconstruct     0.01s     0.01s
timer:  KEmat differentiate     0.20s     0.20s
timer:       KEmat compress     0.04s     0.04s
timer: KEmat inner products     0.03s     0.03s
timer:            KE matrix     0.28s     0.28s
timer: Make fock matrix res     0.00s     0.00s
timer:            PE matrix     0.01s     0.01s
timer:    KEmat reconstruct     0.01s     0.01s
timer:  KEmat differentiate     0.18s     0.18s
timer:       KEmat compress     0.04s     0.04s
timer: KEmat inner products     0.03s     0.03s
timer:            KE matrix     0.25s     0.25s
timer: Make fock matrix res     0.00s     0.00s
timer: Diagonalization Fock     0.00s     0.00s
timer: Diagonalization rest     0.13s     0.13s
timer: Diagonalization Fock     0.00s     0.00s
timer: Diagonalization rest     0.12s     0.12s

              kinetic     459.57100836
         nonlocal psp       0.00000000
   nuclear attraction   -1094.60612209
              coulomb     203.06523305
                  PCM       0.00000000
 exchange-correlation     -28.21221704
    nuclear-repulsion       0.00000000
                total    -460.18209771

timer: Compute residual stu     0.03s     0.03s
entering apply
timer:            Apply BSH     1.51s     1.51s
timer:     Truncate new psi     0.15s     0.15s
residuals [1.904695e-05, 6.846347e-05, 1.970378e-05, 1.927201e-05, 2.253291e-05, 4.195969e-05, 1.916796e-05, 1.857747e-05, 2.460179e-05]
BSH residual: rms 3.231066e-05    max 6.846347e-05
timer:         BSH residual     0.04s     0.04s
timer: Compute residual stu     0.03s     0.03s
entering apply
timer:            Apply BSH     1.38s     1.38s
timer:     Truncate new psi     0.14s     0.14s
residuals [1.917255e-05, 6.743555e-05, 1.554003e-05, 1.560839e-05, 3.642752e-06, 4.744488e-05, 1.761095e-05, 1.857496e-05]
BSH residual: rms 3.224848e-05    max 6.743555e-05
timer:         BSH residual     0.03s     0.03s
timer: Update subspace stuf     0.27s     0.27s
Subspace solution [*]  -0.00418707   0.02602903  -0.06731732  -0.22681267   1.27228804

timer:   Subspace transform     0.02s     0.02s
Norm of vector changes alpha : rms 3.371848e-05    max 6.951417e-05
ORTHOG2a: maxq trantol 3.783216e-05 1.111111e-06
timer:       Orthonormalize     0.06s     0.06s
Norm of vector changes beta : rms 3.382147e-05    max 6.837304e-05
ORTHOG2a: maxq trantol 3.410726e-05 1.250000e-06
timer:       Orthonormalize     0.06s     0.06s

Iteration 8 at time 115.3s

timer:       Make densities     0.06s     0.06s
delta rho 6.666635e-05 5.973871e-05 residuals 6.846347e-05 0.000000e+00
timer:       Nuclear energy     0.01s     0.01s
timer:              Coulomb     0.18s     0.18s
timer:        DFT potential     1.13s     1.13s
timer:                V*psi     0.25s     0.25s
timer:          HF exchange     3.29s     3.29s
timer:        Truncate Vpsi     0.10s     0.10s
timer:        DFT potential     0.88s     0.88s
timer:                V*psi     0.22s     0.22s
timer:          HF exchange     2.58s     2.58s
timer:        Truncate Vpsi     0.09s     0.09s
timer:            PE matrix     0.02s     0.02s
timer:    KEmat reconstruct     0.01s     0.01s
timer:  KEmat differentiate     0.20s     0.20s
timer:       KEmat compress     0.05s     0.05s
timer: KEmat inner products     0.03s     0.03s
timer:            KE matrix     0.28s     0.28s
timer: Make fock matrix res     0.00s     0.00s
timer:            PE matrix     0.01s     0.01s
timer:    KEmat reconstruct     0.01s     0.01s
timer:  KEmat differentiate     0.18s     0.18s
timer:       KEmat compress     0.04s     0.04s
timer: KEmat inner products     0.03s     0.03s
timer:            KE matrix     0.25s     0.25s
timer: Make fock matrix res     0.00s     0.00s
timer: Diagonalization Fock     0.00s     0.00s
timer: Diagonalization rest     0.14s     0.14s
timer: Diagonalization Fock     0.00s     0.00s
timer: Diagonalization rest     0.12s     0.12s

              kinetic     459.57049270
         nonlocal psp       0.00000000
   nuclear attraction   -1094.60531796
              coulomb     203.06491484
                  PCM       0.00000000
 exchange-correlation     -28.21218762
    nuclear-repulsion       0.00000000
                total    -460.18209803


Converged!

timer:              Overlap     0.01s     0.01s
timer:      focka eigen sol     0.00s     0.00s
timer:        Transform MOs     0.04s     0.04s
timer:              Overlap     0.01s     0.01s
timer:      fockb eigen sol     0.00s     0.00s
timer:        Transform MOs     0.03s     0.03s
 
alpha eigenvalues
[*] -101.57534987  -9.50881083  -7.28144567  -7.25913629  -7.25912885  -0.85096101  -0.41209278  -0.35943098  -0.35942971

beta eigenvalues
[*] -101.56581809  -9.49914052  -7.25616465  -7.25311907  -7.25311102  -0.79727436  -0.34110134  -0.34109949


 Dipole Moment (a.u.)
 -----------

     x:  -4.261423e-06
     y:  1.000270e-06
     z:  8.070951e-07
 Total Dipole Moment:  4.451030e-06 

timer:               dipole     0.00s     0.00s
Orbitals are eigenvectors - energies are eigenvalues

Analysis of alpha MO vectors
timer:      Analyze vectors     0.38s     0.38s
timer: Compute eigen gesv a     0.00s     0.00s
  MO   0 : occ=1.00 : energy=-101.57534987 : center=(-0.00,0.00,-0.00) : radius=0.11
           Cl(0)   s( 0) 0.996  
  MO   1 : occ=1.00 : energy=  -9.50881083 : center=(-0.00,-0.00,-0.00) : radius=0.49
           Cl(0)   s( 1)-1.027    Cl(0)   s( 0) 0.286  
  MO   2 : occ=1.00 : energy=  -7.28144567 : center=(-0.00,-0.00,-0.00) : radius=0.45
           Cl(0)  px( 2)-0.574    Cl(0)  py( 3)-0.574    Cl(0)  pz( 4)-0.567  
  MO   3 : occ=1.00 : energy=  -7.25913629 : center=(0.00,-0.00,-0.00) : radius=0.45
           Cl(0)  px( 2) 0.799    Cl(0)  pz( 4)-0.500    Cl(0)  py( 3)-0.305  
  MO   4 : occ=1.00 : energy=  -7.25912885 : center=(0.00,-0.00,0.00) : radius=0.45
           Cl(0)  py( 3) 0.748    Cl(0)  pz( 4)-0.640  
  MO   5 : occ=1.00 : energy=  -0.85096101 : center=(-0.00,-0.00,-0.00) : radius=1.66
           Cl(0)   s( 5)-0.791    Cl(0)   s( 1) 0.389    Cl(0)   s( 9)-0.308  
  MO   6 : occ=1.00 : energy=  -0.41209278 : center=(0.00,0.00,0.00) : radius=1.97
           Cl(0)  px( 6) 0.448    Cl(0)  py( 7) 0.448    Cl(0)  pz( 8) 0.443    Cl(0)  px(10) 0.209    Cl(0)  py(11) 0.209    Cl(0)  pz(12) 0.207  
  MO   7 : occ=1.00 : energy=  -0.35943098 : center=(-0.00,0.00,0.00) : radius=2.02
           Cl(0)  px( 6)-0.605    Cl(0)  px(10)-0.321    Cl(0)  pz( 8) 0.310    Cl(0)  py( 7) 0.299    Cl(0)  px( 2) 0.236  
  MO   8 : occ=1.00 : energy=  -0.35942971 : center=(0.00,-0.00,0.00) : radius=2.02
           Cl(0)  py( 7)-0.526    Cl(0)  pz( 8) 0.524    Cl(0)  py(11)-0.279    Cl(0)  pz(12) 0.278    Cl(0)  py( 3) 0.205    Cl(0)  pz( 4)-0.204  
Analysis of beta MO vectors
timer:      Analyze vectors     0.35s     0.35s
timer: Compute eigen gesv a     0.00s     0.00s
  MO   0 : occ=1.00 : energy=-101.56581809 : center=(0.00,-0.00,0.00) : radius=0.11
           Cl(0)   s( 0) 0.997  
  MO   1 : occ=1.00 : energy=  -9.49914052 : center=(0.00,-0.00,0.00) : radius=0.49
           Cl(0)   s( 1)-1.028    Cl(0)   s( 0) 0.286  
  MO   2 : occ=1.00 : energy=  -7.25616465 : center=(-0.00,-0.00,-0.00) : radius=0.45
           Cl(0)  py( 3) 0.575    Cl(0)  px( 2) 0.574    Cl(0)  pz( 4) 0.568  
  MO   3 : occ=1.00 : energy=  -7.25311907 : center=(0.00,-0.00,-0.00) : radius=0.45
           Cl(0)  px( 2) 0.801    Cl(0)  pz( 4)-0.494    Cl(0)  py( 3)-0.311  
  MO   4 : occ=1.00 : energy=  -7.25311102 : center=(0.00,-0.00,0.00) : radius=0.45
           Cl(0)  py( 3) 0.745    Cl(0)  pz( 4)-0.645  
  MO   5 : occ=1.00 : energy=  -0.79727436 : center=(0.00,-0.00,0.00) : radius=1.67
           Cl(0)   s( 5)-0.776    Cl(0)   s( 1) 0.387    Cl(0)   s( 9)-0.324  
  MO   6 : occ=1.00 : energy=  -0.34110134 : center=(-0.00,0.00,-0.00) : radius=2.05
           Cl(0)  py( 7)-0.528    Cl(0)  pz( 8) 0.500    Cl(0)  py(11)-0.297    Cl(0)  pz(12) 0.281    Cl(0)  py( 3) 0.207    Cl(0)  pz( 4)-0.196  
  MO   7 : occ=1.00 : energy=  -0.34109949 : center=(0.00,-0.00,-0.00) : radius=2.05
           Cl(0)  px( 6)-0.592    Cl(0)  px(10)-0.333    Cl(0)  pz( 8) 0.326    Cl(0)  py( 7) 0.270    Cl(0)  px( 2) 0.232    Cl(0)  pz(12) 0.183  

Solving NDIM= 3  with thresh 1.000000e-06     k 8    conv 1.000000e-04 

timer:     Project vnuclear     0.36s     0.36s
timer:     project ao basis     0.40s     0.40s

Iteration 0 at time 127.6s

timer:       Make densities     0.07s     0.07s
timer:       Load balancing     0.00s     0.00s
timer:       Nuclear energy     0.04s     0.04s
timer:              Coulomb     0.48s     0.48s
timer:        DFT potential     1.45s     1.45s
timer:                V*psi     0.35s     0.35s
timer:          HF exchange     6.93s     6.93s
timer:        Truncate Vpsi     0.13s     0.13s
timer:        DFT potential     1.13s     1.13s
timer:                V*psi     0.35s     0.35s
timer:          HF exchange     5.51s     5.51s
timer:        Truncate Vpsi     0.11s     0.11s
timer:            PE matrix     0.03s     0.03s
timer:    KEmat reconstruct     0.01s     0.01s
timer:  KEmat differentiate     0.21s     0.21s
timer:       KEmat compress     0.05s     0.05s
timer: KEmat inner products     0.04s     0.04s
timer:            KE matrix     0.31s     0.31s
timer: Make fock matrix res     0.00s     0.00s
timer:            PE matrix     0.02s     0.02s
timer:    KEmat reconstruct     0.01s     0.01s
timer:  KEmat differentiate     0.18s     0.18s
timer:       KEmat compress     0.04s     0.04s
timer: KEmat inner products     0.03s     0.03s
timer:            KE matrix     0.26s     0.26s
timer: Make fock matrix res     0.00s     0.00s
timer: Diagonalization Fock     0.00s     0.00s
timer: Diagonalization rest     0.21s     0.21s
timer: Diagonalization Fock     0.00s     0.00s
timer: Diagonalization rest     0.19s     0.19s

              kinetic     459.56971676
         nonlocal psp       0.00000000
   nuclear attraction   -1094.60441323
              coulomb     203.06483497
                  PCM       0.00000000
 exchange-correlation     -28.21217528
    nuclear-repulsion       0.00000000
                total    -460.18203678

timer: Compute residual stu     0.11s     0.11s
entering apply
timer:            Apply BSH     6.90s     6.90s
timer:     Truncate new psi     0.45s     0.45s
residuals [1.763422e-04, 1.588625e-04, 1.992136e-04, 2.006362e-04, 2.005665e-04, 2.013080e-04, 2.125844e-04, 2.106740e-04, 2.103753e-04]
BSH residual: rms 1.974448e-04    max 2.125844e-04
timer:         BSH residual     0.08s     0.08s
timer: Compute residual stu     0.09s     0.09s
entering apply
timer:            Apply BSH     6.05s     6.04s
timer:     Truncate new psi     0.38s     0.38s
residuals [1.755069e-04, 1.598012e-04, 2.025282e-04, 2.007605e-04, 2.007013e-04, 1.986340e-04, 2.079615e-04, 2.082535e-04]
BSH residual: rms 1.949409e-04    max 2.082535e-04
timer:         BSH residual     0.08s     0.08s
timer: Update subspace stuf     0.06s     0.06s
Subspace solution [*]   1.00000000

timer:   Subspace transform     0.02s     0.02s
Norm of vector changes alpha : rms 1.974448e-04    max 2.125844e-04
ORTHOG2a: maxq trantol 7.780383e-06 1.111111e-08
timer:       Orthonormalize     0.14s     0.14s
Norm of vector changes beta : rms 1.949409e-04    max 2.082535e-04
ORTHOG2a: maxq trantol 8.782263e-06 1.250000e-08
timer:       Orthonormalize     0.14s     0.14s

Iteration 1 at time 160.5s

timer:       Make densities     0.17s     0.17s
timer:       Load balancing     0.00s     0.00s
delta rho 7.888701e-04 7.612733e-04 residuals 2.125844e-04 0.000000e+00
timer:       Nuclear energy     0.05s     0.05s
timer:              Coulomb     1.08s     1.08s
timer:        DFT potential     5.35s     5.35s
timer:                V*psi     0.75s     0.75s
timer:          HF exchange    11.24s    11.24s
timer:        Truncate Vpsi     0.27s     0.27s
timer:        DFT potential     4.20s     4.20s
timer:                V*psi     0.69s     0.69s
timer:          HF exchange     9.81s     9.81s
timer:        Truncate Vpsi     0.24s     0.24s
timer:            PE matrix     0.06s     0.06s
timer:    KEmat reconstruct     0.02s     0.02s
timer:  KEmat differentiate     0.47s     0.47s
timer:       KEmat compress     0.10s     0.10s
timer: KEmat inner products     0.07s     0.07s
timer:            KE matrix     0.67s     0.67s
timer: Make fock matrix res     0.00s     0.00s
timer:            PE matrix     0.03s     0.03s
timer:    KEmat reconstruct     0.02s     0.02s
timer:  KEmat differentiate     0.45s     0.45s
timer:       KEmat compress     0.09s     0.09s
timer: KEmat inner products     0.05s     0.05s
timer:            KE matrix     0.62s     0.62s
timer: Make fock matrix res     0.00s     0.00s
timer: Diagonalization Fock     0.00s     0.00s
timer: Diagonalization rest     0.61s     0.61s
timer: Diagonalization Fock     0.00s     0.00s
timer: Diagonalization rest     0.46s     0.46s

              kinetic     459.55409596
         nonlocal psp       0.00000000
   nuclear attraction   -1094.59062749
              coulomb     203.06582028
                  PCM       0.00000000
 exchange-correlation     -28.21207531
    nuclear-repulsion       0.00000000
                total    -460.18278655

timer: Compute residual stu     0.25s     0.25s
entering apply
timer:            Apply BSH    17.72s    17.72s
timer:     Truncate new psi     1.11s     1.11s
residuals [1.903698e-05, 2.130245e-05, 1.264198e-05, 1.245186e-05, 1.228435e-05, 2.861356e-05, 1.606971e-05, 1.535629e-05, 1.513076e-05]
BSH residual: rms 1.771284e-05    max 2.861356e-05
timer:         BSH residual     0.09s     0.09s
timer: Compute residual stu     0.42s     0.42s
entering apply
timer:            Apply BSH    15.75s    15.75s
timer:     Truncate new psi     0.97s     0.97s
residuals [1.887243e-05, 2.107687e-05, 1.185166e-05, 1.222946e-05, 1.204865e-05, 3.383122e-05, 1.429652e-05, 1.461896e-05]
BSH residual: rms 1.870244e-05    max 3.383122e-05
timer:         BSH residual     0.08s     0.08s
timer: Update subspace stuf     0.16s     0.16s
Subspace solution [*]  -0.05916597   1.05916597

timer:   Subspace transform     0.03s     0.03s
Norm of vector changes alpha : rms 1.855910e-05    max 3.011899e-05
ORTHOG2a: maxq trantol 2.616243e-06 1.111111e-08
timer:       Orthonormalize     0.14s     0.14s
Norm of vector changes beta : rms 2.034626e-05    max 3.547245e-05
ORTHOG2a: maxq trantol 3.085563e-06 1.250000e-08
timer:       Orthonormalize     0.13s     0.13s

Iteration 2 at time 235.2s

timer:       Make densities     0.10s     0.10s
delta rho 2.183232e-04 2.114518e-04 residuals 3.383122e-05 0.000000e+00
timer:       Nuclear energy     0.03s     0.03s
timer:              Coulomb     0.57s     0.57s
timer:        DFT potential     2.77s     2.77s
timer:                V*psi     0.48s     0.48s
timer:          HF exchange     7.65s     7.65s
timer:        Truncate Vpsi     0.17s     0.17s
timer:        DFT potential     2.18s     2.18s
timer:                V*psi     0.46s     0.46s
timer:          HF exchange     6.54s     6.54s
timer:        Truncate Vpsi     0.15s     0.15s
timer:            PE matrix     0.04s     0.04s
timer:    KEmat reconstruct     0.01s     0.01s
timer:  KEmat differentiate     0.29s     0.29s
timer:       KEmat compress     0.06s     0.06s
timer: KEmat inner products     0.04s     0.04s
timer:            KE matrix     0.41s     0.41s
timer: Make fock matrix res     0.00s     0.00s
timer:            PE matrix     0.02s     0.02s
timer:    KEmat reconstruct     0.01s     0.01s
timer:  KEmat differentiate     0.26s     0.26s
timer:       KEmat compress     0.06s     0.06s
timer: KEmat inner products     0.04s     0.04s
timer:            KE matrix     0.37s     0.37s
timer: Make fock matrix res     0.00s     0.00s
timer: Diagonalization Fock     0.00s     0.00s
timer: Diagonalization rest     0.38s     0.38s
timer: Diagonalization Fock     0.00s     0.00s
timer: Diagonalization rest     0.29s     0.29s

              kinetic     459.55083684
         nonlocal psp       0.00000000
   nuclear attraction   -1094.58793642
              coulomb     203.06639500
                  PCM       0.00000000
 exchange-correlation     -28.21208676
    nuclear-repulsion       0.00000000
                total    -460.18279134

timer: Compute residual stu     0.15s     0.15s
entering apply
timer:            Apply BSH     8.80s     8.80s
timer:     Truncate new psi     0.62s     0.62s
residuals [3.844693e-06, 4.896026e-06, 2.382362e-06, 2.387438e-06, 2.267226e-06, 4.400183e-06, 1.190492e-05, 1.297344e-05, 1.951584e-05]
BSH residual: rms 9.222772e-06    max 1.951584e-05
timer:         BSH residual     0.09s     0.09s
timer: Compute residual stu     0.17s     0.17s
entering apply
timer:            Apply BSH     7.81s     7.81s
timer:     Truncate new psi     0.49s     0.49s
residuals [3.791790e-06, 4.880925e-06, 1.819945e-06, 2.301929e-06, 2.181623e-06, 7.240870e-06, 7.434273e-06, 7.105258e-06]
BSH residual: rms 5.120485e-06    max 7.434273e-06
timer:         BSH residual     0.07s     0.07s
timer: Update subspace stuf     0.21s     0.21s
Subspace solution [*]   0.00882104  -0.27859063   1.26976959

timer:   Subspace transform     0.04s     0.04s
Norm of vector changes alpha : rms 1.136901e-05    max 2.444417e-05
ORTHOG2a: maxq trantol 7.022091e-07 1.111111e-08
timer:       Orthonormalize     0.14s     0.14s
Norm of vector changes beta : rms 6.403530e-06    max 9.089693e-06
ORTHOG2a: maxq trantol 3.453565e-07 1.250000e-08
timer:       Orthonormalize     0.14s     0.14s

Iteration 3 at time 277.8s

timer:       Make densities     0.14s     0.14s
delta rho 8.951270e-05 8.704447e-05 residuals 1.951584e-05 0.000000e+00
timer:       Nuclear energy     0.04s     0.04s
timer:              Coulomb     1.00s     1.00s
timer:        DFT potential     5.30s     5.30s
timer:                V*psi     0.73s     0.73s
timer:          HF exchange    10.31s    10.31s
timer:        Truncate Vpsi     0.27s     0.27s
timer:        DFT potential     4.09s     4.09s
timer:                V*psi     0.69s     0.69s
timer:          HF exchange     9.12s     9.12s
timer:        Truncate Vpsi     0.25s     0.25s
timer:            PE matrix     0.06s     0.06s
timer:    KEmat reconstruct     0.02s     0.02s
timer:  KEmat differentiate     0.44s     0.44s
timer:       KEmat compress     0.11s     0.11s
timer: KEmat inner products     0.06s     0.06s
timer:            KE matrix     0.63s     0.63s
timer: Make fock matrix res     0.00s     0.00s
timer:            PE matrix     0.03s     0.03s
timer:    KEmat reconstruct     0.02s     0.02s
timer:  KEmat differentiate     0.39s     0.39s
timer:       KEmat compress     0.08s     0.08s
timer: KEmat inner products     0.05s     0.05s
timer:            KE matrix     0.54s     0.54s
timer: Make fock matrix res     0.00s     0.00s
timer: Diagonalization Fock     0.00s     0.00s
timer: Diagonalization rest     0.69s     0.69s
timer: Diagonalization Fock     0.00s     0.00s
timer: Diagonalization rest     0.48s     0.48s

              kinetic     459.54948657
         nonlocal psp       0.00000000
   nuclear attraction   -1094.58656411
              coulomb     203.06636346
                  PCM       0.00000000
 exchange-correlation     -28.21207241
    nuclear-repulsion       0.00000000
                total    -460.18278649


Converged!

timer:              Overlap     0.02s     0.02s
timer:      focka eigen sol     0.00s     0.00s
timer:        Transform MOs     0.08s     0.08s
timer:              Overlap     0.02s     0.02s
timer:      fockb eigen sol     0.00s     0.00s
timer:        Transform MOs     0.07s     0.07s
 
alpha eigenvalues
[*] -101.57545786  -9.50869802  -7.28129018  -7.25898529  -7.25898473  -0.85099114  -0.41209809  -0.35943600  -0.35943592

beta eigenvalues
[*] -101.56592167  -9.49902771  -7.25600410  -7.25296802  -7.25296782  -0.79730642  -0.34110720  -0.34110719


 Dipole Moment (a.u.)
 -----------

     x:  8.605820e-09
     y:  1.294467e-07
     z:  1.121169e-07
 Total Dipole Moment:  1.714664e-07 

timer:               dipole     0.00s     0.00s
Orbitals are eigenvectors - energies are eigenvalues

Analysis of alpha MO vectors
timer:      Analyze vectors     0.80s     0.80s
timer: Compute eigen gesv a     0.00s     0.00s
  MO   0 : occ=1.00 : energy=-101.57545786 : center=(0.00,-0.00,-0.00) : radius=0.11
           Cl(0)   s( 0)-0.996  
  MO   1 : occ=1.00 : energy=  -9.50869802 : center=(0.00,-0.00,-0.00) : radius=0.49
           Cl(0)   s( 1) 1.027    Cl(0)   s( 0)-0.286  
  MO   2 : occ=1.00 : energy=  -7.28129018 : center=(0.00,0.00,0.00) : radius=0.45
           Cl(0)  px( 2)-0.574    Cl(0)  py( 3)-0.574    Cl(0)  pz( 4)-0.567  
  MO   3 : occ=1.00 : energy=  -7.25898529 : center=(-0.00,0.00,-0.00) : radius=0.45
           Cl(0)  py( 3) 0.749    Cl(0)  px( 2)-0.639  
  MO   4 : occ=1.00 : energy=  -7.25898473 : center=(-0.00,-0.00,0.00) : radius=0.45
           Cl(0)  pz( 4)-0.805    Cl(0)  px( 2) 0.493    Cl(0)  py( 3) 0.302  
  MO   5 : occ=1.00 : energy=  -0.85099114 : center=(-0.00,-0.00,-0.00) : radius=1.66
           Cl(0)   s( 5) 0.791    Cl(0)   s( 1)-0.389    Cl(0)   s( 9) 0.308  
  MO   6 : occ=1.00 : energy=  -0.41209809 : center=(-0.00,-0.00,-0.00) : radius=1.97
           Cl(0)  px( 6) 0.448    Cl(0)  py( 7) 0.448    Cl(0)  pz( 8) 0.443    Cl(0)  px(10) 0.209    Cl(0)  py(11) 0.209    Cl(0)  pz(12) 0.207  
  MO   7 : occ=1.00 : energy=  -0.35943600 : center=(0.00,0.00,0.00) : radius=2.02
           Cl(0)  px( 6) 0.603    Cl(0)  pz( 8)-0.341    Cl(0)  px(10) 0.320    Cl(0)  py( 7)-0.267    Cl(0)  px( 2)-0.235    Cl(0)  pz(12)-0.181  
  MO   8 : occ=1.00 : energy=  -0.35943592 : center=(0.00,0.00,-0.00) : radius=2.02
           Cl(0)  py( 7)-0.543    Cl(0)  pz( 8) 0.504    Cl(0)  py(11)-0.288    Cl(0)  pz(12) 0.267    Cl(0)  py( 3) 0.212    Cl(0)  pz( 4)-0.196  
Analysis of beta MO vectors
timer:      Analyze vectors     0.75s     0.75s
timer: Compute eigen gesv a     0.00s     0.00s
  MO   0 : occ=1.00 : energy=-101.56592167 : center=(0.00,-0.00,-0.00) : radius=0.11
           Cl(0)   s( 0) 0.997  
  MO   1 : occ=1.00 : energy=  -9.49902771 : center=(-0.00,0.00,-0.00) : radius=0.49
           Cl(0)   s( 1) 1.028    Cl(0)   s( 0)-0.286  
  MO   2 : occ=1.00 : energy=  -7.25600410 : center=(0.00,0.00,0.00) : radius=0.45
           Cl(0)  px( 2) 0.575    Cl(0)  py( 3) 0.574    Cl(0)  pz( 4) 0.568  
  MO   3 : occ=1.00 : energy=  -7.25296802 : center=(-0.00,0.00,-0.00) : radius=0.45
           Cl(0)  py( 3) 0.785    Cl(0)  px( 2)-0.562    Cl(0)  pz( 4)-0.225  
  MO   4 : occ=1.00 : energy=  -7.25296782 : center=(-0.00,-0.00,0.00) : radius=0.45
           Cl(0)  pz( 4) 0.781    Cl(0)  px( 2)-0.580  
  MO   5 : occ=1.00 : energy=  -0.79730642 : center=(-0.00,-0.00,-0.00) : radius=1.67
           Cl(0)   s( 5) 0.776    Cl(0)   s( 1)-0.387    Cl(0)   s( 9) 0.324  
  MO   6 : occ=1.00 : energy=  -0.34110720 : center=(0.00,-0.00,0.00) : radius=2.05
           Cl(0)  py( 7) 0.544    Cl(0)  pz( 8)-0.478    Cl(0)  py(11) 0.306    Cl(0)  pz(12)-0.269    Cl(0)  py( 3)-0.213    Cl(0)  pz( 4) 0.187  
  MO   7 : occ=1.00 : energy=  -0.34110719 : center=(-0.00,0.00,-0.00) : radius=2.05
           Cl(0)  px( 6)-0.589    Cl(0)  pz( 8) 0.358    Cl(0)  px(10)-0.331    Cl(0)  py( 7) 0.236    Cl(0)  px( 2) 0.230    Cl(0)  pz(12) 0.201  
timer:          derivatives     0.82s     0.82s

 Derivatives (a.u.)
 -----------

  atom        x            y            z          dE/dx        dE/dy        dE/dz
 ------ ------------ ------------ ------------ ------------ ------------ ------------
     0     0.000000     0.000000     0.000000    -0.000002    -0.000000     0.000001
timer:             plotting     0.00s     0.00s

    Parallel environment
    --------------------
                  #nodes    1
       #threads per node    13+main = 14
          #total threads    14

  RMI message statistics (min / avg / max)
  ----------------------
   #messages in server q    0.00e+00 / 0.00e+00 / 0.00e+00
 #messages sent per node    0.00e+00 / 0.00e+00 / 0.00e+00
    #bytes sent per node    0.00e+00 / 0.00e+00 / 0.00e+00
 #messages recv per node    0.00e+00 / 0.00e+00 / 0.00e+00
    #bytes recv per node    0.00e+00 / 0.00e+00 / 0.00e+00
        #msgs systemwide    0.00e+00
       #bytes systemwide    0.00e+00

  Thread pool statistics (min / avg / max)
  ----------------------
         #tasks per node    0.00e+00 / 0.00e+00 / 0.00e+00
     #max q len per node    0.00e+00 / 0.00e+00 / 0.00e+00
  #hi-pri tasks per node    0.00e+00 / 0.00e+00 / 0.00e+00

         Total wall time    317.1s
         Total  cpu time    317.1s

