 argument  1 = F.nw
                                         
                                         
 
 
              Northwest Computational Chemistry Package (NWChem) 6.6
              ------------------------------------------------------
 
 
                    Environmental Molecular Sciences Laboratory
                       Pacific Northwest National Laboratory
                                Richland, WA 99352
 
                              Copyright (c) 1994-2015
                       Pacific Northwest National Laboratory
                            Battelle Memorial Institute
 
             NWChem is an open-source computational chemistry package
                        distributed under the terms of the
                      Educational Community License (ECL) 2.0
             A copy of the license is included with this distribution
                              in the LICENSE.TXT file
 
                                  ACKNOWLEDGMENT
                                  --------------

            This software and its documentation were developed at the
            EMSL at Pacific Northwest National Laboratory, a multiprogram
            national laboratory, operated for the U.S. Department of Energy
            by Battelle under Contract Number DE-AC05-76RL01830. Support
            for this work was provided by the Department of Energy Office
            of Biological and Environmental Research, Office of Basic
            Energy Sciences, and the Office of Advanced Scientific Computing.


           Job information
           ---------------

    hostname        = cn-mem
    program         = nwchem
    date            = Sun Jun 17 16:44:20 2018

    compiled        = Mon_Jan_29_13:00:04_2018
    source          = /gpfs/home/bsundahl/nwchem-6.6
    nwchem branch   = 6.6
    nwchem revision = 27746
    ga revision     = 10594
    input           = F.nw
    prefix          = F.
    data base       = /gpfs/scratch/bsundahl/F.db
    status          = startup
    nproc           =       14
    time left       =     -1s



           Memory information
           ------------------

    heap     =  308019196 doubles =   2350.0 Mbytes
    stack    =  150732801 doubles =   1150.0 Mbytes
    global   =   65536000 doubles =    500.0 Mbytes (distinct from heap & stack)
    total    =  524287997 doubles =   4000.0 Mbytes
    verify   = yes
    hardfail = no 


           Directory information
           ---------------------
 
  0 permanent = /gpfs/scratch/bsundahl
  0 scratch   = /gpfs/scratch/bsundahl/
 
 
 
 
                                NWChem Input Module
                                -------------------
 
 

 Scaling coordinates for geometry "geometry" by  1.889725989
 (inverse scale =  0.529177249)

 
 
                             Geometry "geometry" -> ""
                             -------------------------
 
 Output coordinates in angstroms (scale by  1.889725989 to convert to a.u.)
 
  No.       Tag          Charge          X              Y              Z
 ---- ---------------- ---------- -------------- -------------- --------------
    1 F                    9.0000     0.00000000     0.00000000     0.00000000
 
      Atomic Mass 
      ----------- 
 
      F                 18.998400
 

 Effective nuclear repulsion energy (a.u.)       0.0000000000

            Nuclear Dipole moment (a.u.) 
            ----------------------------
        X                 Y               Z
 ---------------- ---------------- ----------------
     0.0000000000     0.0000000000     0.0000000000
 
 
            XYZ format geometry
            -------------------
     1
 geometry
 F                     0.00000000     0.00000000     0.00000000
 


 Summary of "ao basis" -> "" (spherical)
 ------------------------------------------------------------------------------
       Tag                 Description            Shells   Functions and Types
 ---------------- ------------------------------  ------  ---------------------
 *                        aug-cc-pvqz                 on all atoms 


 
                                 NWChem DFT Module
                                 -----------------
 
 
                      Basis "ao basis" -> "ao basis" (spherical)
                      -----
  F (Fluorine)
  ------------
            Exponent  Coefficients 
       -------------- ---------------------------------------------------------
  1 S  7.45300000E+04  0.000095
  1 S  1.11700000E+04  0.000738
  1 S  2.54300000E+03  0.003858
  1 S  7.21000000E+02  0.015926
  1 S  2.35900000E+02  0.054289
  1 S  8.56000000E+01  0.149513
  1 S  3.35500000E+01  0.308252
  1 S  1.39300000E+01  0.394853
  1 S  5.91500000E+00  0.211031
 
  2 S  7.45300000E+04 -0.000022
  2 S  1.11700000E+04 -0.000172
  2 S  2.54300000E+03 -0.000891
  2 S  7.21000000E+02 -0.003748
  2 S  2.35900000E+02 -0.012862
  2 S  8.56000000E+01 -0.038061
  2 S  3.35500000E+01 -0.086239
  2 S  1.39300000E+01 -0.155865
  2 S  5.91500000E+00 -0.110914
 
  3 S  1.84300000E+00  1.000000
 
  4 S  7.12400000E-01  1.000000
 
  5 S  2.63700000E-01  1.000000
 
  6 S  8.59400000E-02  1.000000
 
  7 P  8.03900000E+01  0.006347
  7 P  1.86300000E+01  0.044204
  7 P  5.69400000E+00  0.168514
 
  8 P  1.95300000E+00  1.000000
 
  9 P  6.70200000E-01  1.000000
 
 10 P  2.16600000E-01  1.000000
 
 11 P  6.56800000E-02  1.000000
 
 12 D  5.01400000E+00  1.000000
 
 13 D  1.72500000E+00  1.000000
 
 14 D  5.86000000E-01  1.000000
 
 15 D  2.07000000E-01  1.000000
 
 16 F  3.56200000E+00  1.000000
 
 17 F  1.14800000E+00  1.000000
 
 18 F  4.60000000E-01  1.000000
 
 19 G  2.37600000E+00  1.000000
 
 20 G  9.24000000E-01  1.000000
 


 Summary of "ao basis" -> "ao basis" (spherical)
 ------------------------------------------------------------------------------
       Tag                 Description            Shells   Functions and Types
 ---------------- ------------------------------  ------  ---------------------
 F                        aug-cc-pvqz               20       80   6s5p4d3f2g




 Summary of "ao basis" -> "ao basis" (spherical)
 ------------------------------------------------------------------------------
       Tag                 Description            Shells   Functions and Types
 ---------------- ------------------------------  ------  ---------------------
 F                        aug-cc-pvqz               20       80   6s5p4d3f2g


  Caching 1-el integrals 
 
            General Information
            -------------------
          SCF calculation type: DFT
          Wavefunction type:  spin polarized.
          No. of atoms     :     1
          No. of electrons :     9
           Alpha electrons :     5
            Beta electrons :     4
          Charge           :     0
          Spin multiplicity:     2
          Use of symmetry is: off; symmetry adaption is: off
          Maximum number of iterations: 150
          This is a Direct SCF calculation.
          AO basis - number of functions:    80
                     number of shells:    20
          Convergence on energy requested: 1.00D-06
          Convergence on density requested: 1.00D-05
          Convergence on gradient requested: 5.00D-04
 
              XC Information
              --------------
                         B3LYP Method XC Potential
                     Hartree-Fock (Exact) Exchange  0.200          
                        Slater Exchange Functional  0.800 local    
                    Becke 1988 Exchange Functional  0.720 non-local
              Lee-Yang-Parr Correlation Functional  0.810          
                  VWN I RPA Correlation Functional  0.190 local    
 
             Grid Information
             ----------------
          Grid used for XC integration:  medium    
          Radial quadrature: Mura-Knowles        
          Angular quadrature: Lebedev. 
          Tag              B.-S. Rad. Rad. Pts. Rad. Cut. Ang. Pts.
          ---              ---------- --------- --------- ---------
          F                   0.50       49           6.0       434
          Grid pruning is: on 
          Number of quadrature shells:    49
          Spatial weights used:  Erf1
 
          Convergence Information
          -----------------------
          Convergence aids based upon iterative change in 
          total energy or number of iterations. 
          Levelshifting, if invoked, occurs when the 
          HOMO/LUMO gap drops below (HL_TOL): 1.00D-02
          DIIS, if invoked, will attempt to extrapolate 
          using up to (NFOCK): 10 stored Fock matrices.

                    Damping( 0%)  Levelshifting(0.5)       DIIS
                  --------------- ------------------- ---------------
          dE  on:    start            ASAP                start   
          dE off:    2 iters        150 iters           150 iters 

 
      Screening Tolerance Information
      -------------------------------
          Density screening/tol_rho: 1.00D-10
          AO Gaussian exp screening on grid/accAOfunc:  14
          CD Gaussian exp screening on grid/accCDfunc:  20
          XC Gaussian exp screening on grid/accXCfunc:  20
          Schwarz screening/accCoul: 1.00D-08

 
      Superposition of Atomic Density Guess
      -------------------------------------
 
 Sum of atomic energies:         -99.41985777
 
      Non-variational initial energy
      ------------------------------

 Total energy =     -99.061335
 1-e energy   =    -139.265645
 2-e energy   =      40.204310
 HOMO         =      -0.591466
 LUMO         =       0.168684
 
   Time after variat. SCF:      0.4
   Time prior to 1st pass:      0.4

 Grid_pts file          = /gpfs/scratch/bsundahl//F.gridpts.00
 Record size in doubles =  12289        No. of grid_pts per rec  =   3070
 Max. records in memory =      2        Max. recs in file   = 307118940


           Memory utilization after 1st SCF pass: 
           Heap Space remaining (MW):      307.99           307991684
          Stack Space remaining (MW):      150.73           150732060

   convergence    iter        energy       DeltaE   RMS-Dens  Diis-err    time
 ---------------- ----- ----------------- --------- --------- ---------  ------
 d= 0,ls=0.0,diis     1    -99.7592848895 -9.98D+01  9.98D-04  1.33D-01     0.5
                                                     7.25D-04  7.64D-02
 d= 0,ls=0.0,diis     2    -99.7681788180 -8.89D-03  5.78D-04  2.36D-02     0.7
                                                     6.12D-04  2.27D-02
 d= 0,ls=0.0,diis     3    -99.7722927159 -4.11D-03  2.43D-04  6.26D-03     0.9
                                                     1.82D-04  3.94D-03
 d= 0,ls=0.0,diis     4    -99.7736379512 -1.35D-03  6.93D-06  9.47D-06     1.0
                                                     2.39D-05  2.74D-05
 d= 0,ls=0.0,diis     5    -99.7736440981 -6.15D-06  3.55D-06  5.89D-07     1.1
                                                     8.99D-07  2.49D-08
 d= 0,ls=0.0,diis     6    -99.7736442266 -1.29D-07  3.43D-07  1.58D-09     1.3
                                                     4.07D-07  3.34D-09


         Total DFT energy =      -99.773644226640
      One electron energy =     -139.165885326908
           Coulomb energy =       49.764219038713
    Exchange-Corr. energy =      -10.371977938445
 Nuclear repulsion energy =        0.000000000000

 Numeric. integr. density =        8.999999991288

     Total iterative time =      0.9s


 
                    DFT Final Alpha Molecular Orbital Analysis
                    ------------------------------------------
 
 Vector    1  Occ=1.000000D+00  E=-2.478887D+01
              MO Center= -5.3D-19, -5.4D-19,  1.8D-19, r^2= 1.2D-02
   Bfn.  Coefficient  Atom+Function         Bfn.  Coefficient  Atom+Function  
  ----- ------------  ---------------      ----- ------------  ---------------
     1      0.992986  1 F  s          
 
 Vector    2  Occ=1.000000D+00  E=-1.239155D+00
              MO Center= -3.4D-15,  6.1D-16, -1.6D-15, r^2= 3.4D-01
   Bfn.  Coefficient  Atom+Function         Bfn.  Coefficient  Atom+Function  
  ----- ------------  ---------------      ----- ------------  ---------------
     4      0.577223  1 F  s                  2      0.351491  1 F  s          
     3      0.308187  1 F  s                  5      0.266474  1 F  s          
 
 Vector    3  Occ=1.000000D+00  E=-5.709492D-01
              MO Center=  6.0D-16, -1.5D-15,  2.1D-15, r^2= 4.1D-01
   Bfn.  Coefficient  Atom+Function         Bfn.  Coefficient  Atom+Function  
  ----- ------------  ---------------      ----- ------------  ---------------
    15      0.358887  1 F  pz                12      0.309067  1 F  pz         
    14     -0.224404  1 F  py                11     -0.193252  1 F  py         
    18      0.183954  1 F  pz                 9      0.176879  1 F  pz         
 
 Vector    4  Occ=1.000000D+00  E=-4.827937D-01
              MO Center=  3.2D-15, -3.4D-16, -1.1D-15, r^2= 4.5D-01
   Bfn.  Coefficient  Atom+Function         Bfn.  Coefficient  Atom+Function  
  ----- ------------  ---------------      ----- ------------  ---------------
    13      0.404169  1 F  px                10      0.344293  1 F  px         
    16      0.236972  1 F  px                 7      0.199860  1 F  px         
 
 Vector    5  Occ=1.000000D+00  E=-4.827936D-01
              MO Center=  5.9D-16,  8.7D-16,  2.1D-16, r^2= 4.5D-01
   Bfn.  Coefficient  Atom+Function         Bfn.  Coefficient  Atom+Function  
  ----- ------------  ---------------      ----- ------------  ---------------
    14      0.362330  1 F  py                11      0.308652  1 F  py         
    17      0.212441  1 F  py                15      0.202279  1 F  pz         
     8      0.179170  1 F  py                12      0.172312  1 F  pz         
 
 Vector    6  Occ=0.000000D+00  E= 7.141864D-02
              MO Center= -3.0D-14, -7.3D-14,  9.6D-15, r^2= 3.8D+00
   Bfn.  Coefficient  Atom+Function         Bfn.  Coefficient  Atom+Function  
  ----- ------------  ---------------      ----- ------------  ---------------
     6      1.528896  1 F  s                  5     -0.864683  1 F  s          
     3     -0.150628  1 F  s          
 
 Vector    7  Occ=0.000000D+00  E= 1.014294D-01
              MO Center= -8.6D-15,  2.1D-14, -3.3D-14, r^2= 6.1D+00
   Bfn.  Coefficient  Atom+Function         Bfn.  Coefficient  Atom+Function  
  ----- ------------  ---------------      ----- ------------  ---------------
    21      0.942979  1 F  pz                20     -0.589617  1 F  py         
    19      0.252554  1 F  px                18     -0.212337  1 F  pz         
 
 Vector    8  Occ=0.000000D+00  E= 1.053750D-01
              MO Center=  7.9D-15,  5.2D-14,  3.4D-14, r^2= 6.1D+00
   Bfn.  Coefficient  Atom+Function         Bfn.  Coefficient  Atom+Function  
  ----- ------------  ---------------      ----- ------------  ---------------
    20      0.988267  1 F  py                21      0.581919  1 F  pz         
    17     -0.250323  1 F  py         
 
 Vector    9  Occ=0.000000D+00  E= 1.053750D-01
              MO Center=  2.9D-14,  1.8D-15, -7.4D-15, r^2= 6.1D+00
   Bfn.  Coefficient  Atom+Function         Bfn.  Coefficient  Atom+Function  
  ----- ------------  ---------------      ----- ------------  ---------------
    19      1.117994  1 F  px                21     -0.288374  1 F  pz         
    16     -0.283182  1 F  px         
 
 Vector   10  Occ=0.000000D+00  E= 4.880608D-01
              MO Center=  4.3D-16, -1.7D-16,  6.6D-16, r^2= 2.5D+00
   Bfn.  Coefficient  Atom+Function         Bfn.  Coefficient  Atom+Function  
  ----- ------------  ---------------      ----- ------------  ---------------
    38      0.794797  1 F  d -1              39     -0.564096  1 F  d  0       
    40      0.340432  1 F  d  1              37      0.212864  1 F  d -2       
    41      0.202896  1 F  d  2       
 
 Vector   11  Occ=0.000000D+00  E= 4.899406D-01
              MO Center= -4.8D-16,  1.7D-15, -1.5D-15, r^2= 2.5D+00
   Bfn.  Coefficient  Atom+Function         Bfn.  Coefficient  Atom+Function  
  ----- ------------  ---------------      ----- ------------  ---------------
    39      0.734446  1 F  d  0              41      0.525370  1 F  d  2       
    38      0.494050  1 F  d -1              40     -0.302754  1 F  d  1       
 
 Vector   12  Occ=0.000000D+00  E= 4.899406D-01
              MO Center=  4.4D-16, -5.6D-16,  6.9D-16, r^2= 2.5D+00
   Bfn.  Coefficient  Atom+Function         Bfn.  Coefficient  Atom+Function  
  ----- ------------  ---------------      ----- ------------  ---------------
    40      0.775732  1 F  d  1              37      0.546327  1 F  d -2       
    39      0.460606  1 F  d  0              41     -0.187736  1 F  d  2       
 
 Vector   13  Occ=0.000000D+00  E= 4.992542D-01
              MO Center= -1.7D-15,  3.2D-15,  2.7D-15, r^2= 2.5D+00
   Bfn.  Coefficient  Atom+Function         Bfn.  Coefficient  Atom+Function  
  ----- ------------  ---------------      ----- ------------  ---------------
    41      0.852045  1 F  d  2              38     -0.521141  1 F  d -1       
    37      0.314253  1 F  d -2              39     -0.265332  1 F  d  0       
 
 Vector   14  Occ=0.000000D+00  E= 4.992542D-01
              MO Center=  2.9D-16, -1.3D-15, -8.6D-16, r^2= 2.5D+00
   Bfn.  Coefficient  Atom+Function         Bfn.  Coefficient  Atom+Function  
  ----- ------------  ---------------      ----- ------------  ---------------
    37      0.847276  1 F  d -2              40     -0.589301  1 F  d  1       
    41     -0.298739  1 F  d  2       
 
 Vector   15  Occ=0.000000D+00  E= 6.561050D-01
              MO Center= -8.5D-16, -6.0D-17, -4.9D-16, r^2= 3.0D+00
   Bfn.  Coefficient  Atom+Function         Bfn.  Coefficient  Atom+Function  
  ----- ------------  ---------------      ----- ------------  ---------------
    18      1.411706  1 F  pz                17     -0.882705  1 F  py         
    21     -0.687153  1 F  pz                15     -0.580929  1 F  pz         
    20      0.429660  1 F  py                16      0.378087  1 F  px         
    14      0.363241  1 F  py                19     -0.184035  1 F  px         
    13     -0.155586  1 F  px         
 
 
                     DFT Final Beta Molecular Orbital Analysis
                     -----------------------------------------
 
 Vector    1  Occ=1.000000D+00  E=-2.475714D+01
              MO Center=  2.7D-19, -8.3D-20, -8.9D-19, r^2= 1.2D-02
   Bfn.  Coefficient  Atom+Function         Bfn.  Coefficient  Atom+Function  
  ----- ------------  ---------------      ----- ------------  ---------------
     1      0.995729  1 F  s          
 
 Vector    2  Occ=1.000000D+00  E=-1.147684D+00
              MO Center=  2.2D-16,  1.1D-15,  1.4D-15, r^2= 3.5D-01
   Bfn.  Coefficient  Atom+Function         Bfn.  Coefficient  Atom+Function  
  ----- ------------  ---------------      ----- ------------  ---------------
     4      0.563978  1 F  s                  2      0.342766  1 F  s          
     3      0.297790  1 F  s                  5      0.287033  1 F  s          
 
 Vector    3  Occ=1.000000D+00  E=-4.518260D-01
              MO Center= -5.0D-16, -1.6D-15, -6.8D-16, r^2= 4.7D-01
   Bfn.  Coefficient  Atom+Function         Bfn.  Coefficient  Atom+Function  
  ----- ------------  ---------------      ----- ------------  ---------------
    14      0.359205  1 F  py                11      0.302765  1 F  py         
    17      0.223210  1 F  py                15      0.200040  1 F  pz         
     8      0.176806  1 F  py                12      0.168609  1 F  pz         
 
 Vector    4  Occ=1.000000D+00  E=-4.518254D-01
              MO Center=  3.0D-16, -1.3D-16, -5.6D-17, r^2= 4.7D-01
   Bfn.  Coefficient  Atom+Function         Bfn.  Coefficient  Atom+Function  
  ----- ------------  ---------------      ----- ------------  ---------------
    13      0.400427  1 F  px                10      0.337511  1 F  px         
    16      0.248826  1 F  px                 7      0.197096  1 F  px         
 
 Vector    5  Occ=0.000000D+00  E=-2.775538D-01
              MO Center= -3.0D-16,  6.3D-16, -1.0D-15, r^2= 5.8D-01
   Bfn.  Coefficient  Atom+Function         Bfn.  Coefficient  Atom+Function  
  ----- ------------  ---------------      ----- ------------  ---------------
    15      0.336304  1 F  pz                12      0.271392  1 F  pz         
    18      0.250929  1 F  pz                14     -0.210283  1 F  py         
    11     -0.169695  1 F  py                 9      0.159180  1 F  pz         
    17     -0.156899  1 F  py         
 
 Vector    6  Occ=0.000000D+00  E= 7.630057D-02
              MO Center= -1.4D-14,  3.9D-14,  2.1D-14, r^2= 3.8D+00
   Bfn.  Coefficient  Atom+Function         Bfn.  Coefficient  Atom+Function  
  ----- ------------  ---------------      ----- ------------  ---------------
     6      1.543423  1 F  s                  5     -0.901529  1 F  s          
     3     -0.150018  1 F  s          
 
 Vector    7  Occ=0.000000D+00  E= 1.064976D-01
              MO Center=  2.2D-14, -1.3D-15, -7.1D-15, r^2= 6.1D+00
   Bfn.  Coefficient  Atom+Function         Bfn.  Coefficient  Atom+Function  
  ----- ------------  ---------------      ----- ------------  ---------------
    19      1.104350  1 F  px                21     -0.341044  1 F  pz         
    16     -0.289061  1 F  px         
 
 Vector    8  Occ=0.000000D+00  E= 1.064986D-01
              MO Center= -7.0D-15, -3.4D-14, -1.8D-14, r^2= 6.1D+00
   Bfn.  Coefficient  Atom+Function         Bfn.  Coefficient  Atom+Function  
  ----- ------------  ---------------      ----- ------------  ---------------
    20      0.988786  1 F  py                21      0.554465  1 F  pz         
    17     -0.258812  1 F  py                19      0.236990  1 F  px         
 
 Vector    9  Occ=0.000000D+00  E= 1.144093D-01
              MO Center=  1.6D-15, -3.9D-15,  6.0D-15, r^2= 6.1D+00
   Bfn.  Coefficient  Atom+Function         Bfn.  Coefficient  Atom+Function  
  ----- ------------  ---------------      ----- ------------  ---------------
    21      0.964817  1 F  pz                20     -0.602839  1 F  py         
    18     -0.283900  1 F  pz                19      0.257874  1 F  px         
    17      0.177406  1 F  py         
 
 Vector   10  Occ=0.000000D+00  E= 4.969859D-01
              MO Center= -2.4D-16, -1.0D-15,  1.8D-15, r^2= 2.5D+00
   Bfn.  Coefficient  Atom+Function         Bfn.  Coefficient  Atom+Function  
  ----- ------------  ---------------      ----- ------------  ---------------
    40      0.785887  1 F  d  1              37      0.549394  1 F  d -2       
    39      0.453480  1 F  d  0              41     -0.196304  1 F  d  2       
 
 Vector   11  Occ=0.000000D+00  E= 4.969871D-01
              MO Center= -2.9D-16,  2.5D-17, -4.1D-16, r^2= 2.5D+00
   Bfn.  Coefficient  Atom+Function         Bfn.  Coefficient  Atom+Function  
  ----- ------------  ---------------      ----- ------------  ---------------
    39      0.746148  1 F  d  0              41      0.526653  1 F  d  2       
    38      0.496612  1 F  d -1              40     -0.294122  1 F  d  1       
 
 Vector   12  Occ=0.000000D+00  E= 4.981736D-01
              MO Center=  3.9D-16, -5.2D-16, -4.2D-16, r^2= 2.5D+00
   Bfn.  Coefficient  Atom+Function         Bfn.  Coefficient  Atom+Function  
  ----- ------------  ---------------      ----- ------------  ---------------
    41      0.774465  1 F  d  2              38     -0.509145  1 F  d -1       
    37      0.479523  1 F  d -2              39     -0.286728  1 F  d  0       
 
 Vector   13  Occ=0.000000D+00  E= 4.981736D-01
              MO Center= -2.2D-15,  1.4D-15,  1.7D-15, r^2= 2.5D+00
   Bfn.  Coefficient  Atom+Function         Bfn.  Coefficient  Atom+Function  
  ----- ------------  ---------------      ----- ------------  ---------------
    37      0.766607  1 F  d -2              40     -0.592188  1 F  d  1       
    41     -0.465304  1 F  d  2       
 
 Vector   14  Occ=0.000000D+00  E= 5.003373D-01
              MO Center= -2.7D-16, -4.4D-16,  3.5D-16, r^2= 2.5D+00
   Bfn.  Coefficient  Atom+Function         Bfn.  Coefficient  Atom+Function  
  ----- ------------  ---------------      ----- ------------  ---------------
    38      0.803094  1 F  d -1              39     -0.570642  1 F  d  0       
    40      0.343762  1 F  d  1              37      0.214742  1 F  d -2       
    41      0.205128  1 F  d  2       
 
 Vector   15  Occ=0.000000D+00  E= 6.913784D-01
              MO Center= -4.0D-16, -1.9D-15, -8.3D-16, r^2= 2.9D+00
   Bfn.  Coefficient  Atom+Function         Bfn.  Coefficient  Atom+Function  
  ----- ------------  ---------------      ----- ------------  ---------------
    16      1.631653  1 F  px                19     -0.772868  1 F  px         
    13     -0.712577  1 F  px                18     -0.497222  1 F  pz         
    21      0.235523  1 F  pz                15      0.217144  1 F  pz         
 

   alpha - beta orbital overlaps 
   ----------------------------- 


   alpha      1      2      3      4      5      6      7      8      9     10
    beta      1      2      5      4      3      6      9      8      7     14
 overlap   1.000  1.000  0.992  1.000  1.000  1.000  0.994  0.996  0.996  1.000


   alpha     11     12     13     14     15     16     17     18     19     20
    beta     11     10     12     13     17     16     15     18     23     20
 overlap   1.000  1.000  0.979  0.979  0.996  0.999  0.999  1.000  1.000  0.991


   alpha     21     22     23     24     25     26     27     28     29     30
    beta     19     21     22     25     24     30     29     28     27     26
 overlap   0.991  0.811  0.811  0.982  0.982  1.000  0.999  0.999  0.992  0.992


   alpha     31     32     33     34     35     36     37     38     39     40
    beta     33     32     31     40     37     36     35     34     39     38
 overlap   0.999  1.000  1.000  1.000  0.884  0.884  0.815  0.815  0.992  0.992


   alpha     41     42     43     44     45     46     47     48     49     50
    beta     42     41     43     50     47     46     45     44     49     48
 overlap   0.877  0.877  0.999  1.000  0.993  0.993  0.835  0.835  0.988  0.988


   alpha     51     52     53     54     55     56     57     58     59     60
    beta     55     54     53     52     51     58     57     56     67     64
 overlap   0.999  0.997  0.997  1.000  1.000  1.000  1.000  1.000  1.000  0.981


   alpha     61     62     63     64     65     66     67     68     69     70
    beta     63     62     61     60     59     66     65     74     73     72
 overlap   0.981  1.000  1.000  0.995  0.995  1.000  1.000  1.000  0.993  0.993


   alpha     71     72     73     74     75     76     77     78     79     80
    beta     71     70     69     68     79     78     77     76     75     80
 overlap   0.999  0.999  0.994  0.994  1.000  0.996  0.996  0.999  0.999  1.000


     --------------------------
     Expectation value of S2:  
     --------------------------
      <S2> =      0.7517 (Exact =     0.7500)
 

 Task  times  cpu:        1.2s     wall:        1.5s
 
 
                                NWChem Input Module
                                -------------------
 
 
 Summary of allocated global arrays
-----------------------------------
  No active global arrays



                         GA Statistics for process    0
                         ------------------------------

       create   destroy   get      put      acc     scatter   gather  read&inc
calls:  202      202     1464     1270      153        0        0      212     
number of processes/call 1.31e+00 1.16e+00 3.80e+00 0.00e+00 0.00e+00
bytes total:             2.07e+07 8.16e+06 7.83e+06 0.00e+00 0.00e+00 1.70e+03
bytes remote:            1.82e+06 4.63e+05 1.99e+06 0.00e+00 0.00e+00 0.00e+00
Max memory consumed for GA by this process: 3225600 bytes
 
MA_summarize_allocated_blocks: starting scan ...
MA_summarize_allocated_blocks: scan completed: 0 heap blocks, 0 stack blocks
MA usage statistics:

	allocation statistics:
					      heap	     stack
					      ----	     -----
	current number of blocks	         0	         0
	maximum number of blocks	        22	        52
	current total bytes		         0	         0
	maximum total bytes		    220120	  89022696
	maximum total K-bytes		       221	     89023
	maximum total M-bytes		         1	        90
 
 
                                     CITATION
                                     --------
                Please cite the following reference when publishing
                           results obtained with NWChem:
 
                 M. Valiev, E.J. Bylaska, N. Govind, K. Kowalski,
              T.P. Straatsma, H.J.J. van Dam, D. Wang, J. Nieplocha,
                        E. Apra, T.L. Windus, W.A. de Jong
                 "NWChem: a comprehensive and scalable open-source
                  solution for large scale molecular simulations"
                      Comput. Phys. Commun. 181, 1477 (2010)
                           doi:10.1016/j.cpc.2010.04.018
 
                                      AUTHORS
                                      -------
          E. Apra, E. J. Bylaska, W. A. de Jong, N. Govind, K. Kowalski,
       T. P. Straatsma, M. Valiev, H. J. J. van Dam, D. Wang, T. L. Windus,
        J. Hammond, J. Autschbach, K. Bhaskaran-Nair, J. Brabec, K. Lopata,
       S. A. Fischer, S. Krishnamoorthy, W. Ma, M. Klemm, O. Villa, Y. Chen,
    V. Anisimov, F. Aquino, S. Hirata, M. T. Hackler, T. Risthaus, M. Malagoli,
       A. Marenich, A. Otero-de-la-Roza, J. Mullin, P. Nichols, R. Peverati,
     J. Pittner, Y. Zhao, P.-D. Fan, A. Fonari, M. Williamson, R. J. Harrison,
       J. R. Rehr, M. Dupuis, D. Silverstein, D. M. A. Smith, J. Nieplocha,
        V. Tipparaju, M. Krishnan, B. E. Van Kuiken, A. Vazquez-Mayagoitia,
        L. Jensen, M. Swart, Q. Wu, T. Van Voorhis, A. A. Auer, M. Nooijen,
      L. D. Crosby, E. Brown, G. Cisneros, G. I. Fann, H. Fruchtl, J. Garza,
        K. Hirao, R. A. Kendall, J. A. Nichols, K. Tsemekhman, K. Wolinski,
     J. Anchell, D. E. Bernholdt, P. Borowski, T. Clark, D. Clerc, H. Dachsel,
   M. J. O. Deegan, K. Dyall, D. Elwood, E. Glendening, M. Gutowski, A. C. Hess,
         J. Jaffe, B. G. Johnson, J. Ju, R. Kobayashi, R. Kutteh, Z. Lin,
   R. Littlefield, X. Long, B. Meng, T. Nakajima, S. Niu, L. Pollack, M. Rosing,
   K. Glaesemann, G. Sandrone, M. Stave, H. Taylor, G. Thomas, J. H. van Lenthe,
                               A. T. Wong, Z. Zhang.

 Total times  cpu:        1.2s     wall:        1.6s
