 argument  1 = F.nw
                                         
                                         
 
 
              Northwest Computational Chemistry Package (NWChem) 6.6
              ------------------------------------------------------
 
 
                    Environmental Molecular Sciences Laboratory
                       Pacific Northwest National Laboratory
                                Richland, WA 99352
 
                              Copyright (c) 1994-2015
                       Pacific Northwest National Laboratory
                            Battelle Memorial Institute
 
             NWChem is an open-source computational chemistry package
                        distributed under the terms of the
                      Educational Community License (ECL) 2.0
             A copy of the license is included with this distribution
                              in the LICENSE.TXT file
 
                                  ACKNOWLEDGMENT
                                  --------------

            This software and its documentation were developed at the
            EMSL at Pacific Northwest National Laboratory, a multiprogram
            national laboratory, operated for the U.S. Department of Energy
            by Battelle under Contract Number DE-AC05-76RL01830. Support
            for this work was provided by the Department of Energy Office
            of Biological and Environmental Research, Office of Basic
            Energy Sciences, and the Office of Advanced Scientific Computing.


           Job information
           ---------------

    hostname        = cn-mem
    program         = nwchem
    date            = Sun Jun 17 16:44:07 2018

    compiled        = Mon_Jan_29_13:00:04_2018
    source          = /gpfs/home/bsundahl/nwchem-6.6
    nwchem branch   = 6.6
    nwchem revision = 27746
    ga revision     = 10594
    input           = F.nw
    prefix          = F.
    data base       = /gpfs/scratch/bsundahl/F.db
    status          = startup
    nproc           =       14
    time left       =     -1s



           Memory information
           ------------------

    heap     =  308019196 doubles =   2350.0 Mbytes
    stack    =  150732801 doubles =   1150.0 Mbytes
    global   =   65536000 doubles =    500.0 Mbytes (distinct from heap & stack)
    total    =  524287997 doubles =   4000.0 Mbytes
    verify   = yes
    hardfail = no 


           Directory information
           ---------------------
 
  0 permanent = /gpfs/scratch/bsundahl
  0 scratch   = /gpfs/scratch/bsundahl/
 
 
 
 
                                NWChem Input Module
                                -------------------
 
 

 Scaling coordinates for geometry "geometry" by  1.889725989
 (inverse scale =  0.529177249)

 
 
                             Geometry "geometry" -> ""
                             -------------------------
 
 Output coordinates in angstroms (scale by  1.889725989 to convert to a.u.)
 
  No.       Tag          Charge          X              Y              Z
 ---- ---------------- ---------- -------------- -------------- --------------
    1 F                    9.0000     0.00000000     0.00000000     0.00000000
 
      Atomic Mass 
      ----------- 
 
      F                 18.998400
 

 Effective nuclear repulsion energy (a.u.)       0.0000000000

            Nuclear Dipole moment (a.u.) 
            ----------------------------
        X                 Y               Z
 ---------------- ---------------- ----------------
     0.0000000000     0.0000000000     0.0000000000
 
 
            XYZ format geometry
            -------------------
     1
 geometry
 F                     0.00000000     0.00000000     0.00000000
 


 Summary of "ao basis" -> "" (spherical)
 ------------------------------------------------------------------------------
       Tag                 Description            Shells   Functions and Types
 ---------------- ------------------------------  ------  ---------------------
 *                        aug-cc-pvqz                 on all atoms 


  xc_inp: hfexch multiplicative factor not found.
 
                                 NWChem DFT Module
                                 -----------------
 
 
                      Basis "ao basis" -> "ao basis" (spherical)
                      -----
  F (Fluorine)
  ------------
            Exponent  Coefficients 
       -------------- ---------------------------------------------------------
  1 S  7.45300000E+04  0.000095
  1 S  1.11700000E+04  0.000738
  1 S  2.54300000E+03  0.003858
  1 S  7.21000000E+02  0.015926
  1 S  2.35900000E+02  0.054289
  1 S  8.56000000E+01  0.149513
  1 S  3.35500000E+01  0.308252
  1 S  1.39300000E+01  0.394853
  1 S  5.91500000E+00  0.211031
 
  2 S  7.45300000E+04 -0.000022
  2 S  1.11700000E+04 -0.000172
  2 S  2.54300000E+03 -0.000891
  2 S  7.21000000E+02 -0.003748
  2 S  2.35900000E+02 -0.012862
  2 S  8.56000000E+01 -0.038061
  2 S  3.35500000E+01 -0.086239
  2 S  1.39300000E+01 -0.155865
  2 S  5.91500000E+00 -0.110914
 
  3 S  1.84300000E+00  1.000000
 
  4 S  7.12400000E-01  1.000000
 
  5 S  2.63700000E-01  1.000000
 
  6 S  8.59400000E-02  1.000000
 
  7 P  8.03900000E+01  0.006347
  7 P  1.86300000E+01  0.044204
  7 P  5.69400000E+00  0.168514
 
  8 P  1.95300000E+00  1.000000
 
  9 P  6.70200000E-01  1.000000
 
 10 P  2.16600000E-01  1.000000
 
 11 P  6.56800000E-02  1.000000
 
 12 D  5.01400000E+00  1.000000
 
 13 D  1.72500000E+00  1.000000
 
 14 D  5.86000000E-01  1.000000
 
 15 D  2.07000000E-01  1.000000
 
 16 F  3.56200000E+00  1.000000
 
 17 F  1.14800000E+00  1.000000
 
 18 F  4.60000000E-01  1.000000
 
 19 G  2.37600000E+00  1.000000
 
 20 G  9.24000000E-01  1.000000
 


 Summary of "ao basis" -> "ao basis" (spherical)
 ------------------------------------------------------------------------------
       Tag                 Description            Shells   Functions and Types
 ---------------- ------------------------------  ------  ---------------------
 F                        aug-cc-pvqz               20       80   6s5p4d3f2g




 Summary of "ao basis" -> "ao basis" (spherical)
 ------------------------------------------------------------------------------
       Tag                 Description            Shells   Functions and Types
 ---------------- ------------------------------  ------  ---------------------
 F                        aug-cc-pvqz               20       80   6s5p4d3f2g


  Caching 1-el integrals 
 
            General Information
            -------------------
          SCF calculation type: DFT
          Wavefunction type:  spin polarized.
          No. of atoms     :     1
          No. of electrons :     9
           Alpha electrons :     5
            Beta electrons :     4
          Charge           :     0
          Spin multiplicity:     2
          Use of symmetry is: off; symmetry adaption is: off
          Maximum number of iterations: 150
          This is a Direct SCF calculation.
          AO basis - number of functions:    80
                     number of shells:    20
          Convergence on energy requested: 1.00D-06
          Convergence on density requested: 1.00D-05
          Convergence on gradient requested: 5.00D-04
 
              XC Information
              --------------
                     Hartree-Fock (Exact) Exchange  1.000          
 
          Convergence Information
          -----------------------
          Convergence aids based upon iterative change in 
          total energy or number of iterations. 
          Levelshifting, if invoked, occurs when the 
          HOMO/LUMO gap drops below (HL_TOL): 1.00D-02
          DIIS, if invoked, will attempt to extrapolate 
          using up to (NFOCK): 10 stored Fock matrices.

                    Damping( 0%)  Levelshifting(0.5)       DIIS
                  --------------- ------------------- ---------------
          dE  on:    start            ASAP                start   
          dE off:    2 iters        150 iters           150 iters 

 
      Screening Tolerance Information
      -------------------------------
          Density screening/tol_rho: 1.00D-10
          AO Gaussian exp screening on grid/accAOfunc:  14
          CD Gaussian exp screening on grid/accCDfunc:  20
          XC Gaussian exp screening on grid/accXCfunc:  20
          Schwarz screening/accCoul: 1.00D-08

 
      Superposition of Atomic Density Guess
      -------------------------------------
 
 Sum of atomic energies:         -99.41985777
 
      Non-variational initial energy
      ------------------------------

 Total energy =     -99.061335
 1-e energy   =    -139.265645
 2-e energy   =      40.204310
 HOMO         =      -0.591466
 LUMO         =       0.168684
 
   Time after variat. SCF:      0.4
   Time prior to 1st pass:      0.4

           Memory utilization after 1st SCF pass: 
           Heap Space remaining (MW):      308.02           308016276
          Stack Space remaining (MW):      150.73           150732060

   convergence    iter        energy       DeltaE   RMS-Dens  Diis-err    time
 ---------------- ----- ----------------- --------- --------- ---------  ------
 d= 0,ls=0.0,diis     1    -99.4010578740 -9.94D+01  8.30D-04  5.88D-02     0.4
                                                     4.03D-04  2.89D-02
 d= 0,ls=0.0,diis     2    -99.4123826613 -1.13D-02  1.74D-04  4.77D-03     0.6
                                                     3.00D-04  7.72D-03
 d= 0,ls=0.0,diis     3    -99.4138383142 -1.46D-03  1.11D-04  7.07D-04     0.7
                                                     7.08D-05  1.73D-04
 d= 0,ls=0.0,diis     4    -99.4140541772 -2.16D-04  4.20D-05  3.36D-05     0.8
                                                     4.45D-05  2.92D-05
 d= 0,ls=0.0,diis     5    -99.4140826457 -2.85D-05  1.45D-05  2.11D-06     0.9
                                                     1.66D-05  3.11D-06
  Resetting Diis
 d= 0,ls=0.0,diis     6    -99.4140852945 -2.65D-06  2.66D-06  1.07D-07     1.0
                                                     1.80D-06  2.49D-08
 d= 0,ls=0.0,diis     7    -99.4140853637 -6.92D-08  2.81D-07  4.27D-09     1.1
                                                     1.54D-07  1.24D-09


         Total DFT energy =      -99.414085363705
      One electron energy =     -139.240796320455
           Coulomb energy =       49.870010714334
    Exchange-Corr. energy =      -10.043299757584
 Nuclear repulsion energy =        0.000000000000

 Numeric. integr. density =        0.000000000000

     Total iterative time =      0.7s


 
                    DFT Final Alpha Molecular Orbital Analysis
                    ------------------------------------------
 
 Vector    1  Occ=1.000000D+00  E=-2.640803D+01
              MO Center= -9.0D-19,  2.8D-18, -3.2D-18, r^2= 1.2D-02
   Bfn.  Coefficient  Atom+Function         Bfn.  Coefficient  Atom+Function  
  ----- ------------  ---------------      ----- ------------  ---------------
     1      0.990704  1 F  s          
 
 Vector    2  Occ=1.000000D+00  E=-1.672997D+00
              MO Center=  2.3D-16,  9.3D-16, -3.4D-16, r^2= 3.3D-01
   Bfn.  Coefficient  Atom+Function         Bfn.  Coefficient  Atom+Function  
  ----- ------------  ---------------      ----- ------------  ---------------
     4      0.597903  1 F  s                  2      0.366568  1 F  s          
     3      0.304673  1 F  s                  5      0.250885  1 F  s          
 
 Vector    3  Occ=1.000000D+00  E=-8.454703D-01
              MO Center=  2.7D-16, -6.5D-16, -1.6D-16, r^2= 4.0D-01
   Bfn.  Coefficient  Atom+Function         Bfn.  Coefficient  Atom+Function  
  ----- ------------  ---------------      ----- ------------  ---------------
    14      0.390320  1 F  py                11      0.323267  1 F  py         
    13     -0.188468  1 F  px                 8      0.178046  1 F  py         
    17      0.176390  1 F  py                10     -0.156091  1 F  px         
 
 Vector    4  Occ=1.000000D+00  E=-7.317277D-01
              MO Center= -8.4D-16, -2.3D-16, -3.1D-16, r^2= 4.3D-01
   Bfn.  Coefficient  Atom+Function         Bfn.  Coefficient  Atom+Function  
  ----- ------------  ---------------      ----- ------------  ---------------
    13      0.391901  1 F  px                10      0.320149  1 F  px         
    16      0.206499  1 F  px                 7      0.179184  1 F  px         
    15      0.159255  1 F  pz         
 
 Vector    5  Occ=1.000000D+00  E=-7.317277D-01
              MO Center= -2.3D-16, -4.4D-16,  7.4D-16, r^2= 4.3D-01
   Bfn.  Coefficient  Atom+Function         Bfn.  Coefficient  Atom+Function  
  ----- ------------  ---------------      ----- ------------  ---------------
    15      0.393953  1 F  pz                12      0.321825  1 F  pz         
    18      0.207581  1 F  pz                 9      0.180122  1 F  pz         
    14     -0.180348  1 F  py         
 
 Vector    6  Occ=0.000000D+00  E= 1.603345D-01
              MO Center= -4.3D-14,  8.3D-14,  2.9D-14, r^2= 6.4D+00
   Bfn.  Coefficient  Atom+Function         Bfn.  Coefficient  Atom+Function  
  ----- ------------  ---------------      ----- ------------  ---------------
    20      1.029868  1 F  py                19     -0.497276  1 F  px         
    21      0.348044  1 F  pz                17     -0.319204  1 F  py         
    16      0.154129  1 F  px         
 
 Vector    7  Occ=0.000000D+00  E= 1.683070D-01
              MO Center=  5.5D-13,  6.2D-13, -1.1D-12, r^2= 6.4D+00
   Bfn.  Coefficient  Atom+Function         Bfn.  Coefficient  Atom+Function  
  ----- ------------  ---------------      ----- ------------  ---------------
    21      0.949819  1 F  pz                20     -0.558415  1 F  py         
    19     -0.491709  1 F  px                18     -0.315071  1 F  pz         
    17      0.185235  1 F  py                16      0.163108  1 F  px         
 
 Vector    8  Occ=0.000000D+00  E= 1.683070D-01
              MO Center=  9.1D-13,  2.3D-13,  6.1D-13, r^2= 6.4D+00
   Bfn.  Coefficient  Atom+Function         Bfn.  Coefficient  Atom+Function  
  ----- ------------  ---------------      ----- ------------  ---------------
    19      0.980856  1 F  px                21      0.655901  1 F  pz         
    16     -0.325366  1 F  px                20      0.251948  1 F  py         
    18     -0.217573  1 F  pz         
 
 Vector    9  Occ=0.000000D+00  E= 1.698098D-01
              MO Center= -1.4D-12, -9.4D-13,  4.2D-13, r^2= 4.0D+00
   Bfn.  Coefficient  Atom+Function         Bfn.  Coefficient  Atom+Function  
  ----- ------------  ---------------      ----- ------------  ---------------
     6      1.602312  1 F  s                  5     -1.042412  1 F  s          
     3     -0.154550  1 F  s          
 
 Vector   10  Occ=0.000000D+00  E= 6.190763D-01
              MO Center= -1.1D-15,  6.0D-16,  6.9D-16, r^2= 2.6D+00
   Bfn.  Coefficient  Atom+Function         Bfn.  Coefficient  Atom+Function  
  ----- ------------  ---------------      ----- ------------  ---------------
    37      0.682306  1 F  d -2              41      0.541807  1 F  d  2       
    38     -0.477546  1 F  d -1              39      0.409846  1 F  d  0       
    40     -0.230585  1 F  d  1       
 
 Vector   11  Occ=0.000000D+00  E= 6.232523D-01
              MO Center=  1.2D-15,  2.0D-15,  2.7D-16, r^2= 2.6D+00
   Bfn.  Coefficient  Atom+Function         Bfn.  Coefficient  Atom+Function  
  ----- ------------  ---------------      ----- ------------  ---------------
    41      0.826909  1 F  d  2              37     -0.652896  1 F  d -2       
    40      0.292535  1 F  d  1       
 
 Vector   12  Occ=0.000000D+00  E= 6.232523D-01
              MO Center=  1.7D-16,  1.3D-16,  8.0D-16, r^2= 2.6D+00
   Bfn.  Coefficient  Atom+Function         Bfn.  Coefficient  Atom+Function  
  ----- ------------  ---------------      ----- ------------  ---------------
    38      0.824936  1 F  d -1              39      0.531302  1 F  d  0       
    40      0.394926  1 F  d  1              37      0.246473  1 F  d -2       
    41      0.182883  1 F  d  2       
 
 Vector   13  Occ=0.000000D+00  E= 6.362077D-01
              MO Center= -7.5D-16,  4.3D-16, -5.9D-16, r^2= 2.6D+00
   Bfn.  Coefficient  Atom+Function         Bfn.  Coefficient  Atom+Function  
  ----- ------------  ---------------      ----- ------------  ---------------
    39      0.744474  1 F  d  0              40     -0.617993  1 F  d  1       
    37     -0.504925  1 F  d -2              41     -0.183353  1 F  d  2       
 
 Vector   14  Occ=0.000000D+00  E= 6.362077D-01
              MO Center= -5.5D-15, -3.0D-15,  1.1D-15, r^2= 2.6D+00
   Bfn.  Coefficient  Atom+Function         Bfn.  Coefficient  Atom+Function  
  ----- ------------  ---------------      ----- ------------  ---------------
    40      0.738293  1 F  d  1              38     -0.537522  1 F  d -1       
    39      0.463916  1 F  d  0              41     -0.411569  1 F  d  2       
 
 Vector   15  Occ=0.000000D+00  E= 8.239387D-01
              MO Center= -1.3D-16,  1.8D-17, -2.2D-15, r^2= 2.8D+00
   Bfn.  Coefficient  Atom+Function         Bfn.  Coefficient  Atom+Function  
  ----- ------------  ---------------      ----- ------------  ---------------
    17      1.487795  1 F  py                16     -0.718388  1 F  px         
    14     -0.662913  1 F  py                20     -0.656150  1 F  py         
    18      0.502801  1 F  pz                13      0.320090  1 F  px         
    19      0.316825  1 F  px                15     -0.224032  1 F  pz         
    21     -0.221746  1 F  pz         
 
 
                     DFT Final Beta Molecular Orbital Analysis
                     -----------------------------------------
 
 Vector    1  Occ=1.000000D+00  E=-2.635997D+01
              MO Center=  1.6D-19,  3.1D-18, -3.0D-18, r^2= 1.2D-02
   Bfn.  Coefficient  Atom+Function         Bfn.  Coefficient  Atom+Function  
  ----- ------------  ---------------      ----- ------------  ---------------
     1      0.993272  1 F  s          
 
 Vector    2  Occ=1.000000D+00  E=-1.477484D+00
              MO Center=  2.6D-16, -1.5D-16, -3.0D-16, r^2= 3.5D-01
   Bfn.  Coefficient  Atom+Function         Bfn.  Coefficient  Atom+Function  
  ----- ------------  ---------------      ----- ------------  ---------------
     4      0.575818  1 F  s                  2      0.355394  1 F  s          
     3      0.291196  1 F  s                  5      0.283430  1 F  s          
 
 Vector    3  Occ=1.000000D+00  E=-6.799837D-01
              MO Center=  5.6D-16,  5.2D-17,  6.6D-16, r^2= 4.6D-01
   Bfn.  Coefficient  Atom+Function         Bfn.  Coefficient  Atom+Function  
  ----- ------------  ---------------      ----- ------------  ---------------
    13      0.310903  1 F  px                15      0.307602  1 F  pz         
    10      0.249290  1 F  px                12      0.246643  1 F  pz         
    16      0.179559  1 F  px                18      0.177652  1 F  pz         
 
 Vector    4  Occ=1.000000D+00  E=-6.799837D-01
              MO Center=  2.6D-16,  8.9D-17,  2.3D-17, r^2= 4.6D-01
   Bfn.  Coefficient  Atom+Function         Bfn.  Coefficient  Atom+Function  
  ----- ------------  ---------------      ----- ------------  ---------------
    15      0.287049  1 F  pz                13     -0.251560  1 F  px         
    12      0.230164  1 F  pz                14     -0.218475  1 F  py         
    10     -0.201707  1 F  px                11     -0.175179  1 F  py         
    18      0.165782  1 F  pz         
 
 Vector    5  Occ=0.000000D+00  E= 3.527937D-02
              MO Center= -6.5D-16,  1.5D-15,  6.2D-16, r^2= 1.9D+00
   Bfn.  Coefficient  Atom+Function         Bfn.  Coefficient  Atom+Function  
  ----- ------------  ---------------      ----- ------------  ---------------
    20      0.396582  1 F  py                14      0.272461  1 F  py         
    17      0.223295  1 F  py                11      0.191973  1 F  py         
    19     -0.191491  1 F  px         
 
 Vector    6  Occ=0.000000D+00  E= 1.698428D-01
              MO Center= -4.8D-14, -2.0D-14, -1.5D-14, r^2= 6.5D+00
   Bfn.  Coefficient  Atom+Function         Bfn.  Coefficient  Atom+Function  
  ----- ------------  ---------------      ----- ------------  ---------------
    19      1.089102  1 F  px                20      0.416140  1 F  py         
    16     -0.371123  1 F  px                21      0.324714  1 F  pz         
 
 Vector    7  Occ=0.000000D+00  E= 1.698428D-01
              MO Center=  2.1D-15,  6.3D-15, -1.4D-14, r^2= 6.5D+00
   Bfn.  Coefficient  Atom+Function         Bfn.  Coefficient  Atom+Function  
  ----- ------------  ---------------      ----- ------------  ---------------
    21      1.111375  1 F  pz                20     -0.452163  1 F  py         
    18     -0.378713  1 F  pz                19     -0.158585  1 F  px         
    17      0.154079  1 F  py         
 
 Vector    8  Occ=0.000000D+00  E= 1.754423D-01
              MO Center=  4.0D-14,  2.4D-14,  3.4D-14, r^2= 4.0D+00
   Bfn.  Coefficient  Atom+Function         Bfn.  Coefficient  Atom+Function  
  ----- ------------  ---------------      ----- ------------  ---------------
     6      1.617606  1 F  s                  5     -1.083775  1 F  s          
     3     -0.154995  1 F  s          
 
 Vector    9  Occ=0.000000D+00  E= 2.096805D-01
              MO Center=  8.0D-15, -1.4D-14, -5.2D-15, r^2= 5.4D+00
   Bfn.  Coefficient  Atom+Function         Bfn.  Coefficient  Atom+Function  
  ----- ------------  ---------------      ----- ------------  ---------------
    20      0.996719  1 F  py                17     -0.576476  1 F  py         
    19     -0.481270  1 F  px                21      0.336841  1 F  pz         
    16      0.278354  1 F  px                18     -0.194820  1 F  pz         
    11     -0.172506  1 F  py         
 
 Vector   10  Occ=0.000000D+00  E= 6.326269D-01
              MO Center=  1.8D-17,  2.4D-17, -1.5D-16, r^2= 2.6D+00
   Bfn.  Coefficient  Atom+Function         Bfn.  Coefficient  Atom+Function  
  ----- ------------  ---------------      ----- ------------  ---------------
    37      0.691019  1 F  d -2              41      0.548726  1 F  d  2       
    38     -0.483644  1 F  d -1              39      0.415080  1 F  d  0       
    40     -0.233530  1 F  d  1       
 
 Vector   11  Occ=0.000000D+00  E= 6.329396D-01
              MO Center= -1.1D-15,  1.4D-15,  5.7D-16, r^2= 2.6D+00
   Bfn.  Coefficient  Atom+Function         Bfn.  Coefficient  Atom+Function  
  ----- ------------  ---------------      ----- ------------  ---------------
    41      0.749349  1 F  d  2              40      0.484726  1 F  d  1       
    38      0.448783  1 F  d -1              39      0.357209  1 F  d  0       
    37     -0.331696  1 F  d -2       
 
 Vector   12  Occ=0.000000D+00  E= 6.329396D-01
              MO Center= -7.1D-16,  5.0D-16, -3.5D-16, r^2= 2.6D+00
   Bfn.  Coefficient  Atom+Function         Bfn.  Coefficient  Atom+Function  
  ----- ------------  ---------------      ----- ------------  ---------------
    38      0.713718  1 F  d -1              37      0.621332  1 F  d -2       
    41     -0.411136  1 F  d  2              39      0.399946  1 F  d  0       
 
 Vector   13  Occ=0.000000D+00  E= 6.346120D-01
              MO Center= -1.1D-16,  5.5D-17, -9.7D-16, r^2= 2.6D+00
   Bfn.  Coefficient  Atom+Function         Bfn.  Coefficient  Atom+Function  
  ----- ------------  ---------------      ----- ------------  ---------------
    40      0.893679  1 F  d  1              39     -0.436025  1 F  d  0       
    37      0.407474  1 F  d -2              38     -0.261366  1 F  d -1       
    35     -0.161304  1 F  d  1       
 
 Vector   14  Occ=0.000000D+00  E= 6.346120D-01
              MO Center=  3.0D-16,  4.0D-16, -5.2D-16, r^2= 2.6D+00
   Bfn.  Coefficient  Atom+Function         Bfn.  Coefficient  Atom+Function  
  ----- ------------  ---------------      ----- ------------  ---------------
    39      0.760919  1 F  d  0              38     -0.469629  1 F  d -1       
    41     -0.449228  1 F  d  2              40      0.357654  1 F  d  1       
    37     -0.308168  1 F  d -2       
 
 Vector   15  Occ=0.000000D+00  E= 8.718496D-01
              MO Center= -1.7D-15, -2.0D-15,  5.4D-17, r^2= 2.7D+00
   Bfn.  Coefficient  Atom+Function         Bfn.  Coefficient  Atom+Function  
  ----- ------------  ---------------      ----- ------------  ---------------
    16      1.157548  1 F  px                18     -0.933141  1 F  pz         
    17      0.874282  1 F  py                13     -0.548785  1 F  px         
    19     -0.497461  1 F  px                15      0.442395  1 F  pz         
    14     -0.414490  1 F  py                21      0.401021  1 F  pz         
    20     -0.375726  1 F  py         
 

   alpha - beta orbital overlaps 
   ----------------------------- 


   alpha      1      2      3      4      5      6      7      8      9     10
    beta      1      2      5      3      4      9      7      6      8     10
 overlap   1.000  0.999  0.857  0.906  0.906  0.872  0.949  0.949  1.000  0.999


   alpha     11     12     13     14     15     16     17     18     19     20
    beta     11     12     13     14     17     15     16     18     19     20
 overlap   0.752  0.752  0.881  0.881  0.971  0.721  0.721  1.000  1.000  0.989


   alpha     21     22     23     24     25     26     27     28     29     30
    beta     21     23     22     25     24     30     29     28     26     27
 overlap   0.989  0.771  0.771  0.888  0.888  0.999  0.979  0.979  0.955  0.955


   alpha     31     32     33     34     35     36     37     38     39     40
    beta     33     32     31     34     35     36     37     38     40     39
 overlap   0.998  0.939  0.939  1.000  0.976  0.976  0.954  0.954  0.895  0.895


   alpha     41     42     43     44     45     46     47     48     49     50
    beta     41     42     43     44     46     45     47     48     50     49
 overlap   0.995  0.995  0.999  1.000  0.894  0.894  0.999  0.999  0.999  0.999


   alpha     51     52     53     54     55     56     57     58     59     60
    beta     55     53     54     51     52     58     56     57     59     61
 overlap   0.999  0.985  0.985  0.801  0.801  1.000  0.991  0.991  1.000  0.937


   alpha     61     62     63     64     65     66     67     68     69     70
    beta     60     62     63     64     65     66     67     68     69     70
 overlap   0.937  0.999  0.999  0.759  0.759  1.000  1.000  1.000  0.942  0.942


   alpha     71     72     73     74     75     76     77     78     79     80
    beta     72     71     74     73     75     76     77     78     79     80
 overlap   0.855  0.855  0.951  0.951  1.000  0.983  0.983  0.978  0.978  1.000


     --------------------------
     Expectation value of S2:  
     --------------------------
      <S2> =      0.7542 (Exact =     0.7500)
 

 Task  times  cpu:        1.1s     wall:        1.2s
 
 
                                NWChem Input Module
                                -------------------
 
 
 Summary of allocated global arrays
-----------------------------------
  No active global arrays



                         GA Statistics for process    0
                         ------------------------------

       create   destroy   get      put      acc     scatter   gather  read&inc
calls:  246      246     1574     1370      159        0        0      201     
number of processes/call 1.31e+00 1.15e+00 4.03e+00 0.00e+00 0.00e+00
bytes total:             2.21e+07 9.40e+06 8.14e+06 0.00e+00 0.00e+00 1.61e+03
bytes remote:            1.94e+06 5.06e+05 2.18e+06 0.00e+00 0.00e+00 0.00e+00
Max memory consumed for GA by this process: 3225600 bytes
 
MA_summarize_allocated_blocks: starting scan ...
MA_summarize_allocated_blocks: scan completed: 0 heap blocks, 0 stack blocks
MA usage statistics:

	allocation statistics:
					      heap	     stack
					      ----	     -----
	current number of blocks	         0	         0
	maximum number of blocks	        20	        19
	current total bytes		         0	         0
	maximum total bytes		     80136	  89022696
	maximum total K-bytes		        81	     89023
	maximum total M-bytes		         1	        90
 
 
                                     CITATION
                                     --------
                Please cite the following reference when publishing
                           results obtained with NWChem:
 
                 M. Valiev, E.J. Bylaska, N. Govind, K. Kowalski,
              T.P. Straatsma, H.J.J. van Dam, D. Wang, J. Nieplocha,
                        E. Apra, T.L. Windus, W.A. de Jong
                 "NWChem: a comprehensive and scalable open-source
                  solution for large scale molecular simulations"
                      Comput. Phys. Commun. 181, 1477 (2010)
                           doi:10.1016/j.cpc.2010.04.018
 
                                      AUTHORS
                                      -------
          E. Apra, E. J. Bylaska, W. A. de Jong, N. Govind, K. Kowalski,
       T. P. Straatsma, M. Valiev, H. J. J. van Dam, D. Wang, T. L. Windus,
        J. Hammond, J. Autschbach, K. Bhaskaran-Nair, J. Brabec, K. Lopata,
       S. A. Fischer, S. Krishnamoorthy, W. Ma, M. Klemm, O. Villa, Y. Chen,
    V. Anisimov, F. Aquino, S. Hirata, M. T. Hackler, T. Risthaus, M. Malagoli,
       A. Marenich, A. Otero-de-la-Roza, J. Mullin, P. Nichols, R. Peverati,
     J. Pittner, Y. Zhao, P.-D. Fan, A. Fonari, M. Williamson, R. J. Harrison,
       J. R. Rehr, M. Dupuis, D. Silverstein, D. M. A. Smith, J. Nieplocha,
        V. Tipparaju, M. Krishnan, B. E. Van Kuiken, A. Vazquez-Mayagoitia,
        L. Jensen, M. Swart, Q. Wu, T. Van Voorhis, A. A. Auer, M. Nooijen,
      L. D. Crosby, E. Brown, G. Cisneros, G. I. Fann, H. Fruchtl, J. Garza,
        K. Hirao, R. A. Kendall, J. A. Nichols, K. Tsemekhman, K. Wolinski,
     J. Anchell, D. E. Bernholdt, P. Borowski, T. Clark, D. Clerc, H. Dachsel,
   M. J. O. Deegan, K. Dyall, D. Elwood, E. Glendening, M. Gutowski, A. C. Hess,
         J. Jaffe, B. G. Johnson, J. Ju, R. Kobayashi, R. Kutteh, Z. Lin,
   R. Littlefield, X. Long, B. Meng, T. Nakajima, S. Niu, L. Pollack, M. Rosing,
   K. Glaesemann, G. Sandrone, M. Stave, H. Taylor, G. Thomas, J. H. van Lenthe,
                               A. T. Wong, Z. Zhang.

 Total times  cpu:        1.1s     wall:        1.3s
