 argument  1 = Na.nw
                                         
                                         
 
 
              Northwest Computational Chemistry Package (NWChem) 6.6
              ------------------------------------------------------
 
 
                    Environmental Molecular Sciences Laboratory
                       Pacific Northwest National Laboratory
                                Richland, WA 99352
 
                              Copyright (c) 1994-2015
                       Pacific Northwest National Laboratory
                            Battelle Memorial Institute
 
             NWChem is an open-source computational chemistry package
                        distributed under the terms of the
                      Educational Community License (ECL) 2.0
             A copy of the license is included with this distribution
                              in the LICENSE.TXT file
 
                                  ACKNOWLEDGMENT
                                  --------------

            This software and its documentation were developed at the
            EMSL at Pacific Northwest National Laboratory, a multiprogram
            national laboratory, operated for the U.S. Department of Energy
            by Battelle under Contract Number DE-AC05-76RL01830. Support
            for this work was provided by the Department of Energy Office
            of Biological and Environmental Research, Office of Basic
            Energy Sciences, and the Office of Advanced Scientific Computing.


           Job information
           ---------------

    hostname        = cn-mem
    program         = nwchem
    date            = Wed Jun 20 08:27:57 2018

    compiled        = Mon_Jan_29_13:00:04_2018
    source          = /gpfs/home/bsundahl/nwchem-6.6
    nwchem branch   = 6.6
    nwchem revision = 27746
    ga revision     = 10594
    input           = Na.nw
    prefix          = Na.
    data base       = /gpfs/projects/rjh/NWCHEM_BENCHMARK/HF_FULL/JUNK/Na.db
    status          = startup
    nproc           =       28
    time left       =     -1s



           Memory information
           ------------------

    heap     =  308019196 doubles =   2350.0 Mbytes
    stack    =  150732801 doubles =   1150.0 Mbytes
    global   =   65536000 doubles =    500.0 Mbytes (distinct from heap & stack)
    total    =  524287997 doubles =   4000.0 Mbytes
    verify   = yes
    hardfail = no 


           Directory information
           ---------------------
 
  0 permanent = /gpfs/projects/rjh/NWCHEM_BENCHMARK/HF_FULL/JUNK
  0 scratch   = /gpfs/projects/rjh/NWCHEM_BENCHMARK/HF_FULL/JUNK
 
 
 
 
                                NWChem Input Module
                                -------------------
 
 

 Scaling coordinates for geometry "geometry" by  1.889725989
 (inverse scale =  0.529177249)

 
 
                             Geometry "geometry" -> ""
                             -------------------------
 
 Output coordinates in angstroms (scale by  1.889725989 to convert to a.u.)
 
  No.       Tag          Charge          X              Y              Z
 ---- ---------------- ---------- -------------- -------------- --------------
    1 Na                  11.0000     0.00000000     0.00000000     0.00000000
 
      Atomic Mass 
      ----------- 
 
      Na                22.989800
 

 Effective nuclear repulsion energy (a.u.)       0.0000000000

            Nuclear Dipole moment (a.u.) 
            ----------------------------
        X                 Y               Z
 ---------------- ---------------- ----------------
     0.0000000000     0.0000000000     0.0000000000
 
 
            XYZ format geometry
            -------------------
     1
 geometry
 Na                    0.00000000     0.00000000     0.00000000
 


 Summary of "ao basis" -> "" (spherical)
 ------------------------------------------------------------------------------
       Tag                 Description            Shells   Functions and Types
 ---------------- ------------------------------  ------  ---------------------
 *                        aug-cc-pvqz                 on all atoms 


 
                                 NWChem DFT Module
                                 -----------------
 
 
                      Basis "ao basis" -> "ao basis" (spherical)
                      -----
  Na (Sodium)
  -----------
            Exponent  Coefficients 
       -------------- ---------------------------------------------------------
  1 S  1.22400000E+06  0.000005
  1 S  1.83200000E+05  0.000037
  1 S  4.17000000E+04  0.000196
  1 S  1.18100000E+04  0.000827
  1 S  3.85300000E+03  0.003003
  1 S  1.39100000E+03  0.009703
  1 S  5.42500000E+02  0.028234
  1 S  2.24900000E+02  0.073206
  1 S  9.79300000E+01  0.162897
  1 S  4.43100000E+01  0.288708
  1 S  2.06500000E+01  0.346829
  1 S  9.72900000E+00  0.206865
  1 S  4.22800000E+00  0.032801
  1 S  1.96900000E+00 -0.000648
  1 S  8.89000000E-01  0.001459
  1 S  3.96400000E-01 -0.000178
 
  2 S  1.22400000E+06 -0.000001
  2 S  1.83200000E+05 -0.000009
  2 S  4.17000000E+04 -0.000048
  2 S  1.18100000E+04 -0.000202
  2 S  3.85300000E+03 -0.000736
  2 S  1.39100000E+03 -0.002387
  2 S  5.42500000E+02 -0.007050
  2 S  2.24900000E+02 -0.018786
  2 S  9.79300000E+01 -0.044615
  2 S  4.43100000E+01 -0.089774
  2 S  2.06500000E+01 -0.142940
  2 S  9.72900000E+00 -0.124315
  2 S  4.22800000E+00  0.099965
  2 S  1.96900000E+00  0.417080
  2 S  8.89000000E-01  0.475123
  2 S  3.96400000E-01  0.163268
 
  3 S  1.22400000E+06  0.000000
  3 S  1.83200000E+05  0.000001
  3 S  4.17000000E+04  0.000007
  3 S  1.18100000E+04  0.000030
  3 S  3.85300000E+03  0.000111
  3 S  1.39100000E+03  0.000359
  3 S  5.42500000E+02  0.001063
  3 S  2.24900000E+02  0.002827
  3 S  9.79300000E+01  0.006767
  3 S  4.43100000E+01  0.013648
  3 S  2.06500000E+01  0.022281
  3 S  9.72900000E+00  0.019601
  3 S  4.22800000E+00 -0.016771
  3 S  1.96900000E+00 -0.077373
  3 S  8.89000000E-01 -0.113501
  3 S  3.96400000E-01 -0.139130
 
  4 S  6.99300000E-02  1.000000
 
  5 S  3.28900000E-02  1.000000
 
  6 S  1.61200000E-02  1.000000
 
  7 S  5.03000000E-03  1.000000
 
  8 P  4.13400000E+02  0.000908
  8 P  9.79800000E+01  0.007418
  8 P  3.13700000E+01  0.035746
  8 P  1.16200000E+01  0.118520
  8 P  4.67100000E+00  0.261403
  8 P  1.91800000E+00  0.378395
  8 P  7.77500000E-01  0.334632
  8 P  3.01300000E-01  0.126844
  8 P  2.27500000E-01 -0.014712
 
  9 P  4.13400000E+02 -0.000090
  9 P  9.79800000E+01 -0.000739
  9 P  3.13700000E+01 -0.003573
  9 P  1.16200000E+01 -0.012014
  9 P  4.67100000E+00 -0.026718
  9 P  1.91800000E+00 -0.039275
  9 P  7.77500000E-01 -0.037608
  9 P  3.01300000E-01 -0.043323
  9 P  2.27500000E-01  0.051800
 
 10 P  7.52700000E-02  1.000000
 
 11 P  3.12600000E-02  1.000000
 
 12 P  1.34200000E-02  1.000000
 
 13 P  7.72000000E-03  1.000000
 
 14 D  1.53800000E-01  1.000000
 
 15 D  8.65000000E-02  1.000000
 
 16 D  4.87000000E-02  1.000000
 
 17 D  2.10000000E-02  1.000000
 
 18 F  1.91200000E-01  1.000000
 
 19 F  1.03600000E-01  1.000000
 
 20 F  4.53000000E-02  1.000000
 
 21 G  1.72200000E-01  1.000000
 
 22 G  8.66000000E-02  1.000000
 


 Summary of "ao basis" -> "ao basis" (spherical)
 ------------------------------------------------------------------------------
       Tag                 Description            Shells   Functions and Types
 ---------------- ------------------------------  ------  ---------------------
 Na                       aug-cc-pvqz               22       84   7s6p4d3f2g




 Summary of "ao basis" -> "ao basis" (spherical)
 ------------------------------------------------------------------------------
       Tag                 Description            Shells   Functions and Types
 ---------------- ------------------------------  ------  ---------------------
 Na                       aug-cc-pvqz               22       84   7s6p4d3f2g


  Caching 1-el integrals 
 
            General Information
            -------------------
          SCF calculation type: DFT
          Wavefunction type:  spin polarized.
          No. of atoms     :     1
          No. of electrons :    11
           Alpha electrons :     6
            Beta electrons :     5
          Charge           :     0
          Spin multiplicity:     2
          Use of symmetry is: off; symmetry adaption is: off
          Maximum number of iterations: 150
          This is a Direct SCF calculation.
          AO basis - number of functions:    84
                     number of shells:    22
          Convergence on energy requested: 1.00D-06
          Convergence on density requested: 1.00D-05
          Convergence on gradient requested: 5.00D-04
 
              XC Information
              --------------
                        Slater Exchange Functional  1.000 local    
                      VWN V Correlation Functional  1.000 local    
 
             Grid Information
             ----------------
          Grid used for XC integration:  medium    
          Radial quadrature: Mura-Knowles        
          Angular quadrature: Lebedev. 
          Tag              B.-S. Rad. Rad. Pts. Rad. Cut. Ang. Pts.
          ---              ---------- --------- --------- ---------
          Na                  1.80       88          21.0       434
          Grid pruning is: on 
          Number of quadrature shells:    88
          Spatial weights used:  Erf1
 
          Convergence Information
          -----------------------
          Convergence aids based upon iterative change in 
          total energy or number of iterations. 
          Levelshifting, if invoked, occurs when the 
          HOMO/LUMO gap drops below (HL_TOL): 1.00D-02
          DIIS, if invoked, will attempt to extrapolate 
          using up to (NFOCK): 10 stored Fock matrices.

                    Damping( 0%)  Levelshifting(0.5)       DIIS
                  --------------- ------------------- ---------------
          dE  on:    start            ASAP                start   
          dE off:    2 iters        150 iters           150 iters 

 
      Screening Tolerance Information
      -------------------------------
          Density screening/tol_rho: 1.00D-10
          AO Gaussian exp screening on grid/accAOfunc:  14
          CD Gaussian exp screening on grid/accCDfunc:  20
          XC Gaussian exp screening on grid/accXCfunc:  20
          Schwarz screening/accCoul: 1.00D-08

 
      Superposition of Atomic Density Guess
      -------------------------------------
 
 Sum of atomic energies:        -161.85867667
 
      Non-variational initial energy
      ------------------------------

 Total energy =    -161.804863
 1-e energy   =    -227.874930
 2-e energy   =      66.070067
 HOMO         =      -0.076997
 LUMO         =       0.011710
 
   Time after variat. SCF:      2.2
   Time prior to 1st pass:      2.2

 Grid_pts file          = /gpfs/projects/rjh/NWCHEM_BENCHMARK/HF_FULL/JUNK/Na.gridpts.00
 Record size in doubles =  12289        No. of grid_pts per rec  =   3070
 Max. records in memory =      2        Max. recs in file   = 159897440


           Memory utilization after 1st SCF pass: 
           Heap Space remaining (MW):      307.99           307990876
          Stack Space remaining (MW):      150.73           150732020

   convergence    iter        energy       DeltaE   RMS-Dens  Diis-err    time
 ---------------- ----- ----------------- --------- --------- ---------  ------
 d= 0,ls=0.0,diis     1   -161.4283579280 -1.61D+02  1.13D-02  4.34D-02     2.4
                                                     9.35D-03  4.06D-02
 d= 0,ls=0.0,diis     2   -161.4392256269 -1.09D-02  1.03D-03  7.93D-04     2.6
                                                     1.07D-03  9.11D-04
 d= 0,ls=0.0,diis     3   -161.4395027736 -2.77D-04  3.28D-04  5.41D-05     2.8
                                                     2.34D-04  4.26D-05
 d= 0,ls=0.0,diis     4   -161.4395228844 -2.01D-05  1.40D-05  6.13D-08     3.1
                                                     1.15D-05  6.86D-08
 d= 0,ls=0.0,diis     5   -161.4395229195 -3.50D-08  6.98D-07  1.01D-10     3.3
                                                     2.51D-07  2.00D-11


         Total DFT energy =     -161.439522919450
      One electron energy =     -227.578393113487
           Coulomb energy =       79.673615544372
    Exchange-Corr. energy =      -13.534745350335
 Nuclear repulsion energy =        0.000000000000

 Numeric. integr. density =       11.000000000630

     Total iterative time =      1.1s


 
                    DFT Final Alpha Molecular Orbital Analysis
                    ------------------------------------------
 
 Vector    1  Occ=1.000000D+00  E=-3.774059D+01
              MO Center=  1.1D-18,  6.2D-19,  1.7D-18, r^2= 7.8D-03
   Bfn.  Coefficient  Atom+Function         Bfn.  Coefficient  Atom+Function  
  ----- ------------  ---------------      ----- ------------  ---------------
     1      1.001985  1 Na s          
 
 Vector    2  Occ=1.000000D+00  E=-2.065396D+00
              MO Center= -7.2D-17, -1.3D-16, -9.8D-17, r^2= 2.1D-01
   Bfn.  Coefficient  Atom+Function         Bfn.  Coefficient  Atom+Function  
  ----- ------------  ---------------      ----- ------------  ---------------
     2      0.929560  1 Na s          
 
 Vector    3  Occ=1.000000D+00  E=-1.064010D+00
              MO Center=  2.1D-19,  9.0D-17, -9.4D-17, r^2= 2.4D-01
   Bfn.  Coefficient  Atom+Function         Bfn.  Coefficient  Atom+Function  
  ----- ------------  ---------------      ----- ------------  ---------------
     9      1.043812  1 Na py                 8     -0.522948  1 Na px         
    12      0.154725  1 Na py         
 
 Vector    4  Occ=1.000000D+00  E=-1.064010D+00
              MO Center=  3.2D-17,  6.9D-17,  2.0D-16, r^2= 2.4D-01
   Bfn.  Coefficient  Atom+Function         Bfn.  Coefficient  Atom+Function  
  ----- ------------  ---------------      ----- ------------  ---------------
    10      0.853541  1 Na pz                 8      0.678368  1 Na px         
     9      0.432640  1 Na py         
 
 Vector    5  Occ=1.000000D+00  E=-1.064010D+00
              MO Center= -8.9D-17,  6.7D-17,  4.3D-17, r^2= 2.4D-01
   Bfn.  Coefficient  Atom+Function         Bfn.  Coefficient  Atom+Function  
  ----- ------------  ---------------      ----- ------------  ---------------
     8      0.801396  1 Na px                10     -0.796547  1 Na pz         
     9      0.314915  1 Na py         
 
 Vector    6  Occ=1.000000D+00  E=-1.133545D-01
              MO Center= -4.0D-16, -2.0D-16, -5.8D-16, r^2= 5.2D+00
   Bfn.  Coefficient  Atom+Function         Bfn.  Coefficient  Atom+Function  
  ----- ------------  ---------------      ----- ------------  ---------------
     4      0.581327  1 Na s                  5      0.398671  1 Na s          
     3      0.242948  1 Na s          
 
 Vector    7  Occ=0.000000D+00  E=-3.384668D-02
              MO Center= -5.8D-15, -5.2D-15, -3.9D-15, r^2= 1.1D+01
   Bfn.  Coefficient  Atom+Function         Bfn.  Coefficient  Atom+Function  
  ----- ------------  ---------------      ----- ------------  ---------------
    17      0.370261  1 Na px                18      0.297248  1 Na py         
    14      0.252880  1 Na px                15      0.203014  1 Na py         
    20      0.194794  1 Na px                21      0.156382  1 Na py         
 
 Vector    8  Occ=0.000000D+00  E=-3.384668D-02
              MO Center= -1.7D-15, -1.5D-15, -6.3D-15, r^2= 1.1D+01
   Bfn.  Coefficient  Atom+Function         Bfn.  Coefficient  Atom+Function  
  ----- ------------  ---------------      ----- ------------  ---------------
    19      0.467705  1 Na pz                16      0.319432  1 Na pz         
    22      0.246060  1 Na pz         
 
 Vector    9  Occ=0.000000D+00  E=-3.384668D-02
              MO Center= -2.6D-17, -3.5D-15, -2.2D-15, r^2= 1.1D+01
   Bfn.  Coefficient  Atom+Function         Bfn.  Coefficient  Atom+Function  
  ----- ------------  ---------------      ----- ------------  ---------------
    18      0.361671  1 Na py                17     -0.311254  1 Na px         
    15      0.247014  1 Na py                14     -0.212579  1 Na px         
    21      0.190275  1 Na py                20     -0.163751  1 Na px         
 
 Vector   10  Occ=0.000000D+00  E=-1.303218D-03
              MO Center= -7.6D-15, -1.1D-14, -1.3D-14, r^2= 5.1D+01
   Bfn.  Coefficient  Atom+Function         Bfn.  Coefficient  Atom+Function  
  ----- ------------  ---------------      ----- ------------  ---------------
     7      1.182901  1 Na s                  4     -0.372448  1 Na s          
     5     -0.174668  1 Na s          
 
 Vector   11  Occ=0.000000D+00  E= 1.292192D-02
              MO Center= -6.2D-15,  7.7D-16, -2.8D-15, r^2= 6.8D+01
   Bfn.  Coefficient  Atom+Function         Bfn.  Coefficient  Atom+Function  
  ----- ------------  ---------------      ----- ------------  ---------------
    24      1.621805  1 Na py                21     -1.146376  1 Na py         
    25      0.951399  1 Na pz                23     -0.850801  1 Na px         
    22     -0.672499  1 Na pz                20      0.601390  1 Na px         
    15     -0.228701  1 Na py         
 
 Vector   12  Occ=0.000000D+00  E= 1.292192D-02
              MO Center=  1.7D-14,  9.9D-15,  1.2D-15, r^2= 6.8D+01
   Bfn.  Coefficient  Atom+Function         Bfn.  Coefficient  Atom+Function  
  ----- ------------  ---------------      ----- ------------  ---------------
    23      1.857614  1 Na px                20     -1.313058  1 Na px         
    24      0.886623  1 Na py                21     -0.626711  1 Na py         
    14     -0.261954  1 Na px         
 
 Vector   13  Occ=0.000000D+00  E= 1.292192D-02
              MO Center= -1.1D-14, -1.1D-14,  5.3D-15, r^2= 6.8D+01
   Bfn.  Coefficient  Atom+Function         Bfn.  Coefficient  Atom+Function  
  ----- ------------  ---------------      ----- ------------  ---------------
    25      1.825286  1 Na pz                22     -1.290207  1 Na pz         
    24     -0.918109  1 Na py                21      0.648967  1 Na py         
    23      0.291000  1 Na px                16     -0.257396  1 Na pz         
    20     -0.205694  1 Na px         
 
 Vector   14  Occ=0.000000D+00  E= 2.572290D-02
              MO Center=  4.0D-15, -8.0D-15, -5.9D-15, r^2= 2.3D+01
   Bfn.  Coefficient  Atom+Function         Bfn.  Coefficient  Atom+Function  
  ----- ------------  ---------------      ----- ------------  ---------------
    45      0.857285  1 Na d  2              44      0.578401  1 Na d  1       
    35      0.196666  1 Na d  2              40     -0.163888  1 Na d  2       
 
 Vector   15  Occ=0.000000D+00  E= 2.572290D-02
              MO Center=  5.7D-15, -1.1D-14,  1.7D-15, r^2= 2.3D+01
   Bfn.  Coefficient  Atom+Function         Bfn.  Coefficient  Atom+Function  
  ----- ------------  ---------------      ----- ------------  ---------------
    42      0.656602  1 Na d -1              44      0.558189  1 Na d  1       
    41      0.460366  1 Na d -2              45     -0.338226  1 Na d  2       
    32      0.150628  1 Na d -1       
 
 Vector   16  Occ=0.000000D+00  E= 2.572290D-02
              MO Center= -5.6D-15, -3.0D-15, -7.4D-15, r^2= 2.3D+01
   Bfn.  Coefficient  Atom+Function         Bfn.  Coefficient  Atom+Function  
  ----- ------------  ---------------      ----- ------------  ---------------
    44      0.643356  1 Na d  1              45     -0.430275  1 Na d  2       
    42     -0.427112  1 Na d -1              43      0.417652  1 Na d  0       
    41     -0.363048  1 Na d -2       
 
 Vector   17  Occ=0.000000D+00  E= 2.572290D-02
              MO Center= -8.6D-16, -3.6D-15, -8.7D-15, r^2= 2.3D+01
   Bfn.  Coefficient  Atom+Function         Bfn.  Coefficient  Atom+Function  
  ----- ------------  ---------------      ----- ------------  ---------------
    41      0.725009  1 Na d -2              43      0.703349  1 Na d  0       
    42     -0.208012  1 Na d -1              31      0.166321  1 Na d -2       
    33      0.161352  1 Na d  0       
 
 Vector   18  Occ=0.000000D+00  E= 2.572290D-02
              MO Center=  1.1D-15,  6.0D-15, -8.8D-16, r^2= 2.3D+01
   Bfn.  Coefficient  Atom+Function         Bfn.  Coefficient  Atom+Function  
  ----- ------------  ---------------      ----- ------------  ---------------
    42      0.648137  1 Na d -1              43      0.629151  1 Na d  0       
    41     -0.463660  1 Na d -2              45      0.219450  1 Na d  2       
 
 Vector   19  Occ=0.000000D+00  E= 3.276018D-02
              MO Center= -1.1D-14, -1.4D-14,  1.9D-15, r^2= 5.5D+01
   Bfn.  Coefficient  Atom+Function         Bfn.  Coefficient  Atom+Function  
  ----- ------------  ---------------      ----- ------------  ---------------
     6      4.169513  1 Na s                  5     -2.764374  1 Na s          
     7     -1.740692  1 Na s          
 
 Vector   20  Occ=0.000000D+00  E= 5.417135D-02
              MO Center=  1.7D-15,  1.4D-14,  4.5D-15, r^2= 4.9D+01
   Bfn.  Coefficient  Atom+Function         Bfn.  Coefficient  Atom+Function  
  ----- ------------  ---------------      ----- ------------  ---------------
    22      3.982685  1 Na pz                25     -2.428325  1 Na pz         
    19     -1.717505  1 Na pz                20      1.353591  1 Na px         
    23     -0.825312  1 Na px                17     -0.583726  1 Na px         
    13     -0.356748  1 Na pz                10     -0.281292  1 Na pz         
 
 Vector   21  Occ=0.000000D+00  E= 5.417135D-02
              MO Center=  8.4D-15,  2.1D-14,  5.1D-15, r^2= 4.9D+01
   Bfn.  Coefficient  Atom+Function         Bfn.  Coefficient  Atom+Function  
  ----- ------------  ---------------      ----- ------------  ---------------
    21      3.832933  1 Na py                24     -2.337018  1 Na py         
    20      1.679115  1 Na px                18     -1.652925  1 Na py         
    23     -1.023791  1 Na px                17     -0.724106  1 Na px         
    22     -0.446902  1 Na pz                12     -0.343334  1 Na py         
    25      0.272485  1 Na pz                 9     -0.270715  1 Na py         
 
 Vector   22  Occ=0.000000D+00  E= 5.417135D-02
              MO Center= -9.4D-16,  2.9D-15,  1.2D-14, r^2= 4.9D+01
   Bfn.  Coefficient  Atom+Function         Bfn.  Coefficient  Atom+Function  
  ----- ------------  ---------------      ----- ------------  ---------------
    20      3.613709  1 Na px                23     -2.203353  1 Na px         
    21     -1.732803  1 Na py                17     -1.558386  1 Na px         
    22     -1.284145  1 Na pz                24      1.056526  1 Na py         
    25      0.782969  1 Na pz                18      0.747259  1 Na py         
    19      0.553778  1 Na pz                11     -0.323697  1 Na px         
 
 Vector   23  Occ=0.000000D+00  E= 1.041393D-01
              MO Center= -5.5D-16,  3.7D-15, -1.7D-15, r^2= 2.0D+01
   Bfn.  Coefficient  Atom+Function         Bfn.  Coefficient  Atom+Function  
  ----- ------------  ---------------      ----- ------------  ---------------
    38      2.126369  1 Na d  0              43     -1.296463  1 Na d  0       
    33     -0.866057  1 Na d  0              40      0.609068  1 Na d  2       
    45     -0.371353  1 Na d  2              28      0.345242  1 Na d  0       
    35     -0.248070  1 Na d  2       
 
 Vector   24  Occ=0.000000D+00  E= 1.041393D-01
              MO Center= -5.3D-15, -3.7D-16,  1.7D-16, r^2= 2.0D+01
   Bfn.  Coefficient  Atom+Function         Bfn.  Coefficient  Atom+Function  
  ----- ------------  ---------------      ----- ------------  ---------------
    39      2.046713  1 Na d  1              44     -1.247896  1 Na d  1       
    34     -0.833614  1 Na d  1              36      0.589992  1 Na d -2       
    37      0.512054  1 Na d -1              41     -0.359723  1 Na d -2       
    29      0.332309  1 Na d  1              42     -0.312203  1 Na d -1       
    40      0.295921  1 Na d  2              31     -0.240300  1 Na d -2       
 
 Vector   25  Occ=0.000000D+00  E= 1.041393D-01
              MO Center= -1.0D-15, -2.1D-15, -1.8D-15, r^2= 2.0D+01
   Bfn.  Coefficient  Atom+Function         Bfn.  Coefficient  Atom+Function  
  ----- ------------  ---------------      ----- ------------  ---------------
    40      1.569181  1 Na d  2              37     -1.277405  1 Na d -1       
    45     -0.956741  1 Na d  2              42      0.778843  1 Na d -1       
    36     -0.716362  1 Na d -2              35     -0.639118  1 Na d  2       
    32      0.520279  1 Na d -1              38     -0.453582  1 Na d  0       
    41      0.436771  1 Na d -2              31      0.291770  1 Na d -2       
 
 Vector   26  Occ=0.000000D+00  E= 1.041393D-01
              MO Center= -2.6D-15, -3.2D-15,  3.4D-15, r^2= 2.0D+01
   Bfn.  Coefficient  Atom+Function         Bfn.  Coefficient  Atom+Function  
  ----- ------------  ---------------      ----- ------------  ---------------
    37      1.715839  1 Na d -1              42     -1.046160  1 Na d -1       
    36     -0.949923  1 Na d -2              40      0.943032  1 Na d  2       
    32     -0.698851  1 Na d -1              41      0.579175  1 Na d -2       
    45     -0.574974  1 Na d  2              31      0.386898  1 Na d -2       
    35     -0.384091  1 Na d  2              39     -0.301370  1 Na d  1       
 
 Vector   27  Occ=0.000000D+00  E= 1.041393D-01
              MO Center= -1.2D-16, -3.4D-15,  3.7D-17, r^2= 2.0D+01
   Bfn.  Coefficient  Atom+Function         Bfn.  Coefficient  Atom+Function  
  ----- ------------  ---------------      ----- ------------  ---------------
    36      1.768904  1 Na d -2              41     -1.078514  1 Na d -2       
    40      1.040449  1 Na d  2              39     -0.730124  1 Na d  1       
    31     -0.720464  1 Na d -2              45     -0.634370  1 Na d  2       
    44      0.445162  1 Na d  1              35     -0.423769  1 Na d  2       
    38     -0.305942  1 Na d  0              34      0.297375  1 Na d  1       
 
 Vector   28  Occ=0.000000D+00  E= 1.213574D-01
              MO Center= -2.1D-16,  5.4D-15,  1.8D-15, r^2= 1.6D+01
   Bfn.  Coefficient  Atom+Function         Bfn.  Coefficient  Atom+Function  
  ----- ------------  ---------------      ----- ------------  ---------------
    65      1.135557  1 Na f  2              58     -0.320092  1 Na f  2       
    64      0.238532  1 Na f  1       
 
 Vector   29  Occ=0.000000D+00  E= 1.213574D-01
              MO Center=  1.4D-15,  1.5D-15,  2.6D-15, r^2= 1.6D+01
   Bfn.  Coefficient  Atom+Function         Bfn.  Coefficient  Atom+Function  
  ----- ------------  ---------------      ----- ------------  ---------------
    62      0.933261  1 Na f -1              61      0.489752  1 Na f -2       
    60      0.339655  1 Na f -3              64     -0.292140  1 Na f  1       
    55     -0.263068  1 Na f -1              65      0.169689  1 Na f  2       
    63     -0.161986  1 Na f  0       
 
 Vector   30  Occ=0.000000D+00  E= 1.213574D-01
              MO Center=  2.7D-16,  4.4D-15, -7.6D-17, r^2= 1.6D+01
   Bfn.  Coefficient  Atom+Function         Bfn.  Coefficient  Atom+Function  
  ----- ------------  ---------------      ----- ------------  ---------------
    60      0.825886  1 Na f -3              61     -0.756135  1 Na f -2       
    66     -0.316705  1 Na f  3              53     -0.232801  1 Na f -3       
    54      0.213140  1 Na f -2       
 
 Vector   31  Occ=0.000000D+00  E= 1.213574D-01
              MO Center=  2.8D-15, -8.4D-16,  3.2D-15, r^2= 1.6D+01
   Bfn.  Coefficient  Atom+Function         Bfn.  Coefficient  Atom+Function  
  ----- ------------  ---------------      ----- ------------  ---------------
    63      1.001927  1 Na f  0              60      0.471507  1 Na f -3       
    61      0.316204  1 Na f -2              56     -0.282424  1 Na f  0       
 
 Vector   32  Occ=0.000000D+00  E= 1.213574D-01
              MO Center=  3.7D-15,  6.2D-17,  4.2D-15, r^2= 1.6D+01
   Bfn.  Coefficient  Atom+Function         Bfn.  Coefficient  Atom+Function  
  ----- ------------  ---------------      ----- ------------  ---------------
    64      0.719944  1 Na f  1              61      0.538692  1 Na f -2       
    60      0.512446  1 Na f -3              63     -0.445801  1 Na f  0       
    62     -0.305315  1 Na f -1              57     -0.202938  1 Na f  1       
    54     -0.151847  1 Na f -2       
 
 Vector   33  Occ=0.000000D+00  E= 1.213574D-01
              MO Center=  3.7D-16,  2.8D-15, -9.3D-16, r^2= 1.6D+01
   Bfn.  Coefficient  Atom+Function         Bfn.  Coefficient  Atom+Function  
  ----- ------------  ---------------      ----- ------------  ---------------
    66      1.111130  1 Na f  3              59     -0.313206  1 Na f  3       
    60      0.226741  1 Na f -3              63     -0.202026  1 Na f  0       
    61     -0.185571  1 Na f -2       
 
 Vector   34  Occ=0.000000D+00  E= 1.213574D-01
              MO Center=  7.8D-16, -2.3D-16,  1.3D-15, r^2= 1.6D+01
   Bfn.  Coefficient  Atom+Function         Bfn.  Coefficient  Atom+Function  
  ----- ------------  ---------------      ----- ------------  ---------------
    64      0.837267  1 Na f  1              62      0.616035  1 Na f -1       
    61     -0.371535  1 Na f -2              63      0.289168  1 Na f  0       
    57     -0.236010  1 Na f  1              60     -0.200201  1 Na f -3       
    65     -0.175532  1 Na f  2              55     -0.173648  1 Na f -1       
 
 Vector   35  Occ=0.000000D+00  E= 1.549008D-01
              MO Center=  3.3D-14,  8.5D-14,  2.5D-14, r^2= 2.2D+01
   Bfn.  Coefficient  Atom+Function         Bfn.  Coefficient  Atom+Function  
  ----- ------------  ---------------      ----- ------------  ---------------
     5      7.741395  1 Na s                  6     -4.819909  1 Na s          
     4     -4.357929  1 Na s                  7      0.956272  1 Na s          
     3     -0.656122  1 Na s                  2     -0.167509  1 Na s          
 
 Vector   36  Occ=0.000000D+00  E= 1.711501D-01
              MO Center= -6.9D-14, -4.6D-14,  4.8D-15, r^2= 2.3D+01
   Bfn.  Coefficient  Atom+Function         Bfn.  Coefficient  Atom+Function  
  ----- ------------  ---------------      ----- ------------  ---------------
    17      3.373494  1 Na px                20     -3.066295  1 Na px         
    18      2.168923  1 Na py                14     -2.043706  1 Na px         
    21     -1.971415  1 Na py                23      1.383719  1 Na px         
    15     -1.313961  1 Na py                24      0.889636  1 Na py         
     8      0.828229  1 Na px                11      0.634081  1 Na px         
 
 Vector   37  Occ=0.000000D+00  E= 1.711501D-01
              MO Center= -9.1D-15, -4.7D-15, -3.3D-14, r^2= 2.3D+01
   Bfn.  Coefficient  Atom+Function         Bfn.  Coefficient  Atom+Function  
  ----- ------------  ---------------      ----- ------------  ---------------
    19      4.007526  1 Na pz                22     -3.642591  1 Na pz         
    16     -2.427811  1 Na pz                25      1.643783  1 Na pz         
    10      0.983891  1 Na pz                13      0.753254  1 Na pz         
    17      0.313839  1 Na px                20     -0.285260  1 Na px         
    14     -0.190127  1 Na px         
 
 Vector   38  Occ=0.000000D+00  E= 1.711501D-01
              MO Center=  2.0D-14, -4.1D-14,  5.1D-16, r^2= 2.3D+01
   Bfn.  Coefficient  Atom+Function         Bfn.  Coefficient  Atom+Function  
  ----- ------------  ---------------      ----- ------------  ---------------
    18      3.384455  1 Na py                21     -3.076258  1 Na py         
    17     -2.163342  1 Na px                15     -2.050347  1 Na py         
    20      1.966343  1 Na px                24      1.388215  1 Na py         
    14      1.310581  1 Na px                23     -0.887347  1 Na px         
     9      0.830920  1 Na py                12      0.636142  1 Na py         
 
 Vector   39  Occ=0.000000D+00  E= 2.958282D-01
              MO Center= -5.0D-16, -1.4D-15,  5.1D-16, r^2= 1.2D+01
   Bfn.  Coefficient  Atom+Function         Bfn.  Coefficient  Atom+Function  
  ----- ------------  ---------------      ----- ------------  ---------------
    38     -2.371631  1 Na d  0              33      2.349356  1 Na d  0       
    40     -2.106116  1 Na d  2              35      2.086335  1 Na d  2       
    43      0.719912  1 Na d  0              45      0.639314  1 Na d  2       
    39      0.367423  1 Na d  1              34     -0.363972  1 Na d  1       
    28     -0.314310  1 Na d  0              30     -0.279121  1 Na d  2       
 
 Vector   40  Occ=0.000000D+00  E= 2.958282D-01
              MO Center= -6.5D-15,  2.7D-15,  6.1D-15, r^2= 1.2D+01
   Bfn.  Coefficient  Atom+Function         Bfn.  Coefficient  Atom+Function  
  ----- ------------  ---------------      ----- ------------  ---------------
    36     -2.394532  1 Na d -2              31      2.372041  1 Na d -2       
    40      1.201966  1 Na d  2              35     -1.190677  1 Na d  2       
    38     -1.176123  1 Na d  0              33      1.165076  1 Na d  0       
    39     -1.051682  1 Na d  1              34      1.041804  1 Na d  1       
    37     -0.729324  1 Na d -1              41      0.726863  1 Na d -2       
 
 Vector   41  Occ=0.000000D+00  E= 2.958282D-01
              MO Center=  6.4D-15,  9.2D-15,  8.1D-15, r^2= 1.2D+01
   Bfn.  Coefficient  Atom+Function         Bfn.  Coefficient  Atom+Function  
  ----- ------------  ---------------      ----- ------------  ---------------
    39      1.805185  1 Na d  1              34     -1.788230  1 Na d  1       
    37     -1.733779  1 Na d -1              32      1.717495  1 Na d -1       
    40      1.414747  1 Na d  2              35     -1.401459  1 Na d  2       
    38     -1.019157  1 Na d  0              33      1.009584  1 Na d  0       
    36      0.945962  1 Na d -2              31     -0.937077  1 Na d -2       
 
 Vector   42  Occ=0.000000D+00  E= 2.958282D-01
              MO Center=  1.3D-14,  6.4D-15,  4.3D-15, r^2= 1.2D+01
   Bfn.  Coefficient  Atom+Function         Bfn.  Coefficient  Atom+Function  
  ----- ------------  ---------------      ----- ------------  ---------------
    37     -1.990201  1 Na d -1              32      1.971508  1 Na d -1       
    40     -1.503971  1 Na d  2              35      1.489845  1 Na d  2       
    38      1.453791  1 Na d  0              33     -1.440136  1 Na d  0       
    36     -1.170963  1 Na d -2              31      1.159965  1 Na d -2       
    39      0.701589  1 Na d  1              34     -0.695000  1 Na d  1       
 
 Vector   43  Occ=0.000000D+00  E= 2.958282D-01
              MO Center=  1.5D-14,  1.3D-15, -2.1D-14, r^2= 1.2D+01
   Bfn.  Coefficient  Atom+Function         Bfn.  Coefficient  Atom+Function  
  ----- ------------  ---------------      ----- ------------  ---------------
    39     -2.282052  1 Na d  1              34      2.260618  1 Na d  1       
    37     -1.643261  1 Na d -1              32      1.627827  1 Na d -1       
    36      1.481955  1 Na d -2              31     -1.468036  1 Na d -2       
    44      0.692720  1 Na d  1              42      0.498814  1 Na d -1       
    41     -0.449849  1 Na d -2              29     -0.302438  1 Na d  1       
 
 Vector   44  Occ=0.000000D+00  E= 3.401550D-01
              MO Center= -5.9D-16,  2.1D-15,  1.8D-15, r^2= 1.0D+01
   Bfn.  Coefficient  Atom+Function         Bfn.  Coefficient  Atom+Function  
  ----- ------------  ---------------      ----- ------------  ---------------
    80      1.180644  1 Na g  0              71     -0.284955  1 Na g  0       
 
 Vector   45  Occ=0.000000D+00  E= 3.401550D-01
              MO Center=  3.2D-16,  1.1D-15,  3.6D-17, r^2= 1.0D+01
   Bfn.  Coefficient  Atom+Function         Bfn.  Coefficient  Atom+Function  
  ----- ------------  ---------------      ----- ------------  ---------------
    83     -0.764627  1 Na g  3              76      0.713568  1 Na g -4       
    81      0.408119  1 Na g  1              79     -0.227912  1 Na g -1       
    84      0.222788  1 Na g  4              74      0.184547  1 Na g  3       
    67     -0.172224  1 Na g -4       
 
 Vector   46  Occ=0.000000D+00  E= 3.401550D-01
              MO Center=  3.7D-15, -3.2D-16, -1.8D-15, r^2= 1.0D+01
   Bfn.  Coefficient  Atom+Function         Bfn.  Coefficient  Atom+Function  
  ----- ------------  ---------------      ----- ------------  ---------------
    78      0.701674  1 Na g -2              81      0.671430  1 Na g  1       
    84     -0.556413  1 Na g  4              77     -0.272413  1 Na g -3       
    83      0.259464  1 Na g  3              69     -0.169353  1 Na g -2       
    72     -0.162053  1 Na g  1       
 
 Vector   47  Occ=0.000000D+00  E= 3.401550D-01
              MO Center=  6.5D-16, -1.9D-15, -2.5D-15, r^2= 1.0D+01
   Bfn.  Coefficient  Atom+Function         Bfn.  Coefficient  Atom+Function  
  ----- ------------  ---------------      ----- ------------  ---------------
    82      0.806028  1 Na g  2              77      0.566997  1 Na g -3       
    79     -0.350889  1 Na g -1              81      0.337966  1 Na g  1       
    76     -0.320268  1 Na g -4              78     -0.244079  1 Na g -2       
    73     -0.194539  1 Na g  2       
 
 Vector   48  Occ=0.000000D+00  E= 3.401550D-01
              MO Center=  1.3D-15,  2.0D-15,  2.2D-16, r^2= 1.0D+01
   Bfn.  Coefficient  Atom+Function         Bfn.  Coefficient  Atom+Function  
  ----- ------------  ---------------      ----- ------------  ---------------
    83      0.730409  1 Na g  3              76      0.581504  1 Na g -4       
    78      0.404863  1 Na g -2              84      0.361774  1 Na g  4       
    77      0.351379  1 Na g -3              81     -0.246127  1 Na g  1       
    79     -0.242975  1 Na g -1              74     -0.176288  1 Na g  3       
 
 Vector   49  Occ=0.000000D+00  E= 3.401550D-01
              MO Center= -7.0D-16,  1.6D-15,  7.8D-16, r^2= 1.0D+01
   Bfn.  Coefficient  Atom+Function         Bfn.  Coefficient  Atom+Function  
  ----- ------------  ---------------      ----- ------------  ---------------
    79      0.806294  1 Na g -1              84      0.618591  1 Na g  4       
    78      0.378186  1 Na g -2              76     -0.290226  1 Na g -4       
    77      0.253777  1 Na g -3              82      0.245456  1 Na g  2       
    70     -0.194603  1 Na g -1       
 
 Vector   50  Occ=0.000000D+00  E= 3.401550D-01
              MO Center=  5.3D-16,  3.3D-16,  2.5D-16, r^2= 1.0D+01
   Bfn.  Coefficient  Atom+Function         Bfn.  Coefficient  Atom+Function  
  ----- ------------  ---------------      ----- ------------  ---------------
    77      0.884023  1 Na g -3              82     -0.659036  1 Na g  2       
    84     -0.372439  1 Na g  4              68     -0.213364  1 Na g -3       
    79      0.191667  1 Na g -1              73      0.159062  1 Na g  2       
 
 Vector   51  Occ=0.000000D+00  E= 3.401550D-01
              MO Center=  6.9D-16, -2.0D-15, -3.3D-15, r^2= 1.0D+01
   Bfn.  Coefficient  Atom+Function         Bfn.  Coefficient  Atom+Function  
  ----- ------------  ---------------      ----- ------------  ---------------
    79      0.693269  1 Na g -1              76      0.613887  1 Na g -4       
    78     -0.465756  1 Na g -2              84     -0.408067  1 Na g  4       
    82      0.362832  1 Na g  2              83      0.174708  1 Na g  3       
    70     -0.167324  1 Na g -1       
 
 Vector   52  Occ=0.000000D+00  E= 3.401550D-01
              MO Center=  2.2D-15,  6.0D-16,  2.0D-15, r^2= 1.0D+01
   Bfn.  Coefficient  Atom+Function         Bfn.  Coefficient  Atom+Function  
  ----- ------------  ---------------      ----- ------------  ---------------
    81      0.763695  1 Na g  1              78     -0.554679  1 Na g -2       
    84      0.466788  1 Na g  4              83      0.401545  1 Na g  3       
    82     -0.337159  1 Na g  2              72     -0.184322  1 Na g  1       
    77     -0.166226  1 Na g -3       
 
 Vector   53  Occ=0.000000D+00  E= 3.859964D-01
              MO Center=  1.3D-15,  1.3D-15,  1.7D-15, r^2= 8.9D+00
   Bfn.  Coefficient  Atom+Function         Bfn.  Coefficient  Atom+Function  
  ----- ------------  ---------------      ----- ------------  ---------------
    56      1.424771  1 Na f  0              53      0.855320  1 Na f -3       
    63     -0.750900  1 Na f  0              59      0.458095  1 Na f  3       
    60     -0.450781  1 Na f -3              55     -0.343587  1 Na f -1       
    49     -0.319333  1 Na f  0              66     -0.241430  1 Na f  3       
    46     -0.191702  1 Na f -3              62      0.181082  1 Na f -1       
 
 Vector   54  Occ=0.000000D+00  E= 3.859964D-01
              MO Center=  1.4D-15,  2.3D-15,  2.8D-15, r^2= 8.9D+00
   Bfn.  Coefficient  Atom+Function         Bfn.  Coefficient  Atom+Function  
  ----- ------------  ---------------      ----- ------------  ---------------
    58      1.211687  1 Na f  2              57      0.872239  1 Na f  1       
    54     -0.850879  1 Na f -2              65     -0.638597  1 Na f  2       
    64     -0.459698  1 Na f  1              61      0.448440  1 Na f -2       
    59     -0.277053  1 Na f  3              51     -0.271575  1 Na f  2       
    53     -0.225240  1 Na f -3              56      0.198880  1 Na f  0       
 
 Vector   55  Occ=0.000000D+00  E= 3.859964D-01
              MO Center=  1.0D-16, -4.0D-15,  3.6D-15, r^2= 8.9D+00
   Bfn.  Coefficient  Atom+Function         Bfn.  Coefficient  Atom+Function  
  ----- ------------  ---------------      ----- ------------  ---------------
    59      1.348965  1 Na f  3              55      0.966972  1 Na f -1       
    66     -0.710947  1 Na f  3              62     -0.509625  1 Na f -1       
    53     -0.390116  1 Na f -3              58      0.338835  1 Na f  2       
    57     -0.313605  1 Na f  1              52     -0.302343  1 Na f  3       
    48     -0.216727  1 Na f -1              60      0.205604  1 Na f -3       
 
 Vector   56  Occ=0.000000D+00  E= 3.859964D-01
              MO Center=  6.0D-15,  4.5D-15, -1.1D-15, r^2= 8.9D+00
   Bfn.  Coefficient  Atom+Function         Bfn.  Coefficient  Atom+Function  
  ----- ------------  ---------------      ----- ------------  ---------------
    54      0.981404  1 Na f -2              57      0.751039  1 Na f  1       
    56     -0.671627  1 Na f  0              53      0.628367  1 Na f -3       
    59      0.568624  1 Na f  3              58      0.537323  1 Na f  2       
    61     -0.517231  1 Na f -2              64     -0.395822  1 Na f  1       
    55     -0.380828  1 Na f -1              63      0.353969  1 Na f  0       
 
 Vector   57  Occ=0.000000D+00  E= 3.859964D-01
              MO Center= -1.3D-15,  2.9D-15,  3.2D-15, r^2= 8.9D+00
   Bfn.  Coefficient  Atom+Function         Bfn.  Coefficient  Atom+Function  
  ----- ------------  ---------------      ----- ------------  ---------------
    57      1.076435  1 Na f  1              58     -1.070089  1 Na f  2       
    54     -0.592073  1 Na f -2              64     -0.567316  1 Na f  1       
    65      0.563971  1 Na f  2              55      0.482034  1 Na f -1       
    56     -0.339207  1 Na f  0              61      0.312041  1 Na f -2       
    53      0.253513  1 Na f -3              59      0.253337  1 Na f  3       
 
 Vector   58  Occ=0.000000D+00  E= 3.859964D-01
              MO Center= -1.4D-15,  3.0D-15,  3.8D-15, r^2= 8.9D+00
   Bfn.  Coefficient  Atom+Function         Bfn.  Coefficient  Atom+Function  
  ----- ------------  ---------------      ----- ------------  ---------------
    55      1.037296  1 Na f -1              54      0.989106  1 Na f -2       
    59     -0.702932  1 Na f  3              56      0.574746  1 Na f  0       
    62     -0.546688  1 Na f -1              61     -0.521290  1 Na f -2       
    57      0.458904  1 Na f  1              66      0.370467  1 Na f  3       
    63     -0.302909  1 Na f  0              64     -0.241857  1 Na f  1       
 
 Vector   59  Occ=0.000000D+00  E= 3.859964D-01
              MO Center= -4.2D-15,  1.1D-15,  2.1D-15, r^2= 8.9D+00
   Bfn.  Coefficient  Atom+Function         Bfn.  Coefficient  Atom+Function  
  ----- ------------  ---------------      ----- ------------  ---------------
    53      1.302290  1 Na f -3              55      0.783306  1 Na f -1       
    60     -0.686348  1 Na f -3              57     -0.555676  1 Na f  1       
    62     -0.412827  1 Na f -1              56     -0.394416  1 Na f  0       
    59     -0.377200  1 Na f  3              54     -0.332274  1 Na f -2       
    58      0.321973  1 Na f  2              46     -0.291882  1 Na f -3       
 
 Vector   60  Occ=0.000000D+00  E= 6.534533D-01
              MO Center=  3.4D-14,  7.9D-16,  1.6D-14, r^2= 7.0D+00
   Bfn.  Coefficient  Atom+Function         Bfn.  Coefficient  Atom+Function  
  ----- ------------  ---------------      ----- ------------  ---------------
    34      4.899970  1 Na d  1              29     -3.074057  1 Na d  1       
    39     -2.885631  1 Na d  1              32      0.692366  1 Na d -1       
    44      0.641782  1 Na d  1              27     -0.434364  1 Na d -1       
    37     -0.407740  1 Na d -1       
 
 
                     DFT Final Beta Molecular Orbital Analysis
                     -----------------------------------------
 
 Vector    1  Occ=1.000000D+00  E=-3.773914D+01
              MO Center=  9.2D-19,  1.4D-18,  1.3D-18, r^2= 7.8D-03
   Bfn.  Coefficient  Atom+Function         Bfn.  Coefficient  Atom+Function  
  ----- ------------  ---------------      ----- ------------  ---------------
     1      1.001985  1 Na s          
 
 Vector    2  Occ=1.000000D+00  E=-2.063343D+00
              MO Center=  3.2D-16, -1.0D-16,  3.0D-16, r^2= 2.1D-01
   Bfn.  Coefficient  Atom+Function         Bfn.  Coefficient  Atom+Function  
  ----- ------------  ---------------      ----- ------------  ---------------
     2      0.930833  1 Na s          
 
 Vector    3  Occ=1.000000D+00  E=-1.061196D+00
              MO Center=  1.0D-16, -5.7D-17, -1.0D-16, r^2= 2.4D-01
   Bfn.  Coefficient  Atom+Function         Bfn.  Coefficient  Atom+Function  
  ----- ------------  ---------------      ----- ------------  ---------------
    10      0.833592  1 Na pz                 8     -0.583151  1 Na px         
     9      0.535179  1 Na py         
 
 Vector    4  Occ=1.000000D+00  E=-1.061196D+00
              MO Center=  3.7D-17,  5.9D-19, -8.2D-18, r^2= 2.4D-01
   Bfn.  Coefficient  Atom+Function         Bfn.  Coefficient  Atom+Function  
  ----- ------------  ---------------      ----- ------------  ---------------
    10      0.790022  1 Na pz                 8      0.660577  1 Na px         
     9     -0.510745  1 Na py         
 
 Vector    5  Occ=1.000000D+00  E=-1.061196D+00
              MO Center= -7.2D-17, -4.9D-17,  3.7D-17, r^2= 2.4D-01
   Bfn.  Coefficient  Atom+Function         Bfn.  Coefficient  Atom+Function  
  ----- ------------  ---------------      ----- ------------  ---------------
     9      0.879819  1 Na py                 8      0.738194  1 Na px         
 
 Vector    6  Occ=0.000000D+00  E=-8.118395D-02
              MO Center=  8.5D-16, -1.7D-15, -7.1D-16, r^2= 6.1D+00
   Bfn.  Coefficient  Atom+Function         Bfn.  Coefficient  Atom+Function  
  ----- ------------  ---------------      ----- ------------  ---------------
     4      0.493374  1 Na s                  5      0.337720  1 Na s          
     6      0.296529  1 Na s                  3      0.186022  1 Na s          
 
 Vector    7  Occ=0.000000D+00  E=-1.459324D-02
              MO Center= -5.3D-15, -3.2D-15, -6.3D-15, r^2= 1.8D+01
   Bfn.  Coefficient  Atom+Function         Bfn.  Coefficient  Atom+Function  
  ----- ------------  ---------------      ----- ------------  ---------------
    17      0.353790  1 Na px                20      0.273384  1 Na px         
    18     -0.205214  1 Na py                23      0.194339  1 Na px         
    21     -0.158575  1 Na py         
 
 Vector    8  Occ=0.000000D+00  E=-1.459324D-02
              MO Center= -7.0D-15, -4.6D-15, -2.9D-15, r^2= 1.8D+01
   Bfn.  Coefficient  Atom+Function         Bfn.  Coefficient  Atom+Function  
  ----- ------------  ---------------      ----- ------------  ---------------
    18      0.268307  1 Na py                19     -0.247136  1 Na pz         
    21      0.207329  1 Na py                17      0.192263  1 Na px         
    22     -0.190969  1 Na pz         
 
 Vector    9  Occ=0.000000D+00  E=-1.459324D-02
              MO Center= -7.2D-15, -1.0D-14, -1.5D-14, r^2= 1.8D+01
   Bfn.  Coefficient  Atom+Function         Bfn.  Coefficient  Atom+Function  
  ----- ------------  ---------------      ----- ------------  ---------------
    19      0.325889  1 Na pz                22      0.251824  1 Na pz         
    18      0.236492  1 Na py                21      0.182745  1 Na py         
    25      0.179013  1 Na pz         
 
 Vector   10  Occ=0.000000D+00  E= 1.713428D-03
              MO Center=  1.1D-15,  3.4D-15,  4.4D-15, r^2= 5.7D+01
   Bfn.  Coefficient  Atom+Function         Bfn.  Coefficient  Atom+Function  
  ----- ------------  ---------------      ----- ------------  ---------------
     7      1.343787  1 Na s                  6     -0.492082  1 Na s          
     4     -0.303738  1 Na s          
 
 Vector   11  Occ=0.000000D+00  E= 1.679393D-02
              MO Center=  1.7D-15, -3.2D-15, -2.8D-16, r^2= 7.0D+01
   Bfn.  Coefficient  Atom+Function         Bfn.  Coefficient  Atom+Function  
  ----- ------------  ---------------      ----- ------------  ---------------
    25      1.924799  1 Na pz                22     -1.623083  1 Na pz         
    23      1.246898  1 Na px                20     -1.051445  1 Na px         
    16     -0.226143  1 Na pz                24     -0.200910  1 Na py         
    21      0.169417  1 Na py         
 
 Vector   12  Occ=0.000000D+00  E= 1.679393D-02
              MO Center=  4.9D-15,  1.4D-14, -3.3D-15, r^2= 7.0D+01
   Bfn.  Coefficient  Atom+Function         Bfn.  Coefficient  Atom+Function  
  ----- ------------  ---------------      ----- ------------  ---------------
    24      2.030552  1 Na py                21     -1.712260  1 Na py         
    23      0.994860  1 Na px                20     -0.838914  1 Na px         
    25     -0.432529  1 Na pz                22      0.364729  1 Na pz         
    15     -0.238568  1 Na py                18      0.157082  1 Na py         
 
 Vector   13  Occ=0.000000D+00  E= 1.679393D-02
              MO Center=  3.2D-15, -1.1D-14, -6.0D-15, r^2= 7.0D+01
   Bfn.  Coefficient  Atom+Function         Bfn.  Coefficient  Atom+Function  
  ----- ------------  ---------------      ----- ------------  ---------------
    23      1.659961  1 Na px                20     -1.399759  1 Na px         
    25     -1.186608  1 Na pz                24     -1.066050  1 Na py         
    22      1.000605  1 Na pz                21      0.898945  1 Na py         
    14     -0.195028  1 Na px         
 
 Vector   14  Occ=0.000000D+00  E= 3.224327D-02
              MO Center= -3.3D-15, -1.8D-16, -2.2D-15, r^2= 2.5D+01
   Bfn.  Coefficient  Atom+Function         Bfn.  Coefficient  Atom+Function  
  ----- ------------  ---------------      ----- ------------  ---------------
    43      1.156084  1 Na d  0              38     -0.375569  1 Na d  0       
    33      0.276855  1 Na d  0       
 
 Vector   15  Occ=0.000000D+00  E= 3.224327D-02
              MO Center= -6.1D-16, -2.4D-15, -3.0D-15, r^2= 2.5D+01
   Bfn.  Coefficient  Atom+Function         Bfn.  Coefficient  Atom+Function  
  ----- ------------  ---------------      ----- ------------  ---------------
    44      1.042887  1 Na d  1              41      0.368889  1 Na d -2       
    45      0.353070  1 Na d  2              39     -0.338795  1 Na d  1       
    34      0.249747  1 Na d  1       
 
 Vector   16  Occ=0.000000D+00  E= 3.224327D-02
              MO Center= -2.2D-16, -7.1D-15,  2.2D-15, r^2= 2.5D+01
   Bfn.  Coefficient  Atom+Function         Bfn.  Coefficient  Atom+Function  
  ----- ------------  ---------------      ----- ------------  ---------------
    42      0.835945  1 Na d -1              41      0.619070  1 Na d -2       
    45      0.383820  1 Na d  2              44     -0.344697  1 Na d  1       
    37     -0.271568  1 Na d -1              32      0.200189  1 Na d -1       
    36     -0.201113  1 Na d -2       
 
 Vector   17  Occ=0.000000D+00  E= 3.224327D-02
              MO Center=  6.0D-16, -3.1D-15, -3.8D-16, r^2= 2.5D+01
   Bfn.  Coefficient  Atom+Function         Bfn.  Coefficient  Atom+Function  
  ----- ------------  ---------------      ----- ------------  ---------------
    45      0.939742  1 Na d  2              41     -0.671322  1 Na d -2       
    40     -0.305287  1 Na d  2              35      0.225046  1 Na d  2       
    36      0.218088  1 Na d -2              31     -0.160766  1 Na d -2       
 
 Vector   18  Occ=0.000000D+00  E= 3.224327D-02
              MO Center= -5.5D-15,  4.3D-15,  5.1D-15, r^2= 2.5D+01
   Bfn.  Coefficient  Atom+Function         Bfn.  Coefficient  Atom+Function  
  ----- ------------  ---------------      ----- ------------  ---------------
    42      0.806561  1 Na d -1              41     -0.616560  1 Na d -2       
    45     -0.426097  1 Na d  2              44      0.369585  1 Na d  1       
    37     -0.262022  1 Na d -1              36      0.200298  1 Na d -2       
    32      0.193153  1 Na d -1       
 
 Vector   19  Occ=0.000000D+00  E= 3.872130D-02
              MO Center= -1.8D-14, -1.8D-14, -1.4D-14, r^2= 5.0D+01
   Bfn.  Coefficient  Atom+Function         Bfn.  Coefficient  Atom+Function  
  ----- ------------  ---------------      ----- ------------  ---------------
     6      4.375651  1 Na s                  5     -3.210365  1 Na s          
     7     -1.653035  1 Na s                  4      0.173456  1 Na s          
 
 Vector   20  Occ=0.000000D+00  E= 6.321682D-02
              MO Center=  1.1D-14,  8.7D-15,  2.3D-14, r^2= 4.4D+01
   Bfn.  Coefficient  Atom+Function         Bfn.  Coefficient  Atom+Function  
  ----- ------------  ---------------      ----- ------------  ---------------
    22      4.000637  1 Na pz                25     -2.300644  1 Na pz         
    19     -2.038541  1 Na pz                20      1.362342  1 Na px         
    23     -0.783441  1 Na px                17     -0.694187  1 Na px         
    13     -0.417697  1 Na pz                10     -0.340810  1 Na pz         
 
 Vector   21  Occ=0.000000D+00  E= 6.321682D-02
              MO Center=  6.5D-16,  4.7D-15, -3.9D-15, r^2= 4.4D+01
   Bfn.  Coefficient  Atom+Function         Bfn.  Coefficient  Atom+Function  
  ----- ------------  ---------------      ----- ------------  ---------------
    20      3.347442  1 Na px                21     -2.341257  1 Na py         
    23     -1.925012  1 Na px                17     -1.705703  1 Na px         
    24      1.346386  1 Na py                18      1.192997  1 Na py         
    22     -1.087331  1 Na pz                25      0.625291  1 Na pz         
    19      0.554054  1 Na pz                11     -0.349498  1 Na px         
 
 Vector   22  Occ=0.000000D+00  E= 6.321682D-02
              MO Center=  1.1D-14,  1.9D-14, -3.4D-15, r^2= 4.4D+01
   Bfn.  Coefficient  Atom+Function         Bfn.  Coefficient  Atom+Function  
  ----- ------------  ---------------      ----- ------------  ---------------
    21      3.518463  1 Na py                20      2.192670  1 Na px         
    24     -2.023361  1 Na py                18     -1.792847  1 Na py         
    23     -1.260937  1 Na px                17     -1.117284  1 Na px         
    22     -0.825686  1 Na pz                25      0.474827  1 Na pz         
    19      0.420732  1 Na pz                12     -0.367354  1 Na py         
 
 Vector   23  Occ=0.000000D+00  E= 1.204442D-01
              MO Center= -2.2D-15,  3.5D-16, -2.6D-15, r^2= 1.9D+01
   Bfn.  Coefficient  Atom+Function         Bfn.  Coefficient  Atom+Function  
  ----- ------------  ---------------      ----- ------------  ---------------
    38      2.313542  1 Na d  0              43     -1.254939  1 Na d  0       
    33     -1.053058  1 Na d  0              40      0.609794  1 Na d  2       
    28      0.374993  1 Na d  0              45     -0.330772  1 Na d  2       
    35     -0.277561  1 Na d  2       
 
 Vector   24  Occ=0.000000D+00  E= 1.204442D-01
              MO Center= -6.5D-16, -7.0D-15,  2.6D-15, r^2= 1.9D+01
   Bfn.  Coefficient  Atom+Function         Bfn.  Coefficient  Atom+Function  
  ----- ------------  ---------------      ----- ------------  ---------------
    36      1.773852  1 Na d -2              37      1.577274  1 Na d -1       
    41     -0.962194  1 Na d -2              42     -0.855564  1 Na d -1       
    31     -0.807407  1 Na d -2              32     -0.717930  1 Na d -1       
    26      0.287517  1 Na d -2              39     -0.268933  1 Na d  1       
    27      0.255654  1 Na d -1       
 
 Vector   25  Occ=0.000000D+00  E= 1.204442D-01
              MO Center=  1.7D-15, -4.8D-15, -2.9D-16, r^2= 1.9D+01
   Bfn.  Coefficient  Atom+Function         Bfn.  Coefficient  Atom+Function  
  ----- ------------  ---------------      ----- ------------  ---------------
    39      1.776360  1 Na d  1              40     -1.435297  1 Na d  2       
    44     -0.963555  1 Na d  1              34     -0.808549  1 Na d  1       
    45      0.778551  1 Na d  2              35      0.653306  1 Na d  2       
    36      0.481935  1 Na d -2              38      0.379316  1 Na d  0       
    37     -0.364226  1 Na d -1              29      0.287923  1 Na d  1       
 
 Vector   26  Occ=0.000000D+00  E= 1.204442D-01
              MO Center=  9.9D-16, -6.2D-16,  2.3D-15, r^2= 1.9D+01
   Bfn.  Coefficient  Atom+Function         Bfn.  Coefficient  Atom+Function  
  ----- ------------  ---------------      ----- ------------  ---------------
    37      1.519640  1 Na d -1              39      1.262322  1 Na d  1       
    36     -1.101400  1 Na d -2              42     -0.824301  1 Na d -1       
    40      0.755070  1 Na d  2              32     -0.691697  1 Na d -1       
    44     -0.684724  1 Na d  1              41      0.597434  1 Na d -2       
    34     -0.574573  1 Na d  1              31      0.501326  1 Na d -2       
 
 Vector   27  Occ=0.000000D+00  E= 1.204442D-01
              MO Center= -6.4D-15, -6.3D-15,  6.6D-15, r^2= 1.9D+01
   Bfn.  Coefficient  Atom+Function         Bfn.  Coefficient  Atom+Function  
  ----- ------------  ---------------      ----- ------------  ---------------
    40      1.644888  1 Na d  2              36      1.064160  1 Na d -2       
    39      0.950313  1 Na d  1              37     -0.891390  1 Na d -1       
    45     -0.892240  1 Na d  2              35     -0.748706  1 Na d  2       
    41     -0.577235  1 Na d -2              44     -0.515480  1 Na d  1       
    31     -0.484375  1 Na d -2              42      0.483519  1 Na d -1       
 
 Vector   28  Occ=0.000000D+00  E= 1.310030D-01
              MO Center= -3.7D-15,  3.4D-15, -2.8D-15, r^2= 1.6D+01
   Bfn.  Coefficient  Atom+Function         Bfn.  Coefficient  Atom+Function  
  ----- ------------  ---------------      ----- ------------  ---------------
    65      1.147190  1 Na f  2              58     -0.371348  1 Na f  2       
    64     -0.221068  1 Na f  1              62      0.211766  1 Na f -1       
 
 Vector   29  Occ=0.000000D+00  E= 1.310030D-01
              MO Center=  1.2D-15,  4.2D-15, -6.3D-15, r^2= 1.6D+01
   Bfn.  Coefficient  Atom+Function         Bfn.  Coefficient  Atom+Function  
  ----- ------------  ---------------      ----- ------------  ---------------
    62      0.877453  1 Na f -1              60      0.582782  1 Na f -3       
    64     -0.521630  1 Na f  1              55     -0.284034  1 Na f -1       
    65     -0.196994  1 Na f  2              53     -0.188648  1 Na f -3       
    57      0.168853  1 Na f  1              63      0.154064  1 Na f  0       
 
 Vector   30  Occ=0.000000D+00  E= 1.310030D-01
              MO Center=  3.4D-15,  5.2D-15,  3.6D-15, r^2= 1.6D+01
   Bfn.  Coefficient  Atom+Function         Bfn.  Coefficient  Atom+Function  
  ----- ------------  ---------------      ----- ------------  ---------------
    66      0.725215  1 Na f  3              61      0.639854  1 Na f -2       
    62     -0.458797  1 Na f -1              64     -0.377552  1 Na f  1       
    60      0.361967  1 Na f -3              59     -0.234754  1 Na f  3       
    54     -0.207123  1 Na f -2              65      0.154064  1 Na f  2       
 
 Vector   31  Occ=0.000000D+00  E= 1.310030D-01
              MO Center=  6.4D-15, -1.5D-15,  2.9D-15, r^2= 1.6D+01
   Bfn.  Coefficient  Atom+Function         Bfn.  Coefficient  Atom+Function  
  ----- ------------  ---------------      ----- ------------  ---------------
    63      0.654654  1 Na f  0              60     -0.554794  1 Na f -3       
    61     -0.516868  1 Na f -2              66      0.495232  1 Na f  3       
    64     -0.422492  1 Na f  1              56     -0.211913  1 Na f  0       
    53      0.179588  1 Na f -3              54      0.167311  1 Na f -2       
    59     -0.160308  1 Na f  3       
 
 Vector   32  Occ=0.000000D+00  E= 1.310030D-01
              MO Center=  1.3D-15,  7.6D-15,  2.0D-15, r^2= 1.6D+01
   Bfn.  Coefficient  Atom+Function         Bfn.  Coefficient  Atom+Function  
  ----- ------------  ---------------      ----- ------------  ---------------
    64      0.813263  1 Na f  1              60      0.493384  1 Na f -3       
    66      0.480903  1 Na f  3              63      0.375763  1 Na f  0       
    61     -0.312815  1 Na f -2              57     -0.263255  1 Na f  1       
    65      0.212757  1 Na f  2              62      0.160587  1 Na f -1       
    53     -0.159710  1 Na f -3              59     -0.155670  1 Na f  3       
 
 Vector   33  Occ=0.000000D+00  E= 1.310030D-01
              MO Center= -2.2D-15,  2.7D-15,  4.1D-16, r^2= 1.6D+01
   Bfn.  Coefficient  Atom+Function         Bfn.  Coefficient  Atom+Function  
  ----- ------------  ---------------      ----- ------------  ---------------
    61      0.815195  1 Na f -2              63      0.562406  1 Na f  0       
    60     -0.452012  1 Na f -3              62      0.353292  1 Na f -1       
    64      0.344235  1 Na f  1              54     -0.263881  1 Na f -2       
    56     -0.182052  1 Na f  0       
 
 Vector   34  Occ=0.000000D+00  E= 1.310030D-01
              MO Center=  5.0D-15,  6.7D-15,  1.5D-15, r^2= 1.6D+01
   Bfn.  Coefficient  Atom+Function         Bfn.  Coefficient  Atom+Function  
  ----- ------------  ---------------      ----- ------------  ---------------
    63      0.729469  1 Na f  0              66     -0.643596  1 Na f  3       
    62     -0.519912  1 Na f -1              60      0.448324  1 Na f -3       
    56     -0.236131  1 Na f  0              59      0.208334  1 Na f  3       
    55      0.168297  1 Na f -1              64     -0.155847  1 Na f  1       
 
 Vector   35  Occ=0.000000D+00  E= 1.718958D-01
              MO Center= -1.1D-14, -5.1D-14, -5.9D-14, r^2= 2.0D+01
   Bfn.  Coefficient  Atom+Function         Bfn.  Coefficient  Atom+Function  
  ----- ------------  ---------------      ----- ------------  ---------------
     5      7.572534  1 Na s                  6     -4.603322  1 Na s          
     4     -4.365701  1 Na s                  7      0.897779  1 Na s          
     3     -0.657257  1 Na s                  2     -0.154351  1 Na s          
 
 Vector   36  Occ=0.000000D+00  E= 1.891488D-01
              MO Center=  1.0D-14, -4.9D-16,  5.4D-16, r^2= 2.0D+01
   Bfn.  Coefficient  Atom+Function         Bfn.  Coefficient  Atom+Function  
  ----- ------------  ---------------      ----- ------------  ---------------
    17      3.898680  1 Na px                20     -3.421874  1 Na px         
    14     -2.505471  1 Na px                23      1.529965  1 Na px         
     8      1.139783  1 Na px                11      0.895375  1 Na px         
 
 Vector   37  Occ=0.000000D+00  E= 1.891488D-01
              MO Center=  2.0D-16, -1.4D-14,  3.4D-14, r^2= 2.0D+01
   Bfn.  Coefficient  Atom+Function         Bfn.  Coefficient  Atom+Function  
  ----- ------------  ---------------      ----- ------------  ---------------
    19      3.564031  1 Na pz                22     -3.128153  1 Na pz         
    16     -2.290410  1 Na pz                18     -1.583503  1 Na py         
    25      1.398638  1 Na pz                21      1.389842  1 Na py         
    10      1.041948  1 Na pz                15      1.017632  1 Na py         
    13      0.818519  1 Na pz                24     -0.621416  1 Na py         
 
 Vector   38  Occ=0.000000D+00  E= 1.891488D-01
              MO Center= -2.4D-15,  6.7D-14,  3.0D-14, r^2= 2.0D+01
   Bfn.  Coefficient  Atom+Function         Bfn.  Coefficient  Atom+Function  
  ----- ------------  ---------------      ----- ------------  ---------------
    18      3.562674  1 Na py                21     -3.126962  1 Na py         
    15     -2.289538  1 Na py                19      1.584792  1 Na pz         
    24      1.398105  1 Na py                22     -1.390973  1 Na pz         
     9      1.041551  1 Na py                16     -1.018460  1 Na pz         
    12      0.818207  1 Na py                25      0.621922  1 Na pz         
 
 Vector   39  Occ=0.000000D+00  E= 3.213793D-01
              MO Center=  8.8D-16, -3.7D-15, -1.1D-16, r^2= 1.1D+01
   Bfn.  Coefficient  Atom+Function         Bfn.  Coefficient  Atom+Function  
  ----- ------------  ---------------      ----- ------------  ---------------
    35      2.962335  1 Na d  2              40     -2.867338  1 Na d  2       
    31      1.195354  1 Na d -2              36     -1.157021  1 Na d -2       
    45      0.843294  1 Na d  2              30     -0.434549  1 Na d  2       
    33      0.371196  1 Na d  0              38     -0.359292  1 Na d  0       
    41      0.340284  1 Na d -2              26     -0.175348  1 Na d -2       
 
 Vector   40  Occ=0.000000D+00  E= 3.213793D-01
              MO Center= -4.3D-16,  1.8D-15, -1.3D-15, r^2= 1.1D+01
   Bfn.  Coefficient  Atom+Function         Bfn.  Coefficient  Atom+Function  
  ----- ------------  ---------------      ----- ------------  ---------------
    32      2.948948  1 Na d -1              37     -2.854381  1 Na d -1       
    31     -1.071929  1 Na d -2              36      1.037554  1 Na d -2       
    42      0.839484  1 Na d -1              34      0.494375  1 Na d  1       
    39     -0.478521  1 Na d  1              35      0.461925  1 Na d  2       
    40     -0.447112  1 Na d  2              27     -0.432586  1 Na d -1       
 
 Vector   41  Occ=0.000000D+00  E= 3.213793D-01
              MO Center= -1.8D-16,  6.0D-16, -5.7D-16, r^2= 1.1D+01
   Bfn.  Coefficient  Atom+Function         Bfn.  Coefficient  Atom+Function  
  ----- ------------  ---------------      ----- ------------  ---------------
    33      2.934584  1 Na d  0              38     -2.840477  1 Na d  0       
    31      0.884663  1 Na d -2              36     -0.856293  1 Na d -2       
    43      0.835394  1 Na d  0              35     -0.719260  1 Na d  2       
    40      0.696194  1 Na d  2              32      0.618830  1 Na d -1       
    37     -0.598986  1 Na d -1              28     -0.430479  1 Na d  0       
 
 Vector   42  Occ=0.000000D+00  E= 3.213793D-01
              MO Center= -3.4D-16,  9.0D-16,  1.5D-15, r^2= 1.1D+01
   Bfn.  Coefficient  Atom+Function         Bfn.  Coefficient  Atom+Function  
  ----- ------------  ---------------      ----- ------------  ---------------
    34      3.119600  1 Na d  1              39     -3.019560  1 Na d  1       
    44      0.888064  1 Na d  1              32     -0.675709  1 Na d -1       
    37      0.654040  1 Na d -1              29     -0.457619  1 Na d  1       
    31     -0.322954  1 Na d -2              36      0.312598  1 Na d -2       
    35      0.245183  1 Na d  2              40     -0.237321  1 Na d  2       
 
 Vector   43  Occ=0.000000D+00  E= 3.213793D-01
              MO Center= -8.8D-16, -1.7D-15,  1.3D-15, r^2= 1.1D+01
   Bfn.  Coefficient  Atom+Function         Bfn.  Coefficient  Atom+Function  
  ----- ------------  ---------------      ----- ------------  ---------------
    31      2.624818  1 Na d -2              36     -2.540645  1 Na d -2       
    33     -1.245770  1 Na d  0              38      1.205821  1 Na d  0       
    32      0.904636  1 Na d -1              35     -0.887834  1 Na d  2       
    37     -0.875626  1 Na d -1              40      0.859362  1 Na d  2       
    41      0.747213  1 Na d -2              34      0.553419  1 Na d  1       
 
 Vector   44  Occ=0.000000D+00  E= 3.592348D-01
              MO Center= -1.2D-15,  9.8D-18,  5.3D-16, r^2= 1.0D+01
   Bfn.  Coefficient  Atom+Function         Bfn.  Coefficient  Atom+Function  
  ----- ------------  ---------------      ----- ------------  ---------------
    80      1.103464  1 Na g  0              82     -0.441917  1 Na g  2       
    71     -0.280248  1 Na g  0       
 
 Vector   45  Occ=0.000000D+00  E= 3.592348D-01
              MO Center= -1.1D-15,  2.4D-17,  2.6D-15, r^2= 1.0D+01
   Bfn.  Coefficient  Atom+Function         Bfn.  Coefficient  Atom+Function  
  ----- ------------  ---------------      ----- ------------  ---------------
    81      1.075154  1 Na g  1              78      0.344711  1 Na g -2       
    76      0.288962  1 Na g -4              72     -0.273059  1 Na g  1       
    82      0.187352  1 Na g  2       
 
 Vector   46  Occ=0.000000D+00  E= 3.592348D-01
              MO Center= -6.0D-16,  2.4D-15,  4.8D-16, r^2= 1.0D+01
   Bfn.  Coefficient  Atom+Function         Bfn.  Coefficient  Atom+Function  
  ----- ------------  ---------------      ----- ------------  ---------------
    79     -0.721243  1 Na g -1              76      0.699954  1 Na g -4       
    78      0.388696  1 Na g -2              82     -0.377337  1 Na g  2       
    81     -0.245800  1 Na g  1              83      0.213415  1 Na g  3       
    70      0.183175  1 Na g -1              67     -0.177768  1 Na g -4       
 
 Vector   47  Occ=0.000000D+00  E= 3.592348D-01
              MO Center=  1.9D-15,  2.1D-15, -3.4D-15, r^2= 1.0D+01
   Bfn.  Coefficient  Atom+Function         Bfn.  Coefficient  Atom+Function  
  ----- ------------  ---------------      ----- ------------  ---------------
    77      0.843576  1 Na g -3              83      0.531135  1 Na g  3       
    79      0.490848  1 Na g -1              76      0.391685  1 Na g -4       
    68     -0.214244  1 Na g -3       
 
 Vector   48  Occ=0.000000D+00  E= 3.592348D-01
              MO Center= -2.9D-15,  1.4D-15,  1.9D-15, r^2= 1.0D+01
   Bfn.  Coefficient  Atom+Function         Bfn.  Coefficient  Atom+Function  
  ----- ------------  ---------------      ----- ------------  ---------------
    78      0.881816  1 Na g -2              79      0.493595  1 Na g -1       
    84     -0.417627  1 Na g  4              83     -0.351403  1 Na g  3       
    82     -0.268171  1 Na g  2              69     -0.223956  1 Na g -2       
 
 Vector   49  Occ=0.000000D+00  E= 3.592348D-01
              MO Center=  4.5D-17, -1.7D-15, -1.9D-15, r^2= 1.0D+01
   Bfn.  Coefficient  Atom+Function         Bfn.  Coefficient  Atom+Function  
  ----- ------------  ---------------      ----- ------------  ---------------
    84      0.631466  1 Na g  4              79      0.538912  1 Na g -1       
    76      0.445939  1 Na g -4              77     -0.432806  1 Na g -3       
    82     -0.422117  1 Na g  2              83     -0.357387  1 Na g  3       
    78     -0.219895  1 Na g -2              75     -0.160374  1 Na g  4       
 
 Vector   50  Occ=0.000000D+00  E= 3.592348D-01
              MO Center=  2.4D-15,  1.5D-16,  4.5D-16, r^2= 1.0D+01
   Bfn.  Coefficient  Atom+Function         Bfn.  Coefficient  Atom+Function  
  ----- ------------  ---------------      ----- ------------  ---------------
    76      0.707479  1 Na g -4              82      0.627791  1 Na g  2       
    84     -0.563062  1 Na g  4              77     -0.239285  1 Na g -3       
    83     -0.211400  1 Na g  3              78     -0.201160  1 Na g -2       
    79      0.182912  1 Na g -1              67     -0.179680  1 Na g -4       
    81     -0.160656  1 Na g  1              73     -0.159441  1 Na g  2       
 
 Vector   51  Occ=0.000000D+00  E= 3.592348D-01
              MO Center= -3.6D-16,  1.7D-15,  4.8D-16, r^2= 1.0D+01
   Bfn.  Coefficient  Atom+Function         Bfn.  Coefficient  Atom+Function  
  ----- ------------  ---------------      ----- ------------  ---------------
    84      0.689148  1 Na g  4              82      0.599463  1 Na g  2       
    78      0.396984  1 Na g -2              81     -0.361377  1 Na g  1       
    83     -0.347348  1 Na g  3              80      0.319518  1 Na g  0       
    77      0.284419  1 Na g -3              75     -0.175024  1 Na g  4       
    73     -0.152246  1 Na g  2       
 
 Vector   52  Occ=0.000000D+00  E= 3.592348D-01
              MO Center= -1.6D-15,  1.6D-15,  3.5D-15, r^2= 1.0D+01
   Bfn.  Coefficient  Atom+Function         Bfn.  Coefficient  Atom+Function  
  ----- ------------  ---------------      ----- ------------  ---------------
    83      0.831840  1 Na g  3              77     -0.618983  1 Na g -3       
    78      0.354861  1 Na g -2              79      0.312100  1 Na g -1       
    82      0.240006  1 Na g  2              74     -0.211264  1 Na g  3       
    81     -0.158518  1 Na g  1              84      0.158446  1 Na g  4       
    68      0.157204  1 Na g -3              80      0.151014  1 Na g  0       
 
 Vector   53  Occ=0.000000D+00  E= 4.144595D-01
              MO Center=  1.6D-15,  2.4D-15,  2.8D-15, r^2= 8.7D+00
   Bfn.  Coefficient  Atom+Function         Bfn.  Coefficient  Atom+Function  
  ----- ------------  ---------------      ----- ------------  ---------------
    58      1.711412  1 Na f  2              65     -0.865410  1 Na f  2       
    51     -0.403514  1 Na f  2              59     -0.359573  1 Na f  3       
    55      0.316198  1 Na f -1              66      0.181825  1 Na f  3       
    62     -0.159892  1 Na f -1       
 
 Vector   54  Occ=0.000000D+00  E= 4.144595D-01
              MO Center=  1.7D-15, -1.4D-15,  1.1D-15, r^2= 8.7D+00
   Bfn.  Coefficient  Atom+Function         Bfn.  Coefficient  Atom+Function  
  ----- ------------  ---------------      ----- ------------  ---------------
    55      1.316441  1 Na f -1              62     -0.665685  1 Na f -1       
    56      0.622582  1 Na f  0              53     -0.569446  1 Na f -3       
    57      0.527857  1 Na f  1              59      0.526871  1 Na f  3       
    54      0.426139  1 Na f -2              63     -0.314821  1 Na f  0       
    48     -0.310389  1 Na f -1              60      0.287952  1 Na f -3       
 
 Vector   55  Occ=0.000000D+00  E= 4.144595D-01
              MO Center=  1.1D-15,  1.1D-15, -3.2D-15, r^2= 8.7D+00
   Bfn.  Coefficient  Atom+Function         Bfn.  Coefficient  Atom+Function  
  ----- ------------  ---------------      ----- ------------  ---------------
    57      1.113031  1 Na f  1              53      0.901550  1 Na f -3       
    59      0.897499  1 Na f  3              64     -0.562826  1 Na f  1       
    60     -0.455887  1 Na f -3              66     -0.453838  1 Na f  3       
    55     -0.394691  1 Na f -1              58      0.340099  1 Na f  2       
    50     -0.262429  1 Na f  1              46     -0.212566  1 Na f -3       
 
 Vector   56  Occ=0.000000D+00  E= 4.144595D-01
              MO Center=  3.6D-15,  2.5D-16, -3.4D-16, r^2= 8.7D+00
   Bfn.  Coefficient  Atom+Function         Bfn.  Coefficient  Atom+Function  
  ----- ------------  ---------------      ----- ------------  ---------------
    56      1.180735  1 Na f  0              59     -0.858400  1 Na f  3       
    53      0.751096  1 Na f -3              63     -0.597062  1 Na f  0       
    54     -0.522628  1 Na f -2              66      0.434067  1 Na f  3       
    57      0.417872  1 Na f  1              60     -0.379806  1 Na f -3       
    49     -0.278392  1 Na f  0              61      0.264277  1 Na f -2       
 
 Vector   57  Occ=0.000000D+00  E= 4.144595D-01
              MO Center= -4.0D-15, -1.1D-15, -2.1D-15, r^2= 8.7D+00
   Bfn.  Coefficient  Atom+Function         Bfn.  Coefficient  Atom+Function  
  ----- ------------  ---------------      ----- ------------  ---------------
    54      1.435499  1 Na f -2              59     -0.771117  1 Na f  3       
    61     -0.725888  1 Na f -2              53      0.576038  1 Na f -3       
    66      0.389930  1 Na f  3              47     -0.338460  1 Na f -2       
    56     -0.337604  1 Na f  0              60     -0.291285  1 Na f -3       
    55      0.245870  1 Na f -1              52      0.181813  1 Na f  3       
 
 Vector   58  Occ=0.000000D+00  E= 4.144595D-01
              MO Center=  2.2D-15, -7.5D-16,  4.0D-15, r^2= 8.7D+00
   Bfn.  Coefficient  Atom+Function         Bfn.  Coefficient  Atom+Function  
  ----- ------------  ---------------      ----- ------------  ---------------
    56      1.114670  1 Na f  0              54      0.728946  1 Na f -2       
    57     -0.729776  1 Na f  1              55     -0.702614  1 Na f -1       
    59      0.564620  1 Na f  3              63     -0.563655  1 Na f  0       
    61     -0.368606  1 Na f -2              64      0.369026  1 Na f  1       
    62      0.355291  1 Na f -1              66     -0.285511  1 Na f  3       
 
 Vector   59  Occ=0.000000D+00  E= 4.144595D-01
              MO Center=  5.7D-16, -3.0D-15,  3.8D-15, r^2= 8.7D+00
   Bfn.  Coefficient  Atom+Function         Bfn.  Coefficient  Atom+Function  
  ----- ------------  ---------------      ----- ------------  ---------------
    53      1.072422  1 Na f -3              57     -0.970996  1 Na f  1       
    55      0.794368  1 Na f -1              59      0.567753  1 Na f  3       
    60     -0.542291  1 Na f -3              64      0.491004  1 Na f  1       
    62     -0.401688  1 Na f -1              54     -0.310058  1 Na f -2       
    66     -0.287096  1 Na f  3              46     -0.252854  1 Na f -3       
 
 Vector   60  Occ=0.000000D+00  E= 6.820120D-01
              MO Center=  4.5D-16, -1.5D-16,  4.1D-16, r^2= 6.7D+00
   Bfn.  Coefficient  Atom+Function         Bfn.  Coefficient  Atom+Function  
  ----- ------------  ---------------      ----- ------------  ---------------
    33      4.874028  1 Na d  0              28     -3.094238  1 Na d  0       
    38     -2.838995  1 Na d  0              43      0.626939  1 Na d  0       
 

   alpha - beta orbital overlaps 
   ----------------------------- 


   alpha      1      2      3      4      5      6      7      8      9     10
    beta      1      2      4      4      3      6      9      8      7     10
 overlap   1.000  1.000  0.718  0.669  0.714  0.996  0.651  0.742  0.875  0.992


   alpha     11     12     13     14     15     16     17     18     19     20
    beta     13     12     11     15     17     16     14     14     19     20
 overlap   0.873  0.733  0.830  0.764  0.529  0.810  0.674  0.621  0.991  0.980


   alpha     21     22     23     24     25     26     27     28     29     30
    beta     22     21     23     25     24     26     24     28     29     33
 overlap   0.967  0.968  0.992  0.615  0.671  0.757  0.667  0.872  0.803  0.733


   alpha     31     32     33     34     35     36     37     38     39     40
    beta     34     31     34     30     35     36     37     38     39     41
 overlap   0.641  0.823  0.551  0.631  0.998  0.852  0.907  0.795  0.702  0.693


   alpha     41     42     43     44     45     46     47     48     49     50
    beta     42     39     40     44     52     45     49     46     46     47
 overlap   0.660  0.527  0.740  0.900  0.571  0.636  0.689  0.654  0.538  0.561


   alpha     51     52     53     54     55     56     57     58     59     60
    beta     50     48     56     53     54     55     58     54     59     63
 overlap   0.763  0.597  0.636  0.680  0.654  0.800  0.656  0.675  0.780  0.800


   alpha     61     62     63     64     65     66     67     68     69     70
    beta     61     62     60     64     66     66     65     68     69     72
 overlap   0.709  0.910  0.954  0.803  0.655  0.743  0.763  0.782  0.631  0.847


   alpha     71     72     73     74     75     76     77     78     79     80
    beta     75     76     73     70     71     74     78     83     80     81
 overlap   0.799  0.722  0.744  0.492  0.594  0.753  0.782  0.578  0.615  0.712


   alpha     81     82     83     84
    beta     80     79     77     84
 overlap   0.561  0.614  0.754  1.000

     --------------------------
     Expectation value of S2:  
     --------------------------
      <S2> =      0.7501 (Exact =     0.7500)
 
 
            General Information
            -------------------
          SCF calculation type: DFT
          Wavefunction type:  spin polarized.
          No. of atoms     :     1
          No. of electrons :    11
           Alpha electrons :     6
            Beta electrons :     5
          Charge           :     0
          Spin multiplicity:     2
          Use of symmetry is: off; symmetry adaption is: off
          Maximum number of iterations: 150
          This is a Direct SCF calculation.
          AO basis - number of functions:    84
                     number of shells:    22
          Convergence on energy requested: 1.00D-06
          Convergence on density requested: 1.00D-05
          Convergence on gradient requested: 5.00D-04
 
              XC Information
              --------------
                        Slater Exchange Functional  1.000 local    
                      VWN V Correlation Functional  1.000 local    
 
             Grid Information
             ----------------
          Grid used for XC integration:  medium    
          Radial quadrature: Mura-Knowles        
          Angular quadrature: Lebedev. 
          Tag              B.-S. Rad. Rad. Pts. Rad. Cut. Ang. Pts.
          ---              ---------- --------- --------- ---------
          Na                  1.80       88          21.0       434
          Grid pruning is: on 
          Number of quadrature shells:    88
          Spatial weights used:  Erf1
 
          Convergence Information
          -----------------------
          Convergence aids based upon iterative change in 
          total energy or number of iterations. 
          Levelshifting, if invoked, occurs when the 
          HOMO/LUMO gap drops below (HL_TOL): 1.00D-02
          DIIS, if invoked, will attempt to extrapolate 
          using up to (NFOCK): 10 stored Fock matrices.

                    Damping( 0%)  Levelshifting(0.5)       DIIS
                  --------------- ------------------- ---------------
          dE  on:    start            ASAP                start   
          dE off:    2 iters        150 iters           150 iters 

 
      Screening Tolerance Information
      -------------------------------
          Density screening/tol_rho: 1.00D-10
          AO Gaussian exp screening on grid/accAOfunc:  14
          CD Gaussian exp screening on grid/accCDfunc:  20
          XC Gaussian exp screening on grid/accXCfunc:  20
          Schwarz screening/accCoul: 1.00D-08

 
 
                            NWChem DFT Gradient Module
                            --------------------------
 
 

  charge          =   0.00
  wavefunction    = open shell



                         DFT ENERGY GRADIENTS

    atom               coordinates                        gradient
                 x          y          z           x          y          z
   1 Na      0.000000   0.000000   0.000000    0.000000  -0.000000  -0.000000
 
                 ----------------------------------------
                 |  Time  |  1-e(secs)   |  2-e(secs)   |
                 ----------------------------------------
                 |  CPU   |       0.01   |       0.00   |
                 ----------------------------------------
                 |  WALL  |       0.01   |       0.00   |
                 ----------------------------------------

 Task  times  cpu:        3.5s     wall:        3.7s
 
 
                                NWChem Input Module
                                -------------------
 
 
 Summary of allocated global arrays
-----------------------------------
  No active global arrays



                         GA Statistics for process    0
                         ------------------------------

       create   destroy   get      put      acc     scatter   gather  read&inc
calls:  206      206     6522     1560      141        0        0      229     
number of processes/call 1.09e+00 1.14e+00 5.56e+00 0.00e+00 0.00e+00
bytes total:             2.05e+07 7.93e+06 7.85e+06 0.00e+00 0.00e+00 1.83e+03
bytes remote:            1.91e+06 4.25e+05 2.08e+06 0.00e+00 0.00e+00 0.00e+00
Max memory consumed for GA by this process: 3556224 bytes
 
MA_summarize_allocated_blocks: starting scan ...
MA_summarize_allocated_blocks: scan completed: 0 heap blocks, 0 stack blocks
MA usage statistics:

	allocation statistics:
					      heap	     stack
					      ----	     -----
	current number of blocks	         0	         0
	maximum number of blocks	        24	        50
	current total bytes		         0	         0
	maximum total bytes		    231616	  89023016
	maximum total K-bytes		       232	     89024
	maximum total M-bytes		         1	        90
 
 
                                     CITATION
                                     --------
                Please cite the following reference when publishing
                           results obtained with NWChem:
 
                 M. Valiev, E.J. Bylaska, N. Govind, K. Kowalski,
              T.P. Straatsma, H.J.J. van Dam, D. Wang, J. Nieplocha,
                        E. Apra, T.L. Windus, W.A. de Jong
                 "NWChem: a comprehensive and scalable open-source
                  solution for large scale molecular simulations"
                      Comput. Phys. Commun. 181, 1477 (2010)
                           doi:10.1016/j.cpc.2010.04.018
 
                                      AUTHORS
                                      -------
          E. Apra, E. J. Bylaska, W. A. de Jong, N. Govind, K. Kowalski,
       T. P. Straatsma, M. Valiev, H. J. J. van Dam, D. Wang, T. L. Windus,
        J. Hammond, J. Autschbach, K. Bhaskaran-Nair, J. Brabec, K. Lopata,
       S. A. Fischer, S. Krishnamoorthy, W. Ma, M. Klemm, O. Villa, Y. Chen,
    V. Anisimov, F. Aquino, S. Hirata, M. T. Hackler, T. Risthaus, M. Malagoli,
       A. Marenich, A. Otero-de-la-Roza, J. Mullin, P. Nichols, R. Peverati,
     J. Pittner, Y. Zhao, P.-D. Fan, A. Fonari, M. Williamson, R. J. Harrison,
       J. R. Rehr, M. Dupuis, D. Silverstein, D. M. A. Smith, J. Nieplocha,
        V. Tipparaju, M. Krishnan, B. E. Van Kuiken, A. Vazquez-Mayagoitia,
        L. Jensen, M. Swart, Q. Wu, T. Van Voorhis, A. A. Auer, M. Nooijen,
      L. D. Crosby, E. Brown, G. Cisneros, G. I. Fann, H. Fruchtl, J. Garza,
        K. Hirao, R. A. Kendall, J. A. Nichols, K. Tsemekhman, K. Wolinski,
     J. Anchell, D. E. Bernholdt, P. Borowski, T. Clark, D. Clerc, H. Dachsel,
   M. J. O. Deegan, K. Dyall, D. Elwood, E. Glendening, M. Gutowski, A. C. Hess,
         J. Jaffe, B. G. Johnson, J. Ju, R. Kobayashi, R. Kutteh, Z. Lin,
   R. Littlefield, X. Long, B. Meng, T. Nakajima, S. Niu, L. Pollack, M. Rosing,
   K. Glaesemann, G. Sandrone, M. Stave, H. Taylor, G. Thomas, J. H. van Lenthe,
                               A. T. Wong, Z. Zhang.

 Total times  cpu:        3.6s     wall:        3.8s
