% & & Mean & Median & Stdev & Max Dev
 & cc-pvdz          &       11.052 &        7.015 &       12.058 &      143.335\\ 
 & cc-pvtz          &        1.559 &        0.825 &        2.417 &       36.928\\ 
 & cc-pvqz          &        1.110 &        0.633 &        1.509 &       21.225\\ 
 & aug-cc-pvdz      &        8.910 &        4.975 &       10.543 &      111.917\\ 
 & aug-cc-pvtz      &        0.738 &        0.357 &        1.345 &       31.181\\ 
 & aug-cc-pvqz      &        0.388 &        0.212 &        0.848 &       20.051\\ 
 & unc-aug-cc-pvdz  &        4.762 &        2.918 &        5.892 &       99.741\\ 
 & unc-aug-cc-pvtz  &        0.546 &        0.252 &        1.211 &       31.680\\ 
 & unc-aug-cc-pvqz  &        0.196 &        0.073 &        0.816 &       19.990\\ 
