 & & Mean & Median & Stdev & Max Dev
 & cc-pvdz          &        7.477 &        4.041 &        9.341 &      155.782\\ 
 & cc-pvtz          &        1.267 &        0.705 &        1.782 &       40.677\\ 
 & cc-pvqz          &        0.459 &        0.269 &        0.666 &       15.259\\ 
 & aug-cc-pvdz      &        7.555 &        3.954 &        9.627 &      117.147\\ 
 & aug-cc-pvtz      &        0.711 &        0.356 &        1.283 &       29.730\\ 
 & aug-cc-pvqz      &        0.196 &        0.090 &        0.487 &       13.157\\ 
 & unc-aug-cc-pvdz  &        5.730 &        3.230 &        7.666 &      121.916\\ 
 & unc-aug-cc-pvtz  &        0.651 &        0.346 &        1.194 &       29.083\\ 
 & unc-aug-cc-pvqz  &        0.199 &        0.098 &        0.488 &       13.035\\ 
