\begin{thebibliography}{1}

\bibitem{jensenjphyschemlett8}
Stig~Rune Jensen, Santanu Saha, Jos{\'e}~A. Flores-Livas, William Huhn, Volker
  Blum, Stefan Goedecker, and Luca Frediani.
\newblock The elephant in the room of density functional theory calculations.
\newblock {\em The Journal of Physical Chemistry Letters}, 8:1449--1457, 2017.

\bibitem{cccbdb}
NIST Computational Chemistry Comparison and Benchmark Database. \\ NIST Standard
  Reference Database Number 101. \\ Release 19, April 2018, Editor: Russell D. Johnson III. \\
  http://cccbdb.nist.gov/ \\
  DOI:10.18434/T47C7Z

\end{thebibliography}
