aug-cc-pvtz
Mean:87.70838260625645
25: -18.588123800675
Median: 54.3116664414
75: 185.492764814025
Stdev: 352.3935061515812
Max Dev: 3169.8952277745

aug-cc-pvqz
Mean:87.28206593676713
25: -18.805809297499998
Median: 54.0542267248
75: 184.9925206099
Stdev: 352.15923980111506
Max Dev: 3162.9629584116

cc-pvtz
Mean:88.33717829493777
25: -18.125445160825002
Median: 54.6458893775
75: 186.09108578365
Stdev: 352.34456291224495
Max Dev: 3165.2542346085

cc-pvqz
Mean:87.52487505578253
25: -18.7855858792
Median: 54.1292773279
75: 185.249319019875
Stdev: 352.15880639251276
Max Dev: 3164.0589535626

