Basis: 6-31G*
Reaction Number     NATOM             Reactant                        Product                         E_rxn (MADNESS)     E_rxn (NWChem)      E_rxn (Diff.)       E_rxn (Scaled)      
1                   7                 1 acetaldehyde                  1 ethylene_oxide                29.211510313        29.726345885        0.5148355716        0.0735479388        
2                   8                 1 acetic_acid                   1 methyl_formate                16.202865963        13.282440881        2.9204250819        0.3650531352        
4                   7                 1 allene                        1 cyclopropene                  25.215840481        23.943992946        1.2718475347        0.1816925049        
5                   7                 1 allene                        1 propyne                       -0.894532904        -0.912068950        0.0175360458        0.0025051494        
7                   10                1 bicyclo[1.1.0]butane          1 cyclobutene                   -18.80515206        -18.60238585        0.2027662025        0.0202766202        
8                   10                1 bicyclo[1.1.0]butane          1 2_butyne                      -23.44346641        -21.96636961        1.4770967991        0.1477096799        
9                   10                1 bicyclo[1.1.0]butane          1 methylenecyclopropane         -10.96417610        -9.987905495        0.9762706068        0.0976270606        
12                  36                3 cyclobutane                   4 cyclopropane                  27.330903491        34.317812630        6.9869091388        0.1940808094        
13                  12                1 cyclobutane                   2 ethylene                      13.804520290        21.888227836        8.0837075466        0.6736422955        
14                  12                1 cyclobutane                   1 isobutylene                   -11.80726581        -8.372408915        3.4348569042        0.2862380753        
15                  36                3 cyclobutane                   4 propene                       -10.64280364        4.0913177388        14.734121382        0.4092811495        
16                  12                1 cyclobutane                   4 methylene_s                   362.62582963        381.50293210        18.877102474        1.5730918728        
18                  60                5 cyclobutane                   4 cyclopentane                  -105.3648353        -107.2286638        1.8638284291        0.0310638071        
19                  10                1 cyclobutene                   1 2_butyne                      -4.638314349        -3.363983753        1.2743305966        0.1274330596        
20                  10                1 cyclobutene                   1 methylenecyclopropane         7.8409759586        8.6144803629        0.7735044043        0.0773504404        
23                  14                1 butane                        1 isobutane                     -0.262788219        -0.310572937        0.0477847187        0.0034131941        
24                  18                2 cyclopropane                  3 ethylene                      7.0413286897        15.673435440        8.6321067506        0.4795614861        
25                  36                4 cyclopropane                  3 isobutylene                   -62.75270095        -59.43503937        3.3176615738        0.0921572659        
26                  9                 1 cyclopropane                  1 propene                       -9.493426783        -7.556623722        1.9368030608        0.2152003400        
27                  9                 1 cyclopropane                  3 methylene_s                   265.13664635        277.54774592        12.411099571        1.3790110634        
29                  45                5 cyclopropane                  3 cyclopentane                  -113.1872559        -123.3187636        10.131507745        0.2251446165        
30                  7                 1 cyclopropene                  1 propyne                       -26.11037338        -24.85606189        1.2543114888        0.1791873555        
31                  10                1 2_butyne                      1 methylenecyclopropane         12.479290308        11.978464115        0.5008261922        0.0500826192        
33                  9                 1 dimethyl_sulfide              1 ethanethiol                   -1.524470364        -0.257734398        1.2667359656        0.1407484406        
36                  12                2 ethylene                      1 isobutylene                   -25.61178611        -30.26063675        4.6488506424        0.3874042202        
37                  18                3 ethylene                      2 propene                       -26.02818225        -30.78668288        4.7585006288        0.2643611460        
38                  6                 1 ethylene                      2 methylene_s                   174.41065467        179.80735213        5.3966974638        0.8994495773        
40                  30                5 ethylene                      2 cyclopentane                  -87.19371841        -108.3349015        21.141183081        0.7047061027        
41                  6                 1 formaldoxime                  1 formaldoxime_zwitterion       19.276273268        20.418856638        1.1425833696        0.1904305616        
46                  12                1 isopropyl_alcohol             1 methoxyethane                 9.7444052833        6.4165773884        3.3278278949        0.2773189912        
47                  36                3 isobutylene                   4 propene                       24.778993815        29.208544485        4.4295506696        0.1230430741        
48                  12                1 isobutylene                   4 methylene_s                   374.43309545        389.87534102        15.442245570        1.2868537975        
50                  60                5 isobutylene                   4 cyclopentane                  -46.32850628        -65.36661923        19.038112950        0.3173018825        
54                  4                 2 phosphorus_diatomic           1 phosphorus_tetramer           -42.08625679        -31.04737955        11.038877234        2.7597193086        
55                  9                 1 propene                       3 methylene_s                   274.63007313        285.10436964        10.474296510        1.1638107233        
57                  45                5 propene                       3 cyclopentane                  -65.72012198        -85.53564503        19.815523049        0.4403449566        
60                  15                5 methylene_s                   1 cyclopentane                  -479.6234958        -503.6858310        24.062335200        1.6041556800        
63                  6                 2 water                         1 oxygen_water                  -3.057437201        -5.477114115        2.4196769147        0.4032794857        
Basis: cc-pvdz
Reaction Number     NATOM             Reactant                        Product                         E_rxn (MADNESS)     E_rxn (NWChem)      E_rxn (Diff.)       E_rxn (Scaled)      
1                   7                 1 acetaldehyde                  1 ethylene_oxide                29.211510313        31.121071253        1.9095609392        0.2727944198        
2                   8                 1 acetic_acid                   1 methyl_formate                16.202865963        16.720363152        0.5174971887        0.0646871485        
4                   7                 1 allene                        1 cyclopropene                  25.215840481        24.930043640        0.2857968405        0.0408281200        
5                   7                 1 allene                        1 propyne                       -0.894532904        -0.480717384        0.4138155201        0.0591165028        
7                   10                1 bicyclo[1.1.0]butane          1 cyclobutene                   -18.80515206        -18.99310058        0.1879485206        0.0187948520        
8                   10                1 bicyclo[1.1.0]butane          1 2_butyne                      -23.44346641        -22.99621160        0.4472548039        0.0447254803        
9                   10                1 bicyclo[1.1.0]butane          1 methylenecyclopropane         -10.96417610        -10.32007745        0.6440986468        0.0644098646        
12                  36                3 cyclobutane                   4 cyclopropane                  27.330903491        32.854881452        5.5239779606        0.1534438322        
13                  12                1 cyclobutane                   2 ethylene                      13.804520290        17.404179216        3.5996589264        0.2999715772        
14                  12                1 cyclobutane                   1 isobutylene                   -11.80726581        -10.48300905        1.3242567638        0.1103547303        
15                  36                3 cyclobutane                   4 propene                       -10.64280364        -4.430847127        6.2119565165        0.1725543476        
16                  12                1 cyclobutane                   4 methylene_s                   362.62582963        365.70334685        3.0775172192        0.2564597682        
18                  60                5 cyclobutane                   4 cyclopentane                  -105.3648353        -105.7048733        0.3400379266        0.0056672987        
19                  10                1 cyclobutene                   1 2_butyne                      -4.638314349        -4.003111025        0.6352033246        0.0635203324        
20                  10                1 cyclobutene                   1 methylenecyclopropane         7.8409759586        8.6730231260        0.8320471674        0.0832047167        
23                  14                1 butane                        1 isobutane                     -0.262788219        -0.246467245        0.0163209738        0.0011657838        
24                  18                2 cyclopropane                  3 ethylene                      7.0413286897        9.6788280991        2.6374994094        0.1465277449        
25                  36                4 cyclopropane                  3 isobutylene                   -62.75270095        -64.30390861        1.5512076690        0.0430891019        
26                  9                 1 cyclopropane                  1 propene                       -9.493426783        -9.321432144        0.1719946389        0.0191105154        
27                  9                 1 cyclopropane                  3 methylene_s                   265.13664635        266.06378977        0.9271434242        0.1030159360        
29                  45                5 cyclopropane                  3 cyclopentane                  -113.1872559        -120.3472568        7.1600008958        0.1591111310        
30                  7                 1 cyclopropene                  1 propyne                       -26.11037338        -25.41076102        0.6996123606        0.0999446229        
31                  10                1 2_butyne                      1 methylenecyclopropane         12.479290308        12.676134151        0.1968438428        0.0196843842        
33                  9                 1 dimethyl_sulfide              1 ethanethiol                   -1.524470364        -2.949557920        1.4250875561        0.1583430617        
36                  12                2 ethylene                      1 isobutylene                   -25.61178611        -27.88718827        2.2754021626        0.1896168468        
37                  18                3 ethylene                      2 propene                       -26.02818225        -28.32169238        2.2935101314        0.1274172295        
38                  6                 1 ethylene                      2 methylene_s                   174.41065467        174.14958381        0.2610708536        0.0435118089        
40                  30                5 ethylene                      2 cyclopentane                  -87.19371841        -96.36288469        9.1691662795        0.3056388759        
41                  6                 1 formaldoxime                  1 formaldoxime_zwitterion       19.276273268        21.999034572        2.7227613044        0.4537935507        
46                  12                1 isopropyl_alcohol             1 methoxyethane                 9.7444052833        9.7352843158        0.0091209675        0.0007600806        
47                  36                3 isobutylene                   4 propene                       24.778993815        27.018180040        2.2391862249        0.0621996173        
48                  12                1 isobutylene                   4 methylene_s                   374.43309545        376.18635590        1.7532604553        0.1461050379        
50                  60                5 isobutylene                   4 cyclopentane                  -46.32850628        -53.28982803        6.9613217459        0.1160220290        
54                  4                 2 phosphorus_diatomic           1 phosphorus_tetramer           -42.08625679        -35.63821323        6.4480435605        1.6120108901        
55                  9                 1 propene                       3 methylene_s                   274.63007313        275.38522192        0.7551487852        0.0839054205        
57                  45                5 propene                       3 cyclopentane                  -65.72012198        -73.74009607        8.0199740907        0.1782216464        
60                  15                5 methylene_s                   1 cyclopentane                  -479.6234958        -483.5554018        3.9319060056        0.2621270670        
63                  6                 2 water                         1 oxygen_water                  -3.057437201        -5.321039644        2.2636024438        0.3772670739        
Basis: cc-pvtz
Reaction Number     NATOM             Reactant                        Product                         E_rxn (MADNESS)     E_rxn (NWChem)      E_rxn (Diff.)       E_rxn (Scaled)      
1                   7                 1 acetaldehyde                  1 ethylene_oxide                29.211510313        29.310255520        0.0987452065        0.0141064580        
2                   8                 1 acetic_acid                   1 methyl_formate                16.202865963        16.167993564        0.0348723989        0.0043590498        
4                   7                 1 allene                        1 cyclopropene                  25.215840481        25.173724769        0.0421157114        0.0060165302        
5                   7                 1 allene                        1 propyne                       -0.894532904        -0.942225712        0.0476928074        0.0068132582        
7                   10                1 bicyclo[1.1.0]butane          1 cyclobutene                   -18.80515206        -18.81223706        0.0070850052        0.0007085005        
8                   10                1 bicyclo[1.1.0]butane          1 2_butyne                      -23.44346641        -23.47082997        0.0273635628        0.0027363562        
9                   10                1 bicyclo[1.1.0]butane          1 methylenecyclopropane         -10.96417610        -10.95123131        0.0129447909        0.0012944790        
12                  36                3 cyclobutane                   4 cyclopropane                  27.330903491        28.039686587        0.7087830959        0.0196884193        
13                  12                1 cyclobutane                   2 ethylene                      13.804520290        14.579284877        0.7747645867        0.0645637155        
14                  12                1 cyclobutane                   1 isobutylene                   -11.80726581        -11.45779301        0.3494728029        0.0291227335        
15                  36                3 cyclobutane                   4 propene                       -10.64280364        -9.156557842        1.4862458006        0.0412846055        
16                  12                1 cyclobutane                   4 methylene_s                   362.62582963        364.05847898        1.4326493508        0.1193874459        
18                  60                5 cyclobutane                   4 cyclopentane                  -105.3648353        -105.4735127        0.1086773362        0.0018112889        
19                  10                1 cyclobutene                   1 2_butyne                      -4.638314349        -4.658592907        0.0202785576        0.0020278557        
20                  10                1 cyclobutene                   1 methylenecyclopropane         7.8409759586        7.8610057547        0.0200297961        0.0020029796        
23                  14                1 butane                        1 isobutane                     -0.262788219        -0.272770795        0.0099825769        0.0007130412        
24                  18                2 cyclopropane                  3 ethylene                      7.0413286897        7.8490840218        0.8077553321        0.0448752962        
25                  36                4 cyclopropane                  3 isobutylene                   -62.75270095        -62.41306563        0.3396353130        0.0094343142        
26                  9                 1 cyclopropane                  1 propene                       -9.493426783        -9.299061107        0.1943656761        0.0215961862        
27                  9                 1 cyclopropane                  3 methylene_s                   265.13664635        266.03393759        0.8972912391        0.0996990265        
29                  45                5 cyclopropane                  3 cyclopentane                  -113.1872559        -114.1547427        0.9674868721        0.0214997082        
30                  7                 1 cyclopropene                  1 propyne                       -26.11037338        -26.11595048        0.0055770960        0.0007967280        
31                  10                1 2_butyne                      1 methylenecyclopropane         12.479290308        12.519598662        0.0403083537        0.0040308353        
33                  9                 1 dimethyl_sulfide              1 ethanethiol                   -1.524470364        -1.614567393        0.0900970287        0.0100107809        
36                  12                2 ethylene                      1 isobutylene                   -25.61178611        -26.03707789        0.4252917837        0.0354409819        
37                  18                3 ethylene                      2 propene                       -26.02818225        -26.44720623        0.4190239797        0.0232791099        
38                  6                 1 ethylene                      2 methylene_s                   174.41065467        174.73959705        0.3289423820        0.0548237303        
40                  30                5 ethylene                      2 cyclopentane                  -87.19371841        -89.18496855        1.9912501349        0.0663750044        
41                  6                 1 formaldoxime                  1 formaldoxime_zwitterion       19.276273268        20.386308393        1.1100351253        0.1850058542        
46                  12                1 isopropyl_alcohol             1 methoxyethane                 9.7444052833        9.5415813562        0.2028239270        0.0169019939        
47                  36                3 isobutylene                   4 propene                       24.778993815        25.216821207        0.4378273916        0.0121618719        
48                  12                1 isobutylene                   4 methylene_s                   374.43309545        375.51627200        1.0831765478        0.0902647123        
50                  60                5 isobutylene                   4 cyclopentane                  -46.32850628        -48.18454763        1.8560413512        0.0309340225        
54                  4                 2 phosphorus_diatomic           1 phosphorus_tetramer           -42.08625679        -41.80729398        0.2789628092        0.0697407023        
55                  9                 1 propene                       3 methylene_s                   274.63007313        275.33299869        0.7029255629        0.0781028403        
57                  45                5 propene                       3 cyclopentane                  -65.72012198        -67.65943723        1.9393152530        0.0430958945        
60                  15                5 methylene_s                   1 cyclopentane                  -479.6234958        -481.4414769        1.8179810226        0.1211987348        
63                  6                 2 water                         1 oxygen_water                  -3.057437201        -3.882909516        0.8254723158        0.1375787193        
Basis: cc-pvqz
Reaction Number     NATOM             Reactant                        Product                         E_rxn (MADNESS)     E_rxn (NWChem)      E_rxn (Diff.)       E_rxn (Scaled)      
1                   7                 1 acetaldehyde                  1 ethylene_oxide                29.211510313        29.336221508        0.1247111945        0.0178158849        
2                   8                 1 acetic_acid                   1 methyl_formate                16.202865963        16.216065605        0.0131996417        0.0016499552        
4                   7                 1 allene                        1 cyclopropene                  25.215840481        25.186294814        0.0295456670        0.0042208095        
5                   7                 1 allene                        1 propyne                       -0.894532904        -0.931542480        0.0370095753        0.0052870821        
7                   10                1 bicyclo[1.1.0]butane          1 cyclobutene                   -18.80515206        -18.78177355        0.0233785110        0.0023378511        
8                   10                1 bicyclo[1.1.0]butane          1 2_butyne                      -23.44346641        -23.44960912        0.0061427150        0.0006142715        
9                   10                1 bicyclo[1.1.0]butane          1 methylenecyclopropane         -10.96417610        -10.93940516        0.0247709372        0.0024770937        
12                  36                3 cyclobutane                   4 cyclopropane                  27.330903491        27.509075631        0.1781721400        0.0049492261        
13                  12                1 cyclobutane                   2 ethylene                      13.804520290        14.056482051        0.2519617616        0.0209968134        
14                  12                1 cyclobutane                   1 isobutylene                   -11.80726581        -11.71406005        0.0932057635        0.0077671469        
15                  36                3 cyclobutane                   4 propene                       -10.64280364        -10.17346166        0.4693419786        0.0130372771        
16                  12                1 cyclobutane                   4 methylene_s                   362.62582963        363.17779198        0.5519623474        0.0459968622        
18                  60                5 cyclobutane                   4 cyclopentane                  -105.3648353        -105.3993808        0.0345454755        0.0005757579        
19                  10                1 cyclobutene                   1 2_butyne                      -4.638314349        -4.667835575        0.0295212261        0.0029521226        
20                  10                1 cyclobutene                   1 methylenecyclopropane         7.8409759586        7.8423683847        0.0013924261        0.0001392426        
23                  14                1 butane                        1 isobutane                     -0.262788219        -0.268298733        0.0055105142        0.0003936081        
24                  18                2 cyclopropane                  3 ethylene                      7.0413286897        7.3301852622        0.2888565725        0.0160475873        
25                  36                4 cyclopropane                  3 isobutylene                   -62.75270095        -62.65125580        0.1014451506        0.0028179208        
26                  9                 1 cyclopropane                  1 propene                       -9.493426783        -9.420634324        0.0727924596        0.0080880510        
27                  9                 1 cyclopropane                  3 methylene_s                   265.13664635        265.50607507        0.3694287256        0.0410476361        
29                  45                5 cyclopropane                  3 cyclopentane                  -113.1872559        -113.4358801        0.2486242817        0.0055249840        
30                  7                 1 cyclopropene                  1 propyne                       -26.11037338        -26.11783729        0.0074639083        0.0010662726        
31                  10                1 2_butyne                      1 methylenecyclopropane         12.479290308        12.510203960        0.0309136523        0.0030913652        
33                  9                 1 dimethyl_sulfide              1 ethanethiol                   -1.524470364        -1.590759917        0.0662895531        0.0073655059        
36                  12                2 ethylene                      1 isobutylene                   -25.61178611        -25.77054210        0.1587559981        0.0132296665        
37                  18                3 ethylene                      2 propene                       -26.02818225        -26.17145391        0.1432716532        0.0079595362        
38                  6                 1 ethylene                      2 methylene_s                   174.41065467        174.56065496        0.1500002929        0.0250000488        
40                  30                5 ethylene                      2 cyclopentane                  -87.19371841        -87.84089556        0.6471771419        0.0215725713        
41                  6                 1 formaldoxime                  1 formaldoxime_zwitterion       19.276273268        19.687652926        0.4113796582        0.0685632763        
46                  12                1 isopropyl_alcohol             1 methoxyethane                 9.7444052833        9.6987957693        0.0456095140        0.0038007928        
47                  36                3 isobutylene                   4 propene                       24.778993815        24.968718503        0.1897246880        0.0052701302        
48                  12                1 isobutylene                   4 methylene_s                   374.43309545        374.89185203        0.4587565839        0.0382297153        
50                  60                5 isobutylene                   4 cyclopentane                  -46.32850628        -46.82908058        0.5005742933        0.0083429048        
54                  4                 2 phosphorus_diatomic           1 phosphorus_tetramer           -42.08625679        -41.40973247        0.6765243139        0.1691310784        
55                  9                 1 propene                       3 methylene_s                   274.63007313        274.92670940        0.2966362659        0.0329595851        
57                  45                5 propene                       3 cyclopentane                  -65.72012198        -66.33270856        0.6125865800        0.0136130351        
60                  15                5 methylene_s                   1 cyclopentane                  -479.6234958        -480.3220851        0.6985893032        0.0465726202        
63                  6                 2 water                         1 oxygen_water                  -3.057437201        -3.398864217        0.3414270168        0.0569045028        
Basis: aug-cc-pvdz
Reaction Number     NATOM             Reactant                        Product                         E_rxn (MADNESS)     E_rxn (NWChem)      E_rxn (Diff.)       E_rxn (Scaled)      
1                   7                 1 acetaldehyde                  1 ethylene_oxide                29.211510313        30.204428364        0.9929180510        0.1418454358        
2                   8                 1 acetic_acid                   1 methyl_formate                16.202865963        17.392802336        1.1899363734        0.1487420466        
4                   7                 1 allene                        1 cyclopropene                  25.215840481        25.357233946        0.1413934648        0.0201990664        
5                   7                 1 allene                        1 propyne                       -0.894532904        -0.255755896        0.6387770084        0.0912538583        
7                   10                1 bicyclo[1.1.0]butane          1 cyclobutene                   -18.80515206        -19.15352464        0.3483725789        0.0348372578        
8                   10                1 bicyclo[1.1.0]butane          1 2_butyne                      -23.44346641        -22.67475393        0.7687124801        0.0768712480        
9                   10                1 bicyclo[1.1.0]butane          1 methylenecyclopropane         -10.96417610        -10.50911815        0.4550579511        0.0455057951        
12                  36                3 cyclobutane                   4 cyclopropane                  27.330903491        33.260273885        5.9293703936        0.1647047331        
13                  12                1 cyclobutane                   2 ethylene                      13.804520290        16.380241037        2.5757207467        0.2146433955        
14                  12                1 cyclobutane                   1 isobutylene                   -11.80726581        -10.39649262        1.4107731904        0.1175644325        
15                  36                3 cyclobutane                   4 propene                       -10.64280364        -4.656309363        5.9864942798        0.1662915077        
16                  12                1 cyclobutane                   4 methylene_s                   362.62582963        360.95427439        1.6715552400        0.1392962700        
18                  60                5 cyclobutane                   4 cyclopentane                  -105.3648353        -106.6723644        1.3075290136        0.0217921502        
19                  10                1 cyclobutene                   1 2_butyne                      -4.638314349        -3.521229290        1.1170850590        0.1117085059        
20                  10                1 cyclobutene                   1 methylenecyclopropane         7.8409759586        8.6444064886        0.8034305300        0.0803430530        
23                  14                1 butane                        1 isobutane                     -0.262788219        -0.395662161        0.1328739420        0.0094909958        
24                  18                2 cyclopropane                  3 ethylene                      7.0413286897        7.9402246131        0.8988959233        0.0499386624        
25                  36                4 cyclopropane                  3 isobutylene                   -62.75270095        -64.44975177        1.6970508221        0.0471403006        
26                  9                 1 cyclopropane                  1 propene                       -9.493426783        -9.479145812        0.0142809715        0.0015867746        
27                  9                 1 cyclopropane                  3 methylene_s                   265.13664635        262.40063732        2.7360090284        0.3040010031        
29                  45                5 cyclopropane                  3 cyclopentane                  -113.1872559        -121.5796156        8.3923597523        0.1864968833        
30                  7                 1 cyclopropene                  1 propyne                       -26.11037338        -25.61298984        0.4973835436        0.0710547919        
31                  10                1 2_butyne                      1 methylenecyclopropane         12.479290308        12.165635779        0.3136545290        0.0313654529        
33                  9                 1 dimethyl_sulfide              1 ethanethiol                   -1.524470364        -3.263881342        1.7394109778        0.1932678864        
36                  12                2 ethylene                      1 isobutylene                   -25.61178611        -26.77673366        1.1649475562        0.0970789630        
37                  18                3 ethylene                      2 propene                       -26.02818225        -26.89851623        0.8703339802        0.0483518877        
38                  6                 1 ethylene                      2 methylene_s                   174.41065467        172.28701667        2.1236379933        0.3539396655        
40                  30                5 ethylene                      2 cyclopentane                  -87.19371841        -94.28678479        7.0930663737        0.2364355457        
41                  6                 1 formaldoxime                  1 formaldoxime_zwitterion       19.276273268        19.334659655        0.0583863866        0.0097310644        
46                  12                1 isopropyl_alcohol             1 methoxyethane                 9.7444052833        11.286429365        1.5420240823        0.1285020068        
47                  36                3 isobutylene                   4 propene                       24.778993815        26.533168524        1.7541747083        0.0487270752        
48                  12                1 isobutylene                   4 methylene_s                   374.43309545        371.35076702        3.0823284305        0.2568607025        
50                  60                5 isobutylene                   4 cyclopentane                  -46.32850628        -54.68990125        8.3613949661        0.1393565827        
54                  4                 2 phosphorus_diatomic           1 phosphorus_tetramer           -42.08625679        -34.50345937        7.5827974187        1.8956993546        
55                  9                 1 propene                       3 methylene_s                   274.63007313        271.87978313        2.7502899999        0.3055877777        
57                  45                5 propene                       3 cyclopentane                  -65.72012198        -74.18388659        8.4637646100        0.1880836580        
60                  15                5 methylene_s                   1 cyclopentane                  -479.6234958        -477.8609340        1.7625617966        0.1175041197        
63                  6                 2 water                         1 oxygen_water                  -3.057437201        -3.363853633        0.3064164323        0.0510694053        
Basis: aug-cc-pvtz
Reaction Number     NATOM             Reactant                        Product                         E_rxn (MADNESS)     E_rxn (NWChem)      E_rxn (Diff.)       E_rxn (Scaled)      
1                   7                 1 acetaldehyde                  1 ethylene_oxide                29.211510313        29.091330250        0.1201800637        0.0171685805        
2                   8                 1 acetic_acid                   1 methyl_formate                16.202865963        16.118845081        0.0840208816        0.0105026102        
4                   7                 1 allene                        1 cyclopropene                  25.215840481        25.367992399        0.1521519183        0.0217359883        
5                   7                 1 allene                        1 propyne                       -0.894532904        -0.876114438        0.0184184665        0.0026312095        
7                   10                1 bicyclo[1.1.0]butane          1 cyclobutene                   -18.80515206        -18.83873448        0.0335824236        0.0033582423        
8                   10                1 bicyclo[1.1.0]butane          1 2_butyne                      -23.44346641        -23.60305889        0.1595924883        0.0159592488        
9                   10                1 bicyclo[1.1.0]butane          1 methylenecyclopropane         -10.96417610        -11.00709591        0.0429198121        0.0042919812        
12                  36                3 cyclobutane                   4 cyclopropane                  27.330903491        27.925682485        0.5947789939        0.0165216387        
13                  12                1 cyclobutane                   2 ethylene                      13.804520290        13.986425436        0.1819051465        0.0151587622        
14                  12                1 cyclobutane                   1 isobutylene                   -11.80726581        -11.71630558        0.0909602357        0.0075800196        
15                  36                3 cyclobutane                   4 propene                       -10.64280364        -10.23158070        0.4112229377        0.0114228593        
16                  12                1 cyclobutane                   4 methylene_s                   362.62582963        362.03498867        0.5908409583        0.0492367465        
18                  60                5 cyclobutane                   4 cyclopentane                  -105.3648353        -105.2925687        0.0722666824        0.0012044447        
19                  10                1 cyclobutene                   1 2_butyne                      -4.638314349        -4.764324414        0.1260100647        0.0126010064        
20                  10                1 cyclobutene                   1 methylenecyclopropane         7.8409759586        7.8316385700        0.0093373885        0.0009337388        
23                  14                1 butane                        1 isobutane                     -0.262788219        -0.266232455        0.0034442368        0.0002460169        
24                  18                2 cyclopropane                  3 ethylene                      7.0413286897        7.0167969124        0.0245317772        0.0013628765        
25                  36                4 cyclopropane                  3 isobutylene                   -62.75270095        -63.07459923        0.3218982867        0.0089416190        
26                  9                 1 cyclopropane                  1 propene                       -9.493426783        -9.539315797        0.0458890140        0.0050987793        
27                  9                 1 cyclopropane                  3 methylene_s                   265.13664635        264.54482088        0.5918254672        0.0657583852        
29                  45                5 cyclopropane                  3 cyclopentane                  -113.1872559        -113.8765296        0.6892737307        0.0153171940        
30                  7                 1 cyclopropene                  1 propyne                       -26.11037338        -26.24410683        0.1337334517        0.0191047788        
31                  10                1 2_butyne                      1 methylenecyclopropane         12.479290308        12.595962984        0.1166726762        0.0116672676        
33                  9                 1 dimethyl_sulfide              1 ethanethiol                   -1.524470364        -1.628460800        0.1039904363        0.0115544929        
36                  12                2 ethylene                      1 isobutylene                   -25.61178611        -25.70273102        0.0909449107        0.0075787425        
37                  18                3 ethylene                      2 propene                       -26.02818225        -26.09542850        0.0672462508        0.0037359028        
38                  6                 1 ethylene                      2 methylene_s                   174.41065467        174.02428161        0.3863730524        0.0643955087        
40                  30                5 ethylene                      2 cyclopentane                  -87.19371841        -87.61234794        0.4186295250        0.0139543175        
41                  6                 1 formaldoxime                  1 formaldoxime_zwitterion       19.276273268        19.324736503        0.0484632348        0.0080772058        
46                  12                1 isopropyl_alcohol             1 methoxyethane                 9.7444052833        9.7140298072        0.0303754761        0.0025312896        
47                  36                3 isobutylene                   4 propene                       24.778993815        24.917336046        0.1383422305        0.0038428397        
48                  12                1 isobutylene                   4 methylene_s                   374.43309545        373.75129425        0.6818011941        0.0568167661        
50                  60                5 isobutylene                   4 cyclopentane                  -46.32850628        -46.71104078        0.3825344964        0.0063755749        
54                  4                 2 phosphorus_diatomic           1 phosphorus_tetramer           -42.08625679        -40.95235897        1.1338978235        0.2834744558        
55                  9                 1 propene                       3 methylene_s                   274.63007313        274.08413668        0.5459364532        0.0606596059        
57                  45                5 propene                       3 cyclopentane                  -65.72012198        -66.17995064        0.4598286604        0.0102184146        
60                  15                5 methylene_s                   1 cyclopentane                  -479.6234958        -478.8668780        0.7566178685        0.0504411912        
63                  6                 2 water                         1 oxygen_water                  -3.057437201        -3.137131971        0.0796947699        0.0132824616        
Basis: aug-cc-pvqz
Reaction Number     NATOM             Reactant                        Product                         E_rxn (MADNESS)     E_rxn (NWChem)      E_rxn (Diff.)       E_rxn (Scaled)      
1                   7                 1 acetaldehyde                  1 ethylene_oxide                29.211510313        29.222034589        0.0105242759        0.0015034679        
2                   8                 1 acetic_acid                   1 methyl_formate                16.202865963        16.208379813        0.0055138500        0.0006892312        
4                   7                 1 allene                        1 cyclopropene                  25.215840481        25.222124402        0.0062839215        0.0008977030        
5                   7                 1 allene                        1 propyne                       -0.894532904        -0.895454935        0.0009220309        0.0001317187        
7                   10                1 bicyclo[1.1.0]butane          1 cyclobutene                   -18.80515206        -18.81252138        0.0073693201        0.0007369320        
8                   10                1 bicyclo[1.1.0]butane          1 2_butyne                      -23.44346641        -23.44313733        0.0003290807        3.2908077717        
9                   10                1 bicyclo[1.1.0]butane          1 methylenecyclopropane         -10.96417610        -10.95630895        0.0078671462        0.0007867146        
12                  36                3 cyclobutane                   4 cyclopropane                  27.330903491        27.445209469        0.1143059783        0.0031751660        
13                  12                1 cyclobutane                   2 ethylene                      13.804520290        13.864126917        0.0596066274        0.0049672189        
14                  12                1 cyclobutane                   1 isobutylene                   -11.80726581        -11.78804425        0.0192215638        0.0016017969        
15                  36                3 cyclobutane                   4 propene                       -10.64280364        -10.53177673        0.1110269074        0.0030840807        
16                  12                1 cyclobutane                   4 methylene_s                   362.62582963        362.57430790        0.0515217249        0.0042934770        
18                  60                5 cyclobutane                   4 cyclopentane                  -105.3648353        -105.4074761        0.0426407331        0.0007106788        
19                  10                1 cyclobutene                   1 2_butyne                      -4.638314349        -4.630615948        0.0076984008        0.0007698400        
20                  10                1 cyclobutene                   1 methylenecyclopropane         7.8409759586        7.8562124249        0.0152364663        0.0015236466        
23                  14                1 butane                        1 isobutane                     -0.262788219        -0.268486840        0.0056986213        0.0004070443        
24                  18                2 cyclopropane                  3 ethylene                      7.0413286897        7.0735856417        0.0322569520        0.0017920528        
25                  36                4 cyclopropane                  3 isobutylene                   -62.75270095        -62.80934223        0.0566412866        0.0015733690        
26                  9                 1 cyclopropane                  1 propene                       -9.493426783        -9.494246551        0.0008197677        9.1085302441        
27                  9                 1 cyclopropane                  3 methylene_s                   265.13664635        265.06942856        0.0672177882        0.0074686431        
29                  45                5 cyclopropane                  3 cyclopentane                  -113.1872559        -113.3621189        0.1748630228        0.0038858449        
30                  7                 1 cyclopropene                  1 propyne                       -26.11037338        -26.11757933        0.0072059525        0.0010294217        
31                  10                1 2_butyne                      1 methylenecyclopropane         12.479290308        12.486828373        0.0075380654        0.0007538065        
33                  9                 1 dimethyl_sulfide              1 ethanethiol                   -1.524470364        -1.580165240        0.0556948763        0.0061883195        
36                  12                2 ethylene                      1 isobutylene                   -25.61178611        -25.65217117        0.0403850635        0.0033654219        
37                  18                3 ethylene                      2 propene                       -26.02818225        -26.06207874        0.0338964874        0.0018831381        
38                  6                 1 ethylene                      2 methylene_s                   174.41065467        174.35509049        0.0555641762        0.0092606960        
40                  30                5 ethylene                      2 cyclopentane                  -87.19371841        -87.36405535        0.1703369352        0.0056778978        
41                  6                 1 formaldoxime                  1 formaldoxime_zwitterion       19.276273268        19.259349379        0.0169238888        0.0028206481        
46                  12                1 isopropyl_alcohol             1 methoxyethane                 9.7444052833        9.7665787519        0.0221734685        0.0018477890        
47                  36                3 isobutylene                   4 propene                       24.778993815        24.832356031        0.0533622157        0.0014822837        
48                  12                1 isobutylene                   4 methylene_s                   374.43309545        374.36235216        0.0707432888        0.0058952740        
50                  60                5 isobutylene                   4 cyclopentane                  -46.32850628        -46.46725484        0.1387485527        0.0023124758        
54                  4                 2 phosphorus_diatomic           1 phosphorus_tetramer           -42.08625679        -41.25758748        0.8286693115        0.2071673278        
55                  9                 1 propene                       3 methylene_s                   274.63007313        274.56367511        0.0663980205        0.0073775578        
57                  45                5 propene                       3 cyclopentane                  -65.72012198        -65.89088617        0.1707641842        0.0037947596        
60                  15                5 methylene_s                   1 cyclopentane                  -479.6234958        -479.5697539        0.0537419728        0.0035827981        
63                  6                 2 water                         1 oxygen_water                  -3.057437201        -3.095356399        0.0379191979        0.0063198663        
Basis: unc-aug-cc-pvdz
Reaction Number     NATOM             Reactant                        Product                         E_rxn (MADNESS)     E_rxn (NWChem)      E_rxn (Diff.)       E_rxn (Scaled)      
1                   7                 1 acetaldehyde                  1 ethylene_oxide                29.211510313        30.253298795        1.0417884814        0.1488269259        
2                   8                 1 acetic_acid                   1 methyl_formate                16.202865963        17.228122291        1.0252563282        0.1281570410        
4                   7                 1 allene                        1 cyclopropene                  25.215840481        25.360465056        0.1446245751        0.0206606535        
5                   7                 1 allene                        1 propyne                       -0.894532904        -1.276358444        0.3818255398        0.0545465056        
7                   10                1 bicyclo[1.1.0]butane          1 cyclobutene                   -18.80515206        -19.36372828        0.5585762270        0.0558576227        
8                   10                1 bicyclo[1.1.0]butane          1 2_butyne                      -23.44346641        -24.13677163        0.6933052224        0.0693305222        
9                   10                1 bicyclo[1.1.0]butane          1 methylenecyclopropane         -10.96417610        -10.79095343        0.1732226703        0.0173222670        
12                  36                3 cyclobutane                   4 cyclopropane                  27.330903491        32.778034020        5.4471305290        0.1513091813        
13                  12                1 cyclobutane                   2 ethylene                      13.804520290        15.968764975        2.1642446856        0.1803537238        
14                  12                1 cyclobutane                   1 isobutylene                   -11.80726581        -10.93721451        0.8700513006        0.0725042750        
15                  36                3 cyclobutane                   4 propene                       -10.64280364        -6.415800231        4.2270034124        0.1174167614        
16                  12                1 cyclobutane                   4 methylene_s                   362.62582963        359.36809837        3.2577312591        0.2714776049        
18                  60                5 cyclobutane                   4 cyclopentane                  -105.3648353        -106.7818672        1.4170318831        0.0236171980        
19                  10                1 cyclobutene                   1 2_butyne                      -4.638314349        -4.773043345        0.1347289954        0.0134728995        
20                  10                1 cyclobutene                   1 methylenecyclopropane         7.8409759586        8.5727748560        0.7317988974        0.0731798897        
23                  14                1 butane                        1 isobutane                     -0.262788219        -0.328690129        0.0659019100        0.0047072792        
24                  18                2 cyclopropane                  3 ethylene                      7.0413286897        7.5641304536        0.5228017638        0.0290445424        
25                  36                4 cyclopropane                  3 isobutylene                   -62.75270095        -65.58967757        2.8369766271        0.0788049063        
26                  9                 1 cyclopropane                  1 propene                       -9.493426783        -9.798458562        0.3050317791        0.0338924199        
27                  9                 1 cyclopropane                  3 methylene_s                   265.13664635        261.33156527        3.8050810765        0.4227867862        
29                  45                5 cyclopropane                  3 cyclopentane                  -113.1872559        -121.0589429        7.8716870737        0.1749263794        
30                  7                 1 cyclopropene                  1 propyne                       -26.11037338        -26.63682350        0.5264501150        0.0752071592        
31                  10                1 2_butyne                      1 methylenecyclopropane         12.479290308        13.345818201        0.8665278928        0.0866527892        
33                  9                 1 dimethyl_sulfide              1 ethanethiol                   -1.524470364        -2.321833807        0.7973634429        0.0885959381        
36                  12                2 ethylene                      1 isobutylene                   -25.61178611        -26.90597949        1.2941933849        0.1078494487        
37                  18                3 ethylene                      2 propene                       -26.02818225        -27.16104757        1.1328653222        0.0629369623        
38                  6                 1 ethylene                      2 methylene_s                   174.41065467        171.69966669        2.7109879723        0.4518313287        
40                  30                5 ethylene                      2 cyclopentane                  -87.19371841        -93.31284607        6.1191276555        0.2039709218        
41                  6                 1 formaldoxime                  1 formaldoxime_zwitterion       19.276273268        19.607255756        0.3309824878        0.0551637479        
46                  12                1 isopropyl_alcohol             1 methoxyethane                 9.7444052833        10.972350789        1.2279455059        0.1023287921        
47                  36                3 isobutylene                   4 propene                       24.778993815        26.395843326        1.6168495105        0.0449124864        
48                  12                1 isobutylene                   4 methylene_s                   374.43309545        370.30531289        4.1277825597        0.3439818799        
50                  60                5 isobutylene                   4 cyclopentane                  -46.32850628        -52.09579467        5.7672883863        0.0961214731        
54                  4                 2 phosphorus_diatomic           1 phosphorus_tetramer           -42.08625679        -34.81809039        7.2681664016        1.8170416004        
55                  9                 1 propene                       3 methylene_s                   274.63007313        271.13002383        3.5000492974        0.3888943663        
57                  45                5 propene                       3 cyclopentane                  -65.72012198        -72.06665016        6.3465281779        0.1410339595        
60                  15                5 methylene_s                   1 cyclopentane                  -479.6234958        -475.9055897        3.7179061031        0.2478604068        
63                  6                 2 water                         1 oxygen_water                  -3.057437201        -3.364240763        0.3068035627        0.0511339271        
Basis: unc-aug-cc-pvtz
Reaction Number     NATOM             Reactant                        Product                         E_rxn (MADNESS)     E_rxn (NWChem)      E_rxn (Diff.)       E_rxn (Scaled)      
1                   7                 1 acetaldehyde                  1 ethylene_oxide                29.211510313        29.065428739        0.1460815744        0.0208687963        
2                   8                 1 acetic_acid                   1 methyl_formate                16.202865963        16.104284203        0.0985817599        0.0123227199        
4                   7                 1 allene                        1 cyclopropene                  25.215840481        25.321059798        0.1052193173        0.0150313310        
5                   7                 1 allene                        1 propyne                       -0.894532904        -0.937813800        0.0432808952        0.0061829850        
7                   10                1 bicyclo[1.1.0]butane          1 cyclobutene                   -18.80515206        -18.83053033        0.0253782718        0.0025378271        
8                   10                1 bicyclo[1.1.0]butane          1 2_butyne                      -23.44346641        -23.67681485        0.2333484460        0.0233348446        
9                   10                1 bicyclo[1.1.0]butane          1 methylenecyclopropane         -10.96417610        -11.04438448        0.0802083785        0.0080208378        
12                  36                3 cyclobutane                   4 cyclopropane                  27.330903491        27.759737135        0.4288336441        0.0119120456        
13                  12                1 cyclobutane                   2 ethylene                      13.804520290        13.963570590        0.1590502998        0.0132541916        
14                  12                1 cyclobutane                   1 isobutylene                   -11.80726581        -11.71591582        0.0913499979        0.0076124998        
15                  36                3 cyclobutane                   4 propene                       -10.64280364        -10.26025855        0.3825450887        0.0106262524        
16                  12                1 cyclobutane                   4 methylene_s                   362.62582963        362.09679758        0.5290320522        0.0440860043        
18                  60                5 cyclobutane                   4 cyclopentane                  -105.3648353        -105.3321391        0.0326962209        0.0005449370        
19                  10                1 cyclobutene                   1 2_butyne                      -4.638314349        -4.846284523        0.2079701742        0.0207970174        
20                  10                1 cyclobutene                   1 methylenecyclopropane         7.8409759586        7.7861458518        0.0548301067        0.0054830106        
23                  14                1 butane                        1 isobutane                     -0.262788219        -0.267274892        0.0044866736        0.0003204766        
24                  18                2 cyclopropane                  3 ethylene                      7.0413286897        7.0654873174        0.0241586277        0.0013421459        
25                  36                4 cyclopropane                  3 isobutylene                   -62.75270095        -62.90748460        0.1547836503        0.0042995458        
26                  9                 1 cyclopropane                  1 propene                       -9.493426783        -9.504998922        0.0115721388        0.0012857932        
27                  9                 1 cyclopropane                  3 methylene_s                   265.13664635        264.63266390        0.5039824502        0.0559980500        
29                  45                5 cyclopropane                  3 cyclopentane                  -113.1872559        -113.6987757        0.5115198895        0.0113671086        
30                  7                 1 cyclopropene                  1 propyne                       -26.11037338        -26.25887359        0.1485002125        0.0212143160        
31                  10                1 2_butyne                      1 methylenecyclopropane         12.479290308        12.632430375        0.1531400674        0.0153140067        
33                  9                 1 dimethyl_sulfide              1 ethanethiol                   -1.524470364        -1.624737499        0.1002671348        0.0111407927        
36                  12                2 ethylene                      1 isobutylene                   -25.61178611        -25.67948641        0.0677003019        0.0056416918        
37                  18                3 ethylene                      2 propene                       -26.02818225        -26.07548516        0.0473029054        0.0026279391        
38                  6                 1 ethylene                      2 methylene_s                   174.41065467        174.06661349        0.3440411760        0.0573401960        
40                  30                5 ethylene                      2 cyclopentane                  -87.19371841        -87.57499605        0.3812776392        0.0127092546        
41                  6                 1 formaldoxime                  1 formaldoxime_zwitterion       19.276273268        19.354830414        0.0785571464        0.0130928577        
46                  12                1 isopropyl_alcohol             1 methoxyethane                 9.7444052833        9.7062715093        0.0381337739        0.0031778144        
47                  36                3 isobutylene                   4 propene                       24.778993815        24.887488910        0.1084950949        0.0030137526        
48                  12                1 isobutylene                   4 methylene_s                   374.43309545        373.81271340        0.6203820502        0.0516985041        
50                  60                5 isobutylene                   4 cyclopentane                  -46.32850628        -46.75256005        0.4240537688        0.0070675628        
54                  4                 2 phosphorus_diatomic           1 phosphorus_tetramer           -42.08625679        -40.92562944        1.1606273481        0.2901568370        
55                  9                 1 propene                       3 methylene_s                   274.63007313        274.13766282        0.4924103114        0.0547122568        
57                  45                5 propene                       3 cyclopentane                  -65.72012198        -66.17378118        0.4536591952        0.0100813154        
60                  15                5 methylene_s                   1 cyclopentane                  -479.6234958        -478.9540317        0.6694641205        0.0446309413        
63                  6                 2 water                         1 oxygen_water                  -3.057437201        -3.136092016        0.0786548156        0.0131091359        
Basis: unc-aug-cc-pvqz
Reaction Number     NATOM             Reactant                        Product                         E_rxn (MADNESS)     E_rxn (NWChem)      E_rxn (Diff.)       E_rxn (Scaled)      
1                   7                 1 acetaldehyde                  1 ethylene_oxide                29.211510313        29.217287677        0.0057773636        0.0008253376        
2                   8                 1 acetic_acid                   1 methyl_formate                16.202865963        16.207074859        0.0042088961        0.0005261120        
4                   7                 1 allene                        1 cyclopropene                  25.215840481        25.224237358        0.0083968767        0.0011995538        
5                   7                 1 allene                        1 propyne                       -0.894532904        -0.897080649        0.0025477442        0.0003639634        
7                   10                1 bicyclo[1.1.0]butane          1 cyclobutene                   -18.80515206        -18.81235681        0.0072047521        0.0007204752        
8                   10                1 bicyclo[1.1.0]butane          1 2_butyne                      -23.44346641        -23.44762396        0.0041575514        0.0004157551        
9                   10                1 bicyclo[1.1.0]butane          1 methylenecyclopropane         -10.96417610        -10.95642520        0.0077508957        0.0007750895        
12                  36                3 cyclobutane                   4 cyclopropane                  27.330903491        27.444716518        0.1138130272        0.0031614729        
13                  12                1 cyclobutane                   2 ethylene                      13.804520290        13.867747317        0.0632270268        0.0052689189        
14                  12                1 cyclobutane                   1 isobutylene                   -11.80726581        -11.78213250        0.0251333136        0.0020944428        
15                  36                3 cyclobutane                   4 propene                       -10.64280364        -10.51792345        0.1248801876        0.0034688941        
16                  12                1 cyclobutane                   4 methylene_s                   362.62582963        362.61033996        0.0154896637        0.0012908053        
18                  60                5 cyclobutane                   4 cyclopentane                  -105.3648353        -105.4012451        0.0364097294        0.0006068288        
19                  10                1 cyclobutene                   1 2_butyne                      -4.638314349        -4.635267149        0.0030472006        0.0003047200        
20                  10                1 cyclobutene                   1 methylenecyclopropane         7.8409759586        7.8559316064        0.0149556478        0.0014955647        
23                  14                1 butane                        1 isobutane                     -0.262788219        -0.266468540        0.0036803214        0.0002628801        
24                  18                2 cyclopropane                  3 ethylene                      7.0413286897        7.0792627163        0.0379340266        0.0021074459        
25                  36                4 cyclopropane                  3 isobutylene                   -62.75270095        -62.79111403        0.0384130864        0.0010670301        
26                  9                 1 cyclopropane                  1 propene                       -9.493426783        -9.490659993        0.0027667900        0.0003074211        
27                  9                 1 cyclopropane                  3 methylene_s                   265.13664635        265.09657584        0.0400705046        0.0044522782        
29                  45                5 cyclopropane                  3 cyclopentane                  -113.1872559        -113.3568294        0.1695735813        0.0037683018        
30                  7                 1 cyclopropene                  1 propyne                       -26.11037338        -26.12131800        0.0109446210        0.0015635172        
31                  10                1 2_butyne                      1 methylenecyclopropane         12.479290308        12.491198755        0.0119084472        0.0011908447        
33                  9                 1 dimethyl_sulfide              1 ethanethiol                   -1.524470364        -1.581841053        0.0573706886        0.0063745209        
36                  12                2 ethylene                      1 isobutylene                   -25.61178611        -25.64987982        0.0380937131        0.0031744760        
37                  18                3 ethylene                      2 propene                       -26.02818225        -26.06058270        0.0324004464        0.0018000248        
38                  6                 1 ethylene                      2 methylene_s                   174.41065467        174.37129632        0.0393583452        0.0065597242        
40                  30                5 ethylene                      2 cyclopentane                  -87.19371841        -87.36999085        0.1762724318        0.0058757477        
41                  6                 1 formaldoxime                  1 formaldoxime_zwitterion       19.276273268        19.260578418        0.0156948497        0.0026158082        
46                  12                1 isopropyl_alcohol             1 methoxyethane                 9.7444052833        9.7643002648        0.0198949814        0.0016579151        
47                  36                3 isobutylene                   4 propene                       24.778993815        24.828474062        0.0494802467        0.0013744512        
48                  12                1 isobutylene                   4 methylene_s                   374.43309545        374.39247247        0.0406229773        0.0033852481        
50                  60                5 isobutylene                   4 cyclopentane                  -46.32850628        -46.49058258        0.1620762977        0.0027012716        
54                  4                 2 phosphorus_diatomic           1 phosphorus_tetramer           -42.08625679        -41.26481874        0.8214380503        0.2053595125        
55                  9                 1 propene                       3 methylene_s                   274.63007313        274.58723584        0.0428372946        0.0047596994        
57                  45                5 propene                       3 cyclopentane                  -65.72012198        -65.90352951        0.1834075317        0.0040757229        
60                  15                5 methylene_s                   1 cyclopentane                  -479.6234958        -479.6132362        0.0102596472        0.0006839764        
63                  6                 2 water                         1 oxygen_water                  -3.057437201        -3.094590827        0.0371536262        0.0061922710        
