 argument  1 = Cl.nw
                                         
                                         
 
 
              Northwest Computational Chemistry Package (NWChem) 6.6
              ------------------------------------------------------
 
 
                    Environmental Molecular Sciences Laboratory
                       Pacific Northwest National Laboratory
                                Richland, WA 99352
 
                              Copyright (c) 1994-2015
                       Pacific Northwest National Laboratory
                            Battelle Memorial Institute
 
             NWChem is an open-source computational chemistry package
                        distributed under the terms of the
                      Educational Community License (ECL) 2.0
             A copy of the license is included with this distribution
                              in the LICENSE.TXT file
 
                                  ACKNOWLEDGMENT
                                  --------------

            This software and its documentation were developed at the
            EMSL at Pacific Northwest National Laboratory, a multiprogram
            national laboratory, operated for the U.S. Department of Energy
            by Battelle under Contract Number DE-AC05-76RL01830. Support
            for this work was provided by the Department of Energy Office
            of Biological and Environmental Research, Office of Basic
            Energy Sciences, and the Office of Advanced Scientific Computing.


           Job information
           ---------------

    hostname        = cn-mem
    program         = nwchem
    date            = Sun Jun 17 16:31:49 2018

    compiled        = Mon_Jan_29_13:00:04_2018
    source          = /gpfs/home/bsundahl/nwchem-6.6
    nwchem branch   = 6.6
    nwchem revision = 27746
    ga revision     = 10594
    input           = Cl.nw
    prefix          = Cl.
    data base       = /gpfs/scratch/bsundahl/Cl.db
    status          = startup
    nproc           =       14
    time left       =     -1s



           Memory information
           ------------------

    heap     =  308019196 doubles =   2350.0 Mbytes
    stack    =  150732801 doubles =   1150.0 Mbytes
    global   =   65536000 doubles =    500.0 Mbytes (distinct from heap & stack)
    total    =  524287997 doubles =   4000.0 Mbytes
    verify   = yes
    hardfail = no 


           Directory information
           ---------------------
 
  0 permanent = /gpfs/scratch/bsundahl
  0 scratch   = /gpfs/scratch/bsundahl/
 
 
 
 
                                NWChem Input Module
                                -------------------
 
 

 Scaling coordinates for geometry "geometry" by  1.889725989
 (inverse scale =  0.529177249)

 
 
                             Geometry "geometry" -> ""
                             -------------------------
 
 Output coordinates in angstroms (scale by  1.889725989 to convert to a.u.)
 
  No.       Tag          Charge          X              Y              Z
 ---- ---------------- ---------- -------------- -------------- --------------
    1 Cl                  17.0000     0.00000000     0.00000000     0.00000000
 
      Atomic Mass 
      ----------- 
 
      Cl                34.968850
 

 Effective nuclear repulsion energy (a.u.)       0.0000000000

            Nuclear Dipole moment (a.u.) 
            ----------------------------
        X                 Y               Z
 ---------------- ---------------- ----------------
     0.0000000000     0.0000000000     0.0000000000
 
 
            XYZ format geometry
            -------------------
     1
 geometry
 Cl                    0.00000000     0.00000000     0.00000000
 


 Summary of "ao basis" -> "" (spherical)
 ------------------------------------------------------------------------------
       Tag                 Description            Shells   Functions and Types
 ---------------- ------------------------------  ------  ---------------------
 *                        aug-cc-pvqz                 on all atoms 


  xc_inp: hfexch multiplicative factor not found.
 
                                 NWChem DFT Module
                                 -----------------
 
 
                      Basis "ao basis" -> "ao basis" (spherical)
                      -----
  Cl (Chlorine)
  -------------
            Exponent  Coefficients 
       -------------- ---------------------------------------------------------
  1 S  8.34900000E+05  0.000023
  1 S  1.25000000E+05  0.000180
  1 S  2.84300000E+04  0.000948
  1 S  8.03300000E+03  0.004001
  1 S  2.60800000E+03  0.014463
  1 S  9.33900000E+02  0.045659
  1 S  3.60000000E+02  0.123248
  1 S  1.47000000E+02  0.264369
  1 S  6.28800000E+01  0.382989
  1 S  2.76000000E+01  0.270934
  1 S  1.10800000E+01  0.047140
  1 S  5.07500000E+00 -0.003718
  1 S  2.27800000E+00  0.002192
 
  2 S  8.34900000E+05 -0.000006
  2 S  1.25000000E+05 -0.000050
  2 S  2.84300000E+04 -0.000266
  2 S  8.03300000E+03 -0.001125
  2 S  2.60800000E+03 -0.004105
  2 S  9.33900000E+02 -0.013199
  2 S  3.60000000E+02 -0.037534
  2 S  1.47000000E+02 -0.089723
  2 S  6.28800000E+01 -0.167671
  2 S  2.76000000E+01 -0.174763
  2 S  1.10800000E+01  0.114909
  2 S  5.07500000E+00  0.563618
  2 S  2.27800000E+00  0.441606
 
  3 S  8.34900000E+05  0.000002
  3 S  1.25000000E+05  0.000015
  3 S  2.84300000E+04  0.000081
  3 S  8.03300000E+03  0.000340
  3 S  2.60800000E+03  0.001246
  3 S  9.33900000E+02  0.003996
  3 S  3.60000000E+02  0.011475
  3 S  1.47000000E+02  0.027550
  3 S  6.28800000E+01  0.053292
  3 S  2.76000000E+01  0.057125
  3 S  1.10800000E+01 -0.039520
  3 S  5.07500000E+00 -0.264343
  3 S  2.27800000E+00 -0.349291
 
  4 S  7.77500000E-01  1.000000
 
  5 S  3.52700000E-01  1.000000
 
  6 S  1.43100000E-01  1.000000
 
  7 S  5.19000000E-02  1.000000
 
  8 P  1.70300000E+03  0.000474
  8 P  4.03600000E+02  0.004064
  8 P  1.30300000E+02  0.021336
  8 P  4.90500000E+01  0.079461
  8 P  2.02600000E+01  0.208927
  8 P  8.78700000E+00  0.364945
  8 P  3.91900000E+00  0.371725
  8 P  1.76500000E+00  0.146292
 
  9 P  1.70300000E+03 -0.000128
  9 P  4.03600000E+02 -0.001094
  9 P  1.30300000E+02 -0.005834
  9 P  4.90500000E+01 -0.021926
  9 P  2.02600000E+01 -0.060138
  9 P  8.78700000E+00 -0.106929
  9 P  3.91900000E+00 -0.122454
  9 P  1.76500000E+00  0.038362
 
 10 P  7.20700000E-01  1.000000
 
 11 P  2.83900000E-01  1.000000
 
 12 P  1.06000000E-01  1.000000
 
 13 P  3.76000000E-02  1.000000
 
 14 D  2.54000000E-01  1.000000
 
 15 D  6.28000000E-01  1.000000
 
 16 D  1.55100000E+00  1.000000
 
 17 D  9.52000000E-02  1.000000
 
 18 F  4.23000000E-01  1.000000
 
 19 F  1.08900000E+00  1.000000
 
 20 F  2.17000000E-01  1.000000
 
 21 G  8.27000000E-01  1.000000
 
 22 G  3.78000000E-01  1.000000
 


 Summary of "ao basis" -> "ao basis" (spherical)
 ------------------------------------------------------------------------------
       Tag                 Description            Shells   Functions and Types
 ---------------- ------------------------------  ------  ---------------------
 Cl                       aug-cc-pvqz               22       84   7s6p4d3f2g




 Summary of "ao basis" -> "ao basis" (spherical)
 ------------------------------------------------------------------------------
       Tag                 Description            Shells   Functions and Types
 ---------------- ------------------------------  ------  ---------------------
 Cl                       aug-cc-pvqz               22       84   7s6p4d3f2g


  Caching 1-el integrals 
 
            General Information
            -------------------
          SCF calculation type: DFT
          Wavefunction type:  closed shell.
          No. of atoms     :     1
          No. of electrons :    18
           Alpha electrons :     9
            Beta electrons :     9
          Charge           :    -1
          Spin multiplicity:     1
          Use of symmetry is: off; symmetry adaption is: off
          Maximum number of iterations: 150
          This is a Direct SCF calculation.
          AO basis - number of functions:    84
                     number of shells:    22
          Convergence on energy requested: 1.00D-06
          Convergence on density requested: 1.00D-05
          Convergence on gradient requested: 5.00D-04
 
              XC Information
              --------------
                     Hartree-Fock (Exact) Exchange  1.000          
 
          Convergence Information
          -----------------------
          Convergence aids based upon iterative change in 
          total energy or number of iterations. 
          Levelshifting, if invoked, occurs when the 
          HOMO/LUMO gap drops below (HL_TOL): 1.00D-02
          DIIS, if invoked, will attempt to extrapolate 
          using up to (NFOCK): 10 stored Fock matrices.

                    Damping( 0%)  Levelshifting(0.5)       DIIS
                  --------------- ------------------- ---------------
          dE  on:    start            ASAP                start   
          dE off:    2 iters        150 iters           150 iters 

 
      Screening Tolerance Information
      -------------------------------
          Density screening/tol_rho: 1.00D-10
          AO Gaussian exp screening on grid/accAOfunc:  14
          CD Gaussian exp screening on grid/accCDfunc:  20
          XC Gaussian exp screening on grid/accXCfunc:  20
          Schwarz screening/accCoul: 1.00D-08

 
      Superposition of Atomic Density Guess
      -------------------------------------
 
 Sum of atomic energies:        -459.48964085

 Renormalizing density from      17.00 to     18
 
      Non-variational initial energy
      ------------------------------

 Total energy =    -475.363479
 1-e energy   =    -672.232765
 2-e energy   =     196.869286
 HOMO         =       0.093710
 LUMO         =       0.272909
 
   Time after variat. SCF:      1.0
   Time prior to 1st pass:      1.0

           Memory utilization after 1st SCF pass: 
           Heap Space remaining (MW):      308.02           308015636
          Stack Space remaining (MW):      150.73           150732284

   convergence    iter        energy       DeltaE   RMS-Dens  Diis-err    time
 ---------------- ----- ----------------- --------- --------- ---------  ------
 d= 0,ls=0.0,diis     1   -459.2011608372 -4.59D+02  2.59D-02  6.58D+00     1.2
 d= 0,ls=0.0,diis     2   -459.5023860414 -3.01D-01  6.95D-03  9.17D-01     1.3
 d= 0,ls=0.0,diis     3   -459.5760301521 -7.36D-02  6.73D-04  1.53D-03     1.4
 d= 0,ls=0.0,diis     4   -459.5763329770 -3.03D-04  2.50D-04  4.73D-05     1.6
 d= 0,ls=0.0,diis     5   -459.5763527195 -1.97D-05  4.53D-05  7.63D-07     1.7
 d= 0,ls=0.0,diis     6   -459.5763531507 -4.31D-07  3.97D-07  4.66D-10     1.8


         Total DFT energy =     -459.576353150704
      One electron energy =     -641.140163492584
           Coulomb energy =      209.313165054023
    Exchange-Corr. energy =      -27.749354712143
 Nuclear repulsion energy =        0.000000000000

 Numeric. integr. density =        0.000000000000

     Total iterative time =      0.8s


 
                       DFT Final Molecular Orbital Analysis
                       ------------------------------------
 
 Vector    1  Occ=2.000000D+00  E=-1.045053D+02
              MO Center=  2.1D-19, -3.4D-19,  1.3D-18, r^2= 3.1D-03
   Bfn.  Coefficient  Atom+Function         Bfn.  Coefficient  Atom+Function  
  ----- ------------  ---------------      ----- ------------  ---------------
     1      1.000081  1 Cl s          
 
 Vector    2  Occ=2.000000D+00  E=-1.022941D+01
              MO Center= -5.8D-16,  5.1D-17, -2.6D-16, r^2= 6.5D-02
   Bfn.  Coefficient  Atom+Function         Bfn.  Coefficient  Atom+Function  
  ----- ------------  ---------------      ----- ------------  ---------------
     2      0.972712  1 Cl s          
 
 Vector    3  Occ=2.000000D+00  E=-7.695755D+00
              MO Center=  2.6D-17,  2.5D-17,  2.6D-18, r^2= 5.7D-02
   Bfn.  Coefficient  Atom+Function         Bfn.  Coefficient  Atom+Function  
  ----- ------------  ---------------      ----- ------------  ---------------
     9      0.949184  1 Cl py                 8      0.299845  1 Cl px         
 
 Vector    4  Occ=2.000000D+00  E=-7.695755D+00
              MO Center=  1.1D-16, -4.4D-17,  2.7D-16, r^2= 5.7D-02
   Bfn.  Coefficient  Atom+Function         Bfn.  Coefficient  Atom+Function  
  ----- ------------  ---------------      ----- ------------  ---------------
    10      0.917881  1 Cl pz                 8      0.361454  1 Cl px         
 
 Vector    5  Occ=2.000000D+00  E=-7.695755D+00
              MO Center=  2.6D-16, -8.4D-17, -1.3D-16, r^2= 5.7D-02
   Bfn.  Coefficient  Atom+Function         Bfn.  Coefficient  Atom+Function  
  ----- ------------  ---------------      ----- ------------  ---------------
     8      0.877925  1 Cl px                10     -0.385163  1 Cl pz         
     9     -0.268710  1 Cl py         
 
 Vector    6  Occ=2.000000D+00  E=-7.333990D-01
              MO Center=  2.5D-16,  4.3D-17,  1.3D-17, r^2= 8.4D-01
   Bfn.  Coefficient  Atom+Function         Bfn.  Coefficient  Atom+Function  
  ----- ------------  ---------------      ----- ------------  ---------------
     5      0.626822  1 Cl s                  3      0.569248  1 Cl s          
     6      0.321863  1 Cl s                  4      0.258340  1 Cl s          
 
 Vector    7  Occ=2.000000D+00  E=-1.503093D-01
              MO Center= -2.0D-17, -1.1D-16,  7.4D-17, r^2= 1.4D+00
   Bfn.  Coefficient  Atom+Function         Bfn.  Coefficient  Atom+Function  
  ----- ------------  ---------------      ----- ------------  ---------------
    17      0.396437  1 Cl px                14      0.300801  1 Cl px         
    20      0.252037  1 Cl px                11      0.199097  1 Cl px         
    18      0.168115  1 Cl py                19     -0.156427  1 Cl pz         
 
 Vector    8  Occ=2.000000D+00  E=-1.503093D-01
              MO Center= -4.3D-17, -6.0D-19,  1.1D-16, r^2= 1.4D+00
   Bfn.  Coefficient  Atom+Function         Bfn.  Coefficient  Atom+Function  
  ----- ------------  ---------------      ----- ------------  ---------------
    18      0.424565  1 Cl py                15      0.322143  1 Cl py         
    21      0.269919  1 Cl py                12      0.213224  1 Cl py         
    17     -0.170425  1 Cl px         
 
 Vector    9  Occ=2.000000D+00  E=-1.503093D-01
              MO Center=  2.7D-16,  6.9D-17,  4.5D-19, r^2= 1.4D+00
   Bfn.  Coefficient  Atom+Function         Bfn.  Coefficient  Atom+Function  
  ----- ------------  ---------------      ----- ------------  ---------------
    19      0.429919  1 Cl pz                16      0.326206  1 Cl pz         
    22      0.273323  1 Cl pz                13      0.215913  1 Cl pz         
    17      0.153907  1 Cl px         
 
 Vector   10  Occ=0.000000D+00  E= 2.585801D-01
              MO Center= -8.1D-16,  9.2D-16, -2.8D-16, r^2= 1.3D+01
   Bfn.  Coefficient  Atom+Function         Bfn.  Coefficient  Atom+Function  
  ----- ------------  ---------------      ----- ------------  ---------------
    23      1.425759  1 Cl px                20     -0.863053  1 Cl px         
    14     -0.189379  1 Cl px                17      0.167535  1 Cl px         
 
 Vector   11  Occ=0.000000D+00  E= 2.585801D-01
              MO Center= -7.2D-16,  1.8D-18, -1.9D-16, r^2= 1.3D+01
   Bfn.  Coefficient  Atom+Function         Bfn.  Coefficient  Atom+Function  
  ----- ------------  ---------------      ----- ------------  ---------------
    24      1.375252  1 Cl py                21     -0.832480  1 Cl py         
    25      0.376126  1 Cl pz                22     -0.227680  1 Cl pz         
    15     -0.182671  1 Cl py                18      0.161600  1 Cl py         
 
 Vector   12  Occ=0.000000D+00  E= 2.585801D-01
              MO Center= -1.5D-15, -7.4D-16, -1.2D-15, r^2= 1.3D+01
   Bfn.  Coefficient  Atom+Function         Bfn.  Coefficient  Atom+Function  
  ----- ------------  ---------------      ----- ------------  ---------------
    25      1.378206  1 Cl pz                22     -0.834268  1 Cl pz         
    24     -0.377014  1 Cl py                21      0.228217  1 Cl py         
    16     -0.183063  1 Cl pz                19      0.161947  1 Cl pz         
 
 Vector   13  Occ=0.000000D+00  E= 3.023813D-01
              MO Center=  8.1D-16, -4.8D-16,  1.1D-15, r^2= 7.5D+00
   Bfn.  Coefficient  Atom+Function         Bfn.  Coefficient  Atom+Function  
  ----- ------------  ---------------      ----- ------------  ---------------
     7      1.928743  1 Cl s                  6     -1.752765  1 Cl s          
     5      0.588381  1 Cl s                  4     -0.349653  1 Cl s          
     3     -0.320871  1 Cl s          
 
 Vector   14  Occ=0.000000D+00  E= 4.852006D-01
              MO Center= -5.0D-16,  6.4D-16,  2.4D-16, r^2= 5.7D+00
   Bfn.  Coefficient  Atom+Function         Bfn.  Coefficient  Atom+Function  
  ----- ------------  ---------------      ----- ------------  ---------------
    45      1.119464  1 Cl d  2              30     -0.279264  1 Cl d  2       
    35      0.159053  1 Cl d  2       
 
 Vector   15  Occ=0.000000D+00  E= 4.852006D-01
              MO Center=  1.6D-15,  2.9D-16,  4.8D-16, r^2= 5.7D+00
   Bfn.  Coefficient  Atom+Function         Bfn.  Coefficient  Atom+Function  
  ----- ------------  ---------------      ----- ------------  ---------------
    44     -0.747534  1 Cl d  1              42      0.719761  1 Cl d -1       
    41     -0.449073  1 Cl d -2              29      0.186482  1 Cl d  1       
    27     -0.179553  1 Cl d -1       
 
 Vector   16  Occ=0.000000D+00  E= 4.852006D-01
              MO Center=  1.3D-16,  2.6D-16, -2.8D-17, r^2= 5.7D+00
   Bfn.  Coefficient  Atom+Function         Bfn.  Coefficient  Atom+Function  
  ----- ------------  ---------------      ----- ------------  ---------------
    41      0.856345  1 Cl d -2              44     -0.703260  1 Cl d  1       
    26     -0.213626  1 Cl d -2              43     -0.197084  1 Cl d  0       
    29      0.175437  1 Cl d  1              42     -0.160467  1 Cl d -1       
 
 Vector   17  Occ=0.000000D+00  E= 4.852006D-01
              MO Center=  6.0D-16, -2.2D-16, -1.2D-15, r^2= 5.7D+00
   Bfn.  Coefficient  Atom+Function         Bfn.  Coefficient  Atom+Function  
  ----- ------------  ---------------      ----- ------------  ---------------
    43      0.659710  1 Cl d  0              42      0.607025  1 Cl d -1       
    41      0.571700  1 Cl d -2              44      0.355928  1 Cl d  1       
    45      0.197163  1 Cl d  2              28     -0.164573  1 Cl d  0       
    27     -0.151430  1 Cl d -1       
 
 Vector   18  Occ=0.000000D+00  E= 4.852006D-01
              MO Center=  7.0D-16, -7.9D-17,  5.0D-16, r^2= 5.7D+00
   Bfn.  Coefficient  Atom+Function         Bfn.  Coefficient  Atom+Function  
  ----- ------------  ---------------      ----- ------------  ---------------
    43      0.885788  1 Cl d  0              42     -0.611332  1 Cl d -1       
    44     -0.325736  1 Cl d  1              28     -0.220971  1 Cl d  0       
    41     -0.176857  1 Cl d -2              27      0.152504  1 Cl d -1       
 
 Vector   19  Occ=0.000000D+00  E= 7.219860D-01
              MO Center=  8.2D-16, -3.2D-16, -4.1D-16, r^2= 5.3D+00
   Bfn.  Coefficient  Atom+Function         Bfn.  Coefficient  Atom+Function  
  ----- ------------  ---------------      ----- ------------  ---------------
    20      1.844400  1 Cl px                17     -1.227335  1 Cl px         
    22      1.216579  1 Cl pz                19     -0.809559  1 Cl pz         
    23     -0.709133  1 Cl px                25     -0.467749  1 Cl pz         
    11     -0.457344  1 Cl px                 8     -0.371488  1 Cl px         
    13     -0.301667  1 Cl pz                10     -0.245036  1 Cl pz         
 

 Task  times  cpu:        1.8s     wall:        1.9s
 
 
                                NWChem Input Module
                                -------------------
 
 
 Summary of allocated global arrays
-----------------------------------
  No active global arrays



                         GA Statistics for process    0
                         ------------------------------

       create   destroy   get      put      acc     scatter   gather  read&inc
calls:  107      107      769      981       70        0        0      163     
number of processes/call 1.35e+00 1.16e+00 4.04e+00 0.00e+00 0.00e+00
bytes total:             1.09e+07 4.54e+06 3.95e+06 0.00e+00 0.00e+00 1.30e+03
bytes remote:            1.14e+06 3.09e+05 1.14e+06 0.00e+00 0.00e+00 0.00e+00
Max memory consumed for GA by this process: 2032128 bytes
 
MA_summarize_allocated_blocks: starting scan ...
MA_summarize_allocated_blocks: scan completed: 0 heap blocks, 0 stack blocks
MA usage statistics:

	allocation statistics:
					      heap	     stack
					      ----	     -----
	current number of blocks	         0	         0
	maximum number of blocks	        20	        19
	current total bytes		         0	         0
	maximum total bytes		     80136	  89020904
	maximum total K-bytes		        81	     89021
	maximum total M-bytes		         1	        90
 
 
                                     CITATION
                                     --------
                Please cite the following reference when publishing
                           results obtained with NWChem:
 
                 M. Valiev, E.J. Bylaska, N. Govind, K. Kowalski,
              T.P. Straatsma, H.J.J. van Dam, D. Wang, J. Nieplocha,
                        E. Apra, T.L. Windus, W.A. de Jong
                 "NWChem: a comprehensive and scalable open-source
                  solution for large scale molecular simulations"
                      Comput. Phys. Commun. 181, 1477 (2010)
                           doi:10.1016/j.cpc.2010.04.018
 
                                      AUTHORS
                                      -------
          E. Apra, E. J. Bylaska, W. A. de Jong, N. Govind, K. Kowalski,
       T. P. Straatsma, M. Valiev, H. J. J. van Dam, D. Wang, T. L. Windus,
        J. Hammond, J. Autschbach, K. Bhaskaran-Nair, J. Brabec, K. Lopata,
       S. A. Fischer, S. Krishnamoorthy, W. Ma, M. Klemm, O. Villa, Y. Chen,
    V. Anisimov, F. Aquino, S. Hirata, M. T. Hackler, T. Risthaus, M. Malagoli,
       A. Marenich, A. Otero-de-la-Roza, J. Mullin, P. Nichols, R. Peverati,
     J. Pittner, Y. Zhao, P.-D. Fan, A. Fonari, M. Williamson, R. J. Harrison,
       J. R. Rehr, M. Dupuis, D. Silverstein, D. M. A. Smith, J. Nieplocha,
        V. Tipparaju, M. Krishnan, B. E. Van Kuiken, A. Vazquez-Mayagoitia,
        L. Jensen, M. Swart, Q. Wu, T. Van Voorhis, A. A. Auer, M. Nooijen,
      L. D. Crosby, E. Brown, G. Cisneros, G. I. Fann, H. Fruchtl, J. Garza,
        K. Hirao, R. A. Kendall, J. A. Nichols, K. Tsemekhman, K. Wolinski,
     J. Anchell, D. E. Bernholdt, P. Borowski, T. Clark, D. Clerc, H. Dachsel,
   M. J. O. Deegan, K. Dyall, D. Elwood, E. Glendening, M. Gutowski, A. C. Hess,
         J. Jaffe, B. G. Johnson, J. Ju, R. Kobayashi, R. Kutteh, Z. Lin,
   R. Littlefield, X. Long, B. Meng, T. Nakajima, S. Niu, L. Pollack, M. Rosing,
   K. Glaesemann, G. Sandrone, M. Stave, H. Taylor, G. Thomas, J. H. van Lenthe,
                               A. T. Wong, Z. Zhang.

 Total times  cpu:        1.8s     wall:        2.0s
