 argument  1 = Cl.nw
                                         
                                         
 
 
              Northwest Computational Chemistry Package (NWChem) 6.6
              ------------------------------------------------------
 
 
                    Environmental Molecular Sciences Laboratory
                       Pacific Northwest National Laboratory
                                Richland, WA 99352
 
                              Copyright (c) 1994-2015
                       Pacific Northwest National Laboratory
                            Battelle Memorial Institute
 
             NWChem is an open-source computational chemistry package
                        distributed under the terms of the
                      Educational Community License (ECL) 2.0
             A copy of the license is included with this distribution
                              in the LICENSE.TXT file
 
                                  ACKNOWLEDGMENT
                                  --------------

            This software and its documentation were developed at the
            EMSL at Pacific Northwest National Laboratory, a multiprogram
            national laboratory, operated for the U.S. Department of Energy
            by Battelle under Contract Number DE-AC05-76RL01830. Support
            for this work was provided by the Department of Energy Office
            of Biological and Environmental Research, Office of Basic
            Energy Sciences, and the Office of Advanced Scientific Computing.


           Job information
           ---------------

    hostname        = cn-mem
    program         = nwchem
    date            = Sun Jun 17 16:28:44 2018

    compiled        = Mon_Jan_29_13:00:04_2018
    source          = /gpfs/home/bsundahl/nwchem-6.6
    nwchem branch   = 6.6
    nwchem revision = 27746
    ga revision     = 10594
    input           = Cl.nw
    prefix          = Cl.
    data base       = /gpfs/scratch/bsundahl/Cl.db
    status          = startup
    nproc           =       14
    time left       =     -1s



           Memory information
           ------------------

    heap     =  308019196 doubles =   2350.0 Mbytes
    stack    =  150732801 doubles =   1150.0 Mbytes
    global   =   65536000 doubles =    500.0 Mbytes (distinct from heap & stack)
    total    =  524287997 doubles =   4000.0 Mbytes
    verify   = yes
    hardfail = no 


           Directory information
           ---------------------
 
  0 permanent = /gpfs/scratch/bsundahl
  0 scratch   = /gpfs/scratch/bsundahl/
 
 
 
 
                                NWChem Input Module
                                -------------------
 
 

 Scaling coordinates for geometry "geometry" by  1.889725989
 (inverse scale =  0.529177249)

 
 
                             Geometry "geometry" -> ""
                             -------------------------
 
 Output coordinates in angstroms (scale by  1.889725989 to convert to a.u.)
 
  No.       Tag          Charge          X              Y              Z
 ---- ---------------- ---------- -------------- -------------- --------------
    1 Cl                  17.0000     0.00000000     0.00000000     0.00000000
 
      Atomic Mass 
      ----------- 
 
      Cl                34.968850
 

 Effective nuclear repulsion energy (a.u.)       0.0000000000

            Nuclear Dipole moment (a.u.) 
            ----------------------------
        X                 Y               Z
 ---------------- ---------------- ----------------
     0.0000000000     0.0000000000     0.0000000000
 
 
            XYZ format geometry
            -------------------
     1
 geometry
 Cl                    0.00000000     0.00000000     0.00000000
 


 Summary of "ao basis" -> "" (spherical)
 ------------------------------------------------------------------------------
       Tag                 Description            Shells   Functions and Types
 ---------------- ------------------------------  ------  ---------------------
 *                        aug-cc-pvqz                 on all atoms 


 
                                 NWChem DFT Module
                                 -----------------
 
 
                      Basis "ao basis" -> "ao basis" (spherical)
                      -----
  Cl (Chlorine)
  -------------
            Exponent  Coefficients 
       -------------- ---------------------------------------------------------
  1 S  8.34900000E+05  0.000023
  1 S  1.25000000E+05  0.000180
  1 S  2.84300000E+04  0.000948
  1 S  8.03300000E+03  0.004001
  1 S  2.60800000E+03  0.014463
  1 S  9.33900000E+02  0.045659
  1 S  3.60000000E+02  0.123248
  1 S  1.47000000E+02  0.264369
  1 S  6.28800000E+01  0.382989
  1 S  2.76000000E+01  0.270934
  1 S  1.10800000E+01  0.047140
  1 S  5.07500000E+00 -0.003718
  1 S  2.27800000E+00  0.002192
 
  2 S  8.34900000E+05 -0.000006
  2 S  1.25000000E+05 -0.000050
  2 S  2.84300000E+04 -0.000266
  2 S  8.03300000E+03 -0.001125
  2 S  2.60800000E+03 -0.004105
  2 S  9.33900000E+02 -0.013199
  2 S  3.60000000E+02 -0.037534
  2 S  1.47000000E+02 -0.089723
  2 S  6.28800000E+01 -0.167671
  2 S  2.76000000E+01 -0.174763
  2 S  1.10800000E+01  0.114909
  2 S  5.07500000E+00  0.563618
  2 S  2.27800000E+00  0.441606
 
  3 S  8.34900000E+05  0.000002
  3 S  1.25000000E+05  0.000015
  3 S  2.84300000E+04  0.000081
  3 S  8.03300000E+03  0.000340
  3 S  2.60800000E+03  0.001246
  3 S  9.33900000E+02  0.003996
  3 S  3.60000000E+02  0.011475
  3 S  1.47000000E+02  0.027550
  3 S  6.28800000E+01  0.053292
  3 S  2.76000000E+01  0.057125
  3 S  1.10800000E+01 -0.039520
  3 S  5.07500000E+00 -0.264343
  3 S  2.27800000E+00 -0.349291
 
  4 S  7.77500000E-01  1.000000
 
  5 S  3.52700000E-01  1.000000
 
  6 S  1.43100000E-01  1.000000
 
  7 S  5.19000000E-02  1.000000
 
  8 P  1.70300000E+03  0.000474
  8 P  4.03600000E+02  0.004064
  8 P  1.30300000E+02  0.021336
  8 P  4.90500000E+01  0.079461
  8 P  2.02600000E+01  0.208927
  8 P  8.78700000E+00  0.364945
  8 P  3.91900000E+00  0.371725
  8 P  1.76500000E+00  0.146292
 
  9 P  1.70300000E+03 -0.000128
  9 P  4.03600000E+02 -0.001094
  9 P  1.30300000E+02 -0.005834
  9 P  4.90500000E+01 -0.021926
  9 P  2.02600000E+01 -0.060138
  9 P  8.78700000E+00 -0.106929
  9 P  3.91900000E+00 -0.122454
  9 P  1.76500000E+00  0.038362
 
 10 P  7.20700000E-01  1.000000
 
 11 P  2.83900000E-01  1.000000
 
 12 P  1.06000000E-01  1.000000
 
 13 P  3.76000000E-02  1.000000
 
 14 D  2.54000000E-01  1.000000
 
 15 D  6.28000000E-01  1.000000
 
 16 D  1.55100000E+00  1.000000
 
 17 D  9.52000000E-02  1.000000
 
 18 F  4.23000000E-01  1.000000
 
 19 F  1.08900000E+00  1.000000
 
 20 F  2.17000000E-01  1.000000
 
 21 G  8.27000000E-01  1.000000
 
 22 G  3.78000000E-01  1.000000
 


 Summary of "ao basis" -> "ao basis" (spherical)
 ------------------------------------------------------------------------------
       Tag                 Description            Shells   Functions and Types
 ---------------- ------------------------------  ------  ---------------------
 Cl                       aug-cc-pvqz               22       84   7s6p4d3f2g




 Summary of "ao basis" -> "ao basis" (spherical)
 ------------------------------------------------------------------------------
       Tag                 Description            Shells   Functions and Types
 ---------------- ------------------------------  ------  ---------------------
 Cl                       aug-cc-pvqz               22       84   7s6p4d3f2g


  Caching 1-el integrals 
 
            General Information
            -------------------
          SCF calculation type: DFT
          Wavefunction type:  spin polarized.
          No. of atoms     :     1
          No. of electrons :    17
           Alpha electrons :     9
            Beta electrons :     8
          Charge           :     0
          Spin multiplicity:     2
          Use of symmetry is: off; symmetry adaption is: off
          Maximum number of iterations: 150
          This is a Direct SCF calculation.
          AO basis - number of functions:    84
                     number of shells:    22
          Convergence on energy requested: 1.00D-06
          Convergence on density requested: 1.00D-05
          Convergence on gradient requested: 5.00D-04
 
              XC Information
              --------------
                         B3LYP Method XC Potential
                     Hartree-Fock (Exact) Exchange  0.200          
                        Slater Exchange Functional  0.800 local    
                    Becke 1988 Exchange Functional  0.720 non-local
              Lee-Yang-Parr Correlation Functional  0.810          
                  VWN I RPA Correlation Functional  0.190 local    
 
             Grid Information
             ----------------
          Grid used for XC integration:  medium    
          Radial quadrature: Mura-Knowles        
          Angular quadrature: Lebedev. 
          Tag              B.-S. Rad. Rad. Pts. Rad. Cut. Ang. Pts.
          ---              ---------- --------- --------- ---------
          Cl                  1.00       88           8.0       590
          Grid pruning is: on 
          Number of quadrature shells:    88
          Spatial weights used:  Erf1
 
          Convergence Information
          -----------------------
          Convergence aids based upon iterative change in 
          total energy or number of iterations. 
          Levelshifting, if invoked, occurs when the 
          HOMO/LUMO gap drops below (HL_TOL): 1.00D-02
          DIIS, if invoked, will attempt to extrapolate 
          using up to (NFOCK): 10 stored Fock matrices.

                    Damping( 0%)  Levelshifting(0.5)       DIIS
                  --------------- ------------------- ---------------
          dE  on:    start            ASAP                start   
          dE off:    2 iters        150 iters           150 iters 

 
      Screening Tolerance Information
      -------------------------------
          Density screening/tol_rho: 1.00D-10
          AO Gaussian exp screening on grid/accAOfunc:  14
          CD Gaussian exp screening on grid/accCDfunc:  20
          XC Gaussian exp screening on grid/accXCfunc:  20
          Schwarz screening/accCoul: 1.00D-08

 
      Superposition of Atomic Density Guess
      -------------------------------------
 
 Sum of atomic energies:        -459.48964085
 
      Non-variational initial energy
      ------------------------------

 Total energy =    -459.283958
 1-e energy   =    -634.886501
 2-e energy   =     175.602542
 HOMO         =      -0.427141
 LUMO         =       0.096398
 
   Time after variat. SCF:      1.0
   Time prior to 1st pass:      1.0

 Grid_pts file          = /gpfs/scratch/bsundahl//Cl.gridpts.00
 Record size in doubles =  12289        No. of grid_pts per rec  =   3070
 Max. records in memory =      3        Max. recs in file   = 307155417


           Memory utilization after 1st SCF pass: 
           Heap Space remaining (MW):      307.98           307978756
          Stack Space remaining (MW):      150.73           150732020

   convergence    iter        energy       DeltaE   RMS-Dens  Diis-err    time
 ---------------- ----- ----------------- --------- --------- ---------  ------
 d= 0,ls=0.0,diis     1   -460.1671878758 -4.60D+02  2.62D-03  9.77D-02     1.3
                                                     2.60D-03  8.74D-02
 d= 0,ls=0.0,diis     2   -460.1773556472 -1.02D-02  6.67D-04  2.34D-03     1.7
                                                     7.13D-04  2.54D-03
 d= 0,ls=0.0,diis     3   -460.1782084630 -8.53D-04  2.78D-04  1.35D-03     2.0
                                                     2.50D-04  1.09D-03
 d= 0,ls=0.0,diis     4   -460.1786846696 -4.76D-04  2.24D-05  3.76D-06     2.3
                                                     1.45D-05  2.69D-06
 d= 0,ls=0.0,diis     5   -460.1786865517 -1.88D-06  2.84D-06  1.06D-07     2.6
                                                     4.26D-06  1.54D-07
 d= 0,ls=0.0,diis     6   -460.1786866353 -8.36D-08  1.07D-07  1.23D-10     2.9
                                                     1.16D-07  1.70D-10


         Total DFT energy =     -460.178686635301
      One electron energy =     -634.884724937974
           Coulomb energy =      202.900806908246
    Exchange-Corr. energy =      -28.194768605573
 Nuclear repulsion energy =        0.000000000000

 Numeric. integr. density =       17.000000000022

     Total iterative time =      1.8s


 
                    DFT Final Alpha Molecular Orbital Analysis
                    ------------------------------------------
 
 Vector    1  Occ=1.000000D+00  E=-1.016164D+02
              MO Center= -7.9D-18,  1.1D-17, -2.7D-18, r^2= 3.1D-03
   Bfn.  Coefficient  Atom+Function         Bfn.  Coefficient  Atom+Function  
  ----- ------------  ---------------      ----- ------------  ---------------
     1      1.003838  1 Cl s          
 
 Vector    2  Occ=1.000000D+00  E=-9.516368D+00
              MO Center=  9.8D-17,  3.2D-17, -1.5D-16, r^2= 6.6D-02
   Bfn.  Coefficient  Atom+Function         Bfn.  Coefficient  Atom+Function  
  ----- ------------  ---------------      ----- ------------  ---------------
     2      0.919596  1 Cl s          
 
 Vector    3  Occ=1.000000D+00  E=-7.291099D+00
              MO Center= -1.6D-16,  6.2D-17, -7.5D-17, r^2= 5.8D-02
   Bfn.  Coefficient  Atom+Function         Bfn.  Coefficient  Atom+Function  
  ----- ------------  ---------------      ----- ------------  ---------------
     8      0.857203  1 Cl px                10      0.385380  1 Cl pz         
     9     -0.363632  1 Cl py         
 
 Vector    4  Occ=1.000000D+00  E=-7.268360D+00
              MO Center= -4.5D-17, -3.0D-17,  5.3D-17, r^2= 5.8D-02
   Bfn.  Coefficient  Atom+Function         Bfn.  Coefficient  Atom+Function  
  ----- ------------  ---------------      ----- ------------  ---------------
     9      0.705125  1 Cl py                 8      0.520295  1 Cl px         
    10     -0.491961  1 Cl pz         
 
 Vector    5  Occ=1.000000D+00  E=-7.268360D+00
              MO Center=  1.5D-17,  2.9D-17,  9.0D-17, r^2= 5.8D-02
   Bfn.  Coefficient  Atom+Function         Bfn.  Coefficient  Atom+Function  
  ----- ------------  ---------------      ----- ------------  ---------------
    10      0.787534  1 Cl pz                 9      0.617442  1 Cl py         
 
 Vector    6  Occ=1.000000D+00  E=-8.507432D-01
              MO Center=  3.2D-16,  2.4D-16,  3.3D-16, r^2= 7.7D-01
   Bfn.  Coefficient  Atom+Function         Bfn.  Coefficient  Atom+Function  
  ----- ------------  ---------------      ----- ------------  ---------------
     5      0.680665  1 Cl s                  3      0.586329  1 Cl s          
     4      0.288000  1 Cl s                  6      0.263165  1 Cl s          
 
 Vector    7  Occ=1.000000D+00  E=-4.130532D-01
              MO Center= -5.5D-16, -8.9D-16, -2.2D-16, r^2= 1.1D+00
   Bfn.  Coefficient  Atom+Function         Bfn.  Coefficient  Atom+Function  
  ----- ------------  ---------------      ----- ------------  ---------------
    17      0.430275  1 Cl px                14      0.342446  1 Cl px         
    11      0.241899  1 Cl px                19      0.193443  1 Cl pz         
    18     -0.182526  1 Cl py                20      0.171398  1 Cl px         
    16      0.153956  1 Cl pz         
 
 Vector    8  Occ=1.000000D+00  E=-3.584132D-01
              MO Center=  1.2D-16,  3.0D-16,  1.8D-16, r^2= 1.1D+00
   Bfn.  Coefficient  Atom+Function         Bfn.  Coefficient  Atom+Function  
  ----- ------------  ---------------      ----- ------------  ---------------
    18      0.333475  1 Cl py                15      0.263261  1 Cl py         
    17      0.255847  1 Cl px                19     -0.254424  1 Cl pz         
    14      0.201977  1 Cl px                16     -0.200854  1 Cl pz         
    12      0.199181  1 Cl py                21      0.157106  1 Cl py         
    11      0.152814  1 Cl px                13     -0.151965  1 Cl pz         
 
 Vector    9  Occ=1.000000D+00  E=-3.584132D-01
              MO Center= -1.8D-16, -3.9D-16, -2.2D-16, r^2= 1.1D+00
   Bfn.  Coefficient  Atom+Function         Bfn.  Coefficient  Atom+Function  
  ----- ------------  ---------------      ----- ------------  ---------------
    19      0.375979  1 Cl pz                18      0.314259  1 Cl py         
    16      0.296816  1 Cl pz                15      0.248090  1 Cl py         
    13      0.224568  1 Cl pz                12      0.187703  1 Cl py         
    22      0.177130  1 Cl pz         
 
 Vector   10  Occ=0.000000D+00  E= 2.305896D-02
              MO Center=  2.9D-14,  1.5D-14, -4.9D-15, r^2= 6.6D+00
   Bfn.  Coefficient  Atom+Function         Bfn.  Coefficient  Atom+Function  
  ----- ------------  ---------------      ----- ------------  ---------------
     7      1.674672  1 Cl s                  6     -1.076145  1 Cl s          
     3     -0.272493  1 Cl s                  4     -0.230160  1 Cl s          
 
 Vector   11  Occ=0.000000D+00  E= 4.882500D-02
              MO Center= -5.3D-15,  7.3D-15,  3.5D-16, r^2= 1.1D+01
   Bfn.  Coefficient  Atom+Function         Bfn.  Coefficient  Atom+Function  
  ----- ------------  ---------------      ----- ------------  ---------------
    23      1.046121  1 Cl px                25      0.470323  1 Cl pz         
    24     -0.443782  1 Cl py                20     -0.321817  1 Cl px         
 
 Vector   12  Occ=0.000000D+00  E= 5.240551D-02
              MO Center= -2.4D-14, -2.8D-14,  9.3D-15, r^2= 1.1D+01
   Bfn.  Coefficient  Atom+Function         Bfn.  Coefficient  Atom+Function  
  ----- ------------  ---------------      ----- ------------  ---------------
    24      0.999512  1 Cl py                23      0.617799  1 Cl px         
    25     -0.431040  1 Cl pz                21     -0.340642  1 Cl py         
    20     -0.210551  1 Cl px         
 
 Vector   13  Occ=0.000000D+00  E= 5.240551D-02
              MO Center= -1.0D-15,  3.6D-15, -1.5D-16, r^2= 1.1D+01
   Bfn.  Coefficient  Atom+Function         Bfn.  Coefficient  Atom+Function  
  ----- ------------  ---------------      ----- ------------  ---------------
    25      1.073127  1 Cl pz                24      0.602910  1 Cl py         
    22     -0.365731  1 Cl pz                23     -0.226700  1 Cl px         
    21     -0.205476  1 Cl py         
 
 Vector   14  Occ=0.000000D+00  E= 1.507973D-01
              MO Center= -4.3D-15,  1.0D-14, -6.8D-15, r^2= 4.5D+00
   Bfn.  Coefficient  Atom+Function         Bfn.  Coefficient  Atom+Function  
  ----- ------------  ---------------      ----- ------------  ---------------
    44      0.510115  1 Cl d  1              41      0.481329  1 Cl d -2       
    45     -0.465233  1 Cl d  2              43      0.254080  1 Cl d  0       
    42      0.216395  1 Cl d -1       
 
 Vector   15  Occ=0.000000D+00  E= 1.535940D-01
              MO Center=  6.0D-15, -3.3D-15,  3.4D-15, r^2= 4.6D+00
   Bfn.  Coefficient  Atom+Function         Bfn.  Coefficient  Atom+Function  
  ----- ------------  ---------------      ----- ------------  ---------------
    45      0.648601  1 Cl d  2              41      0.433299  1 Cl d -2       
    42      0.401283  1 Cl d -1              43     -0.241124  1 Cl d  0       
 
 Vector   16  Occ=0.000000D+00  E= 1.535940D-01
              MO Center=  2.6D-15, -3.4D-15, -4.5D-15, r^2= 4.6D+00
   Bfn.  Coefficient  Atom+Function         Bfn.  Coefficient  Atom+Function  
  ----- ------------  ---------------      ----- ------------  ---------------
    44      0.599855  1 Cl d  1              43     -0.508367  1 Cl d  0       
    41     -0.464034  1 Cl d -2       
 
 Vector   17  Occ=0.000000D+00  E= 1.651614D-01
              MO Center= -6.1D-16, -3.3D-16,  1.8D-15, r^2= 4.8D+00
   Bfn.  Coefficient  Atom+Function         Bfn.  Coefficient  Atom+Function  
  ----- ------------  ---------------      ----- ------------  ---------------
    43      0.652724  1 Cl d  0              45      0.453122  1 Cl d  2       
    44      0.420356  1 Cl d  1              41     -0.265698  1 Cl d -2       
    42     -0.192142  1 Cl d -1       
 
 Vector   18  Occ=0.000000D+00  E= 1.651614D-01
              MO Center=  1.3D-15, -7.1D-16, -1.6D-15, r^2= 4.8D+00
   Bfn.  Coefficient  Atom+Function         Bfn.  Coefficient  Atom+Function  
  ----- ------------  ---------------      ----- ------------  ---------------
    42      0.801863  1 Cl d -1              41     -0.386730  1 Cl d -2       
    43      0.272902  1 Cl d  0              44     -0.198485  1 Cl d  1       
 
 Vector   19  Occ=0.000000D+00  E= 3.345528D-01
              MO Center= -1.4D-15,  3.4D-16,  2.0D-15, r^2= 6.8D+00
   Bfn.  Coefficient  Atom+Function         Bfn.  Coefficient  Atom+Function  
  ----- ------------  ---------------      ----- ------------  ---------------
    20      1.885896  1 Cl px                17     -0.998893  1 Cl px         
    23     -0.923036  1 Cl px                22      0.847860  1 Cl pz         
    21     -0.800014  1 Cl py                19     -0.449082  1 Cl pz         
    18      0.423739  1 Cl py                25     -0.414978  1 Cl pz         
    24      0.391560  1 Cl py                11     -0.371987  1 Cl px         
 
 Vector   20  Occ=0.000000D+00  E= 3.508671D-01
              MO Center= -6.1D-17, -7.5D-16,  1.9D-16, r^2= 6.6D+00
   Bfn.  Coefficient  Atom+Function         Bfn.  Coefficient  Atom+Function  
  ----- ------------  ---------------      ----- ------------  ---------------
    21      1.737394  1 Cl py                20      1.111183  1 Cl px         
    18     -0.953313  1 Cl py                22     -0.832256  1 Cl pz         
    24     -0.831541  1 Cl py                17     -0.609709  1 Cl px         
    23     -0.531828  1 Cl px                19      0.456661  1 Cl pz         
    25      0.398330  1 Cl pz                12     -0.362433  1 Cl py         
 
 Vector   21  Occ=0.000000D+00  E= 3.508671D-01
              MO Center= -7.3D-16,  3.3D-15,  5.7D-15, r^2= 6.6D+00
   Bfn.  Coefficient  Atom+Function         Bfn.  Coefficient  Atom+Function  
  ----- ------------  ---------------      ----- ------------  ---------------
    22      1.878816  1 Cl pz                21      1.132870  1 Cl py         
    19     -1.030911  1 Cl pz                25     -0.899228  1 Cl pz         
    18     -0.621609  1 Cl py                24     -0.542208  1 Cl py         
    13     -0.391935  1 Cl pz                20     -0.364104  1 Cl px         
    10     -0.294055  1 Cl pz                12     -0.236325  1 Cl py         
 
 Vector   22  Occ=0.000000D+00  E= 4.587156D-01
              MO Center= -3.4D-16, -4.4D-16,  3.5D-16, r^2= 3.4D+00
   Bfn.  Coefficient  Atom+Function         Bfn.  Coefficient  Atom+Function  
  ----- ------------  ---------------      ----- ------------  ---------------
    29      0.632916  1 Cl d  1              26      0.597200  1 Cl d -2       
    30     -0.577231  1 Cl d  2              44     -0.546184  1 Cl d  1       
    41     -0.515362  1 Cl d -2              45      0.498129  1 Cl d  2       
    28      0.315246  1 Cl d  0              43     -0.272046  1 Cl d  0       
    27      0.268488  1 Cl d -1              42     -0.231696  1 Cl d -1       
 
 Vector   23  Occ=0.000000D+00  E= 4.659356D-01
              MO Center=  1.8D-16, -3.8D-16,  1.2D-16, r^2= 3.3D+00
   Bfn.  Coefficient  Atom+Function         Bfn.  Coefficient  Atom+Function  
  ----- ------------  ---------------      ----- ------------  ---------------
    30      0.795938  1 Cl d  2              45     -0.674875  1 Cl d  2       
    26      0.515951  1 Cl d -2              27      0.497132  1 Cl d -1       
    41     -0.437475  1 Cl d -2              42     -0.421517  1 Cl d -1       
    28     -0.315547  1 Cl d  0              43      0.267552  1 Cl d  0       
    29      0.185355  1 Cl d  1              40      0.158146  1 Cl d  2       
 
 Vector   24  Occ=0.000000D+00  E= 4.659356D-01
              MO Center=  2.0D-16, -6.5D-16, -5.7D-16, r^2= 3.3D+00
   Bfn.  Coefficient  Atom+Function         Bfn.  Coefficient  Atom+Function  
  ----- ------------  ---------------      ----- ------------  ---------------
    29      0.733184  1 Cl d  1              44     -0.621666  1 Cl d  1       
    28     -0.616585  1 Cl d  0              26     -0.587046  1 Cl d -2       
    43      0.522802  1 Cl d  0              41      0.497756  1 Cl d -2       
 
 Vector   25  Occ=0.000000D+00  E= 4.789876D-01
              MO Center=  3.4D-15, -1.8D-15, -4.6D-15, r^2= 4.5D+00
   Bfn.  Coefficient  Atom+Function         Bfn.  Coefficient  Atom+Function  
  ----- ------------  ---------------      ----- ------------  ---------------
     6      4.235717  1 Cl s                  5     -3.384038  1 Cl s          
     7     -1.727096  1 Cl s                  4      0.569145  1 Cl s          
     2      0.295227  1 Cl s          
 
 Vector   26  Occ=0.000000D+00  E= 4.920297D-01
              MO Center= -2.6D-16, -4.3D-16,  3.2D-16, r^2= 3.1D+00
   Bfn.  Coefficient  Atom+Function         Bfn.  Coefficient  Atom+Function  
  ----- ------------  ---------------      ----- ------------  ---------------
    28      0.790841  1 Cl d  0              43     -0.636690  1 Cl d  0       
    30      0.545957  1 Cl d  2              29      0.505306  1 Cl d  1       
    45     -0.439539  1 Cl d  2              44     -0.406811  1 Cl d  1       
    26     -0.324865  1 Cl d -2              41      0.261542  1 Cl d -2       
    27     -0.223376  1 Cl d -1              42      0.179835  1 Cl d -1       
 
 Vector   27  Occ=0.000000D+00  E= 4.920297D-01
              MO Center=  7.1D-17, -3.3D-16,  2.2D-16, r^2= 3.1D+00
   Bfn.  Coefficient  Atom+Function         Bfn.  Coefficient  Atom+Function  
  ----- ------------  ---------------      ----- ------------  ---------------
    27      0.970010  1 Cl d -1              42     -0.780935  1 Cl d -1       
    26     -0.463997  1 Cl d -2              41      0.373554  1 Cl d -2       
    28      0.322457  1 Cl d  0              43     -0.259604  1 Cl d  0       
    29     -0.244089  1 Cl d  1              44      0.196511  1 Cl d  1       
    37      0.190474  1 Cl d -1       
 
 Vector   28  Occ=0.000000D+00  E= 6.534339D-01
              MO Center= -3.9D-16,  4.9D-17,  3.0D-16, r^2= 3.3D+00
   Bfn.  Coefficient  Atom+Function         Bfn.  Coefficient  Atom+Function  
  ----- ------------  ---------------      ----- ------------  ---------------
    60      0.727847  1 Cl f -3              61      0.568453  1 Cl f -2       
    65     -0.549447  1 Cl f  2              63      0.542455  1 Cl f  0       
    66      0.279962  1 Cl f  3              46     -0.218124  1 Cl f -3       
    64     -0.175067  1 Cl f  1              47     -0.170356  1 Cl f -2       
    51      0.164660  1 Cl f  2              49     -0.162565  1 Cl f  0       
 
 
                     DFT Final Beta Molecular Orbital Analysis
                     -----------------------------------------
 
 Vector    1  Occ=1.000000D+00  E=-1.016096D+02
              MO Center=  5.9D-18, -5.2D-18,  7.8D-19, r^2= 3.1D-03
   Bfn.  Coefficient  Atom+Function         Bfn.  Coefficient  Atom+Function  
  ----- ------------  ---------------      ----- ------------  ---------------
     1      1.003785  1 Cl s          
 
 Vector    2  Occ=1.000000D+00  E=-9.509738D+00
              MO Center=  6.9D-17, -3.8D-16, -6.8D-16, r^2= 6.6D-02
   Bfn.  Coefficient  Atom+Function         Bfn.  Coefficient  Atom+Function  
  ----- ------------  ---------------      ----- ------------  ---------------
     2      0.914825  1 Cl s          
 
 Vector    3  Occ=1.000000D+00  E=-7.268728D+00
              MO Center= -5.2D-17,  3.3D-17, -2.8D-17, r^2= 5.8D-02
   Bfn.  Coefficient  Atom+Function         Bfn.  Coefficient  Atom+Function  
  ----- ------------  ---------------      ----- ------------  ---------------
     8      0.863573  1 Cl px                10      0.388244  1 Cl pz         
     9     -0.366334  1 Cl py         
 
 Vector    4  Occ=1.000000D+00  E=-7.264454D+00
              MO Center= -3.4D-17,  5.8D-18,  6.6D-17, r^2= 5.8D-02
   Bfn.  Coefficient  Atom+Function         Bfn.  Coefficient  Atom+Function  
  ----- ------------  ---------------      ----- ------------  ---------------
     9      0.805552  1 Cl py                 8      0.496155  1 Cl px         
    10     -0.343507  1 Cl pz         
 
 Vector    5  Occ=1.000000D+00  E=-7.264454D+00
              MO Center= -1.2D-16,  1.8D-16,  3.7D-16, r^2= 5.8D-02
   Bfn.  Coefficient  Atom+Function         Bfn.  Coefficient  Atom+Function  
  ----- ------------  ---------------      ----- ------------  ---------------
    10      0.864249  1 Cl pz                 9      0.481932  1 Cl py         
     8     -0.184108  1 Cl px         
 
 Vector    6  Occ=1.000000D+00  E=-7.972398D-01
              MO Center=  5.2D-16,  1.4D-16,  5.2D-16, r^2= 7.8D-01
   Bfn.  Coefficient  Atom+Function         Bfn.  Coefficient  Atom+Function  
  ----- ------------  ---------------      ----- ------------  ---------------
     5      0.655610  1 Cl s                  3      0.575855  1 Cl s          
     4      0.294325  1 Cl s                  6      0.283263  1 Cl s          
 
 Vector    7  Occ=1.000000D+00  E=-3.435227D-01
              MO Center= -3.6D-16,  1.5D-16,  7.4D-16, r^2= 1.2D+00
   Bfn.  Coefficient  Atom+Function         Bfn.  Coefficient  Atom+Function  
  ----- ------------  ---------------      ----- ------------  ---------------
    18      0.336061  1 Cl py                15      0.263740  1 Cl py         
    17      0.252558  1 Cl px                19     -0.244670  1 Cl pz         
    12      0.205955  1 Cl py                14      0.198207  1 Cl px         
    16     -0.192017  1 Cl pz                21      0.167427  1 Cl py         
    11      0.154780  1 Cl px         
 
 Vector    8  Occ=1.000000D+00  E=-3.435227D-01
              MO Center=  9.0D-17,  1.7D-17, -3.5D-16, r^2= 1.2D+00
   Bfn.  Coefficient  Atom+Function         Bfn.  Coefficient  Atom+Function  
  ----- ------------  ---------------      ----- ------------  ---------------
    19      0.376993  1 Cl pz                18      0.304704  1 Cl py         
    16      0.295863  1 Cl pz                15      0.239131  1 Cl py         
    13      0.231039  1 Cl pz                22      0.187819  1 Cl pz         
    12      0.186737  1 Cl py                21      0.151805  1 Cl py         
 
 Vector    9  Occ=0.000000D+00  E=-2.485500D-01
              MO Center=  1.9D-16,  2.2D-16, -1.1D-16, r^2= 1.3D+00
   Bfn.  Coefficient  Atom+Function         Bfn.  Coefficient  Atom+Function  
  ----- ------------  ---------------      ----- ------------  ---------------
    17      0.401370  1 Cl px                14      0.303900  1 Cl px         
    11      0.247911  1 Cl px                20      0.236073  1 Cl px         
    19      0.180447  1 Cl pz                18     -0.170264  1 Cl py         
 
 Vector   10  Occ=0.000000D+00  E= 2.622058D-02
              MO Center=  3.4D-15,  1.6D-15,  7.6D-15, r^2= 6.7D+00
   Bfn.  Coefficient  Atom+Function         Bfn.  Coefficient  Atom+Function  
  ----- ------------  ---------------      ----- ------------  ---------------
     7      1.695748  1 Cl s                  6     -1.128066  1 Cl s          
     3     -0.269403  1 Cl s                  4     -0.233435  1 Cl s          
 
 Vector   11  Occ=0.000000D+00  E= 5.277400D-02
              MO Center= -6.0D-16,  5.4D-15, -3.8D-15, r^2= 1.1D+01
   Bfn.  Coefficient  Atom+Function         Bfn.  Coefficient  Atom+Function  
  ----- ------------  ---------------      ----- ------------  ---------------
    24      0.938180  1 Cl py                23      0.637316  1 Cl px         
    25     -0.537877  1 Cl pz                21     -0.325686  1 Cl py         
    20     -0.221189  1 Cl px                22      0.186730  1 Cl pz         
 
 Vector   12  Occ=0.000000D+00  E= 5.277468D-02
              MO Center=  8.8D-18, -5.4D-15, -9.1D-15, r^2= 1.1D+01
   Bfn.  Coefficient  Atom+Function         Bfn.  Coefficient  Atom+Function  
  ----- ------------  ---------------      ----- ------------  ---------------
    25      1.027795  1 Cl pz                24      0.701444  1 Cl py         
    22     -0.356769  1 Cl pz                21     -0.243494  1 Cl py         
    23     -0.165152  1 Cl px         
 
 Vector   13  Occ=0.000000D+00  E= 5.505002D-02
              MO Center= -1.5D-15,  1.8D-15, -2.5D-15, r^2= 1.1D+01
   Bfn.  Coefficient  Atom+Function         Bfn.  Coefficient  Atom+Function  
  ----- ------------  ---------------      ----- ------------  ---------------
    23      1.075171  1 Cl px                25      0.482470  1 Cl pz         
    24     -0.453815  1 Cl py                20     -0.392465  1 Cl px         
    22     -0.176135  1 Cl pz                21      0.165707  1 Cl py         
 
 Vector   14  Occ=0.000000D+00  E= 1.652317D-01
              MO Center=  1.1D-15, -2.0D-15,  1.7D-15, r^2= 4.8D+00
   Bfn.  Coefficient  Atom+Function         Bfn.  Coefficient  Atom+Function  
  ----- ------------  ---------------      ----- ------------  ---------------
    45      0.678123  1 Cl d  2              42      0.428874  1 Cl d -1       
    41      0.423116  1 Cl d -2              43     -0.289957  1 Cl d  0       
    44      0.183044  1 Cl d  1       
 
 Vector   15  Occ=0.000000D+00  E= 1.652325D-01
              MO Center=  1.4D-15, -4.2D-16,  1.0D-15, r^2= 4.8D+00
   Bfn.  Coefficient  Atom+Function         Bfn.  Coefficient  Atom+Function  
  ----- ------------  ---------------      ----- ------------  ---------------
    44      0.621786  1 Cl d  1              41     -0.519465  1 Cl d -2       
    43     -0.517739  1 Cl d  0       
 
 Vector   16  Occ=0.000000D+00  E= 1.653423D-01
              MO Center= -8.8D-16, -9.1D-16,  1.6D-15, r^2= 4.8D+00
   Bfn.  Coefficient  Atom+Function         Bfn.  Coefficient  Atom+Function  
  ----- ------------  ---------------      ----- ------------  ---------------
    42      0.818709  1 Cl d -1              44     -0.345295  1 Cl d  1       
    45     -0.262682  1 Cl d  2              41     -0.257469  1 Cl d -2       
 
 Vector   17  Occ=0.000000D+00  E= 1.653423D-01
              MO Center= -7.1D-16, -2.6D-16,  6.8D-16, r^2= 4.8D+00
   Bfn.  Coefficient  Atom+Function         Bfn.  Coefficient  Atom+Function  
  ----- ------------  ---------------      ----- ------------  ---------------
    43      0.711082  1 Cl d  0              41     -0.395151  1 Cl d -2       
    45      0.384150  1 Cl d  2              44      0.314346  1 Cl d  1       
 
 Vector   18  Occ=0.000000D+00  E= 1.690788D-01
              MO Center= -4.2D-15,  1.1D-15,  1.3D-15, r^2= 4.9D+00
   Bfn.  Coefficient  Atom+Function         Bfn.  Coefficient  Atom+Function  
  ----- ------------  ---------------      ----- ------------  ---------------
    44      0.548797  1 Cl d  1              41      0.517388  1 Cl d -2       
    45     -0.501028  1 Cl d  2              43      0.273407  1 Cl d  0       
    42      0.232441  1 Cl d -1       
 
 Vector   19  Occ=0.000000D+00  E= 3.535540D-01
              MO Center=  9.7D-18, -1.9D-15,  6.8D-16, r^2= 6.6D+00
   Bfn.  Coefficient  Atom+Function         Bfn.  Coefficient  Atom+Function  
  ----- ------------  ---------------      ----- ------------  ---------------
    21      1.609786  1 Cl py                20      1.143839  1 Cl px         
    22     -1.026848  1 Cl pz                18     -0.892054  1 Cl py         
    24     -0.767461  1 Cl py                17     -0.633841  1 Cl px         
    19      0.569024  1 Cl pz                23     -0.545331  1 Cl px         
    25      0.489546  1 Cl pz                12     -0.341740  1 Cl py         
 
 Vector   20  Occ=0.000000D+00  E= 3.535543D-01
              MO Center=  6.3D-16, -6.6D-16, -1.0D-15, r^2= 6.6D+00
   Bfn.  Coefficient  Atom+Function         Bfn.  Coefficient  Atom+Function  
  ----- ------------  ---------------      ----- ------------  ---------------
    22      1.781976  1 Cl pz                21      1.310955  1 Cl py         
    19     -0.987467  1 Cl pz                25     -0.849558  1 Cl pz         
    18     -0.726457  1 Cl py                24     -0.624997  1 Cl py         
    13     -0.378291  1 Cl pz                10     -0.285129  1 Cl pz         
    12     -0.278300  1 Cl py                20     -0.245260  1 Cl px         
 
 Vector   21  Occ=0.000000D+00  E= 3.574749D-01
              MO Center= -1.8D-15,  9.0D-16, -5.9D-16, r^2= 6.5D+00
   Bfn.  Coefficient  Atom+Function         Bfn.  Coefficient  Atom+Function  
  ----- ------------  ---------------      ----- ------------  ---------------
    20      1.890969  1 Cl px                17     -1.073854  1 Cl px         
    23     -0.895841  1 Cl px                22      0.849902  1 Cl pz         
    21     -0.801493  1 Cl py                19     -0.482651  1 Cl pz         
    18      0.455168  1 Cl py                11     -0.412272  1 Cl px         
    25     -0.402635  1 Cl pz                24      0.379697  1 Cl py         
 
 Vector   22  Occ=0.000000D+00  E= 4.911693D-01
              MO Center=  3.5D-15,  1.8D-15,  2.3D-15, r^2= 4.5D+00
   Bfn.  Coefficient  Atom+Function         Bfn.  Coefficient  Atom+Function  
  ----- ------------  ---------------      ----- ------------  ---------------
     6      4.205867  1 Cl s                  5     -3.390538  1 Cl s          
     7     -1.698314  1 Cl s                  4      0.585150  1 Cl s          
     2      0.307629  1 Cl s          
 
 Vector   23  Occ=0.000000D+00  E= 4.953245D-01
              MO Center=  8.1D-16,  1.4D-15, -4.1D-16, r^2= 3.1D+00
   Bfn.  Coefficient  Atom+Function         Bfn.  Coefficient  Atom+Function  
  ----- ------------  ---------------      ----- ------------  ---------------
    27      0.982490  1 Cl d -1              42     -0.784625  1 Cl d -1       
    29     -0.427206  1 Cl d  1              44      0.341171  1 Cl d  1       
    30     -0.329636  1 Cl d  2              26     -0.296949  1 Cl d -2       
    45      0.263250  1 Cl d  2              41      0.237146  1 Cl d -2       
    37      0.192593  1 Cl d -1       
 
 Vector   24  Occ=0.000000D+00  E= 4.953245D-01
              MO Center=  2.4D-16, -1.4D-16, -7.1D-16, r^2= 3.1D+00
   Bfn.  Coefficient  Atom+Function         Bfn.  Coefficient  Atom+Function  
  ----- ------------  ---------------      ----- ------------  ---------------
    28      0.857259  1 Cl d  0              43     -0.684614  1 Cl d  0       
    26     -0.485007  1 Cl d -2              30      0.454345  1 Cl d  2       
    41      0.387331  1 Cl d -2              29      0.367362  1 Cl d  1       
    45     -0.362844  1 Cl d  2              44     -0.293378  1 Cl d  1       
    27      0.183097  1 Cl d -1              38      0.168045  1 Cl d  0       
 
 Vector   25  Occ=0.000000D+00  E= 4.993864D-01
              MO Center=  1.3D-15,  2.7D-16,  1.5D-16, r^2= 3.1D+00
   Bfn.  Coefficient  Atom+Function         Bfn.  Coefficient  Atom+Function  
  ----- ------------  ---------------      ----- ------------  ---------------
    30      0.819587  1 Cl d  2              45     -0.645051  1 Cl d  2       
    26      0.522775  1 Cl d -2              27      0.514722  1 Cl d -1       
    41     -0.411437  1 Cl d -2              42     -0.405102  1 Cl d -1       
    28     -0.335866  1 Cl d  0              43      0.264342  1 Cl d  0       
    29      0.203761  1 Cl d  1              44     -0.160360  1 Cl d  1       
 
 Vector   26  Occ=0.000000D+00  E= 4.993870D-01
              MO Center= -1.9D-16, -3.0D-16, -2.0D-16, r^2= 3.1D+00
   Bfn.  Coefficient  Atom+Function         Bfn.  Coefficient  Atom+Function  
  ----- ------------  ---------------      ----- ------------  ---------------
    29      0.753437  1 Cl d  1              28     -0.631018  1 Cl d  0       
    26     -0.614500  1 Cl d -2              44     -0.592987  1 Cl d  1       
    43      0.496635  1 Cl d  0              41      0.483634  1 Cl d -2       
 
 Vector   27  Occ=0.000000D+00  E= 5.061409D-01
              MO Center= -1.1D-15, -1.3D-15,  3.1D-16, r^2= 3.1D+00
   Bfn.  Coefficient  Atom+Function         Bfn.  Coefficient  Atom+Function  
  ----- ------------  ---------------      ----- ------------  ---------------
    29      0.656170  1 Cl d  1              26      0.618926  1 Cl d -2       
    30     -0.598706  1 Cl d  2               6      0.514164  1 Cl s          
    44     -0.511855  1 Cl d  1              41     -0.482796  1 Cl d -2       
    45      0.467037  1 Cl d  2               5     -0.424503  1 Cl s          
    28      0.326871  1 Cl d  0              27      0.278183  1 Cl d -1       
 

   alpha - beta orbital overlaps 
   ----------------------------- 


   alpha      1      2      3      4      5      6      7      8      9     10
    beta      1      2      3      4      5      6      9      7      8     10
 overlap   1.000  1.000  1.000  0.984  0.984  0.999  0.996  1.000  1.000  1.000


   alpha     11     12     13     14     15     16     17     18     19     20
    beta     13     11     12     18     14     15     17     16     21     19
 overlap   0.997  0.995  0.995  0.996  0.996  0.996  0.924  0.924  0.998  0.994


   alpha     21     22     23     24     25     26     27     28     29     30
    beta     20     27     25     26     22     24     23     32     28     29
 overlap   0.994  0.990  0.998  0.998  0.994  0.917  0.917  1.000  0.829  0.829


   alpha     31     32     33     34     35     36     37     38     39     40
    beta     31     30     33     34     39     37     38     42     36     35
 overlap   1.000  1.000  0.989  0.989  0.999  1.000  1.000  0.999  0.944  0.944


   alpha     41     42     43     44     45     46     47     48     49     50
    beta     40     41     47     46     45     44     43     48     49     50
 overlap   1.000  1.000  1.000  0.915  0.915  0.998  0.998  0.986  0.986  0.992


   alpha     51     52     53     54     55     56     57     58     59     60
    beta     51     58     54     55     53     52     56     57     59     62
 overlap   0.992  1.000  0.997  0.997  1.000  1.000  0.995  0.995  1.000  0.999


   alpha     61     62     63     64     65     66     67     68     69     70
    beta     60     61     64     63     71     69     70     66     65     80
 overlap   0.999  0.999  0.969  0.969  1.000  0.999  0.999  0.997  0.997  0.999


   alpha     71     72     73     74     75     76     77     78     79     80
    beta     67     68     78     79     75     74     72     73     76     77
 overlap   0.998  0.998  0.979  0.979  0.985  0.985  0.999  0.999  1.000  1.000


   alpha     81     82     83     84
    beta     81     82     83     84
 overlap   1.000  1.000  1.000  1.000

     --------------------------
     Expectation value of S2:  
     --------------------------
      <S2> =      0.7533 (Exact =     0.7500)
 

 Task  times  cpu:        2.9s     wall:        3.0s
 
 
                                NWChem Input Module
                                -------------------
 
 
 Summary of allocated global arrays
-----------------------------------
  No active global arrays



                         GA Statistics for process    0
                         ------------------------------

       create   destroy   get      put      acc     scatter   gather  read&inc
calls:  202      202     1579     1429      193        0        0      173     
number of processes/call 1.29e+00 1.15e+00 3.22e+00 0.00e+00 0.00e+00
bytes total:             2.56e+07 8.99e+06 1.09e+07 0.00e+00 0.00e+00 1.38e+03
bytes remote:            2.05e+06 5.09e+05 2.25e+06 0.00e+00 0.00e+00 0.00e+00
Max memory consumed for GA by this process: 3556224 bytes
 
MA_summarize_allocated_blocks: starting scan ...
MA_summarize_allocated_blocks: scan completed: 0 heap blocks, 0 stack blocks
MA usage statistics:

	allocation statistics:
					      heap	     stack
					      ----	     -----
	current number of blocks	         0	         0
	maximum number of blocks	        22	        52
	current total bytes		         0	         0
	maximum total bytes		    322848	  89023016
	maximum total K-bytes		       323	     89024
	maximum total M-bytes		         1	        90
 
 
                                     CITATION
                                     --------
                Please cite the following reference when publishing
                           results obtained with NWChem:
 
                 M. Valiev, E.J. Bylaska, N. Govind, K. Kowalski,
              T.P. Straatsma, H.J.J. van Dam, D. Wang, J. Nieplocha,
                        E. Apra, T.L. Windus, W.A. de Jong
                 "NWChem: a comprehensive and scalable open-source
                  solution for large scale molecular simulations"
                      Comput. Phys. Commun. 181, 1477 (2010)
                           doi:10.1016/j.cpc.2010.04.018
 
                                      AUTHORS
                                      -------
          E. Apra, E. J. Bylaska, W. A. de Jong, N. Govind, K. Kowalski,
       T. P. Straatsma, M. Valiev, H. J. J. van Dam, D. Wang, T. L. Windus,
        J. Hammond, J. Autschbach, K. Bhaskaran-Nair, J. Brabec, K. Lopata,
       S. A. Fischer, S. Krishnamoorthy, W. Ma, M. Klemm, O. Villa, Y. Chen,
    V. Anisimov, F. Aquino, S. Hirata, M. T. Hackler, T. Risthaus, M. Malagoli,
       A. Marenich, A. Otero-de-la-Roza, J. Mullin, P. Nichols, R. Peverati,
     J. Pittner, Y. Zhao, P.-D. Fan, A. Fonari, M. Williamson, R. J. Harrison,
       J. R. Rehr, M. Dupuis, D. Silverstein, D. M. A. Smith, J. Nieplocha,
        V. Tipparaju, M. Krishnan, B. E. Van Kuiken, A. Vazquez-Mayagoitia,
        L. Jensen, M. Swart, Q. Wu, T. Van Voorhis, A. A. Auer, M. Nooijen,
      L. D. Crosby, E. Brown, G. Cisneros, G. I. Fann, H. Fruchtl, J. Garza,
        K. Hirao, R. A. Kendall, J. A. Nichols, K. Tsemekhman, K. Wolinski,
     J. Anchell, D. E. Bernholdt, P. Borowski, T. Clark, D. Clerc, H. Dachsel,
   M. J. O. Deegan, K. Dyall, D. Elwood, E. Glendening, M. Gutowski, A. C. Hess,
         J. Jaffe, B. G. Johnson, J. Ju, R. Kobayashi, R. Kutteh, Z. Lin,
   R. Littlefield, X. Long, B. Meng, T. Nakajima, S. Niu, L. Pollack, M. Rosing,
   K. Glaesemann, G. Sandrone, M. Stave, H. Taylor, G. Thomas, J. H. van Lenthe,
                               A. T. Wong, Z. Zhang.

 Total times  cpu:        2.9s     wall:        3.1s
