MADNESS runtime initialized with 10 threads in the pool and affinity -1 -1 -1

--------------------------------------------
   MADNESS 0.10.1 multiresolution suite
--------------------------------------------

   number of processors ... 2
    processor frequency ... 2.095038e+09
            host system ... linux-gnu
          configured by ... bsundahl
          configured on ... login
          configured at ... Mon May 21 11:22:55 EDT 2018
                    CXX ... mpicxx
               CXXFLAGS ...  -O3 -Wall -Wno-strict-aliasing -Wno-deprecated -Wno-unused-local-typedefs  -ffast-math -march=native
             tuning for ... default
                    MPI ... multiple
 multi-threaded runtime ... Intel TBB
                   BLAS ... Intel MKL 12601 21766 MFLOP/s
               compiled ... 11:23:28  on  May 21 2018
input filename:  Mg.mdns

Atomic units being used to read input coordinates

Cubic point group

 The point group is D2h

Construct XC Functional from LIBXC Library

input line was:  b3lyp 
 1.000 hyb_gga_xc_b3lyp 
 0.200 HF exchange 

screening parameters
 rhotol, rhomin 1.000000e-07 0.000000e+00
         ggatol 1.000000e-04
polarized  false 


Solving NDIM= 3  with thresh 1.000000e-05     k 8    conv 1.000000e-04 




 MADNESS Hartree-Fock and Density Functional Theory Program
 ----------------------------------------------------------



 geometry
   eprec 1.0e-06
   units atomic
   Mg            0.00000000           0.00000000           0.00000000
 end


             restart  false
    restart from AOs  false
 number of processes  2
   no. of io servers  1
   vnuc load bal fac  12
      load bal parts  2
     simulation cube  -5.000000e+01 5.000000e+01
        total charge  0.000000e+00
            smearing  0.000000e+00
 number of electrons  6 6
  number of orbitals  6 6
     spin restricted  true
       xc functional   b3lyp 
          xc library  libxc
 initial guess basis  6-31g
 max krylov subspace  5
    compute protocol  [1.000000e-04, 1.000000e-06]
  energy convergence  1.000000e-05
 density convergence  1.000000e-04
    maximum rotation  2.500000e-01
    polynomial order  -1
       truncate mode  1
  maximum iterations  40
 Convergence criteria are density delta & BSH residual.
        plot density  false
        plot coulomb  false
        plot orbital  0 -1
        plot npoints  101
        plot  volume  default
  canonical orbitals 
 psp or all electron  all electron
timer:           initialize     0.42s     0.42s

Solving NDIM= 3  with thresh 1.000000e-05     k 8    conv 1.000000e-04 

timer:     Project vnuclear     0.17s     0.17s
data distribution info before redistributing
   total:  20891
   procs: 10790 10101 
data distribution info after redistributing
   total:  20891
   procs: 10287 10604 

Solving NDIM= 3  with thresh 1.000000e-04     k 6    conv 1.000000e-04 


Solving NDIM= 3  with thresh 1.000000e-04     k 6    conv 1.000000e-04 

timer:     Project vnuclear     0.17s     0.17s
timer:     project ao basis     0.19s     0.19s
guess dens trace 1.199997e+01
timer:        guess density     0.21s     0.21s
data distribution info before redistributing
   total:  49593
   procs: 24629 24964 
data distribution info after redistributing
   total:  49593
   procs: 24629 24964 
timer:        guess loadbal     0.25s     0.25s
timer:   guess Coulomb potn     0.42s     0.42s
timer:       guess lda potn     0.10s     0.10s
data distribution info before redistributing
   total:  53497
   procs: 26709 26788 
data distribution info after redistributing
   total:  53497
   procs: 26717 26780 
timer:        guess loadbal     0.33s     0.33s
timer:        guess overlap     0.01s     0.01s
timer:    KEmat reconstruct     0.00s     0.00s
timer:  KEmat differentiate     0.13s     0.13s
timer:       KEmat compress     0.03s     0.03s
timer: KEmat inner products     0.05s     0.05s
timer:     guess Kinet potn     0.22s     0.22s
timer:           guess fock     0.19s     0.19s
timer:      guess eigen sol     0.00s     0.00s
grouping alpha orbitals into sets
set  0    0  -  0
set  1    1  -  4
set  2    5  -  5
timer: guess orbital groupi     0.01s     0.01s
timer:     project ao basis     0.18s     0.18s

Iteration 0 at time 3.3s

timer:       Make densities     0.01s     0.01s
data distribution info before redistributing
   total:  51663
   procs: 25811 25852 
data distribution info after redistributing
   total:  51663
   procs: 25811 25852 
timer:       Load balancing     0.30s     0.30s
timer:       Nuclear energy     0.01s     0.01s
timer:              Coulomb     0.15s     0.15s
timer:        DFT potential     0.35s     0.35s
timer:                V*psi     0.10s     0.10s
timer:          HF exchange     1.22s     1.22s
timer:        Truncate Vpsi     0.03s     0.03s
timer:            PE matrix     0.02s     0.02s
timer:   KE compute loadbal     0.00s     0.00s
timer:            KE redist     0.03s     0.03s
timer:    KEmat reconstruct     0.01s     0.01s
timer:  KEmat differentiate     0.12s     0.12s
timer:       KEmat compress     0.03s     0.03s
timer: KEmat inner products     0.04s     0.04s
timer:            KE matrix     0.21s     0.21s
timer: Make fock matrix res     0.00s     0.00s
timer: Diagonalization Fock     0.00s     0.00s
timer: Diagonalization rest     0.06s     0.06s

              kinetic     199.28387624
         nonlocal psp       0.00000000
   nuclear attraction    -478.62521866
              coulomb      95.71546243
                  PCM       0.00000000
 exchange-correlation     -16.45145869
    nuclear-repulsion       0.00000000
                total    -200.07733868

timer: Compute residual stu     0.02s     0.02s
entering apply
timer:            Apply BSH     0.65s     0.65s
timer:     Truncate new psi     0.03s     0.03s
residuals [4.557446e-03, 7.244194e-03, 1.067584e-02, 1.067443e-02, 1.067430e-02, 1.399551e-02]
BSH residual: rms 1.009109e-02    max 1.399551e-02
timer:         BSH residual     0.01s     0.01s
timer: Update subspace stuf     0.01s     0.01s
Subspace solution [*]   1.00000000

timer:   Subspace transform     0.00s     0.00s
Norm of vector changes alpha : rms 1.009109e-02    max 1.399551e-02
ORTHOG2a: maxq trantol 2.944063e-03 1.666667e-06
timer:       Orthonormalize     0.02s     0.02s

Iteration 1 at time 6.7s

timer:       Make densities     0.01s     0.01s
data distribution info before redistributing
   total:  59844
   procs: 29908 29936 
data distribution info after redistributing
   total:  59844
   procs: 29908 29936 
timer:       Load balancing     0.32s     0.32s
delta rho 2.021388e-02 2.021388e-02 residuals 1.399551e-02 0.000000e+00
timer:       Nuclear energy     0.01s     0.01s
timer:              Coulomb     0.14s     0.14s
timer:        DFT potential     0.36s     0.36s
timer:                V*psi     0.10s     0.10s
timer:          HF exchange     1.33s     1.33s
timer:        Truncate Vpsi     0.02s     0.02s
timer:            PE matrix     0.02s     0.02s
timer:   KE compute loadbal     0.00s     0.00s
timer:            KE redist     0.03s     0.03s
timer:    KEmat reconstruct     0.01s     0.01s
timer:  KEmat differentiate     0.13s     0.13s
timer:       KEmat compress     0.03s     0.03s
timer: KEmat inner products     0.05s     0.05s
timer:            KE matrix     0.22s     0.22s
timer: Make fock matrix res     0.00s     0.00s
timer: Diagonalization Fock     0.00s     0.00s
timer: Diagonalization rest     0.05s     0.05s

              kinetic     199.42121732
         nonlocal psp       0.00000000
   nuclear attraction    -478.87050579
              coulomb      95.80137315
                  PCM       0.00000000
 exchange-correlation     -16.45423842
    nuclear-repulsion       0.00000000
                total    -200.10215374

timer: Compute residual stu     0.02s     0.02s
entering apply
timer:            Apply BSH     0.69s     0.69s
timer:     Truncate new psi     0.03s     0.03s
residuals [4.426395e-04, 1.405352e-03, 2.018891e-03, 2.018277e-03, 2.018439e-03, 4.501422e-03]
BSH residual: rms 2.403373e-03    max 4.501422e-03
timer:         BSH residual     0.01s     0.01s
timer: Update subspace stuf     0.01s     0.01s
Subspace solution [*]  -0.17598238   1.17598238

timer:   Subspace transform     0.00s     0.00s
Norm of vector changes alpha : rms 2.555194e-03    max 4.776194e-03
ORTHOG2a: maxq trantol 6.459591e-04 1.666667e-06
timer:       Orthonormalize     0.02s     0.02s

Iteration 2 at time 10.3s

timer:       Make densities     0.01s     0.01s
delta rho 7.754146e-03 7.754146e-03 residuals 4.501422e-03 0.000000e+00
timer:       Nuclear energy     0.00s     0.00s
timer:              Coulomb     0.11s     0.11s
timer:        DFT potential     0.34s     0.34s
timer:                V*psi     0.10s     0.10s
timer:          HF exchange     1.04s     1.04s
timer:        Truncate Vpsi     0.02s     0.02s
timer:            PE matrix     0.02s     0.02s
timer:   KE compute loadbal     0.00s     0.00s
timer:            KE redist     0.03s     0.03s
timer:    KEmat reconstruct     0.01s     0.01s
timer:  KEmat differentiate     0.11s     0.11s
timer:       KEmat compress     0.03s     0.03s
timer: KEmat inner products     0.04s     0.04s
timer:            KE matrix     0.20s     0.20s
timer: Make fock matrix res     0.00s     0.00s
timer: Diagonalization Fock     0.00s     0.00s
timer: Diagonalization rest     0.04s     0.04s

              kinetic     199.58864323
         nonlocal psp       0.00000000
   nuclear attraction    -479.10055323
              coulomb      95.86935645
                  PCM       0.00000000
 exchange-correlation     -16.46046422
    nuclear-repulsion       0.00000000
                total    -200.10301776

timer: Compute residual stu     0.02s     0.02s
entering apply
timer:            Apply BSH     0.75s     0.75s
timer:     Truncate new psi     0.04s     0.04s
residuals [8.420069e-05, 5.174643e-04, 6.952032e-04, 6.950151e-04, 6.952917e-04, 1.026583e-03]
BSH residual: rms 6.805043e-04    max 1.026583e-03
timer:         BSH residual     0.01s     0.01s
timer: Update subspace stuf     0.02s     0.02s
Subspace solution [*]   0.04096849  -0.49048523   1.44951674

timer:   Subspace transform     0.01s     0.01s
Norm of vector changes alpha : rms 8.449864e-04    max 1.373026e-03
ORTHOG2a: maxq trantol 1.030072e-04 1.666667e-06
timer:       Orthonormalize     0.02s     0.02s

Iteration 3 at time 13.3s

timer:       Make densities     0.01s     0.01s
delta rho 3.423679e-03 3.423679e-03 residuals 1.026583e-03 0.000000e+00
timer:       Nuclear energy     0.00s     0.00s
timer:              Coulomb     0.15s     0.15s
timer:        DFT potential     0.35s     0.35s
timer:                V*psi     0.10s     0.10s
timer:          HF exchange     1.21s     1.21s
timer:        Truncate Vpsi     0.02s     0.02s
timer:            PE matrix     0.02s     0.02s
timer:   KE compute loadbal     0.00s     0.00s
timer:            KE redist     0.03s     0.03s
timer:    KEmat reconstruct     0.01s     0.01s
timer:  KEmat differentiate     0.11s     0.11s
timer:       KEmat compress     0.03s     0.03s
timer: KEmat inner products     0.04s     0.04s
timer:            KE matrix     0.20s     0.20s
timer: Make fock matrix res     0.00s     0.00s
timer: Diagonalization Fock     0.00s     0.00s
timer: Diagonalization rest     0.04s     0.04s

              kinetic     199.66395589
         nonlocal psp       0.00000000
   nuclear attraction    -479.19991818
              coulomb      95.89598804
                  PCM       0.00000000
 exchange-correlation     -16.46317191
    nuclear-repulsion       0.00000000
                total    -200.10314616

timer: Compute residual stu     0.02s     0.02s
entering apply
timer:            Apply BSH     0.74s     0.74s
timer:     Truncate new psi     0.03s     0.03s
residuals [7.132624e-05, 1.268171e-04, 1.466555e-04, 1.464935e-04, 1.468329e-04, 7.150399e-05]
BSH residual: rms 1.230250e-04    max 1.468329e-04
timer:         BSH residual     0.01s     0.01s
timer: Update subspace stuf     0.02s     0.02s
Subspace solution [*]  -0.00833309   0.11821911  -0.41235171   1.30246569

timer:   Subspace transform     0.01s     0.01s
Norm of vector changes alpha : rms 1.337474e-04    max 1.585596e-04
ORTHOG2a: maxq trantol 5.342687e-05 1.666667e-06
timer:       Orthonormalize     0.02s     0.02s

Iteration 4 at time 16.4s

timer:       Make densities     0.01s     0.01s
delta rho 6.802311e-04 6.802311e-04 residuals 1.468329e-04 0.000000e+00
timer:       Nuclear energy     0.00s     0.00s
timer:              Coulomb     0.13s     0.13s
timer:        DFT potential     0.35s     0.35s
timer:                V*psi     0.10s     0.10s
timer:          HF exchange     1.22s     1.22s
timer:        Truncate Vpsi     0.02s     0.02s
timer:            PE matrix     0.02s     0.02s
timer:   KE compute loadbal     0.00s     0.00s
timer:            KE redist     0.03s     0.03s
timer:    KEmat reconstruct     0.01s     0.01s
timer:  KEmat differentiate     0.12s     0.12s
timer:       KEmat compress     0.03s     0.03s
timer: KEmat inner products     0.04s     0.04s
timer:            KE matrix     0.21s     0.21s
timer: Make fock matrix res     0.00s     0.00s
timer: Diagonalization Fock     0.00s     0.00s
timer: Diagonalization rest     0.04s     0.04s

              kinetic     199.67466595
         nonlocal psp       0.00000000
   nuclear attraction    -479.21427403
              coulomb      95.90012643
                  PCM       0.00000000
 exchange-correlation     -16.46367026
    nuclear-repulsion       0.00000000
                total    -200.10315191

timer: Compute residual stu     0.02s     0.02s
entering apply
timer:            Apply BSH     0.62s     0.62s
timer:     Truncate new psi     0.03s     0.03s
residuals [4.316316e-05, 8.083852e-05, 4.416065e-05, 4.422965e-05, 4.449323e-05, 6.444464e-05]
BSH residual: rms 5.543331e-05    max 8.083852e-05
timer:         BSH residual     0.01s     0.01s
timer: Update subspace stuf     0.03s     0.03s
Subspace solution [*]   0.00056261  -0.01130640   0.04641051  -0.50789249   1.47222577

timer:   Subspace transform     0.01s     0.01s
Norm of vector changes alpha : rms 6.348185e-05    max 8.738033e-05
ORTHOG2a: maxq trantol 4.249399e-05 1.666667e-06
timer:       Orthonormalize     0.02s     0.02s

Iteration 5 at time 19.5s

timer:       Make densities     0.01s     0.01s
delta rho 2.872466e-04 2.872466e-04 residuals 8.083852e-05 0.000000e+00
timer:       Nuclear energy     0.00s     0.00s
timer:              Coulomb     0.14s     0.14s
timer:        DFT potential     0.35s     0.35s
timer:                V*psi     0.10s     0.10s
timer:          HF exchange     1.15s     1.15s
timer:        Truncate Vpsi     0.02s     0.02s
timer:            PE matrix     0.02s     0.02s
timer:   KE compute loadbal     0.00s     0.00s
timer:            KE redist     0.03s     0.03s
timer:    KEmat reconstruct     0.01s     0.01s
timer:  KEmat differentiate     0.11s     0.11s
timer:       KEmat compress     0.03s     0.03s
timer: KEmat inner products     0.04s     0.04s
timer:            KE matrix     0.20s     0.20s
timer: Make fock matrix res     0.00s     0.00s
timer: Diagonalization Fock     0.00s     0.00s
timer: Diagonalization rest     0.04s     0.04s

              kinetic     199.67762333
         nonlocal psp       0.00000000
   nuclear attraction    -479.21843087
              coulomb      95.90147061
                  PCM       0.00000000
 exchange-correlation     -16.46381571
    nuclear-repulsion       0.00000000
                total    -200.10315264

timer: Compute residual stu     0.02s     0.02s
entering apply
timer:            Apply BSH     0.72s     0.72s
timer:     Truncate new psi     0.03s     0.03s
residuals [3.657783e-05, 7.061759e-05, 3.573662e-06, 3.534095e-06, 3.801119e-06, 3.780071e-05]
BSH residual: rms 3.604022e-05    max 7.061759e-05
timer:         BSH residual     0.01s     0.01s
timer: Update subspace stuf     0.03s     0.03s
Subspace solution [*]  -0.00116238   0.00654975   0.10779625  -0.46374119   1.35055757

timer:   Subspace transform     0.01s     0.01s
Norm of vector changes alpha : rms 3.545738e-05    max 7.008095e-05
ORTHOG2a: maxq trantol 3.415511e-05 1.666667e-06
timer:       Orthonormalize     0.03s     0.03s

Iteration 6 at time 22.6s

timer:       Make densities     0.01s     0.01s
delta rho 3.067643e-05 3.067643e-05 residuals 7.061759e-05 0.000000e+00
timer:       Nuclear energy     0.01s     0.01s
timer:              Coulomb     0.16s     0.16s
timer:        DFT potential     0.35s     0.35s
timer:                V*psi     0.10s     0.10s
timer:          HF exchange     1.13s     1.13s
timer:        Truncate Vpsi     0.02s     0.02s
timer:            PE matrix     0.02s     0.02s
timer:   KE compute loadbal     0.00s     0.00s
timer:            KE redist     0.03s     0.03s
timer:    KEmat reconstruct     0.01s     0.01s
timer:  KEmat differentiate     0.12s     0.12s
timer:       KEmat compress     0.03s     0.03s
timer: KEmat inner products     0.04s     0.04s
timer:            KE matrix     0.20s     0.20s
timer: Make fock matrix res     0.00s     0.00s
timer: Diagonalization Fock     0.00s     0.00s
timer: Diagonalization rest     0.04s     0.04s

              kinetic     199.67723911
         nonlocal psp       0.00000000
   nuclear attraction    -479.21804562
              coulomb      95.90146095
                  PCM       0.00000000
 exchange-correlation     -16.46380712
    nuclear-repulsion       0.00000000
                total    -200.10315269


Converged!

timer:              Overlap     0.01s     0.01s
timer:      focka eigen sol     0.00s     0.00s
timer:        Transform MOs     0.01s     0.01s
 
alpha eigenvalues
[*] -46.78950355  -3.09459713  -1.83797134  -1.83796979  -1.83796617  -0.19444757


 Dipole Moment (a.u.)
 -----------

     x:  -8.409217e-11
     y:  -8.835513e-11
     z:  -8.433064e-11
 Total Dipole Moment:  1.482895e-10 

timer:               dipole     0.01s     0.01s
Orbitals are eigenvectors - energies are eigenvalues

Analysis of alpha MO vectors
timer:      Analyze vectors     0.18s     0.18s
timer: Compute eigen gesv a     0.00s     0.00s
  MO   0 : occ=1.00 : energy= -46.78950355 : center=(-0.00,-0.00,-0.00) : radius=0.15
           Mg(0)   s( 0)-0.997  
  MO   1 : occ=1.00 : energy=  -3.09459713 : center=(-0.00,-0.00,-0.00) : radius=0.77
           Mg(0)   s( 1)-1.027    Mg(0)   s( 0) 0.255  
  MO   2 : occ=1.00 : energy=  -1.83797134 : center=(0.00,0.00,-0.00) : radius=0.78
           Mg(0)  px( 2)-0.948    Mg(0)  py( 3)-0.294  
  MO   3 : occ=1.00 : energy=  -1.83796979 : center=(-0.00,0.00,-0.00) : radius=0.78
           Mg(0)  py( 3)-0.910    Mg(0)  px( 2) 0.284    Mg(0)  pz( 4) 0.276  
  MO   4 : occ=1.00 : energy=  -1.83796617 : center=(-0.00,0.00,0.00) : radius=0.78
           Mg(0)  pz( 4) 0.953    Mg(0)  py( 3) 0.266  
  MO   5 : occ=1.00 : energy=  -0.19444757 : center=(-0.00,-0.00,-0.00) : radius=3.41
           Mg(0)   s( 5)-0.578    Mg(0)   s( 9)-0.488    Mg(0)   s( 1) 0.258  

Solving NDIM= 3  with thresh 1.000000e-06     k 8    conv 1.000000e-04 

timer:     Project vnuclear     0.23s     0.23s
timer:     project ao basis     0.25s     0.25s

Iteration 0 at time 25.8s

timer:       Make densities     0.01s     0.01s
data distribution info before redistributing
   total:  52069
   procs: 26033 26036 
data distribution info after redistributing
   total:  52069
   procs: 26033 26036 
timer:       Load balancing     0.27s     0.27s
timer:       Nuclear energy     0.03s     0.03s
timer:              Coulomb     0.47s     0.47s
timer:        DFT potential     0.54s     0.54s
timer:                V*psi     0.17s     0.17s
timer:          HF exchange     2.28s     2.28s
timer:        Truncate Vpsi     0.04s     0.04s
timer:            PE matrix     0.02s     0.02s
timer:   KE compute loadbal     0.00s     0.00s
timer:            KE redist     0.03s     0.03s
timer:    KEmat reconstruct     0.01s     0.01s
timer:  KEmat differentiate     0.14s     0.14s
timer:       KEmat compress     0.04s     0.04s
timer: KEmat inner products     0.05s     0.05s
timer:            KE matrix     0.24s     0.24s
timer: Make fock matrix res     0.00s     0.00s
timer: Diagonalization Fock     0.00s     0.00s
timer: Diagonalization rest     0.09s     0.09s

              kinetic     199.67711198
         nonlocal psp       0.00000000
   nuclear attraction    -479.21784186
              coulomb      95.90137200
                  PCM       0.00000000
 exchange-correlation     -16.46379919
    nuclear-repulsion       0.00000000
                total    -200.10315707

timer: Compute residual stu     0.04s     0.04s
entering apply
timer:            Apply BSH     2.78s     2.78s
timer:     Truncate new psi     0.09s     0.09s
residuals [1.732534e-04, 1.852852e-04, 2.005136e-04, 2.001642e-04, 2.002809e-04, 2.632700e-04]
BSH residual: rms 2.057678e-04    max 2.632700e-04
timer:         BSH residual     0.02s     0.02s
timer: Update subspace stuf     0.00s     0.00s
Subspace solution [*]   1.00000000

timer:   Subspace transform     0.01s     0.01s
Norm of vector changes alpha : rms 2.057678e-04    max 2.632700e-04
ORTHOG2a: maxq trantol 7.200531e-06 1.666667e-08
timer:       Orthonormalize     0.03s     0.03s

Iteration 1 at time 33.2s

timer:       Make densities     0.02s     0.02s
data distribution info before redistributing
   total:  62916
   procs: 31460 31456 
data distribution info after redistributing
   total:  62916
   procs: 31420 31496 
timer:       Load balancing     0.33s     0.33s
delta rho 2.573844e-04 2.573844e-04 residuals 2.632700e-04 0.000000e+00
timer:       Nuclear energy     0.01s     0.01s
timer:              Coulomb     0.46s     0.46s
timer:        DFT potential     0.91s     0.91s
timer:                V*psi     0.20s     0.20s
timer:          HF exchange     2.61s     2.61s
timer:        Truncate Vpsi     0.05s     0.05s
timer:            PE matrix     0.02s     0.02s
timer:   KE compute loadbal     0.01s     0.01s
timer:            KE redist     0.03s     0.03s
timer:    KEmat reconstruct     0.01s     0.01s
timer:  KEmat differentiate     0.20s     0.20s
timer:       KEmat compress     0.06s     0.06s
timer: KEmat inner products     0.05s     0.05s
timer:            KE matrix     0.33s     0.33s
timer: Make fock matrix res     0.00s     0.00s
timer: Diagonalization Fock     0.00s     0.00s
timer: Diagonalization rest     0.13s     0.13s

              kinetic     199.67214830
         nonlocal psp       0.00000000
   nuclear attraction    -479.21188315
              coulomb      95.89975963
                  PCM       0.00000000
 exchange-correlation     -16.46356644
    nuclear-repulsion       0.00000000
                total    -200.10354166

timer: Compute residual stu     0.06s     0.06s
entering apply
timer:            Apply BSH     4.99s     4.99s
timer:     Truncate new psi     0.15s     0.15s
residuals [9.805963e-06, 1.390756e-05, 1.439468e-05, 1.435045e-05, 1.438029e-05, 3.384486e-05]
BSH residual: rms 1.850670e-05    max 3.384486e-05
timer:         BSH residual     0.02s     0.02s
timer: Update subspace stuf     0.01s     0.01s
Subspace solution [*]  -0.06011584   1.06011584

timer:   Subspace transform     0.01s     0.01s
Norm of vector changes alpha : rms 1.988496e-05    max 3.670763e-05
ORTHOG2a: maxq trantol 3.078273e-06 1.666667e-08
timer:       Orthonormalize     0.03s     0.03s

Iteration 2 at time 43.9s

timer:       Make densities     0.02s     0.02s
delta rho 2.303712e-05 2.303712e-05 residuals 3.384486e-05 0.000000e+00
timer:       Nuclear energy     0.01s     0.01s
timer:              Coulomb     0.32s     0.32s
timer:        DFT potential     0.67s     0.67s
timer:                V*psi     0.14s     0.14s
timer:          HF exchange     2.23s     2.23s
timer:        Truncate Vpsi     0.02s     0.02s
timer:            PE matrix     0.02s     0.02s
timer:   KE compute loadbal     0.00s     0.00s
timer:            KE redist     0.04s     0.04s
timer:    KEmat reconstruct     0.01s     0.01s
timer:  KEmat differentiate     0.14s     0.14s
timer:       KEmat compress     0.04s     0.04s
timer: KEmat inner products     0.05s     0.05s
timer:            KE matrix     0.24s     0.24s
timer: Make fock matrix res     0.00s     0.00s
timer: Diagonalization Fock     0.00s     0.00s
timer: Diagonalization rest     0.07s     0.07s

              kinetic     199.67256344
         nonlocal psp       0.00000000
   nuclear attraction    -479.21268046
              coulomb      95.90018756
                  PCM       0.00000000
 exchange-correlation     -16.46361303
    nuclear-repulsion       0.00000000
                total    -200.10354249


Converged!

timer:              Overlap     0.01s     0.01s
timer:      focka eigen sol     0.00s     0.00s
timer:        Transform MOs     0.02s     0.02s
 
alpha eigenvalues
[*] -46.78982614  -3.09471793  -1.83806875  -1.83806849  -1.83806843  -0.19449101


 Dipole Moment (a.u.)
 -----------

     x:  -7.534952e-10
     y:  -7.753139e-10
     z:  -7.439066e-10
 Total Dipole Moment:  1.312350e-09 

timer:               dipole     0.01s     0.01s
Orbitals are eigenvectors - energies are eigenvalues

Analysis of alpha MO vectors
timer:      Analyze vectors     0.27s     0.27s
timer: Compute eigen gesv a     0.00s     0.00s
  MO   0 : occ=1.00 : energy= -46.78982614 : center=(-0.00,-0.00,-0.00) : radius=0.15
           Mg(0)   s( 0) 0.997  
  MO   1 : occ=1.00 : energy=  -3.09471793 : center=(-0.00,-0.00,-0.00) : radius=0.77
           Mg(0)   s( 1)-1.027    Mg(0)   s( 0) 0.255  
  MO   2 : occ=1.00 : energy=  -1.83806875 : center=(0.00,0.00,-0.00) : radius=0.78
           Mg(0)  pz( 4) 0.748    Mg(0)  py( 3)-0.590    Mg(0)  px( 2)-0.278  
  MO   3 : occ=1.00 : energy=  -1.83806849 : center=(0.00,0.00,0.00) : radius=0.78
           Mg(0)  px( 2) 0.751    Mg(0)  pz( 4) 0.551    Mg(0)  py( 3) 0.344  
  MO   4 : occ=1.00 : energy=  -1.83806843 : center=(-0.00,0.00,0.00) : radius=0.78
           Mg(0)  py( 3)-0.720    Mg(0)  px( 2) 0.586    Mg(0)  pz( 4)-0.350  
  MO   5 : occ=1.00 : energy=  -0.19449101 : center=(-0.00,-0.00,-0.00) : radius=3.41
           Mg(0)   s( 5)-0.578    Mg(0)   s( 9)-0.488    Mg(0)   s( 1) 0.258  
timer:             plotting     0.00s     0.00s

    Parallel environment
    --------------------
                  #nodes    2
       #threads per node    10+main+server = 12
          #total threads    24

  RMI message statistics (min / avg / max)
  ----------------------
   #messages in server q    6.00e+00 / 6.00e+00 / 6.00e+00
 #messages sent per node    4.42e+05 / 4.52e+05 / 4.63e+05
    #bytes sent per node    3.52e+09 / 3.53e+09 / 3.54e+09
 #messages recv per node    4.42e+05 / 4.52e+05 / 4.63e+05
    #bytes recv per node    3.52e+09 / 3.53e+09 / 3.54e+09
        #msgs systemwide    9.05e+05
       #bytes systemwide    7.06e+09

  Thread pool statistics (min / avg / max)
  ----------------------
         #tasks per node    0.00e+00 / 0.00e+00 / 0.00e+00
     #max q len per node    0.00e+00 / 0.00e+00 / 0.00e+00
  #hi-pri tasks per node    0.00e+00 / 0.00e+00 / 0.00e+00

         Total wall time    48.4s
         Total  cpu time    48.4s

