MADNESS runtime initialized with 27 threads in the pool and affinity -1 -1 -1

--------------------------------------------
   MADNESS 0.10.1 multiresolution suite
--------------------------------------------

   number of processors ... 1
    processor frequency ... 1.995369e+09
            host system ... linux-gnu
          configured by ... egentles
          configured on ... sn093
          configured at ... Tue Jul 11 16:06:48 EDT 2017
                    CXX ... mpicxx
               CXXFLAGS ... -g -std=c++14 -O3 -Wall -Wno-strict-aliasing -Wno-deprecated -Wno-unused-local-typedefs  -ffast-math -march=native
             tuning for ... default
                    MPI ... multiple
 multi-threaded runtime ... Intel TBB
                   BLAS ... Intel MKL 14256 14256 MFLOP/s
               compiled ... 08:44:05  on  Jul 29 2017
input filename:  /gpfs/home/egentles/auto_test_mad/geometries_LDA_boys/acetamide.mdns

Angstrom being used to read input coordinates (1 Bohr = 1.88972613 Angstrom)

Abelian pointgroup

 The point group is C1

Construct XC Functional from LIBXC Library

input line was:  LDA
 1.000 lda_x 
 1.000 lda_c_vwn 

screening parameters
 rhotol, rhomin 1.000000e-07 0.000000e+00
         ggatol 1.000000e-04
polarized  false 


Solving NDIM= 3  with thresh 1.000000e-05     k 8    conv 1.000000e-04 




 MADNESS Hartree-Fock and Density Functional Theory Program
 ----------------------------------------------------------



 geometry
   eprec 1.0e-04
   units atomic
   C             0.00243090          -0.62406668           2.58397655
   C            -0.00358095           0.29333320          -0.13605255
   N            -0.06159091          -1.59026136          -1.93875071
   O             0.01080371           2.52777175          -0.70399994
   H            -0.11567825           1.03618609           3.90345949
   H            -1.65921838          -1.90492598           2.91497954
   H             1.78197374          -1.71749362           2.97039315
   H             0.13420792          -1.07220266          -3.78895538
   H             0.21032197          -3.44750743          -1.48416632
 end


             restart  false
    restart from AOs  false
 number of processes  1
   no. of io servers  1
   vnuc load bal fac  12
      load bal parts  2
     simulation cube  -5.390346e+01 5.390346e+01
        total charge  0.000000e+00
            smearing  0.000000e+00
 number of electrons  16 16
  number of orbitals  16 16
     spin restricted  true
       xc functional   LDA
          xc library  libxc
 initial guess basis  6-31g
 max krylov subspace  5
    compute protocol  [1.000000e-04, 1.000000e-06]
  energy convergence  1.000000e-05
 density convergence  1.000000e-04
    maximum rotation  2.500000e-01
    polynomial order  -1
       truncate mode  1
  maximum iterations  20
 Convergence criteria are density delta & BSH residual.
        plot density  false
        plot coulomb  false
        plot orbital  0 -1
        plot npoints  101
        plot  volume  default
  localized orbitals  boys
 psp or all electron  all electron
timer:           initialize     0.43s     0.43s

Solving NDIM= 3  with thresh 1.000000e-04     k 6    conv 1.000000e-04 


Solving NDIM= 3  with thresh 1.000000e-04     k 6    conv 1.000000e-04 

timer:     Project vnuclear     0.41s     0.41s
timer:     project ao basis     0.39s     0.39s
guess dens trace 3.200011e+01
timer:        guess density     0.45s     0.45s
timer:   guess Coulomb potn     0.35s     0.35s
timer:       guess lda potn     0.19s     0.19s
timer:        guess overlap     0.01s     0.01s
timer:    KEmat reconstruct     0.01s     0.01s
timer:  KEmat differentiate     0.47s     0.47s
timer:       KEmat compress     0.07s     0.07s
timer: KEmat inner products     0.04s     0.04s
timer:     guess Kinet potn     0.62s     0.62s
timer:           guess fock     1.62s     1.62s
timer:      guess eigen sol     0.00s     0.00s
grouping alpha orbitals into sets
set  0    0  -  0
set  1    1  -  1
set  2    2  -  3
set  3    4  -  15
timer: guess orbital groupi     0.05s     0.05s
timer:     project ao basis     0.31s     0.31s

Iteration 0 at time 5.2s

timer:        Boys localize     0.23s     0.23s
timer:      Rotate subspace     0.10s     0.10s
timer:       Make densities     0.03s     0.03s
timer:       Load balancing     0.00s     0.00s
timer:       Nuclear energy     0.01s     0.01s
timer:              Coulomb     0.10s     0.10s
timer:        DFT potential     0.09s     0.09s
timer:                V*psi     0.18s     0.18s
timer:        Truncate Vpsi     0.22s     0.22s
timer:            PE matrix     0.02s     0.02s
timer:    KEmat reconstruct     0.01s     0.01s
timer:  KEmat differentiate     0.33s     0.33s
timer:       KEmat compress     0.04s     0.04s
timer: KEmat inner products     0.03s     0.03s
timer:            KE matrix     0.41s     0.41s
timer: Make fock matrix res     0.00s     0.00s

              kinetic     210.71526425
         nonlocal psp       0.00000000
   nuclear attraction    -737.37006092
              coulomb     225.67516682
                  PCM       0.00000000
 exchange-correlation     -26.95626564
    nuclear-repulsion     120.68820755
                total    -207.24768794

timer: Compute residual stu     0.07s     0.07s
entering apply
timer:            Apply BSH     0.89s     0.89s
timer:     Truncate new psi     0.11s     0.11s
residuals [8.031015e-03, 8.877531e-03, 1.002744e-02, 9.037280e-03, 1.098082e-01, 6.428193e-02, 1.130239e-01, 8.434160e-02, 8.804656e-02, 2.784606e-01, 1.135434e-01, 5.546013e-02, 1.105064e-01, 1.092847e-01, 2.692557e-01, 1.127406e-01]
BSH residual: rms 1.242547e-01    max 2.784606e-01
timer:         BSH residual     0.06s     0.06s
timer: Update subspace stuf     0.06s     0.06s
Subspace solution [*]   1.00000000

timer:   Subspace transform     0.01s     0.01s
  restricting step for alpha orbitals: 9 14
Norm of vector changes alpha : rms 1.242547e-01    max 2.784606e-01
ORTHOG2a: maxq trantol 2.185151e-02 6.250000e-07
ORTHOG2a: maxq trantol 6.157507e-04 6.250000e-07
timer:       Orthonormalize     0.12s     0.12s

Iteration 1 at time 8.2s

timer:        Boys localize     0.22s     0.22s
timer:      Rotate subspace     0.08s     0.08s
timer:       Make densities     0.03s     0.03s
timer:       Load balancing     0.00s     0.00s
delta rho 1.941102e-01 1.941102e-01 residuals 2.784606e-01 0.000000e+00
timer:       Nuclear energy     0.01s     0.01s
timer:              Coulomb     0.11s     0.11s
timer:        DFT potential     0.09s     0.09s
timer:                V*psi     0.19s     0.19s
timer:        Truncate Vpsi     0.23s     0.23s
timer:            PE matrix     0.02s     0.02s
timer:    KEmat reconstruct     0.01s     0.01s
timer:  KEmat differentiate     0.32s     0.32s
timer:       KEmat compress     0.04s     0.04s
timer: KEmat inner products     0.03s     0.03s
timer:            KE matrix     0.39s     0.39s
timer: Make fock matrix res     0.00s     0.00s

              kinetic     204.05959898
         nonlocal psp       0.00000000
   nuclear attraction    -723.79045764
              coulomb     217.55463702
                  PCM       0.00000000
 exchange-correlation     -26.01722466
    nuclear-repulsion     120.68820755
                total    -207.50523876

timer: Compute residual stu     0.06s     0.06s
entering apply
timer:            Apply BSH     0.87s     0.87s
timer:     Truncate new psi     0.11s     0.11s
residuals [9.008364e-04, 9.020208e-04, 9.465898e-04, 1.696511e-03, 6.442020e-02, 2.305591e-02, 3.344668e-02, 2.809818e-02, 2.620327e-02, 1.568290e-01, 3.295385e-02, 2.376563e-02, 3.820350e-02, 6.460048e-02, 1.629702e-01, 3.555303e-02]
BSH residual: rms 6.470310e-02    max 1.629702e-01
timer:         BSH residual     0.06s     0.06s
timer: Update subspace stuf     0.11s     0.11s
Subspace solution [*]   0.30935191   0.69064809

timer:   Subspace transform     0.02s     0.02s
Norm of vector changes alpha : rms 3.955541e-02    max 9.772525e-02
ORTHOG2a: maxq trantol 4.068199e-03 6.250000e-07
timer:       Orthonormalize     0.09s     0.09s

Iteration 2 at time 11.3s

timer:        Boys localize     0.24s     0.24s
timer:      Rotate subspace     0.09s     0.09s
timer:       Make densities     0.03s     0.03s
delta rho 6.538773e-02 6.538773e-02 residuals 1.629702e-01 0.000000e+00
timer:       Nuclear energy     0.01s     0.01s
timer:              Coulomb     0.12s     0.12s
timer:        DFT potential     0.09s     0.09s
timer:                V*psi     0.21s     0.21s
timer:        Truncate Vpsi     0.25s     0.25s
timer:            PE matrix     0.02s     0.02s
timer:    KEmat reconstruct     0.01s     0.01s
timer:  KEmat differentiate     0.33s     0.33s
timer:       KEmat compress     0.04s     0.04s
timer: KEmat inner products     0.03s     0.03s
timer:            KE matrix     0.41s     0.41s
timer: Make fock matrix res     0.00s     0.00s

              kinetic     205.86974444
         nonlocal psp       0.00000000
   nuclear attraction    -728.25222810
              coulomb     220.41526070
                  PCM       0.00000000
 exchange-correlation     -26.31556209
    nuclear-repulsion     120.68820755
                total    -207.59457751

timer: Compute residual stu     0.07s     0.07s
entering apply
timer:            Apply BSH     0.90s     0.90s
timer:     Truncate new psi     0.10s     0.10s
residuals [7.052457e-04, 5.881443e-04, 5.483871e-04, 1.004747e-03, 1.521946e-02, 8.785978e-03, 7.924788e-03, 6.842520e-03, 6.238429e-03, 2.825953e-02, 7.889474e-03, 8.584747e-03, 9.877273e-03, 1.525491e-02, 3.102055e-02, 9.767211e-03]
BSH residual: rms 1.318618e-02    max 3.102055e-02
timer:         BSH residual     0.06s     0.06s
timer: Update subspace stuf     0.17s     0.17s
Subspace solution [*]  -0.02500255  -0.18685994   1.21186249

timer:   Subspace transform     0.02s     0.02s
Norm of vector changes alpha : rms 1.337447e-02    max 2.806376e-02
ORTHOG2a: maxq trantol 4.596538e-03 6.250000e-07
timer:       Orthonormalize     0.09s     0.09s

Iteration 3 at time 14.6s

timer:        Boys localize     0.23s     0.23s
timer:      Rotate subspace     0.09s     0.09s
timer:       Make densities     0.03s     0.03s
delta rho 1.406770e-02 1.406770e-02 residuals 3.102055e-02 0.000000e+00
timer:       Nuclear energy     0.01s     0.01s
timer:              Coulomb     0.13s     0.13s
timer:        DFT potential     0.11s     0.11s
timer:                V*psi     0.20s     0.20s
timer:        Truncate Vpsi     0.24s     0.24s
timer:            PE matrix     0.02s     0.02s
timer:    KEmat reconstruct     0.01s     0.01s
timer:  KEmat differentiate     0.34s     0.34s
timer:       KEmat compress     0.04s     0.04s
timer: KEmat inner products     0.03s     0.03s
timer:            KE matrix     0.42s     0.42s
timer: Make fock matrix res     0.00s     0.00s

              kinetic     206.11478718
         nonlocal psp       0.00000000
   nuclear attraction    -728.88073391
              coulomb     220.83326349
                  PCM       0.00000000
 exchange-correlation     -26.36066703
    nuclear-repulsion     120.68820755
                total    -207.60514272

timer: Compute residual stu     0.09s     0.09s
entering apply
timer:            Apply BSH     0.91s     0.91s
timer:     Truncate new psi     0.11s     0.11s
residuals [2.874648e-04, 3.084449e-04, 1.732658e-04, 3.282090e-04, 8.814904e-03, 4.747030e-03, 3.152840e-03, 3.140659e-03, 3.287070e-03, 8.272792e-03, 3.112595e-03, 3.941707e-03, 3.211867e-03, 8.881487e-03, 8.887610e-03, 4.589694e-03]
BSH residual: rms 5.087224e-03    max 8.887610e-03
timer:         BSH residual     0.07s     0.07s
timer: Update subspace stuf     0.23s     0.23s
Subspace solution [*]  -0.04466870  -0.08033158  -0.10546765   1.23046793

timer:   Subspace transform     0.03s     0.03s
Norm of vector changes alpha : rms 7.269190e-03    max 1.397712e-02
ORTHOG2a: maxq trantol 9.212867e-04 6.250000e-07
timer:       Orthonormalize     0.10s     0.10s

Iteration 4 at time 18.0s

timer:        Boys localize     0.26s     0.26s
timer:      Rotate subspace     0.09s     0.09s
timer:       Make densities     0.03s     0.03s
delta rho 6.508757e-03 6.508757e-03 residuals 8.887610e-03 0.000000e+00
timer:       Nuclear energy     0.01s     0.01s
timer:              Coulomb     0.14s     0.14s
timer:        DFT potential     0.10s     0.10s
timer:                V*psi     0.22s     0.22s
timer:        Truncate Vpsi     0.27s     0.27s
timer:            PE matrix     0.03s     0.03s
timer:    KEmat reconstruct     0.01s     0.01s
timer:  KEmat differentiate     0.35s     0.35s
timer:       KEmat compress     0.05s     0.05s
timer: KEmat inner products     0.04s     0.04s
timer:            KE matrix     0.45s     0.45s
timer: Make fock matrix res     0.00s     0.00s

              kinetic     206.06748900
         nonlocal psp       0.00000000
   nuclear attraction    -728.77168724
              coulomb     220.76360175
                  PCM       0.00000000
 exchange-correlation     -26.35511106
    nuclear-repulsion     120.68820755
                total    -207.60749999

timer: Compute residual stu     0.09s     0.09s
entering apply
timer:            Apply BSH     0.89s     0.89s
timer:     Truncate new psi     0.10s     0.10s
residuals [1.514217e-04, 2.639119e-04, 1.033459e-04, 8.007459e-05, 6.650337e-03, 2.271504e-03, 1.388017e-03, 1.843944e-03, 1.569885e-03, 7.629172e-03, 1.345435e-03, 2.031187e-03, 1.887440e-03, 6.816763e-03, 7.398598e-03, 2.480058e-03]
BSH residual: rms 3.810745e-03    max 7.629172e-03
timer:         BSH residual     0.07s     0.07s
timer: Update subspace stuf     0.25s     0.25s
Subspace solution [*]  -0.00131404   0.04057654  -0.19491633   0.27069774   0.88495609

timer:   Subspace transform     0.03s     0.03s
Norm of vector changes alpha : rms 3.032161e-03    max 5.677959e-03
ORTHOG2a: maxq trantol 1.310175e-03 6.250000e-07
timer:       Orthonormalize     0.09s     0.09s

Iteration 5 at time 21.6s

timer:        Boys localize     0.25s     0.25s
timer:      Rotate subspace     0.09s     0.09s
timer:       Make densities     0.03s     0.03s
delta rho 2.083758e-03 2.083758e-03 residuals 7.629172e-03 0.000000e+00
timer:       Nuclear energy     0.01s     0.01s
timer:              Coulomb     0.12s     0.12s
timer:        DFT potential     0.09s     0.09s
timer:                V*psi     0.21s     0.21s
timer:        Truncate Vpsi     0.24s     0.24s
timer:            PE matrix     0.02s     0.02s
timer:    KEmat reconstruct     0.01s     0.01s
timer:  KEmat differentiate     0.34s     0.34s
timer:       KEmat compress     0.04s     0.04s
timer: KEmat inner products     0.03s     0.03s
timer:            KE matrix     0.42s     0.42s
timer: Make fock matrix res     0.00s     0.00s

              kinetic     206.04909448
         nonlocal psp       0.00000000
   nuclear attraction    -728.71698104
              coulomb     220.72297737
                  PCM       0.00000000
 exchange-correlation     -26.35136681
    nuclear-repulsion     120.68820755
                total    -207.60806845

timer: Compute residual stu     0.07s     0.07s
entering apply
timer:            Apply BSH     0.87s     0.87s
timer:     Truncate new psi     0.10s     0.10s
residuals [9.952657e-05, 1.072321e-04, 8.796726e-05, 4.413024e-05, 3.298033e-03, 1.108483e-03, 6.653034e-04, 8.780840e-04, 7.693777e-04, 2.430950e-03, 6.698932e-04, 1.117822e-03, 8.646011e-04, 3.323855e-03, 2.274429e-03, 1.014366e-03]
BSH residual: rms 1.572175e-03    max 3.323855e-03
timer:         BSH residual     0.06s     0.06s
timer: Update subspace stuf     0.25s     0.25s
Subspace solution [*]  -0.01665145   0.08175634  -0.39396485  -0.20863994   1.53749990

timer:   Subspace transform     0.03s     0.03s
Norm of vector changes alpha : rms 3.018467e-03    max 6.224914e-03
ORTHOG2a: maxq trantol 2.295571e-04 6.250000e-07
timer:       Orthonormalize     0.09s     0.09s

Iteration 6 at time 25.1s

timer:        Boys localize     0.25s     0.25s
timer:      Rotate subspace     0.09s     0.09s
timer:       Make densities     0.03s     0.03s
delta rho 2.821550e-03 2.821550e-03 residuals 3.323855e-03 0.000000e+00
timer:       Nuclear energy     0.01s     0.01s
timer:              Coulomb     0.12s     0.12s
timer:        DFT potential     0.09s     0.09s
timer:                V*psi     0.21s     0.21s
timer:        Truncate Vpsi     0.25s     0.25s
timer:            PE matrix     0.02s     0.02s
timer:    KEmat reconstruct     0.01s     0.01s
timer:  KEmat differentiate     0.34s     0.34s
timer:       KEmat compress     0.04s     0.04s
timer: KEmat inner products     0.03s     0.03s
timer:            KE matrix     0.42s     0.42s
timer: Make fock matrix res     0.00s     0.00s

              kinetic     206.06532878
         nonlocal psp       0.00000000
   nuclear attraction    -728.73901244
              coulomb     220.72988545
                  PCM       0.00000000
 exchange-correlation     -26.35300373
    nuclear-repulsion     120.68820755
                total    -207.60859440

timer: Compute residual stu     0.07s     0.07s
entering apply
timer:            Apply BSH     0.89s     0.89s
timer:     Truncate new psi     0.11s     0.11s
residuals [8.745072e-05, 1.132788e-04, 8.182534e-05, 4.365498e-05, 2.289368e-03, 7.602476e-04, 4.245216e-04, 5.795678e-04, 5.238724e-04, 1.606013e-03, 4.272192e-04, 6.865721e-04, 5.394054e-04, 2.304952e-03, 1.560592e-03, 8.357459e-04]
BSH residual: rms 1.078473e-03    max 2.304952e-03
timer:         BSH residual     0.06s     0.06s
timer: Update subspace stuf     0.26s     0.26s
Subspace solution [*]   0.03129080  -0.07541652  -0.28264265  -0.11268502   1.43945339

timer:   Subspace transform     0.04s     0.04s
Norm of vector changes alpha : rms 2.325916e-03    max 5.182473e-03
ORTHOG2a: maxq trantol 1.881994e-04 6.250000e-07
timer:       Orthonormalize     0.09s     0.09s

Iteration 7 at time 28.5s

timer:        Boys localize     0.23s     0.23s
timer:      Rotate subspace     0.08s     0.08s
timer:       Make densities     0.03s     0.03s
delta rho 2.123187e-03 2.123187e-03 residuals 2.304952e-03 0.000000e+00
timer:       Nuclear energy     0.01s     0.01s
timer:              Coulomb     0.12s     0.12s
timer:        DFT potential     0.09s     0.09s
timer:                V*psi     0.20s     0.20s
timer:        Truncate Vpsi     0.24s     0.24s
timer:            PE matrix     0.02s     0.02s
timer:    KEmat reconstruct     0.01s     0.01s
timer:  KEmat differentiate     0.35s     0.35s
timer:       KEmat compress     0.04s     0.04s
timer: KEmat inner products     0.03s     0.03s
timer:            KE matrix     0.43s     0.43s
timer: Make fock matrix res     0.00s     0.00s

              kinetic     206.06765128
         nonlocal psp       0.00000000
   nuclear attraction    -728.73535394
              coulomb     220.72331448
                  PCM       0.00000000
 exchange-correlation     -26.35265960
    nuclear-repulsion     120.68820755
                total    -207.60884024

timer: Compute residual stu     0.07s     0.07s
entering apply
timer:            Apply BSH     0.89s     0.89s
timer:     Truncate new psi     0.10s     0.10s
residuals [8.415722e-05, 1.011613e-04, 1.550998e-04, 4.081674e-05, 1.716486e-03, 6.630236e-04, 2.773457e-04, 3.249803e-04, 2.712366e-04, 1.557996e-03, 2.798210e-04, 5.601189e-04, 3.245957e-04, 1.734135e-03, 1.538062e-03, 6.890986e-04]
BSH residual: rms 8.823806e-04    max 1.734135e-03
timer:         BSH residual     0.06s     0.06s
timer: Update subspace stuf     0.25s     0.25s
Subspace solution [*]   0.14607802  -0.05601629  -0.64037941   0.40984385   1.14047384

timer:   Subspace transform     0.03s     0.03s
Norm of vector changes alpha : rms 1.485203e-03    max 3.459647e-03
ORTHOG2a: maxq trantol 1.985331e-04 6.250000e-07
timer:       Orthonormalize     0.09s     0.09s

Iteration 8 at time 31.9s

timer:        Boys localize     0.24s     0.24s
timer:      Rotate subspace     0.09s     0.09s
timer:       Make densities     0.03s     0.03s
delta rho 1.446308e-03 1.446308e-03 residuals 1.734135e-03 0.000000e+00
timer:       Nuclear energy     0.01s     0.01s
timer:              Coulomb     0.13s     0.13s
timer:        DFT potential     0.10s     0.10s
timer:                V*psi     0.21s     0.21s
timer:        Truncate Vpsi     0.24s     0.24s
timer:            PE matrix     0.02s     0.02s
timer:    KEmat reconstruct     0.01s     0.01s
timer:  KEmat differentiate     0.35s     0.35s
timer:       KEmat compress     0.04s     0.04s
timer: KEmat inner products     0.03s     0.03s
timer:            KE matrix     0.42s     0.42s
timer: Make fock matrix res     0.00s     0.00s

              kinetic     206.05564699
         nonlocal psp       0.00000000
   nuclear attraction    -728.70709448
              coulomb     220.70486325
                  PCM       0.00000000
 exchange-correlation     -26.35055033
    nuclear-repulsion     120.68820755
                total    -207.60892702

timer: Compute residual stu     0.07s     0.07s
entering apply
timer:            Apply BSH     0.87s     0.87s
timer:     Truncate new psi     0.10s     0.10s
residuals [8.007702e-05, 1.009611e-04, 8.716536e-05, 4.011383e-05, 7.838561e-04, 3.468805e-04, 2.242590e-04, 1.999582e-04, 2.045515e-04, 8.692318e-04, 2.327658e-04, 3.422937e-04, 2.730704e-04, 8.032499e-04, 8.739985e-04, 3.440469e-04]
BSH residual: rms 4.624401e-04    max 8.739985e-04
timer:         BSH residual     0.06s     0.06s
timer: Update subspace stuf     0.25s     0.25s
Subspace solution [*]   0.08618436  -0.00199472  -0.46864304   0.01667929   1.36777411

timer:   Subspace transform     0.03s     0.03s
Norm of vector changes alpha : rms 1.129587e-03    max 2.648093e-03
ORTHOG2a: maxq trantol 2.139164e-04 6.250000e-07
timer:       Orthonormalize     0.09s     0.09s

Iteration 9 at time 35.3s

timer:        Boys localize     0.24s     0.24s
timer:      Rotate subspace     0.09s     0.09s
timer:       Make densities     0.03s     0.03s
delta rho 1.130756e-03 1.130756e-03 residuals 8.739985e-04 0.000000e+00
timer:       Nuclear energy     0.01s     0.01s
timer:              Coulomb     0.13s     0.13s
timer:        DFT potential     0.09s     0.09s
timer:                V*psi     0.20s     0.20s
timer:        Truncate Vpsi     0.23s     0.23s
timer:            PE matrix     0.02s     0.02s
timer:    KEmat reconstruct     0.01s     0.01s
timer:  KEmat differentiate     0.34s     0.34s
timer:       KEmat compress     0.04s     0.04s
timer: KEmat inner products     0.03s     0.03s
timer:            KE matrix     0.42s     0.42s
timer: Make fock matrix res     0.00s     0.00s

              kinetic     206.06605356
         nonlocal psp       0.00000000
   nuclear attraction    -728.73181717
              coulomb     220.72065000
                  PCM       0.00000000
 exchange-correlation     -26.35208537
    nuclear-repulsion     120.68820755
                total    -207.60899142

timer: Compute residual stu     0.07s     0.07s
entering apply
timer:            Apply BSH     0.88s     0.88s
timer:     Truncate new psi     0.10s     0.10s
residuals [8.162423e-05, 9.550658e-05, 9.766528e-05, 3.672963e-05, 4.881022e-04, 3.033961e-04, 1.904282e-04, 1.635113e-04, 1.489476e-04, 5.365598e-04, 2.044028e-04, 3.049250e-04, 2.020239e-04, 4.904104e-04, 5.341585e-04, 3.156098e-04]
BSH residual: rms 3.093396e-04    max 5.365598e-04
timer:         BSH residual     0.06s     0.06s
timer: Update subspace stuf     0.25s     0.25s
Subspace solution [*]   0.08066720  -0.01555072  -0.24297591  -0.13076742   1.30862686

timer:   Subspace transform     0.03s     0.03s
Norm of vector changes alpha : rms 5.879835e-04    max 9.890568e-04
ORTHOG2a: maxq trantol 7.405059e-05 6.250000e-07
timer:       Orthonormalize     0.08s     0.08s

Iteration 10 at time 38.8s

timer:        Boys localize     0.24s     0.24s
timer:      Rotate subspace     0.09s     0.09s
timer:       Make densities     0.03s     0.03s
timer:       Load balancing     0.00s     0.00s
delta rho 5.128805e-04 5.128805e-04 residuals 5.365598e-04 0.000000e+00
timer:       Nuclear energy     0.01s     0.01s
timer:              Coulomb     0.13s     0.13s
timer:        DFT potential     0.10s     0.10s
timer:                V*psi     0.20s     0.20s
timer:        Truncate Vpsi     0.24s     0.24s
timer:            PE matrix     0.02s     0.02s
timer:    KEmat reconstruct     0.01s     0.01s
timer:  KEmat differentiate     0.35s     0.35s
timer:       KEmat compress     0.04s     0.04s
timer: KEmat inner products     0.03s     0.03s
timer:            KE matrix     0.43s     0.43s
timer: Make fock matrix res     0.00s     0.00s

              kinetic     206.05724903
         nonlocal psp       0.00000000
   nuclear attraction    -728.71500139
              coulomb     220.71147226
                  PCM       0.00000000
 exchange-correlation     -26.35093989
    nuclear-repulsion     120.68820755
                total    -207.60901245

timer: Compute residual stu     0.06s     0.06s
entering apply
timer:            Apply BSH     0.88s     0.88s
timer:     Truncate new psi     0.10s     0.10s
residuals [8.103100e-05, 9.036995e-05, 6.355965e-05, 3.712488e-05, 3.193851e-04, 2.162934e-04, 1.350975e-04, 1.294899e-04, 1.274034e-04, 3.738908e-04, 1.486566e-04, 2.213227e-04, 9.825572e-05, 3.189262e-04, 3.888802e-04, 2.319191e-04]
BSH residual: rms 2.161380e-04    max 3.888802e-04
timer:         BSH residual     0.07s     0.07s
timer: Update subspace stuf     0.25s     0.25s
Subspace solution [*]   0.07624098  -0.05196516  -0.40592098   0.13480609   1.24683907

timer:   Subspace transform     0.03s     0.03s
Norm of vector changes alpha : rms 5.928678e-04    max 1.227434e-03
ORTHOG2a: maxq trantol 6.473514e-05 6.250000e-07
timer:       Orthonormalize     0.08s     0.08s

Iteration 11 at time 42.2s

timer:        Boys localize     0.24s     0.24s
timer:      Rotate subspace     0.09s     0.09s
timer:       Make densities     0.03s     0.03s
delta rho 4.115888e-04 4.115888e-04 residuals 3.888802e-04 0.000000e+00
timer:       Nuclear energy     0.01s     0.01s
timer:              Coulomb     0.13s     0.13s
timer:        DFT potential     0.09s     0.09s
timer:                V*psi     0.20s     0.20s
timer:        Truncate Vpsi     0.23s     0.23s
timer:            PE matrix     0.02s     0.02s
timer:    KEmat reconstruct     0.01s     0.01s
timer:  KEmat differentiate     0.34s     0.34s
timer:       KEmat compress     0.04s     0.04s
timer: KEmat inner products     0.03s     0.03s
timer:            KE matrix     0.42s     0.42s
timer: Make fock matrix res     0.00s     0.00s

              kinetic     206.05839587
         nonlocal psp       0.00000000
   nuclear attraction    -728.71907715
              coulomb     220.71463678
                  PCM       0.00000000
 exchange-correlation     -26.35118754
    nuclear-repulsion     120.68820755
                total    -207.60902449


Converged!

timer:              Overlap     0.02s     0.02s
timer:      focka eigen sol     0.00s     0.00s
 
alpha eigenvalues
[*] -18.57607699 -13.88980589  -9.88720869  -9.79880220  -0.94600974  -0.82283969  -0.66697703  -0.53542809  -0.48917668  -0.42347003  -0.40835524  -0.36371063  -0.35450629  -0.33287593  -0.24860093  -0.21842380


 Dipole Moment (a.u.)
 -----------

     x:  1.316612e-01
     y:  -1.498384e+00
     z:  7.861122e-02
 Total Dipole Moment:  1.506210e+00 

timer:               dipole     0.00s     0.00s
Orbitals are localized - energies are diagonal Fock matrix elements

Analysis of alpha MO vectors
timer:      Analyze vectors     0.38s     0.38s
timer: Compute eigen gesv a     0.00s     0.00s
  MO   0 : occ=1.00 : energy= -18.57489837 : center=(0.01,2.53,-0.70) : radius=0.23
            O(3)   s(27)-0.996  
  MO   1 : occ=1.00 : energy= -13.88975311 : center=(-0.06,-1.59,-1.94) : radius=0.27
            N(2)   s(18)-0.994  
  MO   2 : occ=1.00 : energy=  -9.79874928 : center=(0.00,-0.62,2.58) : radius=0.32
            C(0)   s( 0)-0.994  
  MO   3 : occ=1.00 : energy=  -9.88681795 : center=(-0.00,0.29,-0.14) : radius=0.32
            C(1)   s( 9)-0.995  
  MO   4 : occ=1.00 : energy=  -0.55555925 : center=(0.47,1.72,-0.49) : radius=1.49
            O(3)  px(29)-0.377     O(3)  py(30) 0.283     O(3)  px(33)-0.249     C(1)  py(12)-0.243     C(1)  px(11)-0.233     O(3)   s(28)-0.191     C(1)   s(10)-0.182  
  MO   5 : occ=1.00 : energy=  -0.54922117 : center=(0.35,-0.94,-1.30) : radius=1.55
            N(2)  px(20)-0.284     N(2)   s(23)-0.270     N(2)  px(24)-0.253     N(2)  py(21)-0.248     N(2)  pz(22)-0.243     C(1)  py(12) 0.219     C(1)  pz(13) 0.205     N(2)   s(19)-0.198     C(1)   s(10)-0.187  
  MO   6 : occ=1.00 : energy=  -0.43904155 : center=(-1.07,-1.45,2.76) : radius=1.67
            C(0)  px( 2) 0.305     H(5)   s(38)-0.303     H(5)   s(39)-0.238     C(0)  py( 3) 0.236     C(0)   s( 1)-0.183     C(0)   s( 5)-0.182     C(0)  px( 6) 0.152  
  MO   7 : occ=1.00 : energy=  -0.57263131 : center=(0.06,-1.31,-3.01) : radius=1.43
            N(2)  pz(22)-0.408     H(7)   s(42) 0.303     N(2)   s(19) 0.240     N(2)   s(23) 0.235     N(2)  pz(26)-0.206  
  MO   8 : occ=1.00 : energy=  -0.57806329 : center=(0.11,-2.67,-1.67) : radius=1.43
            N(2)  py(21)-0.407     H(8)   s(44) 0.307     N(2)   s(19) 0.238     N(2)   s(23) 0.213     N(2)  py(25)-0.197     H(8)   s(45) 0.150  
  MO   9 : occ=1.00 : energy=  -0.38977447 : center=(0.02,2.55,-1.29) : radius=1.47
            O(3)  pz(31)-0.494     O(3)   s(32) 0.369     O(3)  pz(35)-0.317     O(3)   s(28) 0.289     C(0)   s( 5) 0.287     N(2)   s(23)-0.263     C(1)  pz(17)-0.260  
  MO  10 : occ=1.00 : energy=  -0.44036406 : center=(1.15,-1.33,2.79) : radius=1.67
            C(0)  px( 2)-0.327     H(6)   s(40)-0.303     H(6)   s(41)-0.237     C(0)  py( 3) 0.199     C(0)   s( 1)-0.183     C(0)   s( 5)-0.171     C(0)  px( 6)-0.164  
  MO  11 : occ=1.00 : energy=  -0.49810892 : center=(0.00,-0.20,1.24) : radius=1.59
            C(1)  pz(13) 0.352     C(0)  pz( 4)-0.351     C(0)   s( 5) 0.253     C(1)   s(10) 0.228     C(1)   s(14) 0.201     C(0)   s( 1) 0.180     C(0)  pz( 8)-0.174     N(2)   s(23)-0.165  
  MO  12 : occ=1.00 : energy=  -0.43181417 : center=(-0.07,0.44,3.43) : radius=1.64
            C(0)  py( 3)-0.307     H(4)   s(36)-0.301     C(0)  pz( 4)-0.239     C(0)   s( 5)-0.222     H(4)   s(37)-0.216     C(0)   s( 1)-0.194     C(0)  py( 7)-0.166  
  MO  13 : occ=1.00 : energy=  -0.55596717 : center=(-0.46,1.72,-0.50) : radius=1.50
            O(3)  px(29) 0.381     O(3)  py(30) 0.279     O(3)  px(33) 0.251     C(1)  py(12)-0.243     C(1)  px(11) 0.230     O(3)   s(28)-0.189     C(1)   s(10)-0.183  
  MO  14 : occ=1.00 : energy=  -0.39546845 : center=(0.01,2.85,-0.24) : radius=1.45
            O(3)   s(32)-0.358     O(3)  pz(31)-0.355     O(3)  py(30)-0.346     O(3)   s(28)-0.311     N(2)   s(23)-0.287     O(3)  py(34)-0.234     O(3)  pz(35)-0.230     C(1)  pz(17)-0.189     C(0)   s( 5) 0.187  
  MO  15 : occ=1.00 : energy=  -0.40603664 : center=(-0.58,-1.24,-1.57) : radius=1.78
            N(2)  px(20) 0.464     N(2)  px(24) 0.410     N(2)   s(23)-0.219     N(2)   s(19)-0.198     C(1)  px(11) 0.171  

Solving NDIM= 3  with thresh 1.000000e-06     k 8    conv 1.000000e-04 

timer:     Project vnuclear     0.81s     0.81s
timer:     project ao basis     0.56s     0.56s

Iteration 0 at time 46.2s

timer:        Boys localize     0.25s     0.25s
timer:      Rotate subspace     0.09s     0.09s
timer:       Make densities     0.03s     0.03s
timer:       Load balancing     0.00s     0.00s
timer:       Nuclear energy     0.03s     0.03s
timer:              Coulomb     0.40s     0.40s
timer:        DFT potential     0.12s     0.12s
timer:                V*psi     0.72s     0.72s
timer:        Truncate Vpsi     0.69s     0.69s
timer:            PE matrix     0.02s     0.02s
timer:    KEmat reconstruct     0.01s     0.01s
timer:  KEmat differentiate     0.32s     0.32s
timer:       KEmat compress     0.05s     0.05s
timer: KEmat inner products     0.04s     0.04s
timer:            KE matrix     0.42s     0.42s
timer: Make fock matrix res     0.00s     0.00s

              kinetic     206.05975089
         nonlocal psp       0.00000000
   nuclear attraction    -728.71909284
              coulomb     220.71415190
                  PCM       0.00000000
 exchange-correlation     -26.35118509
    nuclear-repulsion     120.68820755
                total    -207.60816759

timer: Compute residual stu     0.17s     0.17s
entering apply
timer:            Apply BSH     6.23s     6.23s
timer:     Truncate new psi     0.37s     0.37s
residuals [2.900882e-04, 2.830792e-04, 2.614915e-04, 2.382621e-04, 4.433866e-04, 4.365431e-04, 4.382830e-04, 3.717345e-04, 3.823466e-04, 4.391364e-04, 4.606550e-04, 4.719051e-04, 3.755703e-04, 4.121390e-04, 4.510394e-04, 4.279538e-04]
BSH residual: rms 3.935648e-04    max 4.719051e-04
timer:         BSH residual     0.14s     0.14s
timer: Update subspace stuf     0.05s     0.05s
Subspace solution [*]   1.00000000

timer:   Subspace transform     0.02s     0.02s
Norm of vector changes alpha : rms 3.935648e-04    max 4.719051e-04
ORTHOG2a: maxq trantol 7.770317e-05 6.250000e-09
timer:       Orthonormalize     0.19s     0.19s

Iteration 1 at time 56.7s

timer:        Boys localize     0.49s     0.49s
timer:      Rotate subspace     0.19s     0.19s
timer:       Make densities     0.09s     0.09s
timer:       Load balancing     0.00s     0.00s
delta rho 6.737753e-04 6.737753e-04 residuals 4.719051e-04 0.000000e+00
timer:       Nuclear energy     0.04s     0.04s
timer:              Coulomb     0.77s     0.77s
timer:        DFT potential     0.25s     0.25s
timer:                V*psi     0.42s     0.42s
timer:        Truncate Vpsi     0.49s     0.49s
timer:            PE matrix     0.04s     0.04s
timer:    KEmat reconstruct     0.02s     0.02s
timer:  KEmat differentiate     0.69s     0.69s
timer:       KEmat compress     0.11s     0.11s
timer: KEmat inner products     0.06s     0.06s
timer:            KE matrix     0.88s     0.88s
timer: Make fock matrix res     0.00s     0.00s

              kinetic     206.05657597
         nonlocal psp       0.00000000
   nuclear attraction    -728.71914717
              coulomb     220.71391894
                  PCM       0.00000000
 exchange-correlation     -26.35122898
    nuclear-repulsion     120.68820755
                total    -207.61167370


Converged!

timer:              Overlap     0.04s     0.04s
timer:      focka eigen sol     0.00s     0.00s
 
alpha eigenvalues
[*] -18.57624020 -13.89000690  -9.88718442  -9.79882495  -0.94619705  -0.82295855  -0.66715499  -0.53554995  -0.48926493  -0.42356072  -0.40843883  -0.36379422  -0.35461129  -0.33296823  -0.24866848  -0.21852026


 Dipole Moment (a.u.)
 -----------

     x:  1.316923e-01
     y:  -1.498158e+00
     z:  7.846065e-02
 Total Dipole Moment:  1.505980e+00 

timer:               dipole     0.00s     0.00s
Orbitals are localized - energies are diagonal Fock matrix elements

Analysis of alpha MO vectors
timer:      Analyze vectors     0.80s     0.80s
timer: Compute eigen gesv a     0.00s     0.00s
  MO   0 : occ=1.00 : energy= -18.57505898 : center=(0.01,2.53,-0.70) : radius=0.23
            O(3)   s(27)-0.996  
  MO   1 : occ=1.00 : energy= -13.88995488 : center=(-0.06,-1.59,-1.94) : radius=0.27
            N(2)   s(18)-0.994  
  MO   2 : occ=1.00 : energy=  -9.79877165 : center=(0.00,-0.62,2.58) : radius=0.32
            C(0)   s( 0)-0.994  
  MO   3 : occ=1.00 : energy=  -9.88679252 : center=(-0.00,0.29,-0.14) : radius=0.32
            C(1)   s( 9)-0.995  
  MO   4 : occ=1.00 : energy=  -0.55567841 : center=(0.47,1.72,-0.49) : radius=1.49
            O(3)  px(29)-0.377     O(3)  py(30) 0.283     O(3)  px(33)-0.249     C(1)  py(12)-0.243     C(1)  px(11)-0.233     O(3)   s(28)-0.191     C(1)   s(10)-0.182  
  MO   5 : occ=1.00 : energy=  -0.54952313 : center=(0.35,-0.94,-1.30) : radius=1.55
            N(2)  px(20)-0.284     N(2)   s(23)-0.270     N(2)  px(24)-0.252     N(2)  py(21)-0.248     N(2)  pz(22)-0.243     C(1)  py(12) 0.219     C(1)  pz(13) 0.205     N(2)   s(19)-0.198     C(1)   s(10)-0.187  
  MO   6 : occ=1.00 : energy=  -0.43916395 : center=(-1.07,-1.45,2.76) : radius=1.67
            C(0)  px( 2) 0.305     H(5)   s(38)-0.303     H(5)   s(39)-0.238     C(0)  py( 3) 0.236     C(0)   s( 1)-0.183     C(0)   s( 5)-0.181     C(0)  px( 6) 0.152  
  MO   7 : occ=1.00 : energy=  -0.57273699 : center=(0.06,-1.31,-3.01) : radius=1.43
            N(2)  pz(22)-0.408     H(7)   s(42) 0.303     N(2)   s(19) 0.240     N(2)   s(23) 0.235     N(2)  pz(26)-0.206  
  MO   8 : occ=1.00 : energy=  -0.57817404 : center=(0.11,-2.67,-1.67) : radius=1.43
            N(2)  py(21)-0.407     H(8)   s(44) 0.307     N(2)   s(19) 0.238     N(2)   s(23) 0.213     N(2)  py(25)-0.198     H(8)   s(45) 0.149  
  MO   9 : occ=1.00 : energy=  -0.38985206 : center=(0.02,2.55,-1.29) : radius=1.47
            O(3)  pz(31)-0.494     O(3)   s(32) 0.369     O(3)  pz(35)-0.317     O(3)   s(28) 0.289     C(0)   s( 5) 0.287     N(2)   s(23)-0.263     C(1)  pz(17)-0.260  
  MO  10 : occ=1.00 : energy=  -0.44048633 : center=(1.15,-1.33,2.79) : radius=1.67
            C(0)  px( 2)-0.327     H(6)   s(40)-0.303     H(6)   s(41)-0.237     C(0)  py( 3) 0.199     C(0)   s( 1)-0.183     C(0)   s( 5)-0.171     C(0)  px( 6)-0.164  
  MO  11 : occ=1.00 : energy=  -0.49827742 : center=(0.00,-0.20,1.24) : radius=1.59
            C(1)  pz(13) 0.352     C(0)  pz( 4)-0.351     C(0)   s( 5) 0.253     C(1)   s(10) 0.228     C(1)   s(14) 0.201     C(0)   s( 1) 0.180     C(0)  pz( 8)-0.174     N(2)   s(23)-0.165  
  MO  12 : occ=1.00 : energy=  -0.43192032 : center=(-0.07,0.44,3.43) : radius=1.64
            C(0)  py( 3)-0.307     H(4)   s(36)-0.301     C(0)  pz( 4)-0.239     C(0)   s( 5)-0.222     H(4)   s(37)-0.216     C(0)   s( 1)-0.194     C(0)  py( 7)-0.166  
  MO  13 : occ=1.00 : energy=  -0.55608578 : center=(-0.46,1.72,-0.50) : radius=1.50
            O(3)  px(29) 0.381     O(3)  py(30) 0.279     O(3)  px(33) 0.251     C(1)  py(12)-0.243     C(1)  px(11) 0.230     O(3)   s(28)-0.189     C(1)   s(10)-0.183  
  MO  14 : occ=1.00 : energy=  -0.39553056 : center=(0.01,2.85,-0.24) : radius=1.45
            O(3)   s(32)-0.358     O(3)  pz(31)-0.355     O(3)  py(30)-0.346     O(3)   s(28)-0.311     N(2)   s(23)-0.287     O(3)  py(34)-0.234     O(3)  pz(35)-0.230     C(1)  pz(17)-0.190     C(0)   s( 5) 0.187  
  MO  15 : occ=1.00 : energy=  -0.40593691 : center=(-0.58,-1.24,-1.57) : radius=1.78
            N(2)  px(20) 0.464     N(2)  px(24) 0.410     N(2)   s(23)-0.218     N(2)   s(19)-0.198     C(1)  px(11) 0.171  
timer:             plotting     0.00s     0.00s

    Parallel environment
    --------------------
                  #nodes    1
       #threads per node    27+main = 28
          #total threads    28

  RMI message statistics (min / avg / max)
  ----------------------
   #messages in server q    0.00e+00 / 0.00e+00 / 0.00e+00
 #messages sent per node    0.00e+00 / 0.00e+00 / 0.00e+00
    #bytes sent per node    0.00e+00 / 0.00e+00 / 0.00e+00
 #messages recv per node    0.00e+00 / 0.00e+00 / 0.00e+00
    #bytes recv per node    0.00e+00 / 0.00e+00 / 0.00e+00
        #msgs systemwide    0.00e+00
       #bytes systemwide    0.00e+00

  Thread pool statistics (min / avg / max)
  ----------------------
         #tasks per node    0.00e+00 / 0.00e+00 / 0.00e+00
     #max q len per node    0.00e+00 / 0.00e+00 / 0.00e+00
  #hi-pri tasks per node    0.00e+00 / 0.00e+00 / 0.00e+00

         Total wall time    62.2s
         Total  cpu time    62.2s

