MADNESS runtime initialized with 27 threads in the pool and affinity -1 -1 -1

--------------------------------------------
   MADNESS 0.10.1 multiresolution suite
--------------------------------------------

   number of processors ... 1
    processor frequency ... 1.995407e+09
            host system ... linux-gnu
          configured by ... egentles
          configured on ... sn093
          configured at ... Tue Jul 11 16:06:48 EDT 2017
                    CXX ... mpicxx
               CXXFLAGS ... -g -std=c++14 -O3 -Wall -Wno-strict-aliasing -Wno-deprecated -Wno-unused-local-typedefs  -ffast-math -march=native
             tuning for ... default
                    MPI ... multiple
 multi-threaded runtime ... Intel TBB
                   BLAS ... Intel MKL 14086 14086 MFLOP/s
               compiled ... 08:44:05  on  Jul 29 2017
input filename:  /gpfs/home/egentles/auto_test_mad/geometries_LDA_boys/acetaldehyde.mdns

Angstrom being used to read input coordinates (1 Bohr = 1.88972613 Angstrom)

Abelian pointgroup

 The point group is Cs

Construct XC Functional from LIBXC Library

input line was:  LDA
 1.000 lda_x 
 1.000 lda_c_vwn 

screening parameters
 rhotol, rhomin 1.000000e-07 0.000000e+00
         ggatol 1.000000e-04
polarized  false 


Solving NDIM= 3  with thresh 1.000000e-05     k 8    conv 1.000000e-04 




 MADNESS Hartree-Fock and Density Functional Theory Program
 ----------------------------------------------------------



 geometry
   eprec 1.0e-04
   units atomic
   O            -2.34310396          -0.52355224           0.00000000
   C            -0.42674890           0.76626517           0.00000000
   C             2.20902308          -0.28416411           0.00000000
   H            -0.55936507           2.85794484           0.00000000
   H             2.13978571          -2.34319919           0.00000000
   H             3.23538297           0.39053296           1.66474668
   H             3.23538297           0.39053296          -1.66474668
 end


             restart  false
    restart from AOs  false
 number of processes  1
   no. of io servers  1
   vnuc load bal fac  12
      load bal parts  2
     simulation cube  -5.323538e+01 5.323538e+01
        total charge  0.000000e+00
            smearing  0.000000e+00
 number of electrons  12 12
  number of orbitals  12 12
     spin restricted  true
       xc functional   LDA
          xc library  libxc
 initial guess basis  6-31g
 max krylov subspace  5
    compute protocol  [1.000000e-04, 1.000000e-06]
  energy convergence  1.000000e-05
 density convergence  1.000000e-04
    maximum rotation  2.500000e-01
    polynomial order  -1
       truncate mode  1
  maximum iterations  20
 Convergence criteria are density delta & BSH residual.
        plot density  false
        plot coulomb  false
        plot orbital  0 -1
        plot npoints  101
        plot  volume  default
  localized orbitals  boys
 psp or all electron  all electron
timer:           initialize     0.37s     0.37s

Solving NDIM= 3  with thresh 1.000000e-04     k 6    conv 1.000000e-04 


Solving NDIM= 3  with thresh 1.000000e-04     k 6    conv 1.000000e-04 

timer:     Project vnuclear     0.26s     0.26s
timer:     project ao basis     0.31s     0.31s
guess dens trace 2.400009e+01
timer:        guess density     0.27s     0.27s
timer:   guess Coulomb potn     0.27s     0.27s
timer:       guess lda potn     0.14s     0.14s
timer:        guess overlap     0.01s     0.01s
timer:    KEmat reconstruct     0.01s     0.01s
timer:  KEmat differentiate     0.43s     0.43s
timer:       KEmat compress     0.09s     0.09s
timer: KEmat inner products     0.04s     0.04s
timer:     guess Kinet potn     0.57s     0.57s
timer:           guess fock     1.04s     1.04s
timer:      guess eigen sol     0.00s     0.00s
grouping alpha orbitals into sets
set  0    0  -  0
set  1    1  -  2
set  2    3  -  11
timer: guess orbital groupi     0.03s     0.03s
timer:     project ao basis     0.24s     0.24s

Iteration 0 at time 3.8s

timer:        Boys localize     0.16s     0.16s
timer:      Rotate subspace     0.05s     0.05s
timer:       Make densities     0.02s     0.02s
timer:       Load balancing     0.00s     0.00s
timer:       Nuclear energy     0.01s     0.01s
timer:              Coulomb     0.09s     0.09s
timer:        DFT potential     0.06s     0.06s
timer:                V*psi     0.11s     0.11s
timer:        Truncate Vpsi     0.13s     0.13s
timer:            PE matrix     0.01s     0.01s
timer:    KEmat reconstruct     0.01s     0.01s
timer:  KEmat differentiate     0.21s     0.21s
timer:       KEmat compress     0.03s     0.03s
timer: KEmat inner products     0.02s     0.02s
timer:            KE matrix     0.27s     0.27s
timer: Make fock matrix res     0.00s     0.00s

              kinetic     154.85702726
         nonlocal psp       0.00000000
   nuclear attraction    -503.04128653
              coulomb     146.34696264
                  PCM       0.00000000
 exchange-correlation     -19.93778188
    nuclear-repulsion      69.40167792
                total    -152.37340059

timer: Compute residual stu     0.04s     0.04s
entering apply
timer:            Apply BSH     0.63s     0.63s
timer:     Truncate new psi     0.08s     0.08s
residuals [8.037522e-03, 1.015341e-02, 9.281039e-03, 9.230621e-02, 1.175955e-01, 3.764534e-02, 1.879401e-01, 6.140305e-02, 1.175952e-01, 1.167271e-01, 9.230632e-02, 1.967229e-01]
BSH residual: rms 1.071549e-01    max 1.967229e-01
timer:         BSH residual     0.05s     0.05s
timer: Update subspace stuf     0.04s     0.04s
Subspace solution [*]   1.00000000

timer:   Subspace transform     0.00s     0.00s
Norm of vector changes alpha : rms 1.071549e-01    max 1.967229e-01
ORTHOG2a: maxq trantol 1.387081e-02 8.333333e-07
ORTHOG2a: maxq trantol 2.575209e-04 8.333333e-07
timer:       Orthonormalize     0.08s     0.08s

Iteration 1 at time 5.9s

timer:        Boys localize     0.16s     0.16s
timer:      Rotate subspace     0.05s     0.05s
timer:       Make densities     0.02s     0.02s
timer:       Load balancing     0.00s     0.00s
delta rho 1.539496e-01 1.539496e-01 residuals 1.967229e-01 0.000000e+00
timer:       Nuclear energy     0.01s     0.01s
timer:              Coulomb     0.09s     0.09s
timer:        DFT potential     0.06s     0.06s
timer:                V*psi     0.11s     0.11s
timer:        Truncate Vpsi     0.13s     0.13s
timer:            PE matrix     0.02s     0.02s
timer:    KEmat reconstruct     0.01s     0.01s
timer:  KEmat differentiate     0.22s     0.22s
timer:       KEmat compress     0.03s     0.03s
timer: KEmat inner products     0.03s     0.03s
timer:            KE matrix     0.29s     0.29s
timer: Make fock matrix res     0.00s     0.00s

              kinetic     150.20742687
         nonlocal psp       0.00000000
   nuclear attraction    -493.80143574
              coulomb     140.91362564
                  PCM       0.00000000
 exchange-correlation     -19.28379383
    nuclear-repulsion      69.40167792
                total    -152.56249915

timer: Compute residual stu     0.05s     0.05s
entering apply
timer:            Apply BSH     0.61s     0.61s
timer:     Truncate new psi     0.07s     0.07s
residuals [8.408520e-04, 9.274959e-04, 1.636297e-03, 5.018691e-02, 3.416453e-02, 1.457099e-02, 1.213876e-01, 2.387038e-02, 3.416470e-02, 3.806887e-02, 5.018679e-02, 1.208535e-01]
BSH residual: rms 5.697076e-02    max 1.213876e-01
timer:         BSH residual     0.04s     0.04s
timer: Update subspace stuf     0.07s     0.07s
Subspace solution [*]   0.30442056   0.69557944

timer:   Subspace transform     0.01s     0.01s
Norm of vector changes alpha : rms 3.672069e-02    max 7.705445e-02
ORTHOG2a: maxq trantol 4.191710e-03 8.333333e-07
timer:       Orthonormalize     0.06s     0.06s

Iteration 2 at time 8.0s

timer:        Boys localize     0.16s     0.16s
timer:      Rotate subspace     0.05s     0.05s
timer:       Make densities     0.02s     0.02s
delta rho 5.382668e-02 5.382668e-02 residuals 1.213876e-01 0.000000e+00
timer:       Nuclear energy     0.01s     0.01s
timer:              Coulomb     0.10s     0.10s
timer:        DFT potential     0.07s     0.07s
timer:                V*psi     0.11s     0.11s
timer:        Truncate Vpsi     0.13s     0.13s
timer:            PE matrix     0.02s     0.02s
timer:    KEmat reconstruct     0.01s     0.01s
timer:  KEmat differentiate     0.22s     0.22s
timer:       KEmat compress     0.03s     0.03s
timer: KEmat inner products     0.02s     0.02s
timer:            KE matrix     0.28s     0.28s
timer: Make fock matrix res     0.00s     0.00s

              kinetic     151.55309658
         nonlocal psp       0.00000000
   nuclear attraction    -496.94755921
              coulomb     142.87892554
                  PCM       0.00000000
 exchange-correlation     -19.50254628
    nuclear-repulsion      69.40167792
                total    -152.61640545

timer: Compute residual stu     0.06s     0.06s
entering apply
timer:            Apply BSH     0.62s     0.62s
timer:     Truncate new psi     0.08s     0.08s
residuals [7.002435e-04, 5.336192e-04, 9.116228e-04, 1.315873e-02, 8.344264e-03, 1.059099e-02, 1.357114e-02, 7.993124e-03, 8.344368e-03, 9.741822e-03, 1.315875e-02, 1.348105e-02]
BSH residual: rms 9.678339e-03    max 1.357114e-02
timer:         BSH residual     0.04s     0.04s
timer: Update subspace stuf     0.11s     0.11s
Subspace solution [*]  -0.02645930  -0.10328089   1.12974020

timer:   Subspace transform     0.03s     0.03s
Norm of vector changes alpha : rms 1.044286e-02    max 1.527332e-02
ORTHOG2a: maxq trantol 1.755046e-03 8.333333e-07
timer:       Orthonormalize     0.06s     0.06s

Iteration 3 at time 10.3s

timer:        Boys localize     0.17s     0.17s
timer:      Rotate subspace     0.05s     0.05s
timer:       Make densities     0.02s     0.02s
delta rho 9.483455e-03 9.483455e-03 residuals 1.357114e-02 0.000000e+00
timer:       Nuclear energy     0.01s     0.01s
timer:              Coulomb     0.10s     0.10s
timer:        DFT potential     0.07s     0.07s
timer:                V*psi     0.12s     0.12s
timer:        Truncate Vpsi     0.13s     0.13s
timer:            PE matrix     0.02s     0.02s
timer:    KEmat reconstruct     0.01s     0.01s
timer:  KEmat differentiate     0.22s     0.22s
timer:       KEmat compress     0.03s     0.03s
timer: KEmat inner products     0.03s     0.03s
timer:            KE matrix     0.28s     0.28s
timer: Make fock matrix res     0.00s     0.00s

              kinetic     151.60943114
         nonlocal psp       0.00000000
   nuclear attraction    -497.13568453
              coulomb     143.02057457
                  PCM       0.00000000
 exchange-correlation     -19.51846629
    nuclear-repulsion      69.40167792
                total    -152.62246719

timer: Compute residual stu     0.05s     0.05s
entering apply
timer:            Apply BSH     0.63s     0.63s
timer:     Truncate new psi     0.08s     0.08s
residuals [1.934808e-04, 1.950835e-04, 2.632542e-04, 6.462725e-03, 3.273632e-03, 5.340882e-03, 8.244822e-03, 3.794819e-03, 3.273615e-03, 3.269357e-03, 6.462717e-03, 7.689860e-03]
BSH residual: rms 4.880548e-03    max 8.244822e-03
timer:         BSH residual     0.05s     0.05s
timer: Update subspace stuf     0.17s     0.17s
Subspace solution [*]  -0.04805433  -0.11091141  -0.02987711   1.18884285

timer:   Subspace transform     0.02s     0.02s
Norm of vector changes alpha : rms 6.335568e-03    max 1.055017e-02
ORTHOG2a: maxq trantol 6.350681e-04 8.333333e-07
timer:       Orthonormalize     0.06s     0.06s

Iteration 4 at time 12.6s

timer:        Boys localize     0.16s     0.16s
timer:      Rotate subspace     0.05s     0.05s
timer:       Make densities     0.02s     0.02s
delta rho 5.434995e-03 5.434995e-03 residuals 8.244822e-03 0.000000e+00
timer:       Nuclear energy     0.01s     0.01s
timer:              Coulomb     0.09s     0.09s
timer:        DFT potential     0.06s     0.06s
timer:                V*psi     0.11s     0.11s
timer:        Truncate Vpsi     0.13s     0.13s
timer:            PE matrix     0.02s     0.02s
timer:    KEmat reconstruct     0.01s     0.01s
timer:  KEmat differentiate     0.21s     0.21s
timer:       KEmat compress     0.03s     0.03s
timer: KEmat inner products     0.03s     0.03s
timer:            KE matrix     0.27s     0.27s
timer: Make fock matrix res     0.00s     0.00s

              kinetic     151.59246585
         nonlocal psp       0.00000000
   nuclear attraction    -497.09505000
              coulomb     142.99419428
                  PCM       0.00000000
 exchange-correlation     -19.51731933
    nuclear-repulsion      69.40167792
                total    -152.62403129

timer: Compute residual stu     0.05s     0.05s
entering apply
timer:            Apply BSH     0.62s     0.62s
timer:     Truncate new psi     0.08s     0.08s
residuals [1.014343e-04, 1.080846e-04, 9.767685e-05, 4.413981e-03, 1.191619e-03, 2.203038e-03, 4.454363e-03, 1.652814e-03, 1.191616e-03, 1.672467e-03, 4.413979e-03, 4.793060e-03]
BSH residual: rms 2.814175e-03    max 4.793060e-03
timer:         BSH residual     0.04s     0.04s
timer: Update subspace stuf     0.18s     0.18s
Subspace solution [*]   0.00151317   0.03137584  -0.17785388   0.11908921   1.02587566

timer:   Subspace transform     0.02s     0.02s
Norm of vector changes alpha : rms 2.682172e-03    max 4.272415e-03
ORTHOG2a: maxq trantol 7.698646e-04 8.333333e-07
timer:       Orthonormalize     0.06s     0.06s

Iteration 5 at time 14.9s

timer:        Boys localize     0.17s     0.17s
timer:      Rotate subspace     0.05s     0.05s
timer:       Make densities     0.02s     0.02s
delta rho 2.144486e-03 2.144486e-03 residuals 4.793060e-03 0.000000e+00
timer:       Nuclear energy     0.01s     0.01s
timer:              Coulomb     0.10s     0.10s
timer:        DFT potential     0.06s     0.06s
timer:                V*psi     0.11s     0.11s
timer:        Truncate Vpsi     0.13s     0.13s
timer:            PE matrix     0.02s     0.02s
timer:    KEmat reconstruct     0.01s     0.01s
timer:  KEmat differentiate     0.22s     0.22s
timer:       KEmat compress     0.03s     0.03s
timer: KEmat inner products     0.03s     0.03s
timer:            KE matrix     0.28s     0.28s
timer: Make fock matrix res     0.00s     0.00s

              kinetic     151.57772771
         nonlocal psp       0.00000000
   nuclear attraction    -497.05131405
              coulomb     142.96203264
                  PCM       0.00000000
 exchange-correlation     -19.51456985
    nuclear-repulsion      69.40167792
                total    -152.62444563

timer: Compute residual stu     0.04s     0.04s
entering apply
timer:            Apply BSH     0.60s     0.60s
timer:     Truncate new psi     0.08s     0.08s
residuals [7.608172e-05, 1.022691e-04, 6.990206e-05, 2.438534e-03, 6.328723e-04, 1.275028e-03, 1.880605e-03, 9.609618e-04, 6.328713e-04, 7.392405e-04, 2.438535e-03, 1.701058e-03]
BSH residual: rms 1.361402e-03    max 2.438535e-03
timer:         BSH residual     0.04s     0.04s
timer: Update subspace stuf     0.18s     0.18s
Subspace solution [*]  -0.00236667   0.03936184  -0.28081094  -0.16327572   1.40709149

timer:   Subspace transform     0.02s     0.02s
Norm of vector changes alpha : rms 2.370557e-03    max 4.132304e-03
ORTHOG2a: maxq trantol 3.371567e-04 8.333333e-07
timer:       Orthonormalize     0.06s     0.06s

Iteration 6 at time 17.2s

timer:        Boys localize     0.17s     0.17s
timer:      Rotate subspace     0.05s     0.05s
timer:       Make densities     0.02s     0.02s
delta rho 2.225379e-03 2.225379e-03 residuals 2.438535e-03 0.000000e+00
timer:       Nuclear energy     0.01s     0.01s
timer:              Coulomb     0.10s     0.10s
timer:        DFT potential     0.07s     0.07s
timer:                V*psi     0.11s     0.11s
timer:        Truncate Vpsi     0.13s     0.13s
timer:            PE matrix     0.01s     0.01s
timer:    KEmat reconstruct     0.01s     0.01s
timer:  KEmat differentiate     0.22s     0.22s
timer:       KEmat compress     0.03s     0.03s
timer: KEmat inner products     0.03s     0.03s
timer:            KE matrix     0.28s     0.28s
timer: Make fock matrix res     0.00s     0.00s

              kinetic     151.58085633
         nonlocal psp       0.00000000
   nuclear attraction    -497.04965739
              coulomb     142.95719170
                  PCM       0.00000000
 exchange-correlation     -19.51478055
    nuclear-repulsion      69.40167792
                total    -152.62471199

timer: Compute residual stu     0.05s     0.05s
entering apply
timer:            Apply BSH     0.61s     0.61s
timer:     Truncate new psi     0.08s     0.08s
residuals [7.206207e-05, 8.848310e-05, 5.969047e-05, 1.678059e-03, 4.576570e-04, 6.445238e-04, 1.270801e-03, 5.623678e-04, 4.576642e-04, 4.767413e-04, 1.678058e-03, 1.222660e-03]
BSH residual: rms 9.190592e-04    max 1.678059e-03
timer:         BSH residual     0.04s     0.04s
timer: Update subspace stuf     0.17s     0.17s
Subspace solution [*]   0.04893585  -0.10537880  -0.38619149   0.03258994   1.41004451

timer:   Subspace transform     0.02s     0.02s
Norm of vector changes alpha : rms 2.089738e-03    max 3.879318e-03
ORTHOG2a: maxq trantol 1.804701e-04 8.333333e-07
timer:       Orthonormalize     0.06s     0.06s

Iteration 7 at time 19.4s

timer:        Boys localize     0.16s     0.16s
timer:      Rotate subspace     0.05s     0.05s
timer:       Make densities     0.02s     0.02s
delta rho 2.005323e-03 2.005323e-03 residuals 1.678059e-03 0.000000e+00
timer:       Nuclear energy     0.01s     0.01s
timer:              Coulomb     0.09s     0.09s
timer:        DFT potential     0.07s     0.07s
timer:                V*psi     0.11s     0.11s
timer:        Truncate Vpsi     0.12s     0.12s
timer:            PE matrix     0.02s     0.02s
timer:    KEmat reconstruct     0.01s     0.01s
timer:  KEmat differentiate     0.22s     0.22s
timer:       KEmat compress     0.03s     0.03s
timer: KEmat inner products     0.03s     0.03s
timer:            KE matrix     0.28s     0.28s
timer: Make fock matrix res     0.00s     0.00s

              kinetic     151.58915073
         nonlocal psp       0.00000000
   nuclear attraction    -497.05862660
              coulomb     142.95833146
                  PCM       0.00000000
 exchange-correlation     -19.51538549
    nuclear-repulsion      69.40167792
                total    -152.62485199

timer: Compute residual stu     0.05s     0.05s
entering apply
timer:            Apply BSH     0.60s     0.60s
timer:     Truncate new psi     0.07s     0.07s
residuals [6.642283e-05, 1.997220e-04, 5.588378e-05, 1.079615e-03, 2.752157e-04, 3.570702e-04, 1.079644e-03, 4.696247e-04, 2.752015e-04, 3.095397e-04, 1.079616e-03, 1.063357e-03]
BSH residual: rms 6.627130e-04    max 1.079644e-03
timer:         BSH residual     0.04s     0.04s
timer: Update subspace stuf     0.17s     0.17s
Subspace solution [*]   0.10792896  -0.02268603  -0.50246962   0.21590549   1.20132119

timer:   Subspace transform     0.02s     0.02s
Norm of vector changes alpha : rms 1.064568e-03    max 2.132974e-03
ORTHOG2a: maxq trantol 1.527858e-04 8.333333e-07
timer:       Orthonormalize     0.06s     0.06s

Iteration 8 at time 21.7s

timer:        Boys localize     0.16s     0.16s
timer:      Rotate subspace     0.04s     0.04s
timer:       Make densities     0.02s     0.02s
delta rho 1.127959e-03 1.127959e-03 residuals 1.079644e-03 0.000000e+00
timer:       Nuclear energy     0.01s     0.01s
timer:              Coulomb     0.08s     0.08s
timer:        DFT potential     0.06s     0.06s
timer:                V*psi     0.11s     0.11s
timer:        Truncate Vpsi     0.13s     0.13s
timer:            PE matrix     0.01s     0.01s
timer:    KEmat reconstruct     0.01s     0.01s
timer:  KEmat differentiate     0.21s     0.21s
timer:       KEmat compress     0.03s     0.03s
timer: KEmat inner products     0.02s     0.02s
timer:            KE matrix     0.27s     0.27s
timer: Make fock matrix res     0.00s     0.00s

              kinetic     151.57891620
         nonlocal psp       0.00000000
   nuclear attraction    -497.03540636
              coulomb     142.94350650
                  PCM       0.00000000
 exchange-correlation     -19.51357684
    nuclear-repulsion      69.40167792
                total    -152.62488259

timer: Compute residual stu     0.04s     0.04s
entering apply
timer:            Apply BSH     0.61s     0.61s
timer:     Truncate new psi     0.07s     0.07s
residuals [6.322351e-05, 1.188861e-04, 5.618240e-05, 5.148518e-04, 2.189773e-04, 3.148180e-04, 4.811629e-04, 3.102088e-04, 2.189527e-04, 2.834779e-04, 5.148490e-04, 4.940777e-04]
BSH residual: rms 3.414004e-04    max 5.148518e-04
timer:         BSH residual     0.04s     0.04s
timer: Update subspace stuf     0.17s     0.17s
Subspace solution [*]   0.10859231   0.04105131  -0.47532448  -0.15464999   1.48033085

timer:   Subspace transform     0.02s     0.02s
Norm of vector changes alpha : rms 7.761187e-04    max 1.561976e-03
ORTHOG2a: maxq trantol 1.077146e-04 8.333333e-07
timer:       Orthonormalize     0.06s     0.06s

Iteration 9 at time 23.9s

timer:        Boys localize     0.17s     0.17s
timer:      Rotate subspace     0.04s     0.04s
timer:       Make densities     0.02s     0.02s
delta rho 8.140308e-04 8.140308e-04 residuals 5.148518e-04 0.000000e+00
timer:       Nuclear energy     0.01s     0.01s
timer:              Coulomb     0.09s     0.09s
timer:        DFT potential     0.06s     0.06s
timer:                V*psi     0.11s     0.11s
timer:        Truncate Vpsi     0.13s     0.13s
timer:            PE matrix     0.01s     0.01s
timer:    KEmat reconstruct     0.01s     0.01s
timer:  KEmat differentiate     0.21s     0.21s
timer:       KEmat compress     0.03s     0.03s
timer: KEmat inner products     0.02s     0.02s
timer:            KE matrix     0.27s     0.27s
timer: Make fock matrix res     0.00s     0.00s

              kinetic     151.58204659
         nonlocal psp       0.00000000
   nuclear attraction    -497.04404519
              coulomb     142.94942135
                  PCM       0.00000000
 exchange-correlation     -19.51400675
    nuclear-repulsion      69.40167792
                total    -152.62490608

timer: Compute residual stu     0.04s     0.04s
entering apply
timer:            Apply BSH     0.63s     0.63s
timer:     Truncate new psi     0.07s     0.07s
residuals [5.833723e-05, 1.625338e-04, 5.224614e-05, 3.191361e-04, 2.099437e-04, 2.184513e-04, 3.122254e-04, 2.384634e-04, 2.099350e-04, 2.057815e-04, 3.191339e-04, 2.987645e-04]
BSH residual: rms 2.341777e-04    max 3.191361e-04
timer:         BSH residual     0.05s     0.05s
timer: Update subspace stuf     0.18s     0.18s
Subspace solution [*]   0.02734353   0.02698478  -0.19240890  -0.25478539   1.39286598

timer:   Subspace transform     0.02s     0.02s
Norm of vector changes alpha : rms 4.297950e-04    max 7.399286e-04
ORTHOG2a: maxq trantol 1.001235e-04 8.333333e-07
timer:       Orthonormalize     0.06s     0.06s

Iteration 10 at time 26.2s

timer:        Boys localize     0.17s     0.17s
timer:      Rotate subspace     0.05s     0.05s
timer:       Make densities     0.02s     0.02s
timer:       Load balancing     0.00s     0.00s
delta rho 4.009236e-04 4.009236e-04 residuals 3.191361e-04 0.000000e+00
timer:       Nuclear energy     0.01s     0.01s
timer:              Coulomb     0.09s     0.09s
timer:        DFT potential     0.06s     0.06s
timer:                V*psi     0.11s     0.11s
timer:        Truncate Vpsi     0.13s     0.13s
timer:            PE matrix     0.01s     0.01s
timer:    KEmat reconstruct     0.01s     0.01s
timer:  KEmat differentiate     0.21s     0.21s
timer:       KEmat compress     0.03s     0.03s
timer: KEmat inner products     0.03s     0.03s
timer:            KE matrix     0.27s     0.27s
timer: Make fock matrix res     0.00s     0.00s

              kinetic     151.57953221
         nonlocal psp       0.00000000
   nuclear attraction    -497.04018628
              coulomb     142.94773395
                  PCM       0.00000000
 exchange-correlation     -19.51366570
    nuclear-repulsion      69.40167792
                total    -152.62490790


Converged!

timer:              Overlap     0.01s     0.01s
timer:      focka eigen sol     0.00s     0.00s
 
alpha eigenvalues
[*] -18.61374697  -9.88030121  -9.79742839  -0.95624091  -0.68912375  -0.52783056  -0.43604853  -0.41151087  -0.39487535  -0.35863507  -0.33819015  -0.22343036


 Dipole Moment (a.u.)
 -----------

     x:  1.055980e+00
     y:  4.420375e-01
     z:  7.195013e-08
 Total Dipole Moment:  1.144767e+00 

timer:               dipole     0.00s     0.00s
Orbitals are localized - energies are diagonal Fock matrix elements

Analysis of alpha MO vectors
timer:      Analyze vectors     0.30s     0.30s
timer: Compute eigen gesv a     0.00s     0.00s
  MO   0 : occ=1.00 : energy= -18.61319744 : center=(-2.34,-0.52,0.00) : radius=0.23
            O(0)   s( 0) 0.995  
  MO   1 : occ=1.00 : energy=  -9.79738008 : center=(2.21,-0.28,0.00) : radius=0.32
            C(2)   s(18) 0.994  
  MO   2 : occ=1.00 : energy=  -9.87992474 : center=(-0.43,0.77,0.00) : radius=0.32
            C(1)   s( 9)-0.995  
  MO   3 : occ=1.00 : energy=  -0.58363990 : center=(-1.60,-0.03,-0.46) : radius=1.50
            O(0)  pz( 4) 0.366     C(1)  pz(13) 0.250     O(0)  px( 2)-0.244     O(0)  pz( 8) 0.228     C(1)  px(11) 0.202     O(0)   s( 1)-0.198     C(1)   s(10)-0.182     O(0)  py( 3)-0.167     C(1)  pz(17) 0.155  
  MO   4 : occ=1.00 : energy=  -0.45682639 : center=(2.82,0.18,1.08) : radius=1.67
            C(2)  pz(22)-0.319     H(5)   s(31)-0.306     H(5)   s(32)-0.227     C(2)  px(20)-0.191     C(2)   s(19)-0.187     C(2)   s(23)-0.168     C(2)  pz(26)-0.154  
  MO   5 : occ=1.00 : energy=  -0.46680020 : center=(-0.48,2.18,-0.00) : radius=1.56
            C(1)  py(12) 0.392     H(3)   s(27) 0.319     H(3)   s(28) 0.264     C(1)   s(14) 0.245     C(1)   s(10) 0.220     C(2)   s(23)-0.162  
  MO   6 : occ=1.00 : energy=  -0.41767212 : center=(-2.81,-0.20,0.00) : radius=1.42
            O(0)  px( 2)-0.455     O(0)   s( 5) 0.388     O(0)   s( 1) 0.302     O(0)  px( 6)-0.294     C(2)   s(23) 0.264     O(0)  py( 3) 0.228  
  MO   7 : occ=1.00 : energy=  -0.50813378 : center=(0.93,0.23,0.00) : radius=1.57
            C(2)  px(20) 0.350     C(1)  px(11)-0.347     C(2)   s(23)-0.260     C(1)   s(10)-0.230     C(2)   s(19)-0.179     C(2)  px(24) 0.179     C(1)   s(14)-0.165  
  MO   8 : occ=1.00 : energy=  -0.45682626 : center=(2.82,0.18,-1.08) : radius=1.67
            C(2)  pz(22) 0.319     H(6)   s(33)-0.306     H(6)   s(34)-0.227     C(2)  px(20)-0.191     C(2)   s(19)-0.187     C(2)   s(23)-0.168     C(2)  pz(26) 0.154  
  MO   9 : occ=1.00 : energy=  -0.44752762 : center=(2.17,-1.62,0.00) : radius=1.61
            C(2)  py(21)-0.395     H(4)   s(29) 0.304     C(2)   s(23) 0.219     H(4)   s(30) 0.213     C(2)  py(25)-0.200     C(2)   s(19) 0.193  
  MO  10 : occ=1.00 : energy=  -0.58364046 : center=(-1.60,-0.03,0.46) : radius=1.50
            O(0)  pz( 4)-0.366     C(1)  pz(13)-0.250     O(0)  px( 2)-0.244     O(0)  pz( 8)-0.228     C(1)  px(11) 0.202     O(0)   s( 1)-0.198     C(1)   s(10)-0.182     O(0)  py( 3)-0.167     C(1)  pz(17)-0.155  
  MO  11 : occ=1.00 : energy=  -0.41579334 : center=(-2.19,-1.07,-0.00) : radius=1.44
            O(0)  py( 3) 0.509     O(0)   s( 5)-0.392     O(0)  py( 7) 0.333     O(0)   s( 1)-0.293     C(2)   s(23) 0.254  

Solving NDIM= 3  with thresh 1.000000e-06     k 8    conv 1.000000e-04 

timer:     Project vnuclear     0.55s     0.55s
timer:     project ao basis     0.44s     0.44s

Iteration 0 at time 28.9s

timer:        Boys localize     0.19s     0.19s
timer:      Rotate subspace     0.06s     0.06s
timer:       Make densities     0.02s     0.02s
timer:       Load balancing     0.00s     0.00s
timer:       Nuclear energy     0.03s     0.03s
timer:              Coulomb     0.33s     0.33s
timer:        DFT potential     0.09s     0.09s
timer:                V*psi     0.42s     0.42s
timer:        Truncate Vpsi     0.38s     0.38s
timer:            PE matrix     0.02s     0.02s
timer:    KEmat reconstruct     0.01s     0.01s
timer:  KEmat differentiate     0.22s     0.22s
timer:       KEmat compress     0.03s     0.03s
timer: KEmat inner products     0.03s     0.03s
timer:            KE matrix     0.29s     0.29s
timer: Make fock matrix res     0.00s     0.00s

              kinetic     151.58042963
         nonlocal psp       0.00000000
   nuclear attraction    -497.04019457
              coulomb     142.94750826
                  PCM       0.00000000
 exchange-correlation     -19.51366471
    nuclear-repulsion      69.40167792
                total    -152.62424347

timer: Compute residual stu     0.10s     0.10s
entering apply
timer:            Apply BSH     4.00s     4.00s
timer:     Truncate new psi     0.26s     0.26s
residuals [2.609522e-04, 2.719269e-04, 2.511464e-04, 4.241587e-04, 3.933047e-04, 4.089402e-04, 4.382641e-04, 4.211950e-04, 3.932924e-04, 3.875124e-04, 4.241517e-04, 3.845100e-04]
BSH residual: rms 3.773840e-04    max 4.382641e-04
timer:         BSH residual     0.09s     0.09s
timer: Update subspace stuf     0.04s     0.04s
Subspace solution [*]   1.00000000

timer:   Subspace transform     0.01s     0.01s
Norm of vector changes alpha : rms 3.773840e-04    max 4.382641e-04
ORTHOG2a: maxq trantol 1.320235e-04 8.333333e-09
timer:       Orthonormalize     0.13s     0.13s

Iteration 1 at time 35.8s

timer:        Boys localize     0.36s     0.36s
timer:      Rotate subspace     0.11s     0.11s
timer:       Make densities     0.05s     0.05s
timer:       Load balancing     0.00s     0.00s
delta rho 6.153219e-04 6.153219e-04 residuals 4.382641e-04 0.000000e+00
timer:       Nuclear energy     0.03s     0.03s
timer:              Coulomb     0.57s     0.57s
timer:        DFT potential     0.18s     0.18s
timer:                V*psi     0.22s     0.22s
timer:        Truncate Vpsi     0.24s     0.24s
timer:            PE matrix     0.03s     0.03s
timer:    KEmat reconstruct     0.01s     0.01s
timer:  KEmat differentiate     0.46s     0.46s
timer:       KEmat compress     0.07s     0.07s
timer: KEmat inner products     0.04s     0.04s
timer:            KE matrix     0.59s     0.59s
timer: Make fock matrix res     0.00s     0.00s

              kinetic     151.57983863
         nonlocal psp       0.00000000
   nuclear attraction    -497.04216638
              coulomb     142.94768438
                  PCM       0.00000000
 exchange-correlation     -19.51377458
    nuclear-repulsion      69.40167792
                total    -152.62674002


Converged!

timer:              Overlap     0.03s     0.03s
timer:      focka eigen sol     0.00s     0.00s
 
alpha eigenvalues
[*] -18.61397862  -9.88022336  -9.79735455  -0.95641647  -0.68925517  -0.52795818  -0.43612500  -0.41155521  -0.39495422  -0.35871345  -0.33825524  -0.22352497


 Dipole Moment (a.u.)
 -----------

     x:  1.055662e+00
     y:  4.422576e-01
     z:  7.317223e-08
 Total Dipole Moment:  1.144558e+00 

timer:               dipole     0.00s     0.00s
Orbitals are localized - energies are diagonal Fock matrix elements

Analysis of alpha MO vectors
timer:      Analyze vectors     0.56s     0.56s
timer: Compute eigen gesv a     0.00s     0.00s
  MO   0 : occ=1.00 : energy= -18.61342730 : center=(-2.34,-0.52,0.00) : radius=0.23
            O(0)   s( 0) 0.995  
  MO   1 : occ=1.00 : energy=  -9.79730638 : center=(2.21,-0.28,0.00) : radius=0.32
            C(2)   s(18) 0.994  
  MO   2 : occ=1.00 : energy=  -9.87984561 : center=(-0.43,0.77,0.00) : radius=0.32
            C(1)   s( 9)-0.995  
  MO   3 : occ=1.00 : energy=  -0.58375032 : center=(-1.60,-0.03,-0.46) : radius=1.50
            O(0)  pz( 4) 0.366     C(1)  pz(13) 0.250     O(0)  px( 2)-0.244     O(0)  pz( 8) 0.228     C(1)  px(11) 0.202     O(0)   s( 1)-0.198     C(1)   s(10)-0.182     O(0)  py( 3)-0.167     C(1)  pz(17) 0.155  
  MO   4 : occ=1.00 : energy=  -0.45689817 : center=(2.82,0.18,1.08) : radius=1.67
            C(2)  pz(22)-0.319     H(5)   s(31)-0.306     H(5)   s(32)-0.227     C(2)  px(20)-0.191     C(2)   s(19)-0.187     C(2)   s(23)-0.168     C(2)  pz(26)-0.154  
  MO   5 : occ=1.00 : energy=  -0.46692220 : center=(-0.48,2.18,-0.00) : radius=1.56
            C(1)  py(12) 0.392     H(3)   s(27) 0.319     H(3)   s(28) 0.264     C(1)   s(14) 0.245     C(1)   s(10) 0.220     C(2)   s(23)-0.162  
  MO   6 : occ=1.00 : energy=  -0.41778818 : center=(-2.81,-0.20,0.00) : radius=1.42
            O(0)  px( 2)-0.455     O(0)   s( 5) 0.388     O(0)   s( 1) 0.302     O(0)  px( 6)-0.294     C(2)   s(23) 0.265     O(0)  py( 3) 0.228  
  MO   7 : occ=1.00 : energy=  -0.50822654 : center=(0.93,0.23,0.00) : radius=1.57
            C(2)  px(20) 0.350     C(1)  px(11)-0.347     C(2)   s(23)-0.260     C(1)   s(10)-0.230     C(2)   s(19)-0.179     C(2)  px(24) 0.179     C(1)   s(14)-0.165  
  MO   8 : occ=1.00 : energy=  -0.45689811 : center=(2.82,0.18,-1.08) : radius=1.67
            C(2)  pz(22) 0.319     H(6)   s(33)-0.306     H(6)   s(34)-0.227     C(2)  px(20)-0.191     C(2)   s(19)-0.187     C(2)   s(23)-0.168     C(2)  pz(26) 0.154  
  MO   9 : occ=1.00 : energy=  -0.44759252 : center=(2.17,-1.62,-0.00) : radius=1.61
            C(2)  py(21)-0.395     H(4)   s(29) 0.305     C(2)   s(23) 0.219     H(4)   s(30) 0.213     C(2)  py(25)-0.200     C(2)   s(19) 0.193  
  MO  10 : occ=1.00 : energy=  -0.58374966 : center=(-1.60,-0.03,0.46) : radius=1.50
            O(0)  pz( 4)-0.366     C(1)  pz(13)-0.250     O(0)  px( 2)-0.244     O(0)  pz( 8)-0.228     C(1)  px(11) 0.202     O(0)   s( 1)-0.198     C(1)   s(10)-0.182     O(0)  py( 3)-0.167     C(1)  pz(17)-0.155  
  MO  11 : occ=1.00 : energy=  -0.41590942 : center=(-2.19,-1.07,-0.00) : radius=1.44
            O(0)  py( 3) 0.509     O(0)   s( 5)-0.392     O(0)  py( 7) 0.333     O(0)   s( 1)-0.293     C(2)   s(23) 0.254  
timer:             plotting     0.00s     0.00s

    Parallel environment
    --------------------
                  #nodes    1
       #threads per node    27+main = 28
          #total threads    28

  RMI message statistics (min / avg / max)
  ----------------------
   #messages in server q    0.00e+00 / 0.00e+00 / 0.00e+00
 #messages sent per node    0.00e+00 / 0.00e+00 / 0.00e+00
    #bytes sent per node    0.00e+00 / 0.00e+00 / 0.00e+00
 #messages recv per node    0.00e+00 / 0.00e+00 / 0.00e+00
    #bytes recv per node    0.00e+00 / 0.00e+00 / 0.00e+00
        #msgs systemwide    0.00e+00
       #bytes systemwide    0.00e+00

  Thread pool statistics (min / avg / max)
  ----------------------
         #tasks per node    0.00e+00 / 0.00e+00 / 0.00e+00
     #max q len per node    0.00e+00 / 0.00e+00 / 0.00e+00
  #hi-pri tasks per node    0.00e+00 / 0.00e+00 / 0.00e+00

         Total wall time    39.6s
         Total  cpu time    39.6s

