MADNESS runtime initialized with 27 threads in the pool and affinity -1 -1 -1

--------------------------------------------
   MADNESS 0.10.1 multiresolution suite
--------------------------------------------

   number of processors ... 1
    processor frequency ... 1.995369e+09
            host system ... linux-gnu
          configured by ... egentles
          configured on ... sn093
          configured at ... Tue Jul 11 16:06:48 EDT 2017
                    CXX ... mpicxx
               CXXFLAGS ... -g -std=c++14 -O3 -Wall -Wno-strict-aliasing -Wno-deprecated -Wno-unused-local-typedefs  -ffast-math -march=native
             tuning for ... default
                    MPI ... multiple
 multi-threaded runtime ... Intel TBB
                   BLAS ... Intel MKL 14342 14342 MFLOP/s
               compiled ... 08:44:05  on  Jul 29 2017
input filename:  /gpfs/home/egentles/auto_test_mad/geometries_LDA_boys/carbon_disulfide.mdns

Angstrom being used to read input coordinates (1 Bohr = 1.88972613 Angstrom)

XY degenerate

 The point group is D2h

Construct XC Functional from LIBXC Library

input line was:  LDA
 1.000 lda_x 
 1.000 lda_c_vwn 

screening parameters
 rhotol, rhomin 1.000000e-07 0.000000e+00
         ggatol 1.000000e-04
polarized  false 


Solving NDIM= 3  with thresh 1.000000e-05     k 8    conv 1.000000e-04 




 MADNESS Hartree-Fock and Density Functional Theory Program
 ----------------------------------------------------------



 geometry
   eprec 1.0e-04
   units atomic
   C             0.00000000           0.00000000           0.00000000
   S             0.00000000           0.00000000           2.93663441
   S             0.00000000           0.00000000          -2.93663441
 end


             restart  false
    restart from AOs  false
 number of processes  1
   no. of io servers  1
   vnuc load bal fac  12
      load bal parts  2
     simulation cube  -5.293663e+01 5.293663e+01
        total charge  0.000000e+00
            smearing  0.000000e+00
 number of electrons  19 19
  number of orbitals  19 19
     spin restricted  true
       xc functional   LDA
          xc library  libxc
 initial guess basis  6-31g
 max krylov subspace  5
    compute protocol  [1.000000e-04, 1.000000e-06]
  energy convergence  1.000000e-05
 density convergence  1.000000e-04
    maximum rotation  2.500000e-01
    polynomial order  -1
       truncate mode  1
  maximum iterations  20
 Convergence criteria are density delta & BSH residual.
        plot density  false
        plot coulomb  false
        plot orbital  0 -1
        plot npoints  101
        plot  volume  default
  localized orbitals  boys
 psp or all electron  all electron
timer:           initialize     0.39s     0.39s

Solving NDIM= 3  with thresh 1.000000e-04     k 6    conv 1.000000e-04 


Solving NDIM= 3  with thresh 1.000000e-04     k 6    conv 1.000000e-04 

timer:     Project vnuclear     0.25s     0.25s
timer:     project ao basis     0.34s     0.34s
guess dens trace 3.800001e+01
timer:        guess density     0.46s     0.46s
timer:   guess Coulomb potn     0.46s     0.46s
timer:       guess lda potn     0.23s     0.23s
timer:        guess overlap     0.02s     0.02s
timer:    KEmat reconstruct     0.01s     0.01s
timer:  KEmat differentiate     0.41s     0.41s
timer:       KEmat compress     0.05s     0.05s
timer: KEmat inner products     0.04s     0.04s
timer:     guess Kinet potn     0.52s     0.52s
timer:           guess fock     1.07s     1.07s
timer:      guess eigen sol     0.00s     0.00s
grouping alpha orbitals into sets
set  0    0  -  1
set  1    2  -  2
set  2    3  -  4
set  3    5  -  10
set  4    11  -  18
timer: guess orbital groupi     0.07s     0.07s
timer:     project ao basis     0.27s     0.27s

Iteration 0 at time 4.4s

warning: boys localization did not fully converge:  743
timer:        Boys localize     0.26s     0.26s
timer:      Rotate subspace     0.09s     0.09s
timer:       Make densities     0.03s     0.03s
timer:       Load balancing     0.00s     0.00s
timer:       Nuclear energy     0.01s     0.01s
timer:              Coulomb     0.11s     0.11s
timer:        DFT potential     0.09s     0.09s
timer:                V*psi     0.18s     0.18s
timer:        Truncate Vpsi     0.23s     0.23s
timer:            PE matrix     0.02s     0.02s
timer:    KEmat reconstruct     0.01s     0.01s
timer:  KEmat differentiate     0.38s     0.38s
timer:       KEmat compress     0.04s     0.04s
timer: KEmat inner products     0.03s     0.03s
timer:            KE matrix     0.47s     0.47s
timer: Make fock matrix res     0.00s     0.00s

              kinetic     832.83769299
         nonlocal psp       0.00000000
   nuclear attraction   -2199.96986046
              coulomb     480.57768772
                  PCM       0.00000000
 exchange-correlation     -53.71468325
    nuclear-repulsion     108.96827976
                total    -831.30088324

timer: Compute residual stu     0.08s     0.08s
entering apply
timer:            Apply BSH     1.18s     1.18s
timer:     Truncate new psi     0.15s     0.15s
residuals [5.163234e-03, 5.163277e-03, 9.631442e-03, 1.064014e-02, 1.063901e-02, 7.814862e-03, 7.814651e-03, 8.266611e-03, 8.266605e-03, 8.266602e-03, 8.266600e-03, 4.365275e-02, 4.365434e-02, 2.279429e-02, 2.279348e-02, 4.364868e-02, 4.365135e-02, 4.365288e-02, 4.365275e-02]
BSH residual: rms 2.639791e-02    max 4.365434e-02
timer:         BSH residual     0.07s     0.07s
timer: Update subspace stuf     0.06s     0.06s
Subspace solution [*]   1.00000000

timer:   Subspace transform     0.01s     0.01s
Norm of vector changes alpha : rms 2.639791e-02    max 4.365434e-02
ORTHOG2a: maxq trantol 3.385594e-03 5.263158e-07
timer:       Orthonormalize     0.11s     0.11s

Iteration 1 at time 8.0s

warning: boys localization did not fully converge:  1923
timer:        Boys localize     0.25s     0.25s
timer:      Rotate subspace     0.07s     0.07s
timer:       Make densities     0.04s     0.04s
timer:       Load balancing     0.00s     0.00s
delta rho 8.513049e-02 8.513049e-02 residuals 4.365434e-02 0.000000e+00
timer:       Nuclear energy     0.01s     0.01s
timer:              Coulomb     0.14s     0.14s
timer:        DFT potential     0.09s     0.09s
timer:                V*psi     0.19s     0.19s
timer:        Truncate Vpsi     0.23s     0.23s
timer:            PE matrix     0.02s     0.02s
timer:    KEmat reconstruct     0.01s     0.01s
timer:  KEmat differentiate     0.39s     0.39s
timer:       KEmat compress     0.05s     0.05s
timer: KEmat inner products     0.03s     0.03s
timer:            KE matrix     0.48s     0.48s
timer: Make fock matrix res     0.00s     0.00s

              kinetic     829.82364343
         nonlocal psp       0.00000000
   nuclear attraction   -2196.40948588
              coulomb     479.70927284
                  PCM       0.00000000
 exchange-correlation     -53.56769703
    nuclear-repulsion     108.96827976
                total    -831.47598688

timer: Compute residual stu     0.10s     0.10s
entering apply
timer:            Apply BSH     1.15s     1.15s
timer:     Truncate new psi     0.15s     0.15s
residuals [7.220484e-04, 7.220425e-04, 1.408155e-03, 2.184235e-03, 2.184658e-03, 1.270412e-03, 1.270342e-03, 1.248003e-03, 1.248010e-03, 1.248016e-03, 1.248019e-03, 1.639129e-02, 1.639125e-02, 8.580581e-03, 8.581026e-03, 1.639278e-02, 1.639148e-02, 1.639091e-02, 1.639103e-02]
BSH residual: rms 9.682776e-03    max 1.639278e-02
timer:         BSH residual     0.07s     0.07s
timer: Update subspace stuf     0.13s     0.13s
Subspace solution [*]  -0.30541024   1.30541024

timer:   Subspace transform     0.02s     0.02s
Norm of vector changes alpha : rms 1.290060e-02    max 2.183993e-02
ORTHOG2a: maxq trantol 1.558349e-03 5.263158e-07
timer:       Orthonormalize     0.11s     0.11s

Iteration 2 at time 11.6s

warning: boys localization did not fully converge:  1935
timer:        Boys localize     0.27s     0.27s
timer:      Rotate subspace     0.07s     0.07s
timer:       Make densities     0.04s     0.04s
delta rho 3.378759e-02 3.378759e-02 residuals 1.639278e-02 0.000000e+00
timer:       Nuclear energy     0.01s     0.01s
timer:              Coulomb     0.15s     0.15s
timer:        DFT potential     0.09s     0.09s
timer:                V*psi     0.20s     0.20s
timer:        Truncate Vpsi     0.25s     0.25s
timer:            PE matrix     0.02s     0.02s
timer:    KEmat reconstruct     0.01s     0.01s
timer:  KEmat differentiate     0.39s     0.39s
timer:       KEmat compress     0.04s     0.04s
timer: KEmat inner products     0.03s     0.03s
timer:            KE matrix     0.48s     0.48s
timer: Make fock matrix res     0.00s     0.00s

              kinetic     829.57588615
         nonlocal psp       0.00000000
   nuclear attraction   -2196.74244739
              coulomb     480.28602873
                  PCM       0.00000000
 exchange-correlation     -53.58492551
    nuclear-repulsion     108.96827976
                total    -831.49717826

timer: Compute residual stu     0.09s     0.09s
entering apply
timer:            Apply BSH     1.16s     1.16s
timer:     Truncate new psi     0.15s     0.15s
residuals [1.015459e-04, 1.015801e-04, 1.727396e-04, 5.527882e-04, 5.531843e-04, 6.720298e-04, 6.720671e-04, 6.206749e-04, 6.206522e-04, 6.204658e-04, 6.205048e-04, 7.720910e-03, 7.721584e-03, 5.564380e-03, 5.564182e-03, 7.718293e-03, 7.720701e-03, 7.721044e-03, 7.720850e-03]
BSH residual: rms 4.716549e-03    max 7.721584e-03
timer:         BSH residual     0.07s     0.07s
timer: Update subspace stuf     0.19s     0.19s
Subspace solution [*]  -0.13561896   0.02673666   1.10888230

timer:   Subspace transform     0.02s     0.02s
Norm of vector changes alpha : rms 5.994547e-03    max 9.855945e-03
ORTHOG2a: maxq trantol 5.705759e-04 5.263158e-07
timer:       Orthonormalize     0.11s     0.11s

Iteration 3 at time 15.5s

warning: boys localization did not fully converge:  1913
timer:        Boys localize     0.28s     0.28s
timer:      Rotate subspace     0.08s     0.08s
timer:       Make densities     0.04s     0.04s
delta rho 1.177521e-02 1.177521e-02 residuals 7.721584e-03 0.000000e+00
timer:       Nuclear energy     0.01s     0.01s
timer:              Coulomb     0.15s     0.15s
timer:        DFT potential     0.10s     0.10s
timer:                V*psi     0.21s     0.21s
timer:        Truncate Vpsi     0.26s     0.26s
timer:            PE matrix     0.03s     0.03s
timer:    KEmat reconstruct     0.01s     0.01s
timer:  KEmat differentiate     0.39s     0.39s
timer:       KEmat compress     0.05s     0.05s
timer: KEmat inner products     0.03s     0.03s
timer:            KE matrix     0.49s     0.49s
timer: Make fock matrix res     0.00s     0.00s

              kinetic     829.50467603
         nonlocal psp       0.00000000
   nuclear attraction   -2196.65819181
              coulomb     480.26268652
                  PCM       0.00000000
 exchange-correlation     -53.57959680
    nuclear-repulsion     108.96827976
                total    -831.50214630

timer: Compute residual stu     0.09s     0.09s
entering apply
timer:            Apply BSH     1.18s     1.18s
timer:     Truncate new psi     0.15s     0.15s
residuals [9.471778e-05, 9.455559e-05, 1.988728e-04, 1.738176e-04, 1.754965e-04, 2.937359e-04, 2.930531e-04, 3.350075e-04, 3.349136e-04, 3.348230e-04, 3.348667e-04, 3.483918e-03, 3.484180e-03, 2.834738e-03, 2.834927e-03, 3.484006e-03, 3.484503e-03, 3.484187e-03, 3.484027e-03]
BSH residual: rms 2.172157e-03    max 3.484503e-03
timer:         BSH residual     0.07s     0.07s
timer: Update subspace stuf     0.25s     0.25s
Subspace solution [*]   0.09186834  -0.32869720  -0.22574084   1.46256970

timer:   Subspace transform     0.03s     0.03s
Norm of vector changes alpha : rms 4.182687e-03    max 6.573727e-03
ORTHOG2a: maxq trantol 2.815357e-04 5.263158e-07
timer:       Orthonormalize     0.11s     0.11s

Iteration 4 at time 19.5s

warning: boys localization did not fully converge:  1887
timer:        Boys localize     0.28s     0.28s
timer:      Rotate subspace     0.08s     0.08s
timer:       Make densities     0.04s     0.04s
delta rho 5.451920e-03 5.451920e-03 residuals 3.484503e-03 0.000000e+00
timer:       Nuclear energy     0.01s     0.01s
timer:              Coulomb     0.15s     0.15s
timer:        DFT potential     0.10s     0.10s
timer:                V*psi     0.21s     0.21s
timer:        Truncate Vpsi     0.26s     0.26s
timer:            PE matrix     0.02s     0.02s
timer:    KEmat reconstruct     0.01s     0.01s
timer:  KEmat differentiate     0.41s     0.41s
timer:       KEmat compress     0.04s     0.04s
timer: KEmat inner products     0.03s     0.03s
timer:            KE matrix     0.50s     0.50s
timer: Make fock matrix res     0.00s     0.00s

              kinetic     829.59587147
         nonlocal psp       0.00000000
   nuclear attraction   -2196.81385410
              coulomb     480.33037790
                  PCM       0.00000000
 exchange-correlation     -53.58476505
    nuclear-repulsion     108.96827976
                total    -831.50409002

timer: Compute residual stu     0.08s     0.08s
entering apply
timer:            Apply BSH     1.15s     1.15s
timer:     Truncate new psi     0.15s     0.15s
residuals [7.489224e-05, 7.452499e-05, 8.429415e-05, 1.529482e-04, 1.547135e-04, 1.434297e-04, 1.396174e-04, 1.213148e-04, 1.212225e-04, 1.213549e-04, 1.213197e-04, 1.598243e-03, 1.597466e-03, 1.226562e-03, 1.224964e-03, 1.597368e-03, 1.597119e-03, 1.597590e-03, 1.599653e-03]
BSH residual: rms 9.864702e-04    max 1.599653e-03
timer:         BSH residual     0.07s     0.07s
timer: Update subspace stuf     0.33s     0.33s
Subspace solution [*]   0.03045885  -0.03332116  -0.20029897   0.00178628   1.20137500

timer:   Subspace transform     0.04s     0.04s
Norm of vector changes alpha : rms 1.770900e-03    max 2.769561e-03
ORTHOG2a: maxq trantol 1.352638e-04 5.263158e-07
timer:       Orthonormalize     0.11s     0.11s

Iteration 5 at time 23.6s

warning: boys localization did not fully converge:  1888
timer:        Boys localize     0.28s     0.28s
timer:      Rotate subspace     0.07s     0.07s
timer:       Make densities     0.04s     0.04s
delta rho 1.807108e-03 1.807108e-03 residuals 1.599653e-03 0.000000e+00
timer:       Nuclear energy     0.01s     0.01s
timer:              Coulomb     0.14s     0.14s
timer:        DFT potential     0.10s     0.10s
timer:                V*psi     0.21s     0.21s
timer:        Truncate Vpsi     0.26s     0.26s
timer:            PE matrix     0.02s     0.02s
timer:    KEmat reconstruct     0.01s     0.01s
timer:  KEmat differentiate     0.39s     0.39s
timer:       KEmat compress     0.05s     0.05s
timer: KEmat inner products     0.03s     0.03s
timer:            KE matrix     0.48s     0.48s
timer: Make fock matrix res     0.00s     0.00s

              kinetic     829.62602991
         nonlocal psp       0.00000000
   nuclear attraction   -2196.86287253
              coulomb     480.35026430
                  PCM       0.00000000
 exchange-correlation     -53.58620219
    nuclear-repulsion     108.96827976
                total    -831.50450074

timer: Compute residual stu     0.09s     0.09s
entering apply
timer:            Apply BSH     1.15s     1.15s
timer:     Truncate new psi     0.16s     0.16s
residuals [6.564761e-05, 6.518579e-05, 6.678000e-05, 1.278677e-04, 1.301889e-04, 1.538211e-04, 1.498979e-04, 1.124816e-04, 1.122034e-04, 1.120216e-04, 1.121354e-04, 8.116159e-04, 8.113923e-04, 5.188769e-04, 5.185223e-04, 8.091039e-04, 8.093195e-04, 8.104740e-04, 8.082874e-04]
BSH residual: rms 4.929948e-04    max 8.116159e-04
timer:         BSH residual     0.07s     0.07s
timer: Update subspace stuf     0.32s     0.32s
Subspace solution [*]   0.02502913  -0.00619504  -0.19891729   0.10766987   1.07241334

timer:   Subspace transform     0.04s     0.04s
Norm of vector changes alpha : rms 7.157489e-04    max 1.124333e-03
ORTHOG2a: maxq trantol 1.524977e-04 5.263158e-07
timer:       Orthonormalize     0.11s     0.11s

Iteration 6 at time 27.6s

warning: boys localization did not fully converge:  1819
timer:        Boys localize     0.27s     0.27s
timer:      Rotate subspace     0.06s     0.06s
timer:       Make densities     0.04s     0.04s
delta rho 1.106501e-03 1.106501e-03 residuals 8.116159e-04 0.000000e+00
timer:       Nuclear energy     0.01s     0.01s
timer:              Coulomb     0.14s     0.14s
timer:        DFT potential     0.09s     0.09s
timer:                V*psi     0.21s     0.21s
timer:        Truncate Vpsi     0.27s     0.27s
timer:            PE matrix     0.02s     0.02s
timer:    KEmat reconstruct     0.01s     0.01s
timer:  KEmat differentiate     0.39s     0.39s
timer:       KEmat compress     0.04s     0.04s
timer: KEmat inner products     0.03s     0.03s
timer:            KE matrix     0.48s     0.48s
timer: Make fock matrix res     0.00s     0.00s

              kinetic     829.61424089
         nonlocal psp       0.00000000
   nuclear attraction   -2196.83911402
              coulomb     480.33701112
                  PCM       0.00000000
 exchange-correlation     -53.58501340
    nuclear-repulsion     108.96827976
                total    -831.50459565

timer: Compute residual stu     0.08s     0.08s
entering apply
timer:            Apply BSH     1.17s     1.17s
timer:     Truncate new psi     0.15s     0.15s
residuals [6.455378e-05, 6.451445e-05, 6.209601e-05, 1.121428e-04, 1.144535e-04, 1.318176e-04, 1.276076e-04, 8.210033e-05, 8.174161e-05, 8.148400e-05, 8.145559e-05, 3.966019e-04, 3.967369e-04, 2.251595e-04, 2.237134e-04, 3.897181e-04, 3.932740e-04, 3.949730e-04, 3.925368e-04]
BSH residual: rms 2.439034e-04    max 3.967369e-04
timer:         BSH residual     0.07s     0.07s
timer: Update subspace stuf     0.32s     0.32s
Subspace solution [*]   0.01218083   0.02843135  -0.20908970  -0.09782602   1.26630355

timer:   Subspace transform     0.04s     0.04s
Norm of vector changes alpha : rms 3.655323e-04    max 5.904597e-04
ORTHOG2a: maxq trantol 1.194908e-04 5.263158e-07
timer:       Orthonormalize     0.11s     0.11s

Iteration 7 at time 31.6s

warning: boys localization did not fully converge:  1856
timer:        Boys localize     0.27s     0.27s
timer:      Rotate subspace     0.07s     0.07s
timer:       Make densities     0.04s     0.04s
delta rho 7.030808e-04 7.030808e-04 residuals 3.967369e-04 0.000000e+00
timer:       Nuclear energy     0.01s     0.01s
timer:              Coulomb     0.15s     0.15s
timer:        DFT potential     0.09s     0.09s
timer:                V*psi     0.20s     0.20s
timer:        Truncate Vpsi     0.24s     0.24s
timer:            PE matrix     0.02s     0.02s
timer:    KEmat reconstruct     0.01s     0.01s
timer:  KEmat differentiate     0.38s     0.38s
timer:       KEmat compress     0.04s     0.04s
timer: KEmat inner products     0.03s     0.03s
timer:            KE matrix     0.47s     0.47s
timer: Make fock matrix res     0.00s     0.00s

              kinetic     829.59836480
         nonlocal psp       0.00000000
   nuclear attraction   -2196.81696751
              coulomb     480.32991938
                  PCM       0.00000000
 exchange-correlation     -53.58418904
    nuclear-repulsion     108.96827976
                total    -831.50459260

timer: Compute residual stu     0.08s     0.08s
entering apply
timer:            Apply BSH     1.15s     1.15s
timer:     Truncate new psi     0.15s     0.15s
residuals [6.289978e-05, 6.271760e-05, 5.718342e-05, 1.064448e-04, 1.089407e-04, 1.135302e-04, 1.092994e-04, 6.963305e-05, 6.916155e-05, 6.921216e-05, 6.901675e-05, 2.606306e-04, 2.604862e-04, 1.601740e-04, 1.589855e-04, 2.506515e-04, 2.548486e-04, 2.697817e-04, 2.718647e-04]
BSH residual: rms 1.685167e-04    max 2.718647e-04
timer:         BSH residual     0.07s     0.07s
timer: Update subspace stuf     0.32s     0.32s
Subspace solution [*]   0.02246255  -0.02152710  -0.18317496   0.04409382   1.13814568

timer:   Subspace transform     0.04s     0.04s
Norm of vector changes alpha : rms 1.939651e-04    max 3.122513e-04
ORTHOG2a: maxq trantol 1.065269e-04 5.263158e-07
timer:       Orthonormalize     0.11s     0.11s

Iteration 8 at time 35.6s

warning: boys localization did not fully converge:  1855
timer:        Boys localize     0.28s     0.28s
timer:      Rotate subspace     0.07s     0.07s
timer:       Make densities     0.04s     0.04s
delta rho 2.585325e-04 2.585325e-04 residuals 2.718647e-04 0.000000e+00
timer:       Nuclear energy     0.01s     0.01s
timer:              Coulomb     0.14s     0.14s
timer:        DFT potential     0.10s     0.10s
timer:                V*psi     0.21s     0.21s
timer:        Truncate Vpsi     0.26s     0.26s
timer:            PE matrix     0.02s     0.02s
timer:    KEmat reconstruct     0.01s     0.01s
timer:  KEmat differentiate     0.40s     0.40s
timer:       KEmat compress     0.04s     0.04s
timer: KEmat inner products     0.03s     0.03s
timer:            KE matrix     0.49s     0.49s
timer: Make fock matrix res     0.00s     0.00s

              kinetic     829.59027810
         nonlocal psp       0.00000000
   nuclear attraction   -2196.80685643
              coulomb     480.32753494
                  PCM       0.00000000
 exchange-correlation     -53.58387086
    nuclear-repulsion     108.96827976
                total    -831.50463449


Converged!

timer:              Overlap     0.02s     0.02s
timer:      focka eigen sol     0.00s     0.00s
 
alpha eigenvalues
[*] -87.75567673 -87.75565528  -9.90166369  -7.67307905  -7.67302122  -5.72615554  -5.72614722  -5.72301332  -5.72300988  -5.72146874  -5.72146356  -0.78480431  -0.70736098  -0.46479363  -0.39466303  -0.35910454  -0.35909226  -0.25465852  -0.25464048


 Dipole Moment (a.u.)
 -----------

     x:  -1.562833e-05
     y:  -1.958820e-05
     z:  1.953298e-05
 Total Dipole Moment:  3.177231e-05 

timer:               dipole     0.00s     0.00s
Orbitals are localized - energies are diagonal Fock matrix elements

Analysis of alpha MO vectors
timer:      Analyze vectors     0.47s     0.47s
timer: Compute eigen gesv a     0.00s     0.00s
  MO   0 : occ=1.00 : energy= -87.75549968 : center=(0.00,0.00,2.94) : radius=0.11
            S(1)   s( 9) 0.996  
  MO   1 : occ=1.00 : energy= -87.75551041 : center=(0.00,0.00,-2.94) : radius=0.11
            S(2)   s(22)-0.996  
  MO   2 : occ=1.00 : energy=  -9.90159490 : center=(-0.00,-0.00,0.00) : radius=0.32
            C(0)   s( 0) 0.994  
  MO   3 : occ=1.00 : energy=  -7.67311790 : center=(-0.00,-0.00,2.93) : radius=0.53
            S(1)   s(10)-1.026     S(1)   s( 9) 0.283  
  MO   4 : occ=1.00 : energy=  -7.67312437 : center=(-0.00,-0.00,-2.93) : radius=0.53
            S(2)   s(23)-1.026     S(2)   s(22) 0.283  
  MO   5 : occ=1.00 : energy=  -5.72602870 : center=(-0.00,-0.00,-2.94) : radius=0.50
            S(2)  pz(26) 0.990  
  MO   6 : occ=1.00 : energy=  -5.72602179 : center=(-0.00,-0.00,2.94) : radius=0.50
            S(1)  pz(13) 0.990  
  MO   7 : occ=1.00 : energy=  -5.72219930 : center=(-0.00,0.00,-2.94) : radius=0.50
            S(2)  py(25) 0.990  
  MO   8 : occ=1.00 : energy=  -5.72219931 : center=(0.00,-0.00,-2.94) : radius=0.50
            S(2)  px(24) 0.990  
  MO   9 : occ=1.00 : energy=  -5.72219205 : center=(0.00,0.00,2.94) : radius=0.50
            S(1)  py(12) 0.990  
  MO  10 : occ=1.00 : energy=  -5.72219237 : center=(0.00,-0.00,2.94) : radius=0.50
            S(1)  px(11)-0.990  
  MO  11 : occ=1.00 : energy=  -0.43690474 : center=(0.51,0.38,1.80) : radius=2.16
            S(1)  px(15) 0.402     S(1)  py(16) 0.299     S(1)   s(14) 0.232     S(1)  pz(17)-0.202     C(0)  pz( 4) 0.189     C(0)  px( 2) 0.188     S(1)  px(19) 0.188  
  MO  12 : occ=1.00 : energy=  -0.43690880 : center=(0.44,0.46,-1.80) : radius=2.16
            S(2)  py(29) 0.359     S(2)  px(28) 0.350     S(2)   s(27) 0.232     S(2)  pz(30) 0.202     C(0)  pz( 4)-0.189     C(0)  py( 3) 0.168     S(2)  py(33) 0.168     C(0)  px( 2) 0.163     S(2)  px(32) 0.163  
  MO  13 : occ=1.00 : energy=  -0.47912294 : center=(-0.00,-0.00,3.64) : radius=1.89
            S(1)   s(14) 0.633     S(1)   s(18) 0.406     S(1)  pz(17) 0.375     S(1)   s(10)-0.306     C(0)   s( 5)-0.203  
  MO  14 : occ=1.00 : energy=  -0.47912363 : center=(-0.00,-0.00,-3.64) : radius=1.89
            S(2)   s(27) 0.633     S(2)   s(31) 0.406     S(2)  pz(30)-0.375     S(2)   s(23)-0.306     C(0)   s( 5)-0.203  
  MO  15 : occ=1.00 : energy=  -0.43694317 : center=(0.07,-0.63,1.80) : radius=2.16
            S(1)  py(16)-0.498     C(0)  py( 3)-0.233     S(1)  py(20)-0.233     S(1)   s(14) 0.232     S(1)  pz(17)-0.202     S(1)  py(12) 0.190     C(0)  pz( 4) 0.189     C(0)  py( 7)-0.163  
  MO  16 : occ=1.00 : energy=  -0.43692620 : center=(-0.58,0.25,1.80) : radius=2.16
            S(1)  px(15)-0.460     S(1)   s(14) 0.232     C(0)  px( 2)-0.215     S(1)  px(19)-0.215     S(1)  pz(17)-0.202     S(1)  py(16) 0.199     C(0)  pz( 4) 0.189     S(1)  px(11) 0.175  
  MO  17 : occ=1.00 : energy=  -0.43693128 : center=(0.17,-0.61,-1.80) : radius=2.16
            S(2)  py(29)-0.482     S(2)   s(27) 0.232     C(0)  py( 3)-0.225     S(2)  py(33)-0.225     S(2)  pz(30) 0.202     C(0)  pz( 4)-0.189     S(2)  py(25) 0.184  
  MO  18 : occ=1.00 : energy=  -0.43693205 : center=(-0.62,0.16,-1.80) : radius=2.16
            S(2)  px(28)-0.486     S(2)   s(27) 0.232     C(0)  px( 2)-0.227     S(2)  px(32)-0.227     S(2)  pz(30) 0.202     C(0)  pz( 4)-0.189     S(2)  px(24) 0.185  

Solving NDIM= 3  with thresh 1.000000e-06     k 8    conv 1.000000e-04 

timer:     Project vnuclear     0.38s     0.38s
timer:     project ao basis     0.47s     0.47s

Iteration 0 at time 39.4s

warning: boys localization did not fully converge:  1968
timer:        Boys localize     0.28s     0.28s
timer:      Rotate subspace     0.09s     0.09s
timer:       Make densities     0.04s     0.04s
timer:       Load balancing     0.00s     0.00s
timer:       Nuclear energy     0.03s     0.03s
timer:              Coulomb     0.40s     0.40s
timer:        DFT potential     0.11s     0.11s
timer:                V*psi     0.91s     0.91s
timer:        Truncate Vpsi     0.75s     0.75s
timer:            PE matrix     0.03s     0.03s
timer:    KEmat reconstruct     0.01s     0.01s
timer:  KEmat differentiate     0.39s     0.39s
timer:       KEmat compress     0.05s     0.05s
timer: KEmat inner products     0.04s     0.04s
timer:            KE matrix     0.50s     0.50s
timer: Make fock matrix res     0.00s     0.00s

              kinetic     829.59140536
         nonlocal psp       0.00000000
   nuclear attraction   -2196.80687999
              coulomb     480.32689986
                  PCM       0.00000000
 exchange-correlation     -53.58386958
    nuclear-repulsion     108.96827976
                total    -831.50416459

timer: Compute residual stu     0.18s     0.18s
entering apply
timer:            Apply BSH     7.12s     7.12s
timer:     Truncate new psi     0.43s     0.43s
residuals [2.085942e-04, 2.082100e-04, 1.864461e-04, 2.228059e-04, 2.247754e-04, 2.995942e-04, 2.980287e-04, 2.454641e-04, 2.452768e-04, 2.452480e-04, 2.453367e-04, 4.018740e-04, 4.022543e-04, 2.449519e-04, 2.447995e-04, 3.624964e-04, 3.703068e-04, 3.668822e-04, 3.796482e-04]
BSH residual: rms 2.930443e-04    max 4.022543e-04
timer:         BSH residual     0.14s     0.14s
timer: Update subspace stuf     0.07s     0.07s
Subspace solution [*]   1.00000000

timer:   Subspace transform     0.02s     0.02s
Norm of vector changes alpha : rms 2.930443e-04    max 4.022543e-04
ORTHOG2a: maxq trantol 8.871808e-05 5.263158e-09
timer:       Orthonormalize     0.22s     0.22s

Iteration 1 at time 51.3s

warning: boys localization did not fully converge:  1274
timer:        Boys localize     0.56s     0.56s
timer:      Rotate subspace     0.16s     0.16s
timer:       Make densities     0.09s     0.09s
timer:       Load balancing     0.00s     0.00s
delta rho 1.259440e-03 1.259440e-03 residuals 4.022543e-04 0.000000e+00
timer:       Nuclear energy     0.05s     0.05s
timer:              Coulomb     0.96s     0.96s
timer:        DFT potential     0.29s     0.29s
timer:                V*psi     0.45s     0.45s
timer:        Truncate Vpsi     0.55s     0.55s
timer:            PE matrix     0.04s     0.04s
timer:    KEmat reconstruct     0.02s     0.02s
timer:  KEmat differentiate     0.74s     0.74s
timer:       KEmat compress     0.11s     0.11s
timer: KEmat inner products     0.06s     0.06s
timer:            KE matrix     0.94s     0.94s
timer: Make fock matrix res     0.00s     0.00s

              kinetic     829.54552917
         nonlocal psp       0.00000000
   nuclear attraction   -2196.75669710
              coulomb     480.31783483
                  PCM       0.00000000
 exchange-correlation     -53.58270954
    nuclear-repulsion     108.96827976
                total    -831.50776287

timer: Compute residual stu     0.29s     0.29s
entering apply
timer:            Apply BSH     9.84s     9.84s
timer:     Truncate new psi     0.51s     0.51s
residuals [1.946588e-05, 1.945083e-05, 2.711317e-05, 4.637580e-05, 4.742849e-05, 8.245026e-05, 8.161916e-05, 2.825930e-05, 2.817629e-05, 2.820600e-05, 2.820000e-05, 1.390519e-04, 1.391463e-04, 7.633885e-05, 7.583061e-05, 1.288056e-04, 1.324258e-04, 1.321588e-04, 1.330347e-04]
BSH residual: rms 8.648160e-05    max 1.391463e-04
timer:         BSH residual     0.19s     0.19s
timer: Update subspace stuf     0.23s     0.23s
Subspace solution [*]  -0.03196587   1.03196587

timer:   Subspace transform     0.05s     0.05s
Norm of vector changes alpha : rms 5.463614e-04    max 1.641479e-03
ORTHOG2a: maxq trantol 2.231324e-05 5.263158e-09
timer:       Orthonormalize     0.25s     0.25s

Iteration 2 at time 67.8s

warning: boys localization did not fully converge:  1333
timer:        Boys localize     0.53s     0.53s
timer:      Rotate subspace     0.15s     0.15s
timer:       Make densities     0.09s     0.09s
delta rho 3.621929e-04 3.621929e-04 residuals 1.391463e-04 0.000000e+00
timer:       Nuclear energy     0.05s     0.05s
timer:              Coulomb     0.90s     0.90s
timer:        DFT potential     0.30s     0.30s
timer:                V*psi     0.52s     0.52s
timer:        Truncate Vpsi     0.55s     0.55s
timer:            PE matrix     0.04s     0.04s
timer:    KEmat reconstruct     0.02s     0.02s
timer:  KEmat differentiate     0.72s     0.72s
timer:       KEmat compress     0.11s     0.11s
timer: KEmat inner products     0.06s     0.06s
timer:            KE matrix     0.92s     0.92s
timer: Make fock matrix res     0.00s     0.00s

              kinetic     829.53993938
         nonlocal psp       0.00000000
   nuclear attraction   -2196.75706007
              coulomb     480.32411859
                  PCM       0.00000000
 exchange-correlation     -53.58304927
    nuclear-repulsion     108.96827976
                total    -831.50777161

timer: Compute residual stu     0.27s     0.27s
entering apply
timer:            Apply BSH     9.93s     9.93s
timer:     Truncate new psi     0.53s     0.53s
residuals [5.539411e-06, 5.528289e-06, 1.112300e-05, 1.646887e-05, 1.681457e-05, 3.008722e-05, 2.980910e-05, 9.068819e-06, 9.046152e-06, 9.177935e-06, 9.132858e-06, 5.635961e-05, 5.670947e-05, 3.613573e-05, 3.657880e-05, 5.747961e-05, 5.724974e-05, 5.725224e-05, 5.715157e-05]
BSH residual: rms 3.629281e-05    max 5.747961e-05
timer:         BSH residual     0.19s     0.19s
timer: Update subspace stuf     0.34s     0.34s
Subspace solution [*]  -0.05358833   0.16370450   0.88988383

timer:   Subspace transform     0.07s     0.07s
Norm of vector changes alpha : rms 6.366711e-03    max 1.912583e-02
ORTHOG2a: maxq trantol 1.071568e-05 5.263158e-09
timer:       Orthonormalize     0.24s     0.24s

Iteration 3 at time 84.5s

warning: boys localization did not fully converge:  1321
timer:        Boys localize     0.49s     0.49s
timer:      Rotate subspace     0.13s     0.13s
timer:       Make densities     0.08s     0.08s
delta rho 1.295488e-04 1.295488e-04 residuals 5.747961e-05 0.000000e+00
timer:       Nuclear energy     0.04s     0.04s
timer:              Coulomb     0.78s     0.78s
timer:        DFT potential     0.25s     0.25s
timer:                V*psi     0.44s     0.44s
timer:        Truncate Vpsi     0.47s     0.47s
timer:            PE matrix     0.04s     0.04s
timer:    KEmat reconstruct     0.02s     0.02s
timer:  KEmat differentiate     0.67s     0.67s
timer:       KEmat compress     0.10s     0.10s
timer: KEmat inner products     0.06s     0.06s
timer:            KE matrix     0.86s     0.86s
timer: Make fock matrix res     0.00s     0.00s

              kinetic     829.53640164
         nonlocal psp       0.00000000
   nuclear attraction   -2196.75266278
              coulomb     480.32316358
                  PCM       0.00000000
 exchange-correlation     -53.58295359
    nuclear-repulsion     108.96827976
                total    -831.50777138


Converged!

timer:              Overlap     0.04s     0.04s
timer:      focka eigen sol     0.00s     0.00s
 
alpha eigenvalues
[*] -87.75646148 -87.75645042  -9.90134740  -7.67322357  -7.67322144  -5.72632031  -5.72631939  -5.72240345  -5.72240333  -5.72239690  -5.72239669  -0.78512030  -0.70746983  -0.46500500  -0.39475475  -0.35916175  -0.35916168  -0.25472354  -0.25472350


 Dipole Moment (a.u.)
 -----------

     x:  -2.346936e-06
     y:  -3.891671e-06
     z:  1.028315e-05
 Total Dipole Moment:  1.124261e-05 

timer:               dipole     0.00s     0.00s
Orbitals are localized - energies are diagonal Fock matrix elements

Analysis of alpha MO vectors
timer:      Analyze vectors     0.80s     0.80s
timer: Compute eigen gesv a     0.00s     0.00s
  MO   0 : occ=1.00 : energy= -87.75629474 : center=(-0.00,0.00,2.94) : radius=0.11
            S(1)   s( 9) 0.996  
  MO   1 : occ=1.00 : energy= -87.75629383 : center=(0.00,0.00,-2.94) : radius=0.11
            S(2)   s(22)-0.996  
  MO   2 : occ=1.00 : energy=  -9.90128083 : center=(-0.00,-0.00,0.00) : radius=0.32
            C(0)   s( 0) 0.994  
  MO   3 : occ=1.00 : energy=  -7.67329301 : center=(-0.00,-0.00,2.93) : radius=0.53
            S(1)   s(10)-1.026     S(1)   s( 9) 0.283  
  MO   4 : occ=1.00 : energy=  -7.67329189 : center=(-0.00,-0.00,-2.93) : radius=0.53
            S(2)   s(23)-1.026     S(2)   s(22) 0.283  
  MO   5 : occ=1.00 : energy=  -5.72619256 : center=(-0.00,-0.00,-2.94) : radius=0.50
            S(2)  pz(26) 0.990  
  MO   6 : occ=1.00 : energy=  -5.72619343 : center=(-0.00,-0.00,2.94) : radius=0.50
            S(1)  pz(13) 0.990  
  MO   7 : occ=1.00 : energy=  -5.72235647 : center=(0.00,0.00,-2.94) : radius=0.50
            S(2)  py(25) 0.989  
  MO   8 : occ=1.00 : energy=  -5.72235663 : center=(0.00,-0.00,-2.94) : radius=0.50
            S(2)  px(24) 0.989  
  MO   9 : occ=1.00 : energy=  -5.72235759 : center=(-0.00,0.00,2.94) : radius=0.50
            S(1)  py(12) 0.980  
  MO  10 : occ=1.00 : energy=  -5.72235738 : center=(0.00,0.00,2.94) : radius=0.50
            S(1)  px(11)-0.980  
  MO  11 : occ=1.00 : energy=  -0.43705454 : center=(0.50,0.39,1.80) : radius=2.16
            S(1)  px(15) 0.394     S(1)  py(16) 0.309     S(1)   s(14) 0.232     S(1)  pz(17)-0.202     C(0)  pz( 4) 0.189     C(0)  px( 2) 0.184     S(1)  px(19) 0.184  
  MO  12 : occ=1.00 : energy=  -0.43705504 : center=(0.43,0.47,-1.80) : radius=2.16
            S(2)  py(29) 0.369     S(2)  px(28) 0.339     S(2)   s(27) 0.232     S(2)  pz(30) 0.202     C(0)  pz( 4)-0.189     C(0)  py( 3) 0.172     S(2)  py(33) 0.172  
  MO  13 : occ=1.00 : energy=  -0.47922154 : center=(-0.00,-0.00,3.64) : radius=1.89
            S(1)   s(14) 0.633     S(1)   s(18) 0.406     S(1)  pz(17) 0.375     S(1)   s(10)-0.306     C(0)   s( 5)-0.203  
  MO  14 : occ=1.00 : energy=  -0.47922072 : center=(-0.00,-0.00,-3.64) : radius=1.89
            S(2)   s(27) 0.633     S(2)   s(31) 0.406     S(2)  pz(30)-0.375     S(2)   s(23)-0.306     C(0)   s( 5)-0.203  
  MO  15 : occ=1.00 : energy=  -0.43706355 : center=(0.09,-0.63,1.80) : radius=2.16
            S(1)  py(16)-0.496     C(0)  py( 3)-0.232     S(1)  py(20)-0.232     S(1)   s(14) 0.232     S(1)  pz(17)-0.202     S(1)  py(12) 0.189     C(0)  pz( 4) 0.189     C(0)  py( 7)-0.163  
  MO  16 : occ=1.00 : energy=  -0.43705966 : center=(-0.59,0.24,1.80) : radius=2.16
            S(1)  px(15)-0.465     S(1)   s(14) 0.232     C(0)  px( 2)-0.217     S(1)  px(19)-0.217     S(1)  pz(17)-0.202     C(0)  pz( 4) 0.189     S(1)  py(16) 0.187     S(1)  px(11) 0.177  
  MO  17 : occ=1.00 : energy=  -0.43705937 : center=(0.19,-0.61,-1.80) : radius=2.16
            S(2)  py(29)-0.478     S(2)   s(27) 0.232     C(0)  py( 3)-0.224     S(2)  py(33)-0.223     S(2)  pz(30) 0.202     C(0)  pz( 4)-0.189     S(2)  py(25) 0.182  
  MO  18 : occ=1.00 : energy=  -0.43706194 : center=(-0.62,0.14,-1.80) : radius=2.16
            S(2)  px(28)-0.489     S(2)   s(27) 0.232     C(0)  px( 2)-0.229     S(2)  px(32)-0.229     S(2)  pz(30) 0.202     C(0)  pz( 4)-0.189     S(2)  px(24) 0.187  
timer:             plotting     0.00s     0.00s

    Parallel environment
    --------------------
                  #nodes    1
       #threads per node    27+main = 28
          #total threads    28

  RMI message statistics (min / avg / max)
  ----------------------
   #messages in server q    0.00e+00 / 0.00e+00 / 0.00e+00
 #messages sent per node    0.00e+00 / 0.00e+00 / 0.00e+00
    #bytes sent per node    0.00e+00 / 0.00e+00 / 0.00e+00
 #messages recv per node    0.00e+00 / 0.00e+00 / 0.00e+00
    #bytes recv per node    0.00e+00 / 0.00e+00 / 0.00e+00
        #msgs systemwide    0.00e+00
       #bytes systemwide    0.00e+00

  Thread pool statistics (min / avg / max)
  ----------------------
         #tasks per node    0.00e+00 / 0.00e+00 / 0.00e+00
     #max q len per node    0.00e+00 / 0.00e+00 / 0.00e+00
  #hi-pri tasks per node    0.00e+00 / 0.00e+00 / 0.00e+00

         Total wall time    90.2s
         Total  cpu time    90.2s

