MADNESS runtime initialized with 27 threads in the pool and affinity -1 -1 -1

--------------------------------------------
   MADNESS 0.10.1 multiresolution suite
--------------------------------------------

   number of processors ... 1
    processor frequency ... 1.995370e+09
            host system ... linux-gnu
          configured by ... egentles
          configured on ... sn093
          configured at ... Tue Jul 11 16:06:48 EDT 2017
                    CXX ... mpicxx
               CXXFLAGS ... -g -std=c++14 -O3 -Wall -Wno-strict-aliasing -Wno-deprecated -Wno-unused-local-typedefs  -ffast-math -march=native
             tuning for ... default
                    MPI ... multiple
 multi-threaded runtime ... Intel TBB
                   BLAS ... Intel MKL 14316 14316 MFLOP/s
               compiled ... 08:44:05  on  Jul 29 2017
input filename:  /gpfs/home/egentles/auto_test_mad/geometries_LDA_boys/chlorine_trifluoride.mdns

Angstrom being used to read input coordinates (1 Bohr = 1.88972613 Angstrom)

Abelian pointgroup

 The point group is C2v

Construct XC Functional from LIBXC Library

input line was:  LDA
 1.000 lda_x 
 1.000 lda_c_vwn 

screening parameters
 rhotol, rhomin 1.000000e-07 0.000000e+00
         ggatol 1.000000e-04
polarized  false 


Solving NDIM= 3  with thresh 1.000000e-05     k 8    conv 1.000000e-04 




 MADNESS Hartree-Fock and Density Functional Theory Program
 ----------------------------------------------------------



 geometry
   eprec 1.0e-04
   units atomic
   Cl            0.00000000          -0.00000000           0.67496723
   F             0.00000000          -0.00000000          -2.34481513
   F             0.00000000           3.20573141           0.53493852
   F             0.00000000          -3.20573141           0.53493852
 end


             restart  false
    restart from AOs  false
 number of processes  1
   no. of io servers  1
   vnuc load bal fac  12
      load bal parts  2
     simulation cube  -5.320573e+01 5.320573e+01
        total charge  0.000000e+00
            smearing  0.000000e+00
 number of electrons  22 22
  number of orbitals  22 22
     spin restricted  true
       xc functional   LDA
          xc library  libxc
 initial guess basis  6-31g
 max krylov subspace  5
    compute protocol  [1.000000e-04, 1.000000e-06]
  energy convergence  1.000000e-05
 density convergence  1.000000e-04
    maximum rotation  2.500000e-01
    polynomial order  -1
       truncate mode  1
  maximum iterations  20
 Convergence criteria are density delta & BSH residual.
        plot density  false
        plot coulomb  false
        plot orbital  0 -1
        plot npoints  101
        plot  volume  default
  localized orbitals  boys
 psp or all electron  all electron
timer:           initialize     0.40s     0.40s

Solving NDIM= 3  with thresh 1.000000e-04     k 6    conv 1.000000e-04 


Solving NDIM= 3  with thresh 1.000000e-04     k 6    conv 1.000000e-04 

timer:     Project vnuclear     0.31s     0.31s
timer:     project ao basis     0.37s     0.37s
guess dens trace 4.399980e+01
timer:        guess density     0.49s     0.49s
timer:   guess Coulomb potn     0.54s     0.54s
timer:       guess lda potn     0.26s     0.26s
timer:        guess overlap     0.01s     0.01s
timer:    KEmat reconstruct     0.01s     0.01s
timer:  KEmat differentiate     0.44s     0.44s
timer:       KEmat compress     0.08s     0.08s
timer: KEmat inner products     0.06s     0.06s
timer:     guess Kinet potn     0.60s     0.60s
timer:           guess fock     1.16s     1.16s
timer:      guess eigen sol     0.00s     0.00s
grouping alpha orbitals into sets
set  0    0  -  0
set  1    1  -  3
set  2    4  -  4
set  3    5  -  7
set  4    8  -  21
timer: guess orbital groupi     0.07s     0.07s
timer:     project ao basis     0.28s     0.28s

Iteration 0 at time 4.8s

warning: boys localization did not fully converge:  3231
timer:        Boys localize     0.30s     0.30s
timer:      Rotate subspace     0.14s     0.14s
timer:       Make densities     0.04s     0.04s
timer:       Load balancing     0.00s     0.00s
timer:       Nuclear energy     0.01s     0.01s
timer:              Coulomb     0.13s     0.13s
timer:        DFT potential     0.11s     0.11s
timer:                V*psi     0.26s     0.26s
timer:        Truncate Vpsi     0.33s     0.33s
timer:            PE matrix     0.02s     0.02s
timer:    KEmat reconstruct     0.01s     0.01s
timer:  KEmat differentiate     0.48s     0.48s
timer:       KEmat compress     0.06s     0.06s
timer: KEmat inner products     0.03s     0.03s
timer:            KE matrix     0.58s     0.58s
timer: Make fock matrix res     0.00s     0.00s

              kinetic     758.20156244
         nonlocal psp       0.00000000
   nuclear attraction   -2198.32275713
              coulomb     544.61503903
                  PCM       0.00000000
 exchange-correlation     -56.51545614
    nuclear-repulsion     196.25611604
                total    -755.76549576

timer: Compute residual stu     0.12s     0.12s
entering apply
timer:            Apply BSH     1.43s     1.43s
timer:     Truncate new psi     0.16s     0.16s
residuals [4.838293e-03, 7.179685e-03, 7.325212e-03, 7.325181e-03, 9.212131e-03, 6.702069e-03, 7.045427e-03, 7.011105e-03, 6.677039e-02, 1.246131e-01, 1.246177e-01, 7.037867e-02, 8.808041e-02, 7.220229e-02, 1.246128e-01, 1.230897e-01, 1.246120e-01, 7.049457e-02, 1.230791e-01, 6.475731e-02, 8.808279e-02, 7.039854e-02]
BSH residual: rms 7.893760e-02    max 1.246177e-01
timer:         BSH residual     0.09s     0.09s
timer: Update subspace stuf     0.08s     0.08s
Subspace solution [*]   1.00000000

timer:   Subspace transform     0.01s     0.01s
Norm of vector changes alpha : rms 7.893760e-02    max 1.246177e-01
ORTHOG2a: maxq trantol 8.703114e-03 4.545455e-07
timer:       Orthonormalize     0.15s     0.15s

Iteration 1 at time 9.2s

warning: boys localization did not fully converge:  2820
timer:        Boys localize     0.33s     0.33s
timer:      Rotate subspace     0.14s     0.14s
timer:       Make densities     0.05s     0.05s
timer:       Load balancing     0.00s     0.00s
delta rho 1.925360e-01 1.925360e-01 residuals 1.246177e-01 0.000000e+00
timer:       Nuclear energy     0.01s     0.01s
timer:              Coulomb     0.15s     0.15s
timer:        DFT potential     0.12s     0.12s
timer:                V*psi     0.32s     0.32s
timer:        Truncate Vpsi     0.55s     0.55s
timer:            PE matrix     0.04s     0.04s
timer:    KEmat reconstruct     0.01s     0.01s
timer:  KEmat differentiate     0.46s     0.46s
timer:       KEmat compress     0.06s     0.06s
timer: KEmat inner products     0.03s     0.03s
timer:            KE matrix     0.57s     0.57s
timer: Make fock matrix res     0.00s     0.00s

              kinetic     751.85118116
         nonlocal psp       0.00000000
   nuclear attraction   -2190.33266447
              coulomb     541.74228988
                  PCM       0.00000000
 exchange-correlation     -55.77300406
    nuclear-repulsion     196.25611604
                total    -756.25608145

timer: Compute residual stu     0.12s     0.12s
entering apply
timer:            Apply BSH     1.45s     1.45s
timer:     Truncate new psi     0.18s     0.18s
residuals [7.014543e-04, 1.050479e-03, 7.233634e-04, 7.234173e-04, 2.828022e-03, 1.541586e-03, 1.580947e-03, 1.736795e-03, 2.488449e-02, 6.678643e-02, 6.678640e-02, 1.930456e-02, 3.256174e-02, 2.182016e-02, 6.711311e-02, 6.710981e-02, 6.711129e-02, 2.539383e-02, 6.710984e-02, 2.453511e-02, 3.256422e-02, 1.932334e-02]
BSH residual: rms 3.823603e-02    max 6.711311e-02
timer:         BSH residual     0.10s     0.10s
timer: Update subspace stuf     0.16s     0.16s
Subspace solution [*]   0.99070890   0.00929110

timer:   Subspace transform     0.03s     0.03s
  restricting step for alpha orbitals: 9 10 14 15 16 18
Norm of vector changes alpha : rms 4.339416e-01    max 8.453424e-01
ORTHOG2a: maxq trantol 4.757084e-02 4.545455e-07
ORTHOG2a: maxq trantol 2.492896e-03 4.545455e-07
timer:       Orthonormalize     0.17s     0.17s

Iteration 2 at time 14.3s

warning: boys localization did not fully converge:  2383
timer:        Boys localize     0.34s     0.34s
timer:      Rotate subspace     0.15s     0.15s
timer:       Make densities     0.05s     0.05s
delta rho 4.770046e-04 4.770046e-04 residuals 6.711311e-02 0.000000e+00
timer:       Nuclear energy     0.01s     0.01s
timer:              Coulomb     0.15s     0.15s
timer:        DFT potential     0.14s     0.14s
timer:                V*psi     0.31s     0.31s
timer:        Truncate Vpsi     0.40s     0.40s
timer:            PE matrix     0.04s     0.04s
timer:    KEmat reconstruct     0.01s     0.01s
timer:  KEmat differentiate     0.46s     0.46s
timer:       KEmat compress     0.06s     0.06s
timer: KEmat inner products     0.04s     0.04s
timer:            KE matrix     0.57s     0.57s
timer: Make fock matrix res     0.00s     0.00s

              kinetic     751.85717542
         nonlocal psp       0.00000000
   nuclear attraction   -2190.35484286
              coulomb     541.75963330
                  PCM       0.00000000
 exchange-correlation     -55.77440016
    nuclear-repulsion     196.25611604
                total    -756.25631826

timer: Compute residual stu     0.14s     0.14s
entering apply
timer:            Apply BSH     1.44s     1.44s
timer:     Truncate new psi     0.17s     0.17s
residuals [7.008486e-04, 1.058613e-03, 7.220670e-04, 7.221372e-04, 2.796381e-03, 1.533969e-03, 1.575503e-03, 1.718847e-03, 2.468629e-02, 6.648526e-02, 6.648536e-02, 1.912922e-02, 3.228013e-02, 2.168519e-02, 6.675340e-02, 6.676337e-02, 6.675144e-02, 2.517632e-02, 6.676521e-02, 2.429121e-02, 3.228217e-02, 1.914910e-02]
BSH residual: rms 3.802266e-02    max 6.676521e-02
timer:         BSH residual     0.10s     0.10s
Increasing subspace singular value threshold  -7.430876e+00 1.000000e-12
Increasing subspace singular value threshold  -7.430876e+00 1.000000e-10
Increasing subspace singular value threshold  -7.430876e+00 1.000000e-08
Increasing subspace singular value threshold  -7.430876e+00 1.000000e-06
timer: Update subspace stuf     0.23s     0.23s
Subspace solution [*]   0.99136890  -0.00376861   0.01239971

timer:   Subspace transform     0.03s     0.03s
  restricting step for alpha orbitals: 9 10 14 15 16 18
Norm of vector changes alpha : rms 4.343860e-01    max 8.456830e-01
ORTHOG2a: maxq trantol 4.748044e-02 4.545455e-07
ORTHOG2a: maxq trantol 2.484655e-03 4.545455e-07
timer:       Orthonormalize     0.16s     0.16s

Iteration 3 at time 19.4s

warning: boys localization did not fully converge:  2397
timer:        Boys localize     0.32s     0.32s
timer:      Rotate subspace     0.13s     0.13s
timer:       Make densities     0.04s     0.04s
delta rho 1.562335e-04 1.562335e-04 residuals 6.676521e-02 0.000000e+00
timer:       Nuclear energy     0.01s     0.01s
timer:              Coulomb     0.15s     0.15s
timer:        DFT potential     0.11s     0.11s
timer:                V*psi     0.29s     0.29s
timer:        Truncate Vpsi     0.37s     0.37s
timer:            PE matrix     0.02s     0.02s
timer:    KEmat reconstruct     0.01s     0.01s
timer:  KEmat differentiate     0.46s     0.46s
timer:       KEmat compress     0.05s     0.05s
timer: KEmat inner products     0.03s     0.03s
timer:            KE matrix     0.56s     0.56s
timer: Make fock matrix res     0.00s     0.00s

              kinetic     751.86210695
         nonlocal psp       0.00000000
   nuclear attraction   -2190.36501008
              coulomb     541.76530409
                  PCM       0.00000000
 exchange-correlation     -55.77500704
    nuclear-repulsion     196.25611604
                total    -756.25649004

timer: Compute residual stu     0.14s     0.14s
entering apply
timer:            Apply BSH     1.43s     1.43s
timer:     Truncate new psi     0.17s     0.17s
residuals [7.011938e-04, 1.056258e-03, 7.224434e-04, 7.224693e-04, 2.797768e-03, 1.536182e-03, 1.576642e-03, 1.719898e-03, 2.470041e-02, 6.635025e-02, 6.635053e-02, 1.913984e-02, 3.226457e-02, 2.169596e-02, 6.661500e-02, 6.662675e-02, 6.661273e-02, 2.519078e-02, 6.662829e-02, 2.430547e-02, 3.226656e-02, 1.915971e-02]
BSH residual: rms 3.795812e-02    max 6.662829e-02
timer:         BSH residual     0.10s     0.10s
Increasing subspace singular value threshold  -7.923548e+02 1.000000e-12
Increasing subspace singular value threshold  -7.923548e+02 1.000000e-10
Increasing subspace singular value threshold  -7.923548e+02 1.000000e-08
Increasing subspace singular value threshold  -1.194293e+01 1.000000e-06
timer: Update subspace stuf     0.31s     0.31s
Subspace solution [*]   0.99172671  -0.00665275  -0.00287073   0.01779677

timer:   Subspace transform     0.04s     0.04s
  restricting step for alpha orbitals: 9 10 14 15 16 18
Norm of vector changes alpha : rms 4.345558e-01    max 8.459435e-01
ORTHOG2a: maxq trantol 4.747804e-02 4.545455e-07
ORTHOG2a: maxq trantol 2.484048e-03 4.545455e-07
timer:       Orthonormalize     0.16s     0.16s

Iteration 4 at time 24.4s

warning: boys localization did not fully converge:  2400
timer:        Boys localize     0.32s     0.32s
timer:      Rotate subspace     0.12s     0.12s
timer:       Make densities     0.04s     0.04s
delta rho 8.766131e-05 8.766131e-05 residuals 6.662829e-02 0.000000e+00
timer:       Nuclear energy     0.01s     0.01s
timer:              Coulomb     0.13s     0.13s
timer:        DFT potential     0.11s     0.11s
timer:                V*psi     0.31s     0.31s
timer:        Truncate Vpsi     0.37s     0.37s
timer:            PE matrix     0.02s     0.02s
timer:    KEmat reconstruct     0.01s     0.01s
timer:  KEmat differentiate     0.45s     0.45s
timer:       KEmat compress     0.06s     0.06s
timer: KEmat inner products     0.03s     0.03s
timer:            KE matrix     0.55s     0.55s
timer: Make fock matrix res     0.00s     0.00s

              kinetic     751.86492841
         nonlocal psp       0.00000000
   nuclear attraction   -2190.37075852
              coulomb     541.76848791
                  PCM       0.00000000
 exchange-correlation     -55.77534879
    nuclear-repulsion     196.25611604
                total    -756.25657494

timer: Compute residual stu     0.12s     0.12s
entering apply
timer:            Apply BSH     1.39s     1.39s
timer:     Truncate new psi     0.17s     0.17s
residuals [7.012974e-04, 1.055637e-03, 7.226467e-04, 7.227516e-04, 2.798269e-03, 1.537653e-03, 1.577160e-03, 1.720375e-03, 2.470782e-02, 6.627011e-02, 6.627012e-02, 1.914560e-02, 3.225500e-02, 2.170189e-02, 6.653337e-02, 6.654509e-02, 6.653115e-02, 2.519816e-02, 6.654658e-02, 2.431261e-02, 3.225708e-02, 1.916549e-02]
BSH residual: rms 3.791965e-02    max 6.654658e-02
timer:         BSH residual     0.08s     0.08s
Increasing subspace singular value threshold  3.037920e+02 1.000000e-12
Increasing subspace singular value threshold  3.037920e+02 1.000000e-10
Increasing subspace singular value threshold  3.037920e+02 1.000000e-08
Increasing subspace singular value threshold  2.832882e+02 1.000000e-06
timer: Update subspace stuf     0.37s     0.37s
Subspace solution [*]   0.99176984  -0.00864618  -0.00485669  -0.00197913   0.02371216

timer:   Subspace transform     0.05s     0.05s
  restricting step for alpha orbitals: 9 10 14 15 16 18
Norm of vector changes alpha : rms 4.345564e-01    max 8.459587e-01
ORTHOG2a: maxq trantol 4.747665e-02 4.545455e-07
ORTHOG2a: maxq trantol 2.483723e-03 4.545455e-07
timer:       Orthonormalize     0.17s     0.17s

Iteration 5 at time 29.3s

warning: boys localization did not fully converge:  2407
timer:        Boys localize     0.31s     0.31s
timer:      Rotate subspace     0.13s     0.13s
timer:       Make densities     0.04s     0.04s
delta rho 4.942691e-05 4.942691e-05 residuals 6.654658e-02 0.000000e+00
timer:       Nuclear energy     0.01s     0.01s
timer:              Coulomb     0.15s     0.15s
timer:        DFT potential     0.11s     0.11s
timer:                V*psi     0.29s     0.29s
timer:        Truncate Vpsi     0.37s     0.37s
timer:            PE matrix     0.03s     0.03s
timer:    KEmat reconstruct     0.01s     0.01s
timer:  KEmat differentiate     0.44s     0.44s
timer:       KEmat compress     0.05s     0.05s
timer: KEmat inner products     0.03s     0.03s
timer:            KE matrix     0.54s     0.54s
timer: Make fock matrix res     0.00s     0.00s

              kinetic     751.86649557
         nonlocal psp       0.00000000
   nuclear attraction   -2190.37400469
              coulomb     541.77028423
                  PCM       0.00000000
 exchange-correlation     -55.77553849
    nuclear-repulsion     196.25611604
                total    -756.25664734

timer: Compute residual stu     0.12s     0.12s
entering apply
timer:            Apply BSH     1.45s     1.45s
timer:     Truncate new psi     0.17s     0.17s
residuals [7.013105e-04, 1.055404e-03, 7.232531e-04, 7.233323e-04, 2.798375e-03, 1.537472e-03, 1.577292e-03, 1.720416e-03, 2.470875e-02, 6.622507e-02, 6.622507e-02, 1.914639e-02, 3.224598e-02, 2.170261e-02, 6.648326e-02, 6.649501e-02, 6.648089e-02, 2.519823e-02, 6.649671e-02, 2.431247e-02, 3.224810e-02, 1.916626e-02]
BSH residual: rms 3.789590e-02    max 6.649671e-02
timer:         BSH residual     0.10s     0.10s
Increasing subspace singular value threshold  -3.426337e+01 1.000000e-12
Increasing subspace singular value threshold  -3.426337e+01 1.000000e-10
Increasing subspace singular value threshold  -3.426337e+01 1.000000e-08
Increasing subspace singular value threshold  -3.426337e+01 1.000000e-06
Increasing subspace singular value threshold  -3.426337e+01 1.000000e-04
Increasing subspace singular value threshold  1.813859e+02 1.000000e-02
Forcing full step due to subspace malfunction
timer: Update subspace stuf     0.38s     0.38s
Subspace solution [*]   0.00000000   0.00000000   0.00000000   0.00000000   1.00000000

timer:   Subspace transform     0.05s     0.05s
Norm of vector changes alpha : rms 3.789590e-02    max 6.649671e-02
ORTHOG2a: maxq trantol 5.315663e-03 4.545455e-07
timer:       Orthonormalize     0.13s     0.13s

Iteration 6 at time 34.3s

warning: boys localization did not fully converge:  1788
timer:        Boys localize     0.33s     0.33s
timer:      Rotate subspace     0.15s     0.15s
timer:       Make densities     0.05s     0.05s
delta rho 9.389122e-02 9.389122e-02 residuals 6.649671e-02 0.000000e+00
timer:       Nuclear energy     0.01s     0.01s
timer:              Coulomb     0.15s     0.15s
timer:        DFT potential     0.11s     0.11s
timer:                V*psi     0.29s     0.29s
timer:        Truncate Vpsi     0.36s     0.36s
timer:            PE matrix     0.03s     0.03s
timer:    KEmat reconstruct     0.01s     0.01s
timer:  KEmat differentiate     0.45s     0.45s
timer:       KEmat compress     0.05s     0.05s
timer: KEmat inner products     0.04s     0.04s
timer:            KE matrix     0.55s     0.55s
timer: Make fock matrix res     0.00s     0.00s

              kinetic     755.22895664
         nonlocal psp       0.00000000
   nuclear attraction   -2197.71176444
              coulomb     546.10498579
                  PCM       0.00000000
 exchange-correlation     -56.20895649
    nuclear-repulsion     196.25611604
                total    -756.33066246

timer: Compute residual stu     0.11s     0.11s
entering apply
timer:            Apply BSH     1.47s     1.47s
timer:     Truncate new psi     0.17s     0.17s
residuals [1.998625e-04, 4.922011e-04, 6.660966e-04, 6.660493e-04, 1.046808e-03, 5.480064e-04, 5.798983e-04, 5.814184e-04, 1.271657e-02, 3.893644e-02, 3.893247e-02, 1.015711e-02, 2.730769e-02, 1.054965e-02, 3.907330e-02, 3.907315e-02, 3.906832e-02, 1.334548e-02, 3.906994e-02, 1.180204e-02, 2.731376e-02, 1.015791e-02]
BSH residual: rms 2.279329e-02    max 3.907330e-02
timer:         BSH residual     0.09s     0.09s
timer: Update subspace stuf     0.37s     0.37s
Subspace solution [*]  55.14324254  68.21924386 -143.26505107  20.06447355   0.83809112

timer:   Subspace transform     0.04s     0.04s
Norm of vector changes alpha : rms 3.625700e-02    max 8.919565e-02
ORTHOG2a: maxq trantol 1.729313e-03 4.545455e-07
timer:       Orthonormalize     0.13s     0.13s

Iteration 7 at time 39.4s

warning: boys localization did not fully converge:  1827
timer:        Boys localize     0.33s     0.33s
timer:      Rotate subspace     0.14s     0.14s
timer:       Make densities     0.05s     0.05s
delta rho 3.591482e-02 3.591482e-02 residuals 3.907330e-02 0.000000e+00
timer:       Nuclear energy     0.01s     0.01s
timer:              Coulomb     0.15s     0.15s
timer:        DFT potential     0.11s     0.11s
timer:                V*psi     0.31s     0.31s
timer:        Truncate Vpsi     0.40s     0.40s
timer:            PE matrix     0.02s     0.02s
timer:    KEmat reconstruct     0.01s     0.01s
timer:  KEmat differentiate     0.53s     0.53s
timer:       KEmat compress     0.05s     0.05s
timer: KEmat inner products     0.04s     0.04s
timer:            KE matrix     0.63s     0.63s
timer: Make fock matrix res     0.00s     0.00s

              kinetic     753.91969829
         nonlocal psp       0.00000000
   nuclear attraction   -2195.31178511
              coulomb     544.83856363
                  PCM       0.00000000
 exchange-correlation     -56.04144602
    nuclear-repulsion     196.25611604
                total    -756.33885317

timer: Compute residual stu     0.13s     0.13s
entering apply
timer:            Apply BSH     1.51s     1.51s
timer:     Truncate new psi     0.18s     0.18s
residuals [7.877248e-04, 1.382314e-03, 8.531638e-04, 8.543037e-04, 2.507196e-03, 3.105262e-03, 3.655068e-03, 9.195478e-04, 6.830320e-03, 1.222468e-02, 1.219825e-02, 5.873494e-03, 9.986898e-03, 7.228456e-03, 1.203219e-02, 1.116239e-02, 1.200425e-02, 6.999341e-03, 1.114164e-02, 6.466093e-03, 9.982884e-03, 5.882243e-03]
BSH residual: rms 7.769910e-03    max 1.222468e-02
timer:         BSH residual     0.11s     0.11s
timer: Update subspace stuf     0.38s     0.38s
Subspace solution [*] -37.47657759  41.74670050  -4.59893323  -0.24902172   1.57783204

timer:   Subspace transform     0.05s     0.05s
Norm of vector changes alpha : rms 4.382300e-02    max 1.269297e-01
ORTHOG2a: maxq trantol 2.496018e-03 4.545455e-07
timer:       Orthonormalize     0.14s     0.14s

Iteration 8 at time 44.7s

warning: boys localization did not fully converge:  1846
timer:        Boys localize     0.33s     0.33s
timer:      Rotate subspace     0.13s     0.13s
timer:       Make densities     0.05s     0.05s
delta rho 1.487295e-02 1.487295e-02 residuals 1.222468e-02 0.000000e+00
timer:       Nuclear energy     0.01s     0.01s
timer:              Coulomb     0.15s     0.15s
timer:        DFT potential     0.11s     0.11s
timer:                V*psi     0.34s     0.34s
timer:        Truncate Vpsi     0.45s     0.45s
timer:            PE matrix     0.03s     0.03s
timer:    KEmat reconstruct     0.01s     0.01s
timer:  KEmat differentiate     0.48s     0.48s
timer:       KEmat compress     0.07s     0.07s
timer: KEmat inner products     0.04s     0.04s
timer:            KE matrix     0.60s     0.60s
timer: Make fock matrix res     0.00s     0.00s

              kinetic     754.11027541
         nonlocal psp       0.00000000
   nuclear attraction   -2195.97498743
              coulomb     545.29969391
                  PCM       0.00000000
 exchange-correlation     -56.05938166
    nuclear-repulsion     196.25611604
                total    -756.36828372

timer: Compute residual stu     0.16s     0.16s
entering apply
timer:            Apply BSH     1.49s     1.49s
timer:     Truncate new psi     0.18s     0.18s
residuals [3.335998e-04, 4.869292e-04, 3.727962e-04, 4.142287e-04, 9.872263e-04, 1.445449e-03, 1.530741e-03, 5.241331e-04, 3.509757e-03, 6.142825e-03, 6.148070e-03, 4.400845e-03, 6.342886e-03, 3.730674e-03, 5.676252e-03, 6.195504e-03, 5.681802e-03, 3.490177e-03, 6.219584e-03, 3.288102e-03, 6.348216e-03, 4.402014e-03]
BSH residual: rms 4.220893e-03    max 6.348216e-03
timer:         BSH residual     0.10s     0.10s
timer: Update subspace stuf     0.39s     0.39s
Subspace solution [*]  -5.83238743   5.72328067  -0.16594508   0.15393162   1.12112022

timer:   Subspace transform     0.05s     0.05s
Norm of vector changes alpha : rms 1.654535e-02    max 3.131025e-02
ORTHOG2a: maxq trantol 1.415105e-03 4.545455e-07
timer:       Orthonormalize     0.13s     0.13s

Iteration 9 at time 50.0s

warning: boys localization did not fully converge:  1936
timer:        Boys localize     0.36s     0.36s
timer:      Rotate subspace     0.16s     0.16s
timer:       Make densities     0.05s     0.05s
delta rho 6.498953e-03 6.498953e-03 residuals 6.348216e-03 0.000000e+00
timer:       Nuclear energy     0.01s     0.01s
timer:              Coulomb     0.16s     0.16s
timer:        DFT potential     0.13s     0.13s
timer:                V*psi     0.32s     0.32s
timer:        Truncate Vpsi     0.42s     0.42s
timer:            PE matrix     0.03s     0.03s
timer:    KEmat reconstruct     0.01s     0.01s
timer:  KEmat differentiate     0.49s     0.49s
timer:       KEmat compress     0.06s     0.06s
timer: KEmat inner products     0.04s     0.04s
timer:            KE matrix     0.60s     0.60s
timer: Make fock matrix res     0.00s     0.00s

              kinetic     754.23190489
         nonlocal psp       0.00000000
   nuclear attraction   -2196.30714357
              coulomb     545.51636942
                  PCM       0.00000000
 exchange-correlation     -56.07077155
    nuclear-repulsion     196.25611604
                total    -756.37352477

timer: Compute residual stu     0.14s     0.14s
entering apply
timer:            Apply BSH     1.48s     1.48s
timer:     Truncate new psi     0.18s     0.18s
residuals [9.096508e-05, 4.384826e-04, 1.870095e-04, 2.005130e-04, 7.034257e-04, 9.434755e-04, 1.138270e-03, 3.864461e-04, 2.049157e-03, 3.708832e-03, 3.715755e-03, 3.151783e-03, 3.345652e-03, 2.676089e-03, 3.149718e-03, 3.219884e-03, 3.144342e-03, 2.054383e-03, 3.217971e-03, 1.973240e-03, 3.343352e-03, 3.149149e-03]
BSH residual: rms 2.457784e-03    max 3.715755e-03
timer:         BSH residual     0.11s     0.11s
timer: Update subspace stuf     0.41s     0.41s
Subspace solution [*]   0.12107468   0.06919238  -0.60238045  -0.03295816   1.44507155

timer:   Subspace transform     0.05s     0.05s
Norm of vector changes alpha : rms 2.263407e-02    max 5.664727e-02
ORTHOG2a: maxq trantol 9.158690e-04 4.545455e-07
timer:       Orthonormalize     0.14s     0.14s

Iteration 10 at time 55.4s

warning: boys localization did not fully converge:  1649
timer:        Boys localize     0.34s     0.34s
timer:      Rotate subspace     0.15s     0.15s
timer:       Make densities     0.05s     0.05s
timer:       Load balancing     0.00s     0.00s
delta rho 5.203744e-03 5.203744e-03 residuals 3.715755e-03 0.000000e+00
timer:       Nuclear energy     0.01s     0.01s
timer:              Coulomb     0.15s     0.15s
timer:        DFT potential     0.12s     0.12s
timer:                V*psi     0.32s     0.32s
timer:        Truncate Vpsi     0.42s     0.42s
timer:            PE matrix     0.03s     0.03s
timer:    KEmat reconstruct     0.01s     0.01s
timer:  KEmat differentiate     0.54s     0.54s
timer:       KEmat compress     0.06s     0.06s
timer: KEmat inner products     0.04s     0.04s
timer:            KE matrix     0.65s     0.65s
timer: Make fock matrix res     0.00s     0.00s

              kinetic     754.22610169
         nonlocal psp       0.00000000
   nuclear attraction   -2196.34863593
              coulomb     545.55694017
                  PCM       0.00000000
 exchange-correlation     -56.06713216
    nuclear-repulsion     196.25611604
                total    -756.37661019

timer: Compute residual stu     0.12s     0.12s
entering apply
timer:            Apply BSH     1.52s     1.52s
timer:     Truncate new psi     0.18s     0.18s
residuals [1.334880e-04, 1.593287e-04, 1.349942e-04, 1.387047e-04, 3.127646e-04, 4.564218e-04, 4.195398e-04, 1.821850e-04, 1.281034e-03, 2.153816e-03, 2.158757e-03, 1.322242e-03, 1.672815e-03, 1.550548e-03, 1.607043e-03, 1.633008e-03, 1.604096e-03, 1.226506e-03, 1.630885e-03, 1.317304e-03, 1.677329e-03, 1.323881e-03]
BSH residual: rms 1.292900e-03    max 2.158757e-03
timer:         BSH residual     0.10s     0.10s
timer: Update subspace stuf     0.40s     0.40s
Subspace solution [*]   0.01172498   0.02317800  -0.27297109   0.01503317   1.22303494

timer:   Subspace transform     0.06s     0.06s
Norm of vector changes alpha : rms 6.468547e-03    max 1.535522e-02
ORTHOG2a: maxq trantol 3.487853e-04 4.545455e-07
timer:       Orthonormalize     0.13s     0.13s

Iteration 11 at time 60.8s

warning: boys localization did not fully converge:  2010
timer:        Boys localize     0.33s     0.33s
timer:      Rotate subspace     0.13s     0.13s
timer:       Make densities     0.05s     0.05s
delta rho 2.516736e-03 2.516736e-03 residuals 2.158757e-03 0.000000e+00
timer:       Nuclear energy     0.01s     0.01s
timer:              Coulomb     0.14s     0.14s
timer:        DFT potential     0.11s     0.11s
timer:                V*psi     0.31s     0.31s
timer:        Truncate Vpsi     0.39s     0.39s
timer:            PE matrix     0.03s     0.03s
timer:    KEmat reconstruct     0.01s     0.01s
timer:  KEmat differentiate     0.51s     0.51s
timer:       KEmat compress     0.06s     0.06s
timer: KEmat inner products     0.04s     0.04s
timer:            KE matrix     0.63s     0.63s
timer: Make fock matrix res     0.00s     0.00s

              kinetic     754.20312568
         nonlocal psp       0.00000000
   nuclear attraction   -2196.33753202
              coulomb     545.56555706
                  PCM       0.00000000
 exchange-correlation     -56.06476147
    nuclear-repulsion     196.25611604
                total    -756.37749470

timer: Compute residual stu     0.13s     0.13s
entering apply
timer:            Apply BSH     1.50s     1.50s
timer:     Truncate new psi     0.18s     0.18s
residuals [4.051785e-05, 1.107100e-04, 1.099356e-04, 1.466917e-04, 1.944680e-04, 2.463542e-04, 2.786093e-04, 1.178239e-04, 7.301270e-04, 1.436278e-03, 1.443850e-03, 6.707049e-04, 1.005554e-03, 1.201800e-03, 8.938250e-04, 9.049133e-04, 8.927806e-04, 7.029620e-04, 9.084389e-04, 7.989407e-04, 1.005476e-03, 6.707448e-04]
BSH residual: rms 7.878901e-04    max 1.443850e-03
timer:         BSH residual     0.11s     0.11s
timer: Update subspace stuf     0.40s     0.40s
Subspace solution [*]   0.04762268  -0.05485529  -0.24343444  -0.04702816   1.29769520

timer:   Subspace transform     0.06s     0.06s
Norm of vector changes alpha : rms 4.176012e-03    max 8.568556e-03
ORTHOG2a: maxq trantol 2.334826e-04 4.545455e-07
timer:       Orthonormalize     0.13s     0.13s

Iteration 12 at time 66.1s

warning: boys localization did not fully converge:  2052
timer:        Boys localize     0.33s     0.33s
timer:      Rotate subspace     0.13s     0.13s
timer:       Make densities     0.05s     0.05s
delta rho 1.957620e-03 1.957620e-03 residuals 1.443850e-03 0.000000e+00
timer:       Nuclear energy     0.01s     0.01s
timer:              Coulomb     0.13s     0.13s
timer:        DFT potential     0.12s     0.12s
timer:                V*psi     0.32s     0.32s
timer:        Truncate Vpsi     0.38s     0.38s
timer:            PE matrix     0.03s     0.03s
timer:    KEmat reconstruct     0.01s     0.01s
timer:  KEmat differentiate     0.49s     0.49s
timer:       KEmat compress     0.06s     0.06s
timer: KEmat inner products     0.04s     0.04s
timer:            KE matrix     0.61s     0.61s
timer: Make fock matrix res     0.00s     0.00s

              kinetic     754.20430645
         nonlocal psp       0.00000000
   nuclear attraction   -2196.35543139
              coulomb     545.58281199
                  PCM       0.00000000
 exchange-correlation     -56.06553306
    nuclear-repulsion     196.25611604
                total    -756.37772997

timer: Compute residual stu     0.15s     0.15s
entering apply
timer:            Apply BSH     1.51s     1.51s
timer:     Truncate new psi     0.18s     0.18s
residuals [3.873773e-05, 9.592617e-05, 1.512546e-04, 1.470412e-04, 1.680616e-04, 1.806940e-04, 2.295038e-04, 9.624509e-05, 6.205646e-04, 1.188203e-03, 1.190678e-03, 4.723803e-04, 9.056103e-04, 8.804530e-04, 6.730402e-04, 7.141461e-04, 6.746755e-04, 6.241421e-04, 7.169044e-04, 6.530105e-04, 9.054906e-04, 4.713803e-04]
BSH residual: rms 6.396505e-04    max 1.190678e-03
timer:         BSH residual     0.09s     0.09s
timer: Update subspace stuf     0.40s     0.40s
Subspace solution [*]   0.10199072   0.02275111  -0.62268241   0.01851066   1.47942992

timer:   Subspace transform     0.05s     0.05s
Norm of vector changes alpha : rms 2.658720e-03    max 5.801057e-03
ORTHOG2a: maxq trantol 2.091254e-04 4.545455e-07
timer:       Orthonormalize     0.13s     0.13s

Iteration 13 at time 71.3s

warning: boys localization did not fully converge:  2083
timer:        Boys localize     0.34s     0.34s
timer:      Rotate subspace     0.15s     0.15s
timer:       Make densities     0.05s     0.05s
delta rho 1.680860e-03 1.680860e-03 residuals 1.190678e-03 0.000000e+00
timer:       Nuclear energy     0.01s     0.01s
timer:              Coulomb     0.15s     0.15s
timer:        DFT potential     0.13s     0.13s
timer:                V*psi     0.33s     0.33s
timer:        Truncate Vpsi     0.41s     0.41s
timer:            PE matrix     0.03s     0.03s
timer:    KEmat reconstruct     0.01s     0.01s
timer:  KEmat differentiate     0.50s     0.50s
timer:       KEmat compress     0.06s     0.06s
timer: KEmat inner products     0.04s     0.04s
timer:            KE matrix     0.61s     0.61s
timer: Make fock matrix res     0.00s     0.00s

              kinetic     754.17039385
         nonlocal psp       0.00000000
   nuclear attraction   -2196.29184850
              coulomb     545.54975518
                  PCM       0.00000000
 exchange-correlation     -56.06222955
    nuclear-repulsion     196.25611604
                total    -756.37781298

timer: Compute residual stu     0.12s     0.12s
entering apply
timer:            Apply BSH     1.50s     1.50s
timer:     Truncate new psi     0.18s     0.18s
residuals [3.647124e-05, 1.009587e-04, 1.197777e-04, 1.243534e-04, 1.423941e-04, 9.114640e-05, 1.625138e-04, 1.020940e-04, 4.046933e-04, 8.301439e-04, 8.303595e-04, 4.286117e-04, 6.936897e-04, 4.776534e-04, 5.043351e-04, 4.759882e-04, 5.010253e-04, 4.085826e-04, 4.777849e-04, 3.717779e-04, 6.930965e-04, 4.294529e-04]
BSH residual: rms 4.508791e-04    max 8.303595e-04
timer:         BSH residual     0.10s     0.10s
timer: Update subspace stuf     0.40s     0.40s
Subspace solution [*]   0.03584907  -0.03738195  -0.40525441  -0.03625252   1.44303980

timer:   Subspace transform     0.05s     0.05s
Norm of vector changes alpha : rms 3.240510e-03    max 7.607626e-03
ORTHOG2a: maxq trantol 1.967841e-04 4.545455e-07
timer:       Orthonormalize     0.13s     0.13s

Iteration 14 at time 76.6s

warning: boys localization did not fully converge:  2136
timer:        Boys localize     0.34s     0.34s
timer:      Rotate subspace     0.15s     0.15s
timer:       Make densities     0.05s     0.05s
delta rho 1.222860e-03 1.222860e-03 residuals 8.303595e-04 0.000000e+00
timer:       Nuclear energy     0.01s     0.01s
timer:              Coulomb     0.18s     0.18s
timer:        DFT potential     0.13s     0.13s
timer:                V*psi     0.33s     0.33s
timer:        Truncate Vpsi     0.42s     0.42s
timer:            PE matrix     0.03s     0.03s
timer:    KEmat reconstruct     0.01s     0.01s
timer:  KEmat differentiate     0.51s     0.51s
timer:       KEmat compress     0.06s     0.06s
timer: KEmat inner products     0.04s     0.04s
timer:            KE matrix     0.62s     0.62s
timer: Make fock matrix res     0.00s     0.00s

              kinetic     754.17861805
         nonlocal psp       0.00000000
   nuclear attraction   -2196.31142810
              coulomb     545.56228711
                  PCM       0.00000000
 exchange-correlation     -56.06351395
    nuclear-repulsion     196.25611604
                total    -756.37792085

timer: Compute residual stu     0.15s     0.15s
entering apply
timer:            Apply BSH     1.50s     1.50s
timer:     Truncate new psi     0.18s     0.18s
residuals [3.752411e-05, 1.049376e-04, 1.561545e-04, 1.118435e-04, 1.317389e-04, 1.067940e-04, 1.281108e-04, 1.027733e-04, 2.814397e-04, 7.041829e-04, 7.027435e-04, 3.837156e-04, 5.560227e-04, 2.730763e-04, 5.108047e-04, 4.853836e-04, 5.093597e-04, 2.833381e-04, 4.864704e-04, 2.345885e-04, 5.554897e-04, 3.841697e-04]
BSH residual: rms 3.866543e-04    max 7.041829e-04
timer:         BSH residual     0.10s     0.10s
timer: Update subspace stuf     0.41s     0.41s
Subspace solution [*]   0.22665252  -0.08167339  -0.77506221  -0.06307951   1.69316259

timer:   Subspace transform     0.05s     0.05s
Norm of vector changes alpha : rms 5.500572e-03    max 1.042598e-02
ORTHOG2a: maxq trantol 1.394390e-04 4.545455e-07
timer:       Orthonormalize     0.13s     0.13s

Iteration 15 at time 82.1s

warning: boys localization did not fully converge:  1071
timer:        Boys localize     0.32s     0.32s
timer:      Rotate subspace     0.13s     0.13s
timer:       Make densities     0.05s     0.05s
delta rho 1.429116e-03 1.429116e-03 residuals 7.041829e-04 0.000000e+00
timer:       Nuclear energy     0.01s     0.01s
timer:              Coulomb     0.13s     0.13s
timer:        DFT potential     0.13s     0.13s
timer:                V*psi     0.31s     0.31s
timer:        Truncate Vpsi     0.39s     0.39s
timer:            PE matrix     0.03s     0.03s
timer:    KEmat reconstruct     0.01s     0.01s
timer:  KEmat differentiate     0.49s     0.49s
timer:       KEmat compress     0.06s     0.06s
timer: KEmat inner products     0.04s     0.04s
timer:            KE matrix     0.60s     0.60s
timer: Make fock matrix res     0.00s     0.00s

              kinetic     754.17609058
         nonlocal psp       0.00000000
   nuclear attraction   -2196.29622083
              coulomb     545.54911516
                  PCM       0.00000000
 exchange-correlation     -56.06308081
    nuclear-repulsion     196.25611604
                total    -756.37797986

timer: Compute residual stu     0.12s     0.12s
entering apply
timer:            Apply BSH     1.49s     1.49s
timer:     Truncate new psi     0.18s     0.18s
residuals [4.061187e-05, 1.099419e-04, 1.207334e-04, 1.047404e-04, 1.261763e-04, 1.033685e-04, 1.165431e-04, 9.620871e-05, 1.898538e-04, 4.809063e-04, 4.811527e-04, 2.646320e-04, 3.174866e-04, 3.038491e-04, 4.004351e-04, 4.059146e-04, 4.009751e-04, 1.841467e-04, 4.050427e-04, 2.089344e-04, 3.180151e-04, 2.655141e-04]
BSH residual: rms 2.820262e-04    max 4.811527e-04
timer:         BSH residual     0.10s     0.10s
timer: Update subspace stuf     0.40s     0.40s
Subspace solution [*]   0.20601689   0.04431845  -0.97136494   0.11702050   1.60400909

timer:   Subspace transform     0.05s     0.05s
Norm of vector changes alpha : rms 4.483209e-03    max 9.310194e-03
ORTHOG2a: maxq trantol 8.236198e-05 4.545455e-07
timer:       Orthonormalize     0.13s     0.13s

Iteration 16 at time 87.2s

warning: boys localization did not fully converge:  957
timer:        Boys localize     0.33s     0.33s
timer:      Rotate subspace     0.13s     0.13s
timer:       Make densities     0.05s     0.05s
delta rho 1.137111e-03 1.137111e-03 residuals 4.811527e-04 0.000000e+00
timer:       Nuclear energy     0.01s     0.01s
timer:              Coulomb     0.14s     0.14s
timer:        DFT potential     0.12s     0.12s
timer:                V*psi     0.31s     0.31s
timer:        Truncate Vpsi     0.40s     0.40s
timer:            PE matrix     0.03s     0.03s
timer:    KEmat reconstruct     0.01s     0.01s
timer:  KEmat differentiate     0.50s     0.50s
timer:       KEmat compress     0.06s     0.06s
timer: KEmat inner products     0.04s     0.04s
timer:            KE matrix     0.61s     0.61s
timer: Make fock matrix res     0.00s     0.00s

              kinetic     754.18427471
         nonlocal psp       0.00000000
   nuclear attraction   -2196.30392362
              coulomb     545.54913563
                  PCM       0.00000000
 exchange-correlation     -56.06364400
    nuclear-repulsion     196.25611604
                total    -756.37804124

timer: Compute residual stu     0.14s     0.14s
entering apply
timer:            Apply BSH     1.49s     1.49s
timer:     Truncate new psi     0.18s     0.18s
residuals [4.358898e-05, 1.126395e-04, 1.298228e-04, 1.031427e-04, 1.196612e-04, 6.678451e-05, 1.067655e-04, 8.091080e-05, 2.297429e-04, 3.213418e-04, 3.221386e-04, 1.904914e-04, 2.599429e-04, 4.076309e-04, 2.776626e-04, 2.992056e-04, 2.785815e-04, 2.272996e-04, 2.994505e-04, 2.702007e-04, 2.608781e-04, 1.900847e-04]
BSH residual: rms 2.307500e-04    max 4.076309e-04
timer:         BSH residual     0.10s     0.10s
timer: Update subspace stuf     0.40s     0.40s
Subspace solution [*]   0.12434705  -0.19581563  -0.25405919   0.23764062   1.08788714

timer:   Subspace transform     0.05s     0.05s
Norm of vector changes alpha : rms 1.851284e-03    max 3.891438e-03
ORTHOG2a: maxq trantol 8.453035e-05 4.545455e-07
timer:       Orthonormalize     0.13s     0.13s

Iteration 17 at time 92.5s

warning: boys localization did not fully converge:  1572
timer:        Boys localize     0.33s     0.33s
timer:      Rotate subspace     0.13s     0.13s
timer:       Make densities     0.05s     0.05s
delta rho 3.627759e-04 3.627759e-04 residuals 4.076309e-04 0.000000e+00
timer:       Nuclear energy     0.01s     0.01s
timer:              Coulomb     0.15s     0.15s
timer:        DFT potential     0.12s     0.12s
timer:                V*psi     0.31s     0.31s
timer:        Truncate Vpsi     0.40s     0.40s
timer:            PE matrix     0.03s     0.03s
timer:    KEmat reconstruct     0.01s     0.01s
timer:  KEmat differentiate     0.49s     0.49s
timer:       KEmat compress     0.06s     0.06s
timer: KEmat inner products     0.04s     0.04s
timer:            KE matrix     0.61s     0.61s
timer: Make fock matrix res     0.00s     0.00s

              kinetic     754.19035928
         nonlocal psp       0.00000000
   nuclear attraction   -2196.31360721
              coulomb     545.55318953
                  PCM       0.00000000
 exchange-correlation     -56.06417018
    nuclear-repulsion     196.25611604
                total    -756.37811253


Converged!

timer:              Overlap     0.03s     0.03s
timer:      focka eigen sol     0.00s     0.00s
 
alpha eigenvalues
[*] -100.55175722 -24.18501274 -24.11737958 -24.11632550  -9.35065687  -7.21216036  -7.21072080  -7.19137410  -1.21599665  -1.10075059  -1.09851594  -0.81882186  -0.57591618  -0.57054060  -0.51041782  -0.45521611  -0.40663443  -0.40465177  -0.39225866  -0.37064573  -0.36122390  -0.29985376


 Dipole Moment (a.u.)
 -----------

     x:  1.214696e-05
     y:  8.499900e-06
     z:  2.352710e-01
 Total Dipole Moment:  2.352710e-01 

timer:               dipole     0.00s     0.00s
Orbitals are localized - energies are diagonal Fock matrix elements

Analysis of alpha MO vectors
timer:      Analyze vectors     0.57s     0.57s
timer: Compute eigen gesv a     0.00s     0.00s
  MO   0 : occ=1.00 : energy=-100.54896774 : center=(-0.00,-0.00,0.67) : radius=0.11
           Cl(0)   s( 0)-0.996  
  MO   1 : occ=1.00 : energy= -24.18427205 : center=(0.00,-0.00,-2.34) : radius=0.21
            F(1)   s(13) 0.995  
  MO   2 : occ=1.00 : energy= -24.11627474 : center=(0.00,3.21,0.53) : radius=0.21
            F(2)   s(22)-0.994  
  MO   3 : occ=1.00 : energy= -24.11626235 : center=(-0.00,-3.21,0.53) : radius=0.21
            F(3)   s(31)-0.994  
  MO   4 : occ=1.00 : energy=  -9.31148960 : center=(0.00,-0.00,0.68) : radius=0.53
           Cl(0)   s( 1) 1.027    Cl(0)   s( 0)-0.287  
  MO   5 : occ=1.00 : energy=  -7.15329408 : center=(0.00,-0.00,0.67) : radius=0.57
           Cl(0)  py( 3) 0.993  
  MO   6 : occ=1.00 : energy=  -7.13903985 : center=(-0.00,0.00,0.68) : radius=0.57
           Cl(0)  pz( 4)-0.990  
  MO   7 : occ=1.00 : energy=  -7.18775208 : center=(0.00,0.00,0.67) : radius=0.46
           Cl(0)  px( 2)-0.991  
  MO   8 : occ=1.00 : energy=  -0.62478004 : center=(-0.43,0.25,-2.40) : radius=1.20
            F(1)  px(15)-0.454     F(1)  px(19)-0.352     F(1)   s(18) 0.325     F(1)   s(14) 0.286     F(1)  py(16) 0.268     F(1)  py(20) 0.194  
  MO   9 : occ=1.00 : energy=  -0.59079040 : center=(-0.00,3.18,1.03) : radius=1.32
            F(2)  pz(26)-0.530     F(2)  pz(30)-0.402     F(2)   s(27)-0.271     F(2)   s(23)-0.266  
  MO  10 : occ=1.00 : energy=  -0.59077324 : center=(0.00,-3.18,1.03) : radius=1.32
            F(3)  pz(35)-0.529     F(3)  pz(39)-0.402     F(3)   s(36)-0.271     F(3)   s(32)-0.266  
  MO  11 : occ=1.00 : energy=  -0.54283050 : center=(0.87,0.00,0.97) : radius=1.58
           Cl(0)  px( 6)-0.588    Cl(0)   s( 5)-0.552    Cl(0)   s( 1) 0.263    Cl(0)   s( 9)-0.261    Cl(0)  px(10)-0.230    Cl(0)  px( 2) 0.219  
  MO  12 : occ=1.00 : energy=  -0.70428366 : center=(0.00,-2.21,0.53) : radius=1.47
            F(3)  py(34) 0.491     F(3)  py(38) 0.384    Cl(0)  py( 7)-0.364     F(3)   s(36) 0.229  
  MO  13 : occ=1.00 : energy=  -0.82873223 : center=(0.00,0.00,-1.29) : radius=1.41
            F(1)  pz(17) 0.473    Cl(0)  pz( 8)-0.410     F(1)  pz(21) 0.335    Cl(0)   s( 5) 0.240     F(1)   s(18) 0.197  
  MO  14 : occ=1.00 : energy=  -0.60501438 : center=(0.45,3.27,0.31) : radius=1.25
            F(2)  px(24)-0.452     F(2)  px(28)-0.360     F(2)   s(27)-0.326     F(2)   s(23)-0.285     F(2)  pz(26) 0.234     F(2)  pz(30) 0.179  
  MO  15 : occ=1.00 : energy=  -0.58762748 : center=(-0.45,3.28,0.30) : radius=1.24
            F(2)  px(24)-0.448     F(2)  px(28)-0.356     F(2)   s(27) 0.328     F(2)   s(23) 0.287     F(2)  pz(26)-0.241     F(2)  pz(30)-0.184  
  MO  16 : occ=1.00 : energy=  -0.60502477 : center=(-0.45,-3.27,0.31) : radius=1.25
            F(3)  px(33) 0.452     F(3)  px(37) 0.360     F(3)   s(36)-0.326     F(3)   s(32)-0.285     F(3)  pz(35) 0.234     F(3)  pz(39) 0.179  
  MO  17 : occ=1.00 : energy=  -0.62495445 : center=(0.44,0.24,-2.40) : radius=1.19
            F(1)  px(15)-0.461     F(1)  px(19)-0.357     F(1)   s(18)-0.325     F(1)   s(14)-0.287     F(1)  py(16)-0.255     F(1)  py(20)-0.185  
  MO  18 : occ=1.00 : energy=  -0.58767673 : center=(0.45,-3.28,0.30) : radius=1.24
            F(3)  px(33)-0.448     F(3)  px(37)-0.356     F(3)   s(36)-0.328     F(3)   s(32)-0.287     F(3)  pz(35) 0.241     F(3)  pz(39) 0.184  
  MO  19 : occ=1.00 : energy=  -0.62016347 : center=(-0.01,-0.49,-2.38) : radius=1.20
            F(1)  py(16) 0.537     F(1)  py(20) 0.390     F(1)   s(18)-0.318     F(1)   s(14)-0.280  
  MO  20 : occ=1.00 : energy=  -0.70401446 : center=(-0.00,2.21,0.53) : radius=1.47
            F(2)  py(25)-0.491     F(2)  py(29)-0.384    Cl(0)  py( 7) 0.363     F(2)   s(27) 0.229  
  MO  21 : occ=1.00 : energy=  -0.54282089 : center=(-0.87,0.00,0.97) : radius=1.58
           Cl(0)  px( 6) 0.588    Cl(0)   s( 5)-0.552    Cl(0)   s( 1) 0.263    Cl(0)   s( 9)-0.261    Cl(0)  px(10) 0.230    Cl(0)  px( 2)-0.219  

Solving NDIM= 3  with thresh 1.000000e-06     k 8    conv 1.000000e-04 

timer:     Project vnuclear     0.51s     0.51s
timer:     project ao basis     0.57s     0.57s

Iteration 0 at time 97.4s

warning: boys localization did not fully converge:  1919
timer:        Boys localize     0.34s     0.34s
timer:      Rotate subspace     0.15s     0.15s
timer:       Make densities     0.05s     0.05s
timer:       Load balancing     0.00s     0.00s
timer:       Nuclear energy     0.04s     0.04s
timer:              Coulomb     0.44s     0.44s
timer:        DFT potential     0.14s     0.14s
timer:                V*psi     1.31s     1.31s
timer:        Truncate Vpsi     1.70s     1.70s
timer:            PE matrix     0.05s     0.05s
timer:    KEmat reconstruct     0.02s     0.02s
timer:  KEmat differentiate     0.51s     0.51s
timer:       KEmat compress     0.09s     0.09s
timer: KEmat inner products     0.06s     0.06s
timer:            KE matrix     0.68s     0.68s
timer: Make fock matrix res     0.00s     0.00s

              kinetic     754.19252750
         nonlocal psp       0.00000000
   nuclear attraction   -2196.31353204
              coulomb     545.55230314
                  PCM       0.00000000
 exchange-correlation     -56.06416771
    nuclear-repulsion     196.25611604
                total    -756.37675307

timer: Compute residual stu     0.39s     0.39s
entering apply
timer:            Apply BSH    10.67s    10.67s
timer:     Truncate new psi     0.58s     0.58s
residuals [2.752517e-04, 3.324773e-04, 3.016527e-04, 2.956359e-04, 2.824735e-04, 2.488598e-04, 3.373349e-04, 2.578145e-04, 3.803097e-04, 4.659650e-04, 4.623118e-04, 4.301807e-04, 4.133437e-04, 5.331534e-04, 3.371109e-04, 3.786636e-04, 3.384649e-04, 3.685196e-04, 3.681410e-04, 4.033587e-04, 4.138289e-04, 4.304197e-04]
BSH residual: rms 3.732215e-04    max 5.331534e-04
timer:         BSH residual     0.24s     0.24s
timer: Update subspace stuf     0.09s     0.09s
Subspace solution [*]   1.00000000

timer:   Subspace transform     0.03s     0.03s
Norm of vector changes alpha : rms 3.732215e-04    max 5.331534e-04
ORTHOG2a: maxq trantol 7.253263e-05 4.545455e-09
timer:       Orthonormalize     0.30s     0.30s

Iteration 1 at time 115.5s

warning: boys localization did not fully converge:  1831
timer:        Boys localize     0.75s     0.75s
timer:      Rotate subspace     0.30s     0.30s
timer:       Make densities     0.13s     0.13s
timer:       Load balancing     0.00s     0.00s
delta rho 1.184529e-03 1.184529e-03 residuals 5.331534e-04 0.000000e+00
timer:       Nuclear energy     0.05s     0.05s
timer:              Coulomb     0.99s     0.99s
timer:        DFT potential     0.37s     0.37s
timer:                V*psi     0.74s     0.74s
timer:        Truncate Vpsi     0.96s     0.96s
timer:            PE matrix     0.07s     0.07s
timer:    KEmat reconstruct     0.03s     0.03s
timer:  KEmat differentiate     1.07s     1.07s
timer:       KEmat compress     0.17s     0.17s
timer: KEmat inner products     0.09s     0.09s
timer:            KE matrix     1.37s     1.37s
timer: Make fock matrix res     0.00s     0.00s

              kinetic     754.18306554
         nonlocal psp       0.00000000
   nuclear attraction   -2196.30934277
              coulomb     545.55147859
                  PCM       0.00000000
 exchange-correlation     -56.06411353
    nuclear-repulsion     196.25611604
                total    -756.38279613

timer: Compute residual stu     0.47s     0.47s
entering apply
timer:            Apply BSH    14.60s    14.60s
timer:     Truncate new psi     0.67s     0.67s
residuals [4.582228e-05, 6.025564e-05, 5.528812e-05, 5.415477e-05, 5.168725e-05, 3.355354e-05, 6.247920e-05, 3.223578e-05, 2.168984e-04, 1.911960e-04, 1.887782e-04, 1.025272e-04, 1.541223e-04, 2.941107e-04, 1.457492e-04, 1.680511e-04, 1.457123e-04, 2.106349e-04, 1.649603e-04, 2.361511e-04, 1.536268e-04, 1.028763e-04]
BSH residual: rms 1.496529e-04    max 2.941107e-04
timer:         BSH residual     0.27s     0.27s
timer: Update subspace stuf     0.29s     0.29s
Subspace solution [*]  -0.03146030   1.03146030

timer:   Subspace transform     0.06s     0.06s
Norm of vector changes alpha : rms 1.570739e-04    max 3.004288e-04
ORTHOG2a: maxq trantol 4.889861e-05 4.545455e-09
timer:       Orthonormalize     0.30s     0.30s

Iteration 2 at time 139.2s

warning: boys localization did not fully converge:  1690
timer:        Boys localize     0.71s     0.71s
timer:      Rotate subspace     0.27s     0.27s
timer:       Make densities     0.12s     0.12s
delta rho 3.793225e-04 3.793225e-04 residuals 2.941107e-04 0.000000e+00
timer:       Nuclear energy     0.04s     0.04s
timer:              Coulomb     0.74s     0.74s
timer:        DFT potential     0.26s     0.26s
timer:                V*psi     0.64s     0.64s
timer:        Truncate Vpsi     0.68s     0.68s
timer:            PE matrix     0.06s     0.06s
timer:    KEmat reconstruct     0.02s     0.02s
timer:  KEmat differentiate     0.94s     0.94s
timer:       KEmat compress     0.15s     0.15s
timer: KEmat inner products     0.09s     0.09s
timer:            KE matrix     1.21s     1.21s
timer: Make fock matrix res     0.00s     0.00s

              kinetic     754.19316893
         nonlocal psp       0.00000000
   nuclear attraction   -2196.32890742
              coulomb     545.56195239
                  PCM       0.00000000
 exchange-correlation     -56.06514282
    nuclear-repulsion     196.25611604
                total    -756.38281289


Converged!

timer:              Overlap     0.05s     0.05s
timer:      focka eigen sol     0.00s     0.00s
 
alpha eigenvalues
[*] -100.55151880 -24.18512715 -24.11652286 -24.11652201  -9.35028354  -7.21167222  -7.21025433  -7.19091479  -1.21620907  -1.10078422  -1.09868998  -0.81882633  -0.57603581  -0.57051031  -0.51043298  -0.45534889  -0.40667941  -0.40473614  -0.39220982  -0.37069087  -0.36125087  -0.29976977


 Dipole Moment (a.u.)
 -----------

     x:  5.618172e-06
     y:  1.272036e-05
     z:  2.328808e-01
 Total Dipole Moment:  2.328808e-01 

timer:               dipole     0.00s     0.00s
Orbitals are localized - energies are diagonal Fock matrix elements

Analysis of alpha MO vectors
timer:      Analyze vectors     1.17s     1.17s
timer: Compute eigen gesv a     0.00s     0.00s
  MO   0 : occ=1.00 : energy=-100.54871761 : center=(-0.00,-0.00,0.67) : radius=0.11
           Cl(0)   s( 0)-0.996  
  MO   1 : occ=1.00 : energy= -24.18438362 : center=(0.00,-0.00,-2.34) : radius=0.21
            F(1)   s(13) 0.995  
  MO   2 : occ=1.00 : energy= -24.11593553 : center=(0.00,3.21,0.53) : radius=0.21
            F(2)   s(22)-0.994  
  MO   3 : occ=1.00 : energy= -24.11592855 : center=(-0.00,-3.21,0.53) : radius=0.21
            F(3)   s(31)-0.994  
  MO   4 : occ=1.00 : energy=  -9.31108022 : center=(0.00,-0.00,0.68) : radius=0.53
           Cl(0)   s( 1) 1.027    Cl(0)   s( 0)-0.287  
  MO   5 : occ=1.00 : energy=  -7.15286484 : center=(0.00,-0.00,0.67) : radius=0.57
           Cl(0)  py( 3) 0.993  
  MO   6 : occ=1.00 : energy=  -7.13855313 : center=(-0.00,0.00,0.68) : radius=0.57
           Cl(0)  pz( 4)-0.990  
  MO   7 : occ=1.00 : energy=  -7.18729280 : center=(0.00,0.00,0.67) : radius=0.46
           Cl(0)  px( 2)-0.991  
  MO   8 : occ=1.00 : energy=  -0.62511328 : center=(-0.43,0.25,-2.40) : radius=1.19
            F(1)  px(15)-0.453     F(1)  px(19)-0.351     F(1)   s(18) 0.325     F(1)   s(14) 0.287     F(1)  py(16) 0.271     F(1)  py(20) 0.197  
  MO   9 : occ=1.00 : energy=  -0.59077849 : center=(-0.00,3.18,1.03) : radius=1.32
            F(2)  pz(26)-0.530     F(2)  pz(30)-0.402     F(2)   s(27)-0.271     F(2)   s(23)-0.266  
  MO  10 : occ=1.00 : energy=  -0.59076240 : center=(0.00,-3.18,1.03) : radius=1.32
            F(3)  pz(35)-0.530     F(3)  pz(39)-0.402     F(3)   s(36)-0.271     F(3)   s(32)-0.266  
  MO  11 : occ=1.00 : energy=  -0.54273301 : center=(0.87,0.00,0.97) : radius=1.58
           Cl(0)  px( 6)-0.588    Cl(0)   s( 5)-0.552    Cl(0)   s( 1) 0.263    Cl(0)   s( 9)-0.261    Cl(0)  px(10)-0.230    Cl(0)  px( 2) 0.219  
  MO  12 : occ=1.00 : energy=  -0.70433487 : center=(0.00,-2.21,0.53) : radius=1.47
            F(3)  py(34) 0.491     F(3)  py(38) 0.384    Cl(0)  py( 7)-0.364     F(3)   s(36) 0.229  
  MO  13 : occ=1.00 : energy=  -0.82879197 : center=(0.00,0.00,-1.29) : radius=1.41
            F(1)  pz(17) 0.472    Cl(0)  pz( 8)-0.410     F(1)  pz(21) 0.335    Cl(0)   s( 5) 0.241     F(1)   s(18) 0.196  
  MO  14 : occ=1.00 : energy=  -0.60493254 : center=(0.45,3.27,0.31) : radius=1.25
            F(2)  px(24)-0.452     F(2)  px(28)-0.360     F(2)   s(27)-0.326     F(2)   s(23)-0.285     F(2)  pz(26) 0.235     F(2)  pz(30) 0.179  
  MO  15 : occ=1.00 : energy=  -0.58760275 : center=(-0.45,3.28,0.30) : radius=1.24
            F(2)  px(24)-0.448     F(2)  px(28)-0.356     F(2)   s(27) 0.328     F(2)   s(23) 0.287     F(2)  pz(26)-0.240     F(2)  pz(30)-0.184  
  MO  16 : occ=1.00 : energy=  -0.60494625 : center=(-0.45,-3.27,0.31) : radius=1.25
            F(3)  px(33) 0.452     F(3)  px(37) 0.360     F(3)   s(36)-0.326     F(3)   s(32)-0.285     F(3)  pz(35) 0.235     F(3)  pz(39) 0.179  
  MO  17 : occ=1.00 : energy=  -0.62532395 : center=(0.44,0.24,-2.40) : radius=1.19
            F(1)  px(15)-0.463     F(1)  px(19)-0.359     F(1)   s(18)-0.325     F(1)   s(14)-0.287     F(1)  py(16)-0.252     F(1)  py(20)-0.183  
  MO  18 : occ=1.00 : energy=  -0.58765179 : center=(0.45,-3.28,0.30) : radius=1.24
            F(3)  px(33)-0.448     F(3)  px(37)-0.356     F(3)   s(36)-0.328     F(3)   s(32)-0.287     F(3)  pz(35) 0.240     F(3)  pz(39) 0.184  
  MO  19 : occ=1.00 : energy=  -0.62047755 : center=(-0.01,-0.49,-2.38) : radius=1.20
            F(1)  py(16) 0.537     F(1)  py(20) 0.390     F(1)   s(18)-0.318     F(1)   s(14)-0.280  
  MO  20 : occ=1.00 : energy=  -0.70406545 : center=(-0.00,2.21,0.53) : radius=1.47
            F(2)  py(25)-0.491     F(2)  py(29)-0.384    Cl(0)  py( 7) 0.363     F(2)   s(27) 0.229  
  MO  21 : occ=1.00 : energy=  -0.54271960 : center=(-0.87,0.00,0.97) : radius=1.58
           Cl(0)  px( 6) 0.588    Cl(0)   s( 5)-0.552    Cl(0)   s( 1) 0.263    Cl(0)   s( 9)-0.261    Cl(0)  px(10) 0.230    Cl(0)  px( 2)-0.219  
timer:             plotting     0.00s     0.00s

    Parallel environment
    --------------------
                  #nodes    1
       #threads per node    27+main = 28
          #total threads    28

  RMI message statistics (min / avg / max)
  ----------------------
   #messages in server q    0.00e+00 / 0.00e+00 / 0.00e+00
 #messages sent per node    0.00e+00 / 0.00e+00 / 0.00e+00
    #bytes sent per node    0.00e+00 / 0.00e+00 / 0.00e+00
 #messages recv per node    0.00e+00 / 0.00e+00 / 0.00e+00
    #bytes recv per node    0.00e+00 / 0.00e+00 / 0.00e+00
        #msgs systemwide    0.00e+00
       #bytes systemwide    0.00e+00

  Thread pool statistics (min / avg / max)
  ----------------------
         #tasks per node    0.00e+00 / 0.00e+00 / 0.00e+00
     #max q len per node    0.00e+00 / 0.00e+00 / 0.00e+00
  #hi-pri tasks per node    0.00e+00 / 0.00e+00 / 0.00e+00

         Total wall time    146.8s
         Total  cpu time    146.8s

