MADNESS runtime initialized with 27 threads in the pool and affinity -1 -1 -1

--------------------------------------------
   MADNESS 0.10.1 multiresolution suite
--------------------------------------------

   number of processors ... 1
    processor frequency ... 1.995417e+09
            host system ... linux-gnu
          configured by ... egentles
          configured on ... sn093
          configured at ... Tue Jul 11 16:06:48 EDT 2017
                    CXX ... mpicxx
               CXXFLAGS ... -g -std=c++14 -O3 -Wall -Wno-strict-aliasing -Wno-deprecated -Wno-unused-local-typedefs  -ffast-math -march=native
             tuning for ... default
                    MPI ... multiple
 multi-threaded runtime ... Intel TBB
                   BLAS ... Intel MKL 14334 14334 MFLOP/s
               compiled ... 08:44:05  on  Jul 29 2017
input filename:  /gpfs/home/egentles/auto_test_mad/geometries_LDA_boys/cyanogen.mdns

Angstrom being used to read input coordinates (1 Bohr = 1.88972613 Angstrom)

XY degenerate

 The point group is D2h

Construct XC Functional from LIBXC Library

input line was:  LDA
 1.000 lda_x 
 1.000 lda_c_vwn 

screening parameters
 rhotol, rhomin 1.000000e-07 0.000000e+00
         ggatol 1.000000e-04
polarized  false 


Solving NDIM= 3  with thresh 1.000000e-05     k 8    conv 1.000000e-04 




 MADNESS Hartree-Fock and Density Functional Theory Program
 ----------------------------------------------------------



 geometry
   eprec 1.0e-04
   units atomic
   C             0.00000000           0.00000000           1.31335966
   C             0.00000000           0.00000000          -1.31335966
   N             0.00000000           0.00000000           3.48654472
   N             0.00000000           0.00000000          -3.48654472
 end


             restart  false
    restart from AOs  false
 number of processes  1
   no. of io servers  1
   vnuc load bal fac  12
      load bal parts  2
     simulation cube  -5.348654e+01 5.348654e+01
        total charge  0.000000e+00
            smearing  0.000000e+00
 number of electrons  13 13
  number of orbitals  13 13
     spin restricted  true
       xc functional   LDA
          xc library  libxc
 initial guess basis  6-31g
 max krylov subspace  5
    compute protocol  [1.000000e-04, 1.000000e-06]
  energy convergence  1.000000e-05
 density convergence  1.000000e-04
    maximum rotation  2.500000e-01
    polynomial order  -1
       truncate mode  1
  maximum iterations  20
 Convergence criteria are density delta & BSH residual.
        plot density  false
        plot coulomb  false
        plot orbital  0 -1
        plot npoints  101
        plot  volume  default
  localized orbitals  boys
 psp or all electron  all electron
timer:           initialize     0.41s     0.41s

Solving NDIM= 3  with thresh 1.000000e-04     k 6    conv 1.000000e-04 


Solving NDIM= 3  with thresh 1.000000e-04     k 6    conv 1.000000e-04 

timer:     Project vnuclear     0.22s     0.22s
timer:     project ao basis     0.32s     0.32s
guess dens trace 2.600003e+01
timer:        guess density     0.29s     0.29s
timer:   guess Coulomb potn     0.31s     0.31s
timer:       guess lda potn     0.17s     0.17s
timer:        guess overlap     0.01s     0.01s
timer:    KEmat reconstruct     0.01s     0.01s
timer:  KEmat differentiate     0.41s     0.41s
timer:       KEmat compress     0.08s     0.08s
timer: KEmat inner products     0.04s     0.04s
timer:     guess Kinet potn     0.54s     0.54s
timer:           guess fock     0.82s     0.82s
timer:      guess eigen sol     0.00s     0.00s
grouping alpha orbitals into sets
set  0    0  -  1
set  1    2  -  3
set  2    4  -  12
timer: guess orbital groupi     0.04s     0.04s
timer:     project ao basis     0.24s     0.24s

Iteration 0 at time 3.6s

timer:        Boys localize     0.20s     0.20s
timer:      Rotate subspace     0.06s     0.06s
timer:       Make densities     0.02s     0.02s
timer:       Load balancing     0.00s     0.00s
timer:       Nuclear energy     0.01s     0.01s
timer:              Coulomb     0.10s     0.10s
timer:        DFT potential     0.06s     0.06s
timer:                V*psi     0.10s     0.10s
timer:        Truncate Vpsi     0.13s     0.13s
timer:            PE matrix     0.02s     0.02s
timer:    KEmat reconstruct     0.01s     0.01s
timer:  KEmat differentiate     0.27s     0.27s
timer:       KEmat compress     0.03s     0.03s
timer: KEmat inner products     0.02s     0.02s
timer:            KE matrix     0.34s     0.34s
timer: Make fock matrix res     0.00s     0.00s

              kinetic     185.66097617
         nonlocal psp       0.00000000
   nuclear attraction    -588.01607872
              coulomb     164.65707486
                  PCM       0.00000000
 exchange-correlation     -23.12858169
    nuclear-repulsion      76.88561598
                total    -183.94099339

timer: Compute residual stu     0.05s     0.05s
entering apply
timer:            Apply BSH     0.64s     0.64s
timer:     Truncate new psi     0.09s     0.09s
residuals [8.343887e-03, 8.344455e-03, 9.431371e-03, 9.431394e-03, 6.975170e-02, 6.975692e-02, 2.408398e-02, 6.974769e-02, 6.975188e-02, 1.244504e-01, 1.244345e-01, 6.974861e-02, 6.974885e-02]
BSH residual: rms 6.853421e-02    max 1.244504e-01
timer:         BSH residual     0.05s     0.05s
timer: Update subspace stuf     0.04s     0.04s
Subspace solution [*]   1.00000000

timer:   Subspace transform     0.00s     0.00s
Norm of vector changes alpha : rms 6.853421e-02    max 1.244504e-01
ORTHOG2a: maxq trantol 4.100653e-03 7.692308e-07
timer:       Orthonormalize     0.07s     0.07s

Iteration 1 at time 5.9s

timer:        Boys localize     0.18s     0.18s
timer:      Rotate subspace     0.05s     0.05s
timer:       Make densities     0.02s     0.02s
timer:       Load balancing     0.00s     0.00s
delta rho 1.018269e-01 1.018269e-01 residuals 1.244504e-01 0.000000e+00
timer:       Nuclear energy     0.01s     0.01s
timer:              Coulomb     0.10s     0.10s
timer:        DFT potential     0.07s     0.07s
timer:                V*psi     0.10s     0.10s
timer:        Truncate Vpsi     0.12s     0.12s
timer:            PE matrix     0.02s     0.02s
timer:    KEmat reconstruct     0.01s     0.01s
timer:  KEmat differentiate     0.27s     0.27s
timer:       KEmat compress     0.03s     0.03s
timer: KEmat inner products     0.03s     0.03s
timer:            KE matrix     0.33s     0.33s
timer: Make fock matrix res     0.00s     0.00s

              kinetic     182.60204281
         nonlocal psp       0.00000000
   nuclear attraction    -583.23062983
              coulomb     162.35216082
                  PCM       0.00000000
 exchange-correlation     -22.74999552
    nuclear-repulsion      76.88561598
                total    -184.14080573

timer: Compute residual stu     0.05s     0.05s
entering apply
timer:            Apply BSH     0.63s     0.63s
timer:     Truncate new psi     0.09s     0.09s
residuals [1.101290e-03, 1.101562e-03, 1.776385e-03, 1.776366e-03, 2.068149e-02, 2.068495e-02, 9.484817e-03, 2.068181e-02, 2.068152e-02, 5.572275e-02, 5.571694e-02, 2.068365e-02, 2.068350e-02]
BSH residual: rms 2.612805e-02    max 5.572275e-02
timer:         BSH residual     0.05s     0.05s
timer: Update subspace stuf     0.08s     0.08s
Subspace solution [*]   0.18072827   0.81927173

timer:   Subspace transform     0.01s     0.01s
Norm of vector changes alpha : rms 2.003753e-02    max 4.213162e-02
ORTHOG2a: maxq trantol 1.439218e-03 7.692308e-07
timer:       Orthonormalize     0.07s     0.07s

Iteration 2 at time 8.2s

timer:        Boys localize     0.19s     0.19s
timer:      Rotate subspace     0.05s     0.05s
timer:       Make densities     0.02s     0.02s
delta rho 2.391843e-02 2.391843e-02 residuals 5.572275e-02 0.000000e+00
timer:       Nuclear energy     0.01s     0.01s
timer:              Coulomb     0.10s     0.10s
timer:        DFT potential     0.07s     0.07s
timer:                V*psi     0.10s     0.10s
timer:        Truncate Vpsi     0.12s     0.12s
timer:            PE matrix     0.02s     0.02s
timer:    KEmat reconstruct     0.01s     0.01s
timer:  KEmat differentiate     0.27s     0.27s
timer:       KEmat compress     0.03s     0.03s
timer: KEmat inner products     0.03s     0.03s
timer:            KE matrix     0.33s     0.33s
timer: Make fock matrix res     0.00s     0.00s

              kinetic     183.17388831
         nonlocal psp       0.00000000
   nuclear attraction    -584.63476281
              coulomb     163.26693675
                  PCM       0.00000000
 exchange-correlation     -22.85324831
    nuclear-repulsion      76.88561598
                total    -184.16157008

timer: Compute residual stu     0.05s     0.05s
entering apply
timer:            Apply BSH     0.63s     0.63s
timer:     Truncate new psi     0.09s     0.09s
residuals [6.403508e-04, 6.402828e-04, 7.904025e-04, 7.906493e-04, 8.237630e-03, 8.237658e-03, 3.875931e-03, 8.235952e-03, 8.237552e-03, 7.937817e-03, 7.937817e-03, 8.236490e-03, 8.236247e-03]
BSH residual: rms 6.505571e-03    max 8.237658e-03
timer:         BSH residual     0.05s     0.05s
timer: Update subspace stuf     0.13s     0.13s
Subspace solution [*]  -0.06906173  -0.15945117   1.22851289

timer:   Subspace transform     0.02s     0.02s
Norm of vector changes alpha : rms 8.022757e-03    max 1.056709e-02
ORTHOG2a: maxq trantol 5.706978e-04 7.692308e-07
timer:       Orthonormalize     0.07s     0.07s

Iteration 3 at time 10.6s

timer:        Boys localize     0.18s     0.18s
timer:      Rotate subspace     0.05s     0.05s
timer:       Make densities     0.02s     0.02s
delta rho 8.113951e-03 8.113951e-03 residuals 8.237658e-03 0.000000e+00
timer:       Nuclear energy     0.01s     0.01s
timer:              Coulomb     0.10s     0.10s
timer:        DFT potential     0.07s     0.07s
timer:                V*psi     0.10s     0.10s
timer:        Truncate Vpsi     0.13s     0.13s
timer:            PE matrix     0.02s     0.02s
timer:    KEmat reconstruct     0.01s     0.01s
timer:  KEmat differentiate     0.26s     0.26s
timer:       KEmat compress     0.03s     0.03s
timer: KEmat inner products     0.03s     0.03s
timer:            KE matrix     0.33s     0.33s
timer: Make fock matrix res     0.00s     0.00s

              kinetic     183.09330318
         nonlocal psp       0.00000000
   nuclear attraction    -584.62386118
              coulomb     163.32980341
                  PCM       0.00000000
 exchange-correlation     -22.85128688
    nuclear-repulsion      76.88561598
                total    -184.16642549

timer: Compute residual stu     0.05s     0.05s
entering apply
timer:            Apply BSH     0.63s     0.63s
timer:     Truncate new psi     0.09s     0.09s
residuals [1.173212e-04, 1.172752e-04, 1.618293e-04, 1.613978e-04, 3.472153e-03, 3.472344e-03, 1.384353e-03, 3.470980e-03, 3.472161e-03, 3.848888e-03, 3.848669e-03, 3.470953e-03, 3.470849e-03]
BSH residual: rms 2.827520e-03    max 3.848888e-03
timer:         BSH residual     0.05s     0.05s
timer: Update subspace stuf     0.18s     0.18s
Subspace solution [*]  -0.02403080  -0.10283327   0.00505076   1.12181331

timer:   Subspace transform     0.03s     0.03s
Norm of vector changes alpha : rms 3.572610e-03    max 5.001012e-03
ORTHOG2a: maxq trantol 2.490936e-04 7.692308e-07
timer:       Orthonormalize     0.07s     0.07s

Iteration 4 at time 13.0s

timer:        Boys localize     0.21s     0.21s
timer:      Rotate subspace     0.06s     0.06s
timer:       Make densities     0.03s     0.03s
delta rho 3.274996e-03 3.274996e-03 residuals 3.848888e-03 0.000000e+00
timer:       Nuclear energy     0.01s     0.01s
timer:              Coulomb     0.12s     0.12s
timer:        DFT potential     0.08s     0.08s
timer:                V*psi     0.12s     0.12s
timer:        Truncate Vpsi     0.14s     0.14s
timer:            PE matrix     0.02s     0.02s
timer:    KEmat reconstruct     0.01s     0.01s
timer:  KEmat differentiate     0.29s     0.29s
timer:       KEmat compress     0.03s     0.03s
timer: KEmat inner products     0.03s     0.03s
timer:            KE matrix     0.36s     0.36s
timer: Make fock matrix res     0.00s     0.00s

              kinetic     183.07049845
         nonlocal psp       0.00000000
   nuclear attraction    -584.61612294
              coulomb     163.34283486
                  PCM       0.00000000
 exchange-correlation     -22.85013627
    nuclear-repulsion      76.88561598
                total    -184.16730993

timer: Compute residual stu     0.05s     0.05s
entering apply
timer:            Apply BSH     0.65s     0.65s
timer:     Truncate new psi     0.09s     0.09s
residuals [8.521924e-05, 8.486280e-05, 8.598335e-05, 8.613863e-05, 1.726492e-03, 1.726438e-03, 6.442766e-04, 1.725692e-03, 1.726476e-03, 1.233087e-03, 1.233328e-03, 1.725517e-03, 1.725443e-03]
BSH residual: rms 1.281844e-03    max 1.726492e-03
timer:         BSH residual     0.05s     0.05s
timer: Update subspace stuf     0.22s     0.22s
Subspace solution [*]   0.00908023   0.03019061  -0.15600427  -0.05697833   1.17371176

timer:   Subspace transform     0.03s     0.03s
Norm of vector changes alpha : rms 1.596670e-03    max 2.128377e-03
ORTHOG2a: maxq trantol 1.429530e-04 7.692308e-07
timer:       Orthonormalize     0.07s     0.07s

Iteration 5 at time 15.7s

timer:        Boys localize     0.21s     0.21s
timer:      Rotate subspace     0.05s     0.05s
timer:       Make densities     0.03s     0.03s
delta rho 1.704134e-03 1.704134e-03 residuals 1.726492e-03 0.000000e+00
timer:       Nuclear energy     0.01s     0.01s
timer:              Coulomb     0.12s     0.12s
timer:        DFT potential     0.07s     0.07s
timer:                V*psi     0.12s     0.12s
timer:        Truncate Vpsi     0.15s     0.15s
timer:            PE matrix     0.02s     0.02s
timer:    KEmat reconstruct     0.01s     0.01s
timer:  KEmat differentiate     0.28s     0.28s
timer:       KEmat compress     0.03s     0.03s
timer: KEmat inner products     0.03s     0.03s
timer:            KE matrix     0.34s     0.34s
timer: Make fock matrix res     0.00s     0.00s

              kinetic     183.07407848
         nonlocal psp       0.00000000
   nuclear attraction    -584.62517228
              coulomb     163.34808384
                  PCM       0.00000000
 exchange-correlation     -22.85021342
    nuclear-repulsion      76.88561598
                total    -184.16760739

timer: Compute residual stu     0.06s     0.06s
entering apply
timer:            Apply BSH     0.64s     0.64s
timer:     Truncate new psi     0.09s     0.09s
residuals [7.783831e-05, 7.756293e-05, 7.335783e-05, 7.356526e-05, 1.074899e-03, 1.074881e-03, 5.185976e-04, 1.073742e-03, 1.074969e-03, 7.561278e-04, 7.562759e-04, 1.073620e-03, 1.073527e-03]
BSH residual: rms 8.019147e-04    max 1.074969e-03
timer:         BSH residual     0.06s     0.06s
timer: Update subspace stuf     0.22s     0.22s
Subspace solution [*]   0.00743544   0.09649215  -0.43942022  -0.63621112   1.97170374

timer:   Subspace transform     0.03s     0.03s
Norm of vector changes alpha : rms 2.033948e-03    max 2.746137e-03
ORTHOG2a: maxq trantol 1.841644e-04 7.692308e-07
timer:       Orthonormalize     0.07s     0.07s

Iteration 6 at time 18.3s

timer:        Boys localize     0.22s     0.22s
timer:      Rotate subspace     0.05s     0.05s
timer:       Make densities     0.03s     0.03s
delta rho 2.335555e-03 2.335555e-03 residuals 1.074969e-03 0.000000e+00
timer:       Nuclear energy     0.01s     0.01s
timer:              Coulomb     0.11s     0.11s
timer:        DFT potential     0.07s     0.07s
timer:                V*psi     0.12s     0.12s
timer:        Truncate Vpsi     0.13s     0.13s
timer:            PE matrix     0.02s     0.02s
timer:    KEmat reconstruct     0.01s     0.01s
timer:  KEmat differentiate     0.28s     0.28s
timer:       KEmat compress     0.03s     0.03s
timer: KEmat inner products     0.03s     0.03s
timer:            KE matrix     0.35s     0.35s
timer: Make fock matrix res     0.00s     0.00s

              kinetic     183.07904990
         nonlocal psp       0.00000000
   nuclear attraction    -584.63975130
              coulomb     163.35769635
                  PCM       0.00000000
 exchange-correlation     -22.85046428
    nuclear-repulsion      76.88561598
                total    -184.16785334

timer: Compute residual stu     0.05s     0.05s
entering apply
timer:            Apply BSH     0.69s     0.69s
timer:     Truncate new psi     0.09s     0.09s
residuals [8.183984e-05, 8.184322e-05, 6.618393e-05, 6.677620e-05, 6.709443e-04, 6.709161e-04, 3.629510e-04, 6.691427e-04, 6.710386e-04, 5.729663e-04, 5.731199e-04, 6.690316e-04, 6.689577e-04]
BSH residual: rms 5.191837e-04    max 6.710386e-04
timer:         BSH residual     0.05s     0.05s
timer: Update subspace stuf     0.22s     0.22s
Subspace solution [*]   0.05132872  -0.05046724  -0.49500950   0.13126084   1.36288718

timer:   Subspace transform     0.03s     0.03s
Norm of vector changes alpha : rms 1.354901e-03    max 1.844743e-03
ORTHOG2a: maxq trantol 1.240746e-04 7.692308e-07
timer:       Orthonormalize     0.08s     0.08s

Iteration 7 at time 21.0s

timer:        Boys localize     0.21s     0.21s
timer:      Rotate subspace     0.06s     0.06s
timer:       Make densities     0.03s     0.03s
delta rho 1.428540e-03 1.428540e-03 residuals 6.710386e-04 0.000000e+00
timer:       Nuclear energy     0.01s     0.01s
timer:              Coulomb     0.12s     0.12s
timer:        DFT potential     0.08s     0.08s
timer:                V*psi     0.12s     0.12s
timer:        Truncate Vpsi     0.14s     0.14s
timer:            PE matrix     0.02s     0.02s
timer:    KEmat reconstruct     0.01s     0.01s
timer:  KEmat differentiate     0.28s     0.28s
timer:       KEmat compress     0.03s     0.03s
timer: KEmat inner products     0.03s     0.03s
timer:            KE matrix     0.35s     0.35s
timer: Make fock matrix res     0.00s     0.00s

              kinetic     183.07783574
         nonlocal psp       0.00000000
   nuclear attraction    -584.64046653
              coulomb     163.35919012
                  PCM       0.00000000
 exchange-correlation     -22.85008622
    nuclear-repulsion      76.88561598
                total    -184.16791091

timer: Compute residual stu     0.05s     0.05s
entering apply
timer:            Apply BSH     0.66s     0.66s
timer:     Truncate new psi     0.09s     0.09s
residuals [8.088392e-05, 8.083670e-05, 6.283074e-05, 6.348433e-05, 3.458707e-04, 3.458434e-04, 2.247748e-04, 3.420690e-04, 3.460475e-04, 3.968202e-04, 3.968286e-04, 3.422000e-04, 3.420711e-04]
BSH residual: rms 2.904407e-04    max 3.968286e-04
timer:         BSH residual     0.05s     0.05s
timer: Update subspace stuf     0.21s     0.21s
Subspace solution [*]   0.05630828   0.10635257  -0.33618712  -0.08276375   1.25629001

timer:   Subspace transform     0.02s     0.02s
Norm of vector changes alpha : rms 5.207536e-04    max 6.625189e-04
ORTHOG2a: maxq trantol 9.178500e-05 7.692308e-07
timer:       Orthonormalize     0.08s     0.08s

Iteration 8 at time 23.7s

timer:        Boys localize     0.21s     0.21s
timer:      Rotate subspace     0.06s     0.06s
timer:       Make densities     0.03s     0.03s
delta rho 3.636036e-04 3.636036e-04 residuals 3.968286e-04 0.000000e+00
timer:       Nuclear energy     0.01s     0.01s
timer:              Coulomb     0.12s     0.12s
timer:        DFT potential     0.07s     0.07s
timer:                V*psi     0.12s     0.12s
timer:        Truncate Vpsi     0.15s     0.15s
timer:            PE matrix     0.02s     0.02s
timer:    KEmat reconstruct     0.01s     0.01s
timer:  KEmat differentiate     0.28s     0.28s
timer:       KEmat compress     0.03s     0.03s
timer: KEmat inner products     0.03s     0.03s
timer:            KE matrix     0.35s     0.35s
timer: Make fock matrix res     0.00s     0.00s

              kinetic     183.07449022
         nonlocal psp       0.00000000
   nuclear attraction    -584.63567071
              coulomb     163.35735645
                  PCM       0.00000000
 exchange-correlation     -22.84971807
    nuclear-repulsion      76.88561598
                total    -184.16792612


Converged!

timer:              Overlap     0.02s     0.02s
timer:      focka eigen sol     0.00s     0.00s
 
alpha eigenvalues
[*] -13.93685175 -13.93669474  -9.90027863  -9.89972896  -0.90261185  -0.88611792  -0.69171163  -0.42587210  -0.42587050  -0.38314567  -0.37316957  -0.35427723  -0.35427447


 Dipole Moment (a.u.)
 -----------

     x:  -5.456241e-06
     y:  2.082289e-05
     z:  1.528137e-05
 Total Dipole Moment:  2.639855e-05 

timer:               dipole     0.00s     0.00s
Orbitals are localized - energies are diagonal Fock matrix elements

Analysis of alpha MO vectors
timer:      Analyze vectors     0.33s     0.33s
timer: Compute eigen gesv a     0.00s     0.00s
  MO   0 : occ=1.00 : energy= -13.93669277 : center=(-0.00,0.00,3.49) : radius=0.27
            N(2)   s(18)-0.995  
  MO   1 : occ=1.00 : energy= -13.93669144 : center=(0.00,0.00,-3.49) : radius=0.27
            N(3)   s(27)-0.995  
  MO   2 : occ=1.00 : energy=  -9.89977025 : center=(0.00,-0.00,-1.31) : radius=0.32
            C(1)   s( 9) 0.995  
  MO   3 : occ=1.00 : energy=  -9.89976726 : center=(-0.00,-0.00,1.31) : radius=0.32
            C(0)   s( 0) 0.995  
  MO   4 : occ=1.00 : energy=  -0.54302108 : center=(0.45,-0.32,-2.37) : radius=1.73
            N(3)  px(29) 0.304     C(1)  px(11) 0.289     N(3)  py(30)-0.217     C(1)  py(12)-0.206     N(3)  pz(31) 0.202     C(1)  pz(13)-0.181     N(3)   s(28) 0.171     C(1)   s(10) 0.171     C(1)  px(15) 0.161     N(3)  px(33) 0.152  
  MO   5 : occ=1.00 : energy=  -0.54302157 : center=(0.38,-0.41,2.37) : radius=1.73
            N(2)  py(21)-0.272     C(0)  py( 3)-0.259     N(2)  px(20) 0.255     C(0)  px( 2) 0.243     N(2)  pz(22)-0.202     C(0)  pz( 4) 0.181     N(2)   s(19) 0.171     C(0)   s( 1) 0.171  
  MO   6 : occ=1.00 : energy=  -0.69826901 : center=(-0.00,0.00,-0.00) : radius=1.42
            C(0)  pz( 4)-0.344     C(1)  pz(13) 0.344     C(0)   s( 1) 0.254     C(1)   s(10) 0.254     C(0)   s( 5) 0.194     C(1)   s(14) 0.194  
  MO   7 : occ=1.00 : energy=  -0.54302101 : center=(0.05,0.56,-2.37) : radius=1.73
            N(3)  py(30) 0.371     C(1)  py(12) 0.354     N(3)  pz(31) 0.202     C(1)  py(16) 0.197     N(3)  py(34) 0.186     C(1)  pz(13)-0.181     N(3)   s(28) 0.171     C(1)   s(10) 0.171  
  MO   8 : occ=1.00 : energy=  -0.54302136 : center=(-0.51,-0.23,-2.37) : radius=1.73
            N(3)  px(29)-0.339     C(1)  px(11)-0.323     N(3)  pz(31) 0.202     C(1)  pz(13)-0.181     C(1)  px(15)-0.180     N(3)   s(28) 0.171     C(1)   s(10) 0.171     N(3)  px(33)-0.170     N(3)  py(30)-0.155  
  MO   9 : occ=1.00 : energy=  -0.42064468 : center=(0.00,0.00,4.16) : radius=1.46
            N(2)  pz(22) 0.398     N(2)   s(19) 0.381     C(0)  pz( 8) 0.339     N(2)   s(23) 0.322     C(1)   s(14) 0.298     N(2)  pz(26) 0.291     C(1)  pz(17) 0.243     C(0)   s( 5)-0.220  
  MO  10 : occ=1.00 : energy=  -0.42064378 : center=(-0.00,-0.00,-4.16) : radius=1.46
            N(3)  pz(31)-0.398     N(3)   s(28) 0.381     C(1)  pz(17)-0.339     N(3)   s(32) 0.322     C(0)   s( 5) 0.298     N(3)  pz(35)-0.291     C(0)  pz( 8)-0.243     C(1)   s(14)-0.220  
  MO  11 : occ=1.00 : energy=  -0.54302178 : center=(0.16,0.53,2.37) : radius=1.73
            N(2)  py(21)-0.357     C(0)  py( 3)-0.340     N(2)  pz(22) 0.202     C(0)  py( 7)-0.190     C(0)  pz( 4)-0.181     N(2)  py(25)-0.178     N(2)   s(19)-0.171     C(0)   s( 1)-0.171  
  MO  12 : occ=1.00 : energy=  -0.54302204 : center=(-0.54,-0.13,2.37) : radius=1.73
            N(2)  px(20) 0.363     C(0)  px( 2) 0.346     N(2)  pz(22) 0.202     C(0)  px( 6) 0.193     N(2)  px(24) 0.181     C(0)  pz( 4)-0.181     N(2)   s(19)-0.171     C(0)   s( 1)-0.171  

Solving NDIM= 3  with thresh 1.000000e-06     k 8    conv 1.000000e-04 

timer:     Project vnuclear     0.40s     0.40s
timer:     project ao basis     0.45s     0.45s

Iteration 0 at time 26.6s

timer:        Boys localize     0.21s     0.21s
timer:      Rotate subspace     0.07s     0.07s
timer:       Make densities     0.03s     0.03s
timer:       Load balancing     0.00s     0.00s
timer:       Nuclear energy     0.03s     0.03s
timer:              Coulomb     0.35s     0.35s
timer:        DFT potential     0.10s     0.10s
timer:                V*psi     0.68s     0.68s
timer:        Truncate Vpsi     0.44s     0.44s
timer:            PE matrix     0.02s     0.02s
timer:    KEmat reconstruct     0.01s     0.01s
timer:  KEmat differentiate     0.27s     0.27s
timer:       KEmat compress     0.04s     0.04s
timer: KEmat inner products     0.03s     0.03s
timer:            KE matrix     0.35s     0.35s
timer: Make fock matrix res     0.00s     0.00s

              kinetic     183.07526757
         nonlocal psp       0.00000000
   nuclear attraction    -584.63573149
              coulomb     163.35704111
                  PCM       0.00000000
 exchange-correlation     -22.84971648
    nuclear-repulsion      76.88561598
                total    -184.16752330

timer: Compute residual stu     0.11s     0.11s
entering apply
timer:            Apply BSH     4.04s     4.04s
timer:     Truncate new psi     0.30s     0.30s
residuals [2.343070e-04, 2.342658e-04, 2.246309e-04, 2.260676e-04, 3.675214e-04, 3.673202e-04, 2.738702e-04, 3.598838e-04, 3.679141e-04, 3.710257e-04, 3.710072e-04, 3.605262e-04, 3.603394e-04]
BSH residual: rms 3.230092e-04    max 3.710257e-04
timer:         BSH residual     0.10s     0.10s
timer: Update subspace stuf     0.04s     0.04s
Subspace solution [*]   1.00000000

timer:   Subspace transform     0.02s     0.02s
Norm of vector changes alpha : rms 3.230092e-04    max 3.710257e-04
ORTHOG2a: maxq trantol 5.463139e-05 7.692308e-09
timer:       Orthonormalize     0.13s     0.13s

Iteration 1 at time 34.0s

timer:        Boys localize     0.33s     0.33s
timer:      Rotate subspace     0.09s     0.09s
timer:       Make densities     0.05s     0.05s
timer:       Load balancing     0.00s     0.00s
delta rho 6.134418e-04 6.134418e-04 residuals 3.710257e-04 0.000000e+00
timer:       Nuclear energy     0.02s     0.02s
timer:              Coulomb     0.56s     0.56s
timer:        DFT potential     0.18s     0.18s
timer:                V*psi     0.27s     0.27s
timer:        Truncate Vpsi     0.30s     0.30s
timer:            PE matrix     0.03s     0.03s
timer:    KEmat reconstruct     0.01s     0.01s
timer:  KEmat differentiate     0.47s     0.47s
timer:       KEmat compress     0.08s     0.08s
timer: KEmat inner products     0.04s     0.04s
timer:            KE matrix     0.61s     0.61s
timer: Make fock matrix res     0.00s     0.00s

              kinetic     183.07210312
         nonlocal psp       0.00000000
   nuclear attraction    -584.63442684
              coulomb     163.35656439
                  PCM       0.00000000
 exchange-correlation     -22.84970981
    nuclear-repulsion      76.88561598
                total    -184.16985315

timer: Compute residual stu     0.19s     0.19s
entering apply
timer:            Apply BSH     4.74s     4.74s
timer:     Truncate new psi     0.31s     0.31s
residuals [2.270232e-05, 2.264389e-05, 3.188640e-05, 3.253376e-05, 1.908506e-04, 1.909954e-04, 6.429474e-05, 1.884917e-04, 1.908103e-04, 1.529657e-04, 1.531042e-04, 1.888471e-04, 1.888397e-04]
BSH residual: rms 1.441797e-04    max 1.909954e-04
timer:         BSH residual     0.13s     0.13s
timer: Update subspace stuf     0.13s     0.13s
Subspace solution [*]  -0.24401057   1.24401057

timer:   Subspace transform     0.03s     0.03s
Norm of vector changes alpha : rms 1.805450e-04    max 2.401424e-04
ORTHOG2a: maxq trantol 2.760627e-05 7.692308e-09
timer:       Orthonormalize     0.15s     0.15s

Iteration 2 at time 42.9s

timer:        Boys localize     0.38s     0.38s
timer:      Rotate subspace     0.10s     0.10s
timer:       Make densities     0.05s     0.05s
delta rho 1.830742e-04 1.830742e-04 residuals 1.909954e-04 0.000000e+00
timer:       Nuclear energy     0.02s     0.02s
timer:              Coulomb     0.51s     0.51s
timer:        DFT potential     0.16s     0.16s
timer:                V*psi     0.28s     0.28s
timer:        Truncate Vpsi     0.30s     0.30s
timer:            PE matrix     0.03s     0.03s
timer:    KEmat reconstruct     0.01s     0.01s
timer:  KEmat differentiate     0.47s     0.47s
timer:       KEmat compress     0.07s     0.07s
timer: KEmat inner products     0.04s     0.04s
timer:            KE matrix     0.60s     0.60s
timer: Make fock matrix res     0.00s     0.00s

              kinetic     183.07453612
         nonlocal psp       0.00000000
   nuclear attraction    -584.63881579
              coulomb     163.35884488
                  PCM       0.00000000
 exchange-correlation     -22.85004049
    nuclear-repulsion      76.88561598
                total    -184.16985930


Converged!

timer:              Overlap     0.03s     0.03s
timer:      focka eigen sol     0.00s     0.00s
 
alpha eigenvalues
[*] -13.93652459 -13.93649942  -9.90041031  -9.89995095  -0.90275691  -0.88620440  -0.69189257  -0.42595143  -0.42595139  -0.38308618  -0.37316707  -0.35422674  -0.35422670


 Dipole Moment (a.u.)
 -----------

     x:  -3.187132e-06
     y:  9.487082e-06
     z:  1.627002e-05
 Total Dipole Moment:  1.910173e-05 

timer:               dipole     0.00s     0.00s
Orbitals are localized - energies are diagonal Fock matrix elements

Analysis of alpha MO vectors
timer:      Analyze vectors     0.56s     0.56s
timer: Compute eigen gesv a     0.00s     0.00s
  MO   0 : occ=1.00 : energy= -13.93643092 : center=(-0.00,0.00,3.49) : radius=0.27
            N(2)   s(18)-0.995  
  MO   1 : occ=1.00 : energy= -13.93642883 : center=(-0.00,0.00,-3.49) : radius=0.27
            N(3)   s(27)-0.995  
  MO   2 : occ=1.00 : energy=  -9.89994393 : center=(0.00,-0.00,-1.31) : radius=0.32
            C(1)   s( 9) 0.995  
  MO   3 : occ=1.00 : energy=  -9.89994098 : center=(-0.00,-0.00,1.31) : radius=0.32
            C(0)   s( 0) 0.995  
  MO   4 : occ=1.00 : energy=  -0.54307674 : center=(0.46,-0.32,-2.37) : radius=1.73
            N(3)  px(29) 0.304     C(1)  px(11) 0.289     N(3)  py(30)-0.216     C(1)  py(12)-0.206     N(3)  pz(31) 0.202     C(1)  pz(13)-0.182     N(3)   s(28) 0.171     C(1)   s(10) 0.171     C(1)  px(15) 0.161     N(3)  px(33) 0.152  
  MO   5 : occ=1.00 : energy=  -0.54307818 : center=(0.38,-0.41,2.37) : radius=1.73
            N(2)  py(21)-0.274     C(0)  py( 3)-0.261     N(2)  px(20) 0.253     C(0)  px( 2) 0.241     N(2)  pz(22)-0.202     C(0)  pz( 4) 0.182     N(2)   s(19) 0.171     C(0)   s( 1) 0.171  
  MO   6 : occ=1.00 : energy=  -0.69849945 : center=(-0.00,0.00,0.00) : radius=1.42
            C(0)  pz( 4)-0.344     C(1)  pz(13) 0.344     C(0)   s( 1) 0.254     C(1)   s(10) 0.254     C(0)   s( 5) 0.194     C(1)   s(14) 0.194  
  MO   7 : occ=1.00 : energy=  -0.54307236 : center=(0.05,0.56,-2.37) : radius=1.73
            N(3)  py(30) 0.372     C(1)  py(12) 0.353     N(3)  pz(31) 0.202     C(1)  py(16) 0.197     N(3)  py(34) 0.185     C(1)  pz(13)-0.182     N(3)   s(28) 0.171     C(1)   s(10) 0.171  
  MO   8 : occ=1.00 : energy=  -0.54307677 : center=(-0.51,-0.23,-2.37) : radius=1.73
            N(3)  px(29)-0.339     C(1)  px(11)-0.323     N(3)  pz(31) 0.202     C(1)  pz(13)-0.182     C(1)  px(15)-0.180     N(3)   s(28) 0.171     C(1)   s(10) 0.171     N(3)  px(33)-0.169     N(3)  py(30)-0.155     C(1)  py(12)-0.148  
  MO   9 : occ=1.00 : energy=  -0.42057691 : center=(0.00,-0.00,4.16) : radius=1.46
            N(2)  pz(22) 0.398     N(2)   s(19) 0.381     C(0)  pz( 8) 0.339     N(2)   s(23) 0.322     C(1)   s(14) 0.298     N(2)  pz(26) 0.291     C(1)  pz(17) 0.244     C(0)   s( 5)-0.220  
  MO  10 : occ=1.00 : energy=  -0.42057543 : center=(-0.00,-0.00,-4.16) : radius=1.46
            N(3)  pz(31)-0.398     N(3)   s(28) 0.381     C(1)  pz(17)-0.339     N(3)   s(32) 0.322     C(0)   s( 5) 0.298     N(3)  pz(35)-0.291     C(0)  pz( 8)-0.244     C(1)   s(14)-0.220  
  MO  11 : occ=1.00 : energy=  -0.54307412 : center=(0.17,0.53,2.37) : radius=1.73
            N(2)  py(21)-0.356     C(0)  py( 3)-0.339     N(2)  pz(22) 0.202     C(0)  py( 7)-0.189     C(0)  pz( 4)-0.182     N(2)  py(25)-0.178     N(2)   s(19)-0.171     C(0)   s( 1)-0.171  
  MO  12 : occ=1.00 : energy=  -0.54307403 : center=(-0.54,-0.12,2.37) : radius=1.73
            N(2)  px(20) 0.364     C(0)  px( 2) 0.346     N(2)  pz(22) 0.202     C(0)  px( 6) 0.193     N(2)  px(24) 0.182     C(0)  pz( 4)-0.182     N(2)   s(19)-0.171     C(0)   s( 1)-0.171  
timer:             plotting     0.00s     0.00s

    Parallel environment
    --------------------
                  #nodes    1
       #threads per node    27+main = 28
          #total threads    28

  RMI message statistics (min / avg / max)
  ----------------------
   #messages in server q    0.00e+00 / 0.00e+00 / 0.00e+00
 #messages sent per node    0.00e+00 / 0.00e+00 / 0.00e+00
    #bytes sent per node    0.00e+00 / 0.00e+00 / 0.00e+00
 #messages recv per node    0.00e+00 / 0.00e+00 / 0.00e+00
    #bytes recv per node    0.00e+00 / 0.00e+00 / 0.00e+00
        #msgs systemwide    0.00e+00
       #bytes systemwide    0.00e+00

  Thread pool statistics (min / avg / max)
  ----------------------
         #tasks per node    0.00e+00 / 0.00e+00 / 0.00e+00
     #max q len per node    0.00e+00 / 0.00e+00 / 0.00e+00
  #hi-pri tasks per node    0.00e+00 / 0.00e+00 / 0.00e+00

         Total wall time    46.8s
         Total  cpu time    46.8s

