MADNESS runtime initialized with 27 threads in the pool and affinity -1 -1 -1

--------------------------------------------
   MADNESS 0.10.1 multiresolution suite
--------------------------------------------

   number of processors ... 1
    processor frequency ... 1.995379e+09
            host system ... linux-gnu
          configured by ... egentles
          configured on ... sn093
          configured at ... Tue Jul 11 16:06:48 EDT 2017
                    CXX ... mpicxx
               CXXFLAGS ... -g -std=c++14 -O3 -Wall -Wno-strict-aliasing -Wno-deprecated -Wno-unused-local-typedefs  -ffast-math -march=native
             tuning for ... default
                    MPI ... multiple
 multi-threaded runtime ... Intel TBB
                   BLAS ... Intel MKL 14298 14298 MFLOP/s
               compiled ... 08:44:05  on  Jul 29 2017
input filename:  /gpfs/home/egentles/auto_test_mad/geometries_LDA_boys/cyclobutene.mdns

Angstrom being used to read input coordinates (1 Bohr = 1.88972613 Angstrom)

Abelian pointgroup

 The point group is C2v

Construct XC Functional from LIBXC Library

input line was:  LDA
 1.000 lda_x 
 1.000 lda_c_vwn 

screening parameters
 rhotol, rhomin 1.000000e-07 0.000000e+00
         ggatol 1.000000e-04
polarized  false 


Solving NDIM= 3  with thresh 1.000000e-05     k 8    conv 1.000000e-04 




 MADNESS Hartree-Fock and Density Functional Theory Program
 ----------------------------------------------------------



 geometry
   eprec 1.0e-04
   units atomic
   C            -0.00000000          -1.26800624           1.53200098
   C             0.00000000           1.26800624           1.53200098
   C            -0.00000000          -1.47795481          -1.32715466
   C             0.00000000           1.47795481          -1.32715466
   H            -0.00000000          -2.67679707           3.01638085
   H             0.00000000           2.67679707           3.01638085
   H            -1.69810790          -2.34798472          -2.12272937
   H             1.69810790           2.34798472          -2.12272937
   H             1.69810790          -2.34798472          -2.12272937
   H            -1.69810790           2.34798472          -2.12272937
 end


             restart  false
    restart from AOs  false
 number of processes  1
   no. of io servers  1
   vnuc load bal fac  12
      load bal parts  2
     simulation cube  -5.301638e+01 5.301638e+01
        total charge  0.000000e+00
            smearing  0.000000e+00
 number of electrons  15 15
  number of orbitals  15 15
     spin restricted  true
       xc functional   LDA
          xc library  libxc
 initial guess basis  6-31g
 max krylov subspace  5
    compute protocol  [1.000000e-04, 1.000000e-06]
  energy convergence  1.000000e-05
 density convergence  1.000000e-04
    maximum rotation  2.500000e-01
    polynomial order  -1
       truncate mode  1
  maximum iterations  20
 Convergence criteria are density delta & BSH residual.
        plot density  false
        plot coulomb  false
        plot orbital  0 -1
        plot npoints  101
        plot  volume  default
  localized orbitals  boys
 psp or all electron  all electron
timer:           initialize     0.40s     0.40s

Solving NDIM= 3  with thresh 1.000000e-04     k 6    conv 1.000000e-04 


Solving NDIM= 3  with thresh 1.000000e-04     k 6    conv 1.000000e-04 

timer:     Project vnuclear     0.41s     0.41s
timer:     project ao basis     0.40s     0.40s
guess dens trace 3.000009e+01
timer:        guess density     0.43s     0.43s
timer:   guess Coulomb potn     0.36s     0.36s
timer:       guess lda potn     0.18s     0.18s
timer:        guess overlap     0.02s     0.02s
timer:    KEmat reconstruct     0.01s     0.01s
timer:  KEmat differentiate     0.49s     0.49s
timer:       KEmat compress     0.08s     0.08s
timer: KEmat inner products     0.05s     0.05s
timer:     guess Kinet potn     0.64s     0.64s
timer:           guess fock     1.93s     1.93s
timer:      guess eigen sol     0.00s     0.00s
grouping alpha orbitals into sets
set  0    0  -  3
set  1    4  -  14
timer: guess orbital groupi     0.06s     0.06s
timer:     project ao basis     0.33s     0.33s

Iteration 0 at time 5.5s

timer:        Boys localize     0.24s     0.24s
timer:      Rotate subspace     0.09s     0.09s
timer:       Make densities     0.03s     0.03s
timer:       Load balancing     0.00s     0.00s
timer:       Nuclear energy     0.01s     0.01s
timer:              Coulomb     0.10s     0.10s
timer:        DFT potential     0.08s     0.08s
timer:                V*psi     0.17s     0.17s
timer:        Truncate Vpsi     0.21s     0.21s
timer:            PE matrix     0.02s     0.02s
timer:    KEmat reconstruct     0.01s     0.01s
timer:  KEmat differentiate     0.30s     0.30s
timer:       KEmat compress     0.03s     0.03s
timer: KEmat inner products     0.03s     0.03s
timer:            KE matrix     0.38s     0.38s
timer: Make fock matrix res     0.00s     0.00s

              kinetic     157.12886843
         nonlocal psp       0.00000000
   nuclear attraction    -594.12116099
              coulomb     192.21830228
                  PCM       0.00000000
 exchange-correlation     -22.83128454
    nuclear-repulsion     113.27546316
                total    -154.32981166

timer: Compute residual stu     0.06s     0.06s
entering apply
timer:            Apply BSH     0.76s     0.76s
timer:     Truncate new psi     0.09s     0.09s
residuals [9.742742e-03, 9.742979e-03, 9.871817e-03, 9.871873e-03, 1.244424e-01, 1.217714e-01, 1.217700e-01, 1.036869e-01, 1.036857e-01, 1.217706e-01, 9.056240e-02, 1.217709e-01, 9.766266e-02, 9.056071e-02, 1.244426e-01]
BSH residual: rms 9.595539e-02    max 1.244426e-01
timer:         BSH residual     0.06s     0.06s
timer: Update subspace stuf     0.05s     0.05s
Subspace solution [*]   1.00000000

timer:   Subspace transform     0.01s     0.01s
Norm of vector changes alpha : rms 9.595539e-02    max 1.244426e-01
ORTHOG2a: maxq trantol 1.455119e-02 6.666667e-07
ORTHOG2a: maxq trantol 8.356623e-05 6.666667e-07
timer:       Orthonormalize     0.11s     0.11s

Iteration 1 at time 8.3s

timer:        Boys localize     0.21s     0.21s
timer:      Rotate subspace     0.08s     0.08s
timer:       Make densities     0.03s     0.03s
timer:       Load balancing     0.00s     0.00s
delta rho 1.107314e-01 1.107314e-01 residuals 1.244426e-01 0.000000e+00
timer:       Nuclear energy     0.01s     0.01s
timer:              Coulomb     0.11s     0.11s
timer:        DFT potential     0.08s     0.08s
timer:                V*psi     0.17s     0.17s
timer:        Truncate Vpsi     0.21s     0.21s
timer:            PE matrix     0.02s     0.02s
timer:    KEmat reconstruct     0.01s     0.01s
timer:  KEmat differentiate     0.29s     0.29s
timer:       KEmat compress     0.04s     0.04s
timer: KEmat inner products     0.03s     0.03s
timer:            KE matrix     0.37s     0.37s
timer: Make fock matrix res     0.00s     0.00s

              kinetic     152.66674525
         nonlocal psp       0.00000000
   nuclear attraction    -583.49050726
              coulomb     185.18748624
                  PCM       0.00000000
 exchange-correlation     -22.17635199
    nuclear-repulsion     113.27546316
                total    -154.53716459

timer: Compute residual stu     0.06s     0.06s
entering apply
timer:            Apply BSH     0.76s     0.76s
timer:     Truncate new psi     0.09s     0.09s
residuals [1.009850e-03, 1.009862e-03, 1.094335e-03, 1.094331e-03, 4.590395e-02, 4.415093e-02, 4.414985e-02, 3.409186e-02, 3.409029e-02, 4.414944e-02, 3.997868e-02, 4.415140e-02, 4.411294e-02, 3.997805e-02, 4.590397e-02]
BSH residual: rms 3.603952e-02    max 4.590397e-02
timer:         BSH residual     0.06s     0.06s
timer: Update subspace stuf     0.10s     0.10s
Subspace solution [*]   0.24436344   0.75563656

timer:   Subspace transform     0.01s     0.01s
Norm of vector changes alpha : rms 2.624123e-02    max 3.377364e-02
ORTHOG2a: maxq trantol 4.166577e-03 6.666667e-07
timer:       Orthonormalize     0.08s     0.08s

Iteration 2 at time 11.1s

timer:        Boys localize     0.23s     0.23s
timer:      Rotate subspace     0.08s     0.08s
timer:       Make densities     0.03s     0.03s
delta rho 2.625244e-02 2.625244e-02 residuals 4.590397e-02 0.000000e+00
timer:       Nuclear energy     0.01s     0.01s
timer:              Coulomb     0.13s     0.13s
timer:        DFT potential     0.08s     0.08s
timer:                V*psi     0.19s     0.19s
timer:        Truncate Vpsi     0.22s     0.22s
timer:            PE matrix     0.02s     0.02s
timer:    KEmat reconstruct     0.01s     0.01s
timer:  KEmat differentiate     0.31s     0.31s
timer:       KEmat compress     0.03s     0.03s
timer: KEmat inner products     0.03s     0.03s
timer:            KE matrix     0.39s     0.39s
timer: Make fock matrix res     0.00s     0.00s

              kinetic     153.43455520
         nonlocal psp       0.00000000
   nuclear attraction    -586.08708540
              coulomb     187.15074698
                  PCM       0.00000000
 exchange-correlation     -22.34391873
    nuclear-repulsion     113.27546316
                total    -154.57023879

timer: Compute residual stu     0.06s     0.06s
entering apply
timer:            Apply BSH     0.77s     0.77s
timer:     Truncate new psi     0.09s     0.09s
residuals [6.328158e-04, 6.328996e-04, 6.853847e-04, 6.853820e-04, 8.117483e-03, 5.674584e-03, 5.674465e-03, 4.731685e-03, 4.731518e-03, 5.674170e-03, 6.710951e-03, 5.674865e-03, 7.245117e-03, 6.710443e-03, 8.117471e-03]
BSH residual: rms 5.475173e-03    max 8.117483e-03
timer:         BSH residual     0.06s     0.06s
timer: Update subspace stuf     0.16s     0.16s
Subspace solution [*]  -0.06981365  -0.23079354   1.30060719

timer:   Subspace transform     0.02s     0.02s
Norm of vector changes alpha : rms 7.087535e-03    max 1.061303e-02
ORTHOG2a: maxq trantol 9.272192e-04 6.666667e-07
timer:       Orthonormalize     0.08s     0.08s

Iteration 3 at time 14.2s

timer:        Boys localize     0.23s     0.23s
timer:      Rotate subspace     0.08s     0.08s
timer:       Make densities     0.03s     0.03s
delta rho 7.892719e-03 7.892719e-03 residuals 8.117483e-03 0.000000e+00
timer:       Nuclear energy     0.01s     0.01s
timer:              Coulomb     0.13s     0.13s
timer:        DFT potential     0.09s     0.09s
timer:                V*psi     0.18s     0.18s
timer:        Truncate Vpsi     0.22s     0.22s
timer:            PE matrix     0.02s     0.02s
timer:    KEmat reconstruct     0.01s     0.01s
timer:  KEmat differentiate     0.31s     0.31s
timer:       KEmat compress     0.04s     0.04s
timer: KEmat inner products     0.03s     0.03s
timer:            KE matrix     0.39s     0.39s
timer: Make fock matrix res     0.00s     0.00s

              kinetic     153.39763053
         nonlocal psp       0.00000000
   nuclear attraction    -586.13485379
              coulomb     187.24288820
                  PCM       0.00000000
 exchange-correlation     -22.35525465
    nuclear-repulsion     113.27546316
                total    -154.57412654

timer: Compute residual stu     0.06s     0.06s
entering apply
timer:            Apply BSH     0.77s     0.77s
timer:     Truncate new psi     0.10s     0.10s
residuals [1.431018e-04, 1.438183e-04, 1.935143e-04, 1.934996e-04, 3.352019e-03, 2.412704e-03, 2.412783e-03, 2.289055e-03, 2.289010e-03, 2.412755e-03, 2.729843e-03, 2.412727e-03, 3.003690e-03, 2.729833e-03, 3.351995e-03]
BSH residual: rms 2.313421e-03    max 3.352019e-03
timer:         BSH residual     0.05s     0.05s
timer: Update subspace stuf     0.20s     0.20s
Subspace solution [*]  -0.02396291  -0.03424262  -0.11274664   1.17095216

timer:   Subspace transform     0.02s     0.02s
Norm of vector changes alpha : rms 2.964351e-03    max 4.561922e-03
ORTHOG2a: maxq trantol 3.099336e-04 6.666667e-07
timer:       Orthonormalize     0.08s     0.08s

Iteration 4 at time 17.2s

timer:        Boys localize     0.23s     0.23s
timer:      Rotate subspace     0.08s     0.08s
timer:       Make densities     0.03s     0.03s
delta rho 2.752563e-03 2.752563e-03 residuals 3.352019e-03 0.000000e+00
timer:       Nuclear energy     0.01s     0.01s
timer:              Coulomb     0.13s     0.13s
timer:        DFT potential     0.08s     0.08s
timer:                V*psi     0.17s     0.17s
timer:        Truncate Vpsi     0.21s     0.21s
timer:            PE matrix     0.02s     0.02s
timer:    KEmat reconstruct     0.01s     0.01s
timer:  KEmat differentiate     0.31s     0.31s
timer:       KEmat compress     0.03s     0.03s
timer: KEmat inner products     0.03s     0.03s
timer:            KE matrix     0.39s     0.39s
timer: Make fock matrix res     0.00s     0.00s

              kinetic     153.35873405
         nonlocal psp       0.00000000
   nuclear attraction    -586.03682784
              coulomb     187.17964818
                  PCM       0.00000000
 exchange-correlation     -22.35171071
    nuclear-repulsion     113.27546316
                total    -154.57469316

timer: Compute residual stu     0.06s     0.06s
entering apply
timer:            Apply BSH     0.75s     0.75s
timer:     Truncate new psi     0.09s     0.09s
residuals [7.811810e-05, 7.954153e-05, 6.108418e-05, 6.105890e-05, 2.088137e-03, 1.061267e-03, 1.061276e-03, 1.020988e-03, 1.020939e-03, 1.061263e-03, 1.668712e-03, 1.061267e-03, 1.646379e-03, 1.668695e-03, 2.088119e-03]
BSH residual: rms 1.254593e-03    max 2.088137e-03
timer:         BSH residual     0.06s     0.06s
timer: Update subspace stuf     0.24s     0.24s
Subspace solution [*]   0.01311894   0.05195958  -0.25725465  -0.01486047   1.20703659

timer:   Subspace transform     0.03s     0.03s
Norm of vector changes alpha : rms 1.708996e-03    max 2.750547e-03
ORTHOG2a: maxq trantol 1.264854e-04 6.666667e-07
timer:       Orthonormalize     0.08s     0.08s

Iteration 5 at time 20.3s

timer:        Boys localize     0.23s     0.23s
timer:      Rotate subspace     0.08s     0.08s
timer:       Make densities     0.03s     0.03s
delta rho 1.228172e-03 1.228172e-03 residuals 2.088137e-03 0.000000e+00
timer:       Nuclear energy     0.01s     0.01s
timer:              Coulomb     0.13s     0.13s
timer:        DFT potential     0.09s     0.09s
timer:                V*psi     0.17s     0.17s
timer:        Truncate Vpsi     0.21s     0.21s
timer:            PE matrix     0.02s     0.02s
timer:    KEmat reconstruct     0.01s     0.01s
timer:  KEmat differentiate     0.30s     0.30s
timer:       KEmat compress     0.04s     0.04s
timer: KEmat inner products     0.03s     0.03s
timer:            KE matrix     0.38s     0.38s
timer: Make fock matrix res     0.00s     0.00s

              kinetic     153.35084786
         nonlocal psp       0.00000000
   nuclear attraction    -585.99748493
              coulomb     187.14640661
                  PCM       0.00000000
 exchange-correlation     -22.34999279
    nuclear-repulsion     113.27546316
                total    -154.57476009

timer: Compute residual stu     0.06s     0.06s
entering apply
timer:            Apply BSH     0.76s     0.76s
timer:     Truncate new psi     0.10s     0.10s
residuals [4.947718e-05, 5.149664e-05, 6.066508e-05, 6.065138e-05, 1.185944e-03, 5.261192e-04, 5.260724e-04, 5.490088e-04, 5.489584e-04, 5.260651e-04, 8.766774e-04, 5.261248e-04, 9.777831e-04, 8.766831e-04, 1.185926e-03]
BSH residual: rms 6.845149e-04    max 1.185944e-03
timer:         BSH residual     0.05s     0.05s
timer: Update subspace stuf     0.24s     0.24s
Subspace solution [*]  -0.02156274   0.11520606  -0.30257227  -0.22314510   1.43207405

timer:   Subspace transform     0.03s     0.03s
Norm of vector changes alpha : rms 1.123426e-03    max 1.917409e-03
ORTHOG2a: maxq trantol 6.978099e-05 6.666667e-07
timer:       Orthonormalize     0.08s     0.08s

Iteration 6 at time 23.3s

timer:        Boys localize     0.22s     0.22s
timer:      Rotate subspace     0.07s     0.07s
timer:       Make densities     0.03s     0.03s
delta rho 7.658841e-04 7.658841e-04 residuals 1.185944e-03 0.000000e+00
timer:       Nuclear energy     0.01s     0.01s
timer:              Coulomb     0.13s     0.13s
timer:        DFT potential     0.09s     0.09s
timer:                V*psi     0.17s     0.17s
timer:        Truncate Vpsi     0.21s     0.21s
timer:            PE matrix     0.02s     0.02s
timer:    KEmat reconstruct     0.01s     0.01s
timer:  KEmat differentiate     0.32s     0.32s
timer:       KEmat compress     0.03s     0.03s
timer: KEmat inner products     0.03s     0.03s
timer:            KE matrix     0.39s     0.39s
timer: Make fock matrix res     0.00s     0.00s

              kinetic     153.36171254
         nonlocal psp       0.00000000
   nuclear attraction    -586.01358130
              coulomb     187.15279950
                  PCM       0.00000000
 exchange-correlation     -22.35128577
    nuclear-repulsion     113.27546316
                total    -154.57489186

timer: Compute residual stu     0.06s     0.06s
entering apply
timer:            Apply BSH     0.76s     0.76s
timer:     Truncate new psi     0.09s     0.09s
residuals [3.928580e-05, 4.075288e-05, 5.434081e-05, 5.434159e-05, 6.815515e-04, 2.886259e-04, 2.886620e-04, 3.294245e-04, 3.293996e-04, 2.886005e-04, 5.086111e-04, 2.886102e-04, 5.253216e-04, 5.086206e-04, 6.815263e-04]
BSH residual: rms 3.900158e-04    max 6.815515e-04
timer:         BSH residual     0.05s     0.05s
timer: Update subspace stuf     0.23s     0.23s
Subspace solution [*]   0.02634797   0.00112452  -0.27261209  -0.02531324   1.27045284

timer:   Subspace transform     0.03s     0.03s
Norm of vector changes alpha : rms 6.505426e-04    max 1.137448e-03
ORTHOG2a: maxq trantol 3.605495e-05 6.666667e-07
timer:       Orthonormalize     0.08s     0.08s

Iteration 7 at time 26.4s

timer:        Boys localize     0.23s     0.23s
timer:      Rotate subspace     0.08s     0.08s
timer:       Make densities     0.03s     0.03s
delta rho 4.153007e-04 4.153007e-04 residuals 6.815515e-04 0.000000e+00
timer:       Nuclear energy     0.01s     0.01s
timer:              Coulomb     0.12s     0.12s
timer:        DFT potential     0.09s     0.09s
timer:                V*psi     0.18s     0.18s
timer:        Truncate Vpsi     0.21s     0.21s
timer:            PE matrix     0.02s     0.02s
timer:    KEmat reconstruct     0.01s     0.01s
timer:  KEmat differentiate     0.32s     0.32s
timer:       KEmat compress     0.03s     0.03s
timer: KEmat inner products     0.03s     0.03s
timer:            KE matrix     0.39s     0.39s
timer: Make fock matrix res     0.00s     0.00s

              kinetic     153.36364565
         nonlocal psp       0.00000000
   nuclear attraction    -586.01299914
              coulomb     187.15023948
                  PCM       0.00000000
 exchange-correlation     -22.35126180
    nuclear-repulsion     113.27546316
                total    -154.57491264

timer: Compute residual stu     0.06s     0.06s
entering apply
timer:            Apply BSH     0.76s     0.76s
timer:     Truncate new psi     0.09s     0.09s
residuals [3.956093e-05, 4.058904e-05, 5.340822e-05, 5.339809e-05, 3.964581e-04, 1.854942e-04, 1.855439e-04, 1.970729e-04, 1.970612e-04, 1.854815e-04, 3.258692e-04, 1.855086e-04, 3.516545e-04, 3.257868e-04, 3.964155e-04]
BSH residual: rms 2.414610e-04    max 3.964581e-04
timer:         BSH residual     0.06s     0.06s
timer: Update subspace stuf     0.26s     0.26s
Subspace solution [*]   0.03542771  -0.04378360  -0.22778365   0.20092284   1.03521669

timer:   Subspace transform     0.03s     0.03s
Norm of vector changes alpha : rms 3.239926e-04    max 5.463813e-04
ORTHOG2a: maxq trantol 4.104489e-05 6.666667e-07
timer:       Orthonormalize     0.08s     0.08s

Iteration 8 at time 29.5s

timer:        Boys localize     0.23s     0.23s
timer:      Rotate subspace     0.08s     0.08s
timer:       Make densities     0.03s     0.03s
delta rho 1.743844e-04 1.743844e-04 residuals 3.964581e-04 0.000000e+00
timer:       Nuclear energy     0.01s     0.01s
timer:              Coulomb     0.13s     0.13s
timer:        DFT potential     0.09s     0.09s
timer:                V*psi     0.18s     0.18s
timer:        Truncate Vpsi     0.22s     0.22s
timer:            PE matrix     0.02s     0.02s
timer:    KEmat reconstruct     0.01s     0.01s
timer:  KEmat differentiate     0.32s     0.32s
timer:       KEmat compress     0.03s     0.03s
timer: KEmat inner products     0.03s     0.03s
timer:            KE matrix     0.39s     0.39s
timer: Make fock matrix res     0.00s     0.00s

              kinetic     153.36151282
         nonlocal psp       0.00000000
   nuclear attraction    -586.00635393
              coulomb     187.14530557
                  PCM       0.00000000
 exchange-correlation     -22.35084525
    nuclear-repulsion     113.27546316
                total    -154.57491764


Converged!

timer:              Overlap     0.02s     0.02s
timer:      focka eigen sol     0.00s     0.00s
 
alpha eigenvalues
[*]  -9.78576214  -9.78571844  -9.78373423  -9.78308783  -0.78038367  -0.58886005  -0.57903475  -0.45740862  -0.45138124  -0.41834065  -0.34409390  -0.32208882  -0.29405870  -0.27898029  -0.22740010


 Dipole Moment (a.u.)
 -----------

     x:  2.133262e-07
     y:  -1.012197e-07
     z:  -8.269459e-02
 Total Dipole Moment:  8.269459e-02 

timer:               dipole     0.00s     0.00s
Orbitals are localized - energies are diagonal Fock matrix elements

Analysis of alpha MO vectors
timer:      Analyze vectors     0.38s     0.38s
timer: Compute eigen gesv a     0.00s     0.00s
  MO   0 : occ=1.00 : energy=  -9.78567936 : center=(0.00,1.48,-1.33) : radius=0.32
            C( 3)   s( 27) 0.994  
  MO   1 : occ=1.00 : energy=  -9.78567903 : center=(-0.00,-1.48,-1.33) : radius=0.32
            C( 2)   s( 18)-0.994  
  MO   2 : occ=1.00 : energy=  -9.78336822 : center=(0.00,1.27,1.53) : radius=0.32
            C( 1)   s(  9) 0.994  
  MO   3 : occ=1.00 : energy=  -9.78336826 : center=(-0.00,-1.27,1.53) : radius=0.32
            C( 0)   s(  0) 0.994  
  MO   4 : occ=1.00 : energy=  -0.39812964 : center=(0.58,0.00,1.61) : radius=1.85
            C( 1)  px( 11)-0.278     C( 0)  px(  2)-0.278     C( 0)  py(  3)-0.244     C( 1)  py( 12) 0.244     C( 1)  px( 15)-0.210     C( 0)  px(  6)-0.210     C( 1)   s( 10)-0.174     C( 0)   s(  1)-0.174  
  MO   5 : occ=1.00 : energy=  -0.42607536 : center=(-1.12,-2.04,-1.84) : radius=1.64
            C( 2)  px( 20)-0.321     H( 6)   s( 40) 0.308     H( 6)   s( 41) 0.239     C( 2)   s( 19) 0.199     C( 2)  py( 21)-0.161     C( 2)  px( 24)-0.156     C( 2)  pz( 22)-0.154     C( 2)   s( 23) 0.148  
  MO   6 : occ=1.00 : energy=  -0.42607552 : center=(-1.12,2.04,-1.84) : radius=1.64
            C( 3)  px( 29)-0.321     H( 9)   s( 46) 0.308     H( 9)   s( 47) 0.239     C( 3)   s( 28) 0.199     C( 3)  py( 30) 0.161     C( 3)  px( 33)-0.156     C( 3)  pz( 31)-0.154     C( 3)   s( 32) 0.148  
  MO   7 : occ=1.00 : energy=  -0.44464681 : center=(0.00,-2.22,2.51) : radius=1.55
            H( 4)   s( 36)-0.311     C( 0)  py(  3) 0.274     C( 0)  pz(  4)-0.264     H( 4)   s( 37)-0.234     C( 0)   s(  1)-0.222     C( 0)   s(  5)-0.220  
  MO   8 : occ=1.00 : energy=  -0.44464683 : center=(-0.00,2.22,2.51) : radius=1.55
            H( 5)   s( 38)-0.311     C( 1)  py( 12)-0.274     C( 1)  pz( 13)-0.264     H( 5)   s( 39)-0.234     C( 1)   s( 10)-0.222     C( 1)   s( 14)-0.220  
  MO   9 : occ=1.00 : energy=  -0.42607542 : center=(1.12,2.04,-1.84) : radius=1.64
            C( 3)  px( 29)-0.321     H( 7)   s( 42)-0.308     H( 7)   s( 43)-0.239     C( 3)   s( 28)-0.199     C( 3)  py( 30)-0.161     C( 3)  px( 33)-0.156     C( 3)  pz( 31) 0.154     C( 3)   s( 32)-0.148  
  MO  10 : occ=1.00 : energy=  -0.45484673 : center=(-0.00,-1.57,0.12) : radius=1.64
            C( 2)  pz( 22)-0.375     C( 0)  pz(  4) 0.353     C( 2)   s( 23)-0.281     C( 0)   s(  1)-0.212     C( 2)  pz( 26)-0.204     C( 3)   s( 32) 0.181     C( 2)   s( 19)-0.170  
  MO  11 : occ=1.00 : energy=  -0.42607535 : center=(1.12,-2.04,-1.84) : radius=1.64
            C( 2)  px( 20) 0.321     H( 8)   s( 44) 0.308     H( 8)   s( 45) 0.239     C( 2)   s( 19) 0.199     C( 2)  py( 21)-0.161     C( 2)  px( 24) 0.156     C( 2)  pz( 22)-0.154     C( 2)   s( 23) 0.148  
  MO  12 : occ=1.00 : energy=  -0.44269133 : center=(0.00,-0.00,-1.48) : radius=1.70
            C( 2)  py( 21)-0.366     C( 3)  py( 30) 0.366     C( 3)   s( 32)-0.195     C( 2)   s( 23)-0.195     C( 3)  py( 34) 0.179     C( 2)  py( 25)-0.179     C( 2)   s( 19)-0.178     C( 3)   s( 28)-0.178  
  MO  13 : occ=1.00 : energy=  -0.45484663 : center=(-0.00,1.57,0.12) : radius=1.64
            C( 3)  pz( 31)-0.375     C( 1)  pz( 13) 0.353     C( 3)   s( 32)-0.281     C( 1)   s( 10)-0.212     C( 3)  pz( 35)-0.204     C( 2)   s( 23) 0.181     C( 3)   s( 28)-0.170  
  MO  14 : occ=1.00 : energy=  -0.39812944 : center=(-0.58,0.00,1.61) : radius=1.85
            C( 1)  px( 11) 0.278     C( 0)  px(  2) 0.278     C( 1)  py( 12) 0.244     C( 0)  py(  3)-0.244     C( 1)  px( 15) 0.210     C( 0)  px(  6) 0.210     C( 0)   s(  1)-0.174     C( 1)   s( 10)-0.174  

Solving NDIM= 3  with thresh 1.000000e-06     k 8    conv 1.000000e-04 

timer:     Project vnuclear     0.83s     0.83s
timer:     project ao basis     0.59s     0.59s

Iteration 0 at time 33.4s

timer:        Boys localize     0.23s     0.23s
timer:      Rotate subspace     0.09s     0.09s
timer:       Make densities     0.03s     0.03s
timer:       Load balancing     0.00s     0.00s
timer:       Nuclear energy     0.03s     0.03s
timer:              Coulomb     0.38s     0.38s
timer:        DFT potential     0.11s     0.11s
timer:                V*psi     0.56s     0.56s
timer:        Truncate Vpsi     0.72s     0.72s
timer:            PE matrix     0.02s     0.02s
timer:    KEmat reconstruct     0.01s     0.01s
timer:  KEmat differentiate     0.30s     0.30s
timer:       KEmat compress     0.05s     0.05s
timer: KEmat inner products     0.04s     0.04s
timer:            KE matrix     0.40s     0.40s
timer: Make fock matrix res     0.00s     0.00s

              kinetic     153.36248790
         nonlocal psp       0.00000000
   nuclear attraction    -586.00637445
              coulomb     187.14492958
                  PCM       0.00000000
 exchange-correlation     -22.35084625
    nuclear-repulsion     113.27546316
                total    -154.57434006

timer: Compute residual stu     0.14s     0.14s
entering apply
timer:            Apply BSH     5.18s     5.18s
timer:     Truncate new psi     0.35s     0.35s
residuals [2.557421e-04, 2.558652e-04, 2.756068e-04, 2.755698e-04, 3.932456e-04, 4.381480e-04, 4.381542e-04, 3.768467e-04, 3.768402e-04, 4.381530e-04, 3.959054e-04, 4.381536e-04, 3.740682e-04, 3.959152e-04, 3.932700e-04]
BSH residual: rms 3.739359e-04    max 4.381542e-04
timer:         BSH residual     0.14s     0.14s
timer: Update subspace stuf     0.05s     0.05s
Subspace solution [*]   1.00000000

timer:   Subspace transform     0.02s     0.02s
Norm of vector changes alpha : rms 3.739359e-04    max 4.381542e-04
ORTHOG2a: maxq trantol 7.540986e-05 6.666667e-09
timer:       Orthonormalize     0.18s     0.18s

Iteration 1 at time 42.5s

timer:        Boys localize     0.46s     0.46s
timer:      Rotate subspace     0.17s     0.17s
timer:       Make densities     0.07s     0.07s
timer:       Load balancing     0.00s     0.00s
delta rho 5.703386e-04 5.703386e-04 residuals 4.381542e-04 0.000000e+00
timer:       Nuclear energy     0.03s     0.03s
timer:              Coulomb     0.65s     0.65s
timer:        DFT potential     0.24s     0.24s
timer:                V*psi     0.37s     0.37s
timer:        Truncate Vpsi     0.44s     0.44s
timer:            PE matrix     0.04s     0.04s
timer:    KEmat reconstruct     0.02s     0.02s
timer:  KEmat differentiate     0.63s     0.63s
timer:       KEmat compress     0.10s     0.10s
timer: KEmat inner products     0.05s     0.05s
timer:            KE matrix     0.81s     0.81s
timer: Make fock matrix res     0.00s     0.00s

              kinetic     153.36720421
         nonlocal psp       0.00000000
   nuclear attraction    -586.01556600
              coulomb     187.14717955
                  PCM       0.00000000
 exchange-correlation     -22.35127928
    nuclear-repulsion     113.27546316
                total    -154.57699836


Converged!

timer:              Overlap     0.04s     0.04s
timer:      focka eigen sol     0.00s     0.00s
 
alpha eigenvalues
[*]  -9.78568707  -9.78558086  -9.78366880  -9.78298841  -0.78049469  -0.58894961  -0.57909341  -0.45749922  -0.45141654  -0.41835863  -0.34410171  -0.32212561  -0.29409164  -0.27903117  -0.22740810


 Dipole Moment (a.u.)
 -----------

     x:  9.547074e-08
     y:  2.455441e-07
     z:  -8.282866e-02
 Total Dipole Moment:  8.282866e-02 

timer:               dipole     0.00s     0.00s
Orbitals are localized - energies are diagonal Fock matrix elements

Analysis of alpha MO vectors
timer:      Analyze vectors     0.76s     0.76s
timer: Compute eigen gesv a     0.00s     0.00s
  MO   0 : occ=1.00 : energy=  -9.78558229 : center=(0.00,1.48,-1.33) : radius=0.32
            C( 3)   s( 27) 0.994  
  MO   1 : occ=1.00 : energy=  -9.78558226 : center=(-0.00,-1.48,-1.33) : radius=0.32
            C( 2)   s( 18)-0.994  
  MO   2 : occ=1.00 : energy=  -9.78327736 : center=(0.00,1.27,1.53) : radius=0.32
            C( 1)   s(  9) 0.994  
  MO   3 : occ=1.00 : energy=  -9.78327741 : center=(-0.00,-1.27,1.53) : radius=0.32
            C( 0)   s(  0) 0.994  
  MO   4 : occ=1.00 : energy=  -0.39814360 : center=(0.58,0.00,1.61) : radius=1.85
            C( 1)  px( 11)-0.278     C( 0)  px(  2)-0.278     C( 0)  py(  3)-0.244     C( 1)  py( 12) 0.244     C( 1)  px( 15)-0.210     C( 0)  px(  6)-0.210     C( 1)   s( 10)-0.174     C( 0)   s(  1)-0.174  
  MO   5 : occ=1.00 : energy=  -0.42614392 : center=(-1.12,-2.04,-1.84) : radius=1.64
            C( 2)  px( 20)-0.321     H( 6)   s( 40) 0.308     H( 6)   s( 41) 0.239     C( 2)   s( 19) 0.199     C( 2)  py( 21)-0.161     C( 2)  px( 24)-0.156     C( 2)  pz( 22)-0.154     C( 2)   s( 23) 0.148  
  MO   6 : occ=1.00 : energy=  -0.42614388 : center=(-1.12,2.04,-1.84) : radius=1.64
            C( 3)  px( 29)-0.321     H( 9)   s( 46) 0.308     H( 9)   s( 47) 0.239     C( 3)   s( 28) 0.199     C( 3)  py( 30) 0.161     C( 3)  px( 33)-0.156     C( 3)  pz( 31)-0.154     C( 3)   s( 32) 0.148  
  MO   7 : occ=1.00 : energy=  -0.44470830 : center=(0.00,-2.22,2.51) : radius=1.55
            H( 4)   s( 36)-0.311     C( 0)  py(  3) 0.274     C( 0)  pz(  4)-0.264     H( 4)   s( 37)-0.234     C( 0)   s(  1)-0.222     C( 0)   s(  5)-0.220  
  MO   8 : occ=1.00 : energy=  -0.44470827 : center=(0.00,2.22,2.51) : radius=1.55
            H( 5)   s( 38)-0.311     C( 1)  py( 12)-0.274     C( 1)  pz( 13)-0.264     H( 5)   s( 39)-0.234     C( 1)   s( 10)-0.222     C( 1)   s( 14)-0.220  
  MO   9 : occ=1.00 : energy=  -0.42614398 : center=(1.12,2.04,-1.84) : radius=1.64
            C( 3)  px( 29)-0.321     H( 7)   s( 42)-0.308     H( 7)   s( 43)-0.239     C( 3)   s( 28)-0.199     C( 3)  py( 30)-0.161     C( 3)  px( 33)-0.156     C( 3)  pz( 31) 0.154     C( 3)   s( 32)-0.148  
  MO  10 : occ=1.00 : energy=  -0.45488529 : center=(0.00,-1.57,0.12) : radius=1.64
            C( 2)  pz( 22)-0.375     C( 0)  pz(  4) 0.353     C( 2)   s( 23)-0.281     C( 0)   s(  1)-0.212     C( 2)  pz( 26)-0.204     C( 3)   s( 32) 0.180     C( 2)   s( 19)-0.170  
  MO  11 : occ=1.00 : energy=  -0.42614392 : center=(1.12,-2.04,-1.84) : radius=1.64
            C( 2)  px( 20) 0.321     H( 8)   s( 44) 0.308     H( 8)   s( 45) 0.239     C( 2)   s( 19) 0.199     C( 2)  py( 21)-0.161     C( 2)  px( 24) 0.156     C( 2)  pz( 22)-0.154     C( 2)   s( 23) 0.148  
  MO  12 : occ=1.00 : energy=  -0.44272616 : center=(-0.00,-0.00,-1.48) : radius=1.70
            C( 2)  py( 21)-0.367     C( 3)  py( 30) 0.367     C( 3)   s( 32)-0.195     C( 2)   s( 23)-0.195     C( 3)  py( 34) 0.179     C( 2)  py( 25)-0.179     C( 3)   s( 28)-0.178     C( 2)   s( 19)-0.178  
  MO  13 : occ=1.00 : energy=  -0.45488480 : center=(0.00,1.57,0.12) : radius=1.64
            C( 3)  pz( 31)-0.375     C( 1)  pz( 13) 0.353     C( 3)   s( 32)-0.281     C( 1)   s( 10)-0.212     C( 3)  pz( 35)-0.204     C( 2)   s( 23) 0.180     C( 3)   s( 28)-0.170  
  MO  14 : occ=1.00 : energy=  -0.39814399 : center=(-0.58,0.00,1.61) : radius=1.85
            C( 1)  px( 11) 0.278     C( 0)  px(  2) 0.278     C( 0)  py(  3)-0.244     C( 1)  py( 12) 0.244     C( 1)  px( 15) 0.210     C( 0)  px(  6) 0.210     C( 1)   s( 10)-0.174     C( 0)   s(  1)-0.174  
timer:             plotting     0.00s     0.00s

    Parallel environment
    --------------------
                  #nodes    1
       #threads per node    27+main = 28
          #total threads    28

  RMI message statistics (min / avg / max)
  ----------------------
   #messages in server q    0.00e+00 / 0.00e+00 / 0.00e+00
 #messages sent per node    0.00e+00 / 0.00e+00 / 0.00e+00
    #bytes sent per node    0.00e+00 / 0.00e+00 / 0.00e+00
 #messages recv per node    0.00e+00 / 0.00e+00 / 0.00e+00
    #bytes recv per node    0.00e+00 / 0.00e+00 / 0.00e+00
        #msgs systemwide    0.00e+00
       #bytes systemwide    0.00e+00

  Thread pool statistics (min / avg / max)
  ----------------------
         #tasks per node    0.00e+00 / 0.00e+00 / 0.00e+00
     #max q len per node    0.00e+00 / 0.00e+00 / 0.00e+00
  #hi-pri tasks per node    0.00e+00 / 0.00e+00 / 0.00e+00

         Total wall time    47.6s
         Total  cpu time    47.6s

