MADNESS runtime initialized with 27 threads in the pool and affinity -1 -1 -1

--------------------------------------------
   MADNESS 0.10.1 multiresolution suite
--------------------------------------------

   number of processors ... 1
    processor frequency ... 1.995369e+09
            host system ... linux-gnu
          configured by ... egentles
          configured on ... sn093
          configured at ... Tue Jul 11 16:06:48 EDT 2017
                    CXX ... mpicxx
               CXXFLAGS ... -g -std=c++14 -O3 -Wall -Wno-strict-aliasing -Wno-deprecated -Wno-unused-local-typedefs  -ffast-math -march=native
             tuning for ... default
                    MPI ... multiple
 multi-threaded runtime ... Intel TBB
                   BLAS ... Intel MKL 14254 14254 MFLOP/s
               compiled ... 08:44:05  on  Jul 29 2017
input filename:  /gpfs/home/egentles/auto_test_mad/geometries_LDA_boys/glyoxal_trans.mdns

Angstrom being used to read input coordinates (1 Bohr = 1.88972613 Angstrom)

Abelian pointgroup

 The point group is C2h

Construct XC Functional from LIBXC Library

input line was:  LDA
 1.000 lda_x 
 1.000 lda_c_vwn 

screening parameters
 rhotol, rhomin 1.000000e-07 0.000000e+00
         ggatol 1.000000e-04
polarized  false 


Solving NDIM= 3  with thresh 1.000000e-05     k 8    conv 1.000000e-04 




 MADNESS Hartree-Fock and Density Functional Theory Program
 ----------------------------------------------------------



 geometry
   eprec 1.0e-04
   units atomic
   C             1.23236333          -0.74849441           0.00000000
   C            -1.23236333           0.74849441           0.00000000
   H             0.89499087          -2.86090734           0.00000000
   H            -0.89499087           2.86090734           0.00000000
   O             3.26334872           0.31007215           0.00000000
   O            -3.26334872          -0.31007215           0.00000000
 end


             restart  false
    restart from AOs  false
 number of processes  1
   no. of io servers  1
   vnuc load bal fac  12
      load bal parts  2
     simulation cube  -5.326335e+01 5.326335e+01
        total charge  0.000000e+00
            smearing  0.000000e+00
 number of electrons  15 15
  number of orbitals  15 15
     spin restricted  true
       xc functional   LDA
          xc library  libxc
 initial guess basis  6-31g
 max krylov subspace  5
    compute protocol  [1.000000e-04, 1.000000e-06]
  energy convergence  1.000000e-05
 density convergence  1.000000e-04
    maximum rotation  2.500000e-01
    polynomial order  -1
       truncate mode  1
  maximum iterations  20
 Convergence criteria are density delta & BSH residual.
        plot density  false
        plot coulomb  false
        plot orbital  0 -1
        plot npoints  101
        plot  volume  default
  localized orbitals  boys
 psp or all electron  all electron
timer:           initialize     0.40s     0.40s

Solving NDIM= 3  with thresh 1.000000e-04     k 6    conv 1.000000e-04 


Solving NDIM= 3  with thresh 1.000000e-04     k 6    conv 1.000000e-04 

timer:     Project vnuclear     0.30s     0.30s
timer:     project ao basis     0.40s     0.40s
guess dens trace 3.000010e+01
timer:        guess density     0.34s     0.34s
timer:   guess Coulomb potn     0.32s     0.32s
timer:       guess lda potn     0.18s     0.18s
timer:        guess overlap     0.02s     0.02s
timer:    KEmat reconstruct     0.01s     0.01s
timer:  KEmat differentiate     0.42s     0.42s
timer:       KEmat compress     0.06s     0.06s
timer: KEmat inner products     0.04s     0.04s
timer:     guess Kinet potn     0.54s     0.54s
timer:           guess fock     1.26s     1.26s
timer:      guess eigen sol     0.00s     0.00s
grouping alpha orbitals into sets
set  0    0  -  1
set  1    2  -  3
set  2    4  -  14
timer: guess orbital groupi     0.05s     0.05s
timer:     project ao basis     0.26s     0.26s

Iteration 0 at time 4.4s

timer:        Boys localize     0.22s     0.22s
timer:      Rotate subspace     0.08s     0.08s
timer:       Make densities     0.03s     0.03s
timer:       Load balancing     0.00s     0.00s
timer:       Nuclear energy     0.01s     0.01s
timer:              Coulomb     0.10s     0.10s
timer:        DFT potential     0.07s     0.07s
timer:                V*psi     0.14s     0.14s
timer:        Truncate Vpsi     0.17s     0.17s
timer:            PE matrix     0.02s     0.02s
timer:    KEmat reconstruct     0.01s     0.01s
timer:  KEmat differentiate     0.31s     0.31s
timer:       KEmat compress     0.03s     0.03s
timer: KEmat inner products     0.03s     0.03s
timer:            KE matrix     0.38s     0.38s
timer: Make fock matrix res     0.00s     0.00s

              kinetic     228.45491378
         nonlocal psp       0.00000000
   nuclear attraction    -741.13297269
              coulomb     212.65014631
                  PCM       0.00000000
 exchange-correlation     -27.20196850
    nuclear-repulsion     101.37759970
                total    -225.85228140

timer: Compute residual stu     0.06s     0.06s
entering apply
timer:            Apply BSH     0.80s     0.80s
timer:     Truncate new psi     0.09s     0.09s
residuals [7.939469e-03, 7.939306e-03, 9.351274e-03, 9.351184e-03, 7.841439e-02, 7.841430e-02, 2.502574e-02, 2.537062e-02, 1.374683e-01, 1.421146e-01, 2.537137e-02, 7.841428e-02, 7.841439e-02, 1.421170e-01, 1.374734e-01]
BSH residual: rms 8.366605e-02    max 1.421170e-01
timer:         BSH residual     0.05s     0.05s
timer: Update subspace stuf     0.05s     0.05s
Subspace solution [*]   1.00000000

timer:   Subspace transform     0.01s     0.01s
Norm of vector changes alpha : rms 8.366605e-02    max 1.421170e-01
ORTHOG2a: maxq trantol 1.008027e-02 6.666667e-07
ORTHOG2a: maxq trantol 1.380690e-04 6.666667e-07
timer:       Orthonormalize     0.12s     0.12s

Iteration 1 at time 7.1s

timer:        Boys localize     0.22s     0.22s
timer:      Rotate subspace     0.08s     0.08s
timer:       Make densities     0.03s     0.03s
timer:       Load balancing     0.00s     0.00s
delta rho 1.560529e-01 1.560529e-01 residuals 1.421170e-01 0.000000e+00
timer:       Nuclear energy     0.01s     0.01s
timer:              Coulomb     0.12s     0.12s
timer:        DFT potential     0.08s     0.08s
timer:                V*psi     0.17s     0.17s
timer:        Truncate Vpsi     0.20s     0.20s
timer:            PE matrix     0.02s     0.02s
timer:    KEmat reconstruct     0.01s     0.01s
timer:  KEmat differentiate     0.32s     0.32s
timer:       KEmat compress     0.04s     0.04s
timer: KEmat inner products     0.03s     0.03s
timer:            KE matrix     0.40s     0.40s
timer: Make fock matrix res     0.00s     0.00s

              kinetic     223.30361280
         nonlocal psp       0.00000000
   nuclear attraction    -732.22136758
              coulomb     207.99817161
                  PCM       0.00000000
 exchange-correlation     -26.55499547
    nuclear-repulsion     101.37759970
                total    -226.09697894

timer: Compute residual stu     0.06s     0.06s
entering apply
timer:            Apply BSH     0.80s     0.80s
timer:     Truncate new psi     0.10s     0.10s
residuals [8.612336e-04, 8.616493e-04, 1.685532e-03, 1.685522e-03, 3.489659e-02, 3.489735e-02, 1.453986e-02, 1.292298e-02, 8.041496e-02, 7.676264e-02, 1.292341e-02, 3.489734e-02, 3.489661e-02, 7.676537e-02, 8.041599e-02]
BSH residual: rms 4.482745e-02    max 8.041599e-02
timer:         BSH residual     0.05s     0.05s
timer: Update subspace stuf     0.10s     0.10s
Subspace solution [*]   0.28035478   0.71964522

timer:   Subspace transform     0.02s     0.02s
Norm of vector changes alpha : rms 2.971894e-02    max 5.351298e-02
ORTHOG2a: maxq trantol 4.542664e-03 6.666667e-07
timer:       Orthonormalize     0.08s     0.08s

Iteration 2 at time 10.0s

timer:        Boys localize     0.21s     0.21s
timer:      Rotate subspace     0.07s     0.07s
timer:       Make densities     0.03s     0.03s
delta rho 5.092835e-02 5.092835e-02 residuals 8.041599e-02 0.000000e+00
timer:       Nuclear energy     0.01s     0.01s
timer:              Coulomb     0.11s     0.11s
timer:        DFT potential     0.07s     0.07s
timer:                V*psi     0.15s     0.15s
timer:        Truncate Vpsi     0.18s     0.18s
timer:            PE matrix     0.02s     0.02s
timer:    KEmat reconstruct     0.01s     0.01s
timer:  KEmat differentiate     0.31s     0.31s
timer:       KEmat compress     0.04s     0.04s
timer: KEmat inner products     0.03s     0.03s
timer:            KE matrix     0.38s     0.38s
timer: Make fock matrix res     0.00s     0.00s

              kinetic     224.81471045
         nonlocal psp       0.00000000
   nuclear attraction    -735.57706496
              coulomb     210.02119922
                  PCM       0.00000000
 exchange-correlation     -26.78205436
    nuclear-repulsion     101.37759970
                total    -226.14560996

timer: Compute residual stu     0.06s     0.06s
entering apply
timer:            Apply BSH     0.81s     0.81s
timer:     Truncate new psi     0.10s     0.10s
residuals [6.631124e-04, 6.632767e-04, 8.430608e-04, 8.430564e-04, 1.013812e-02, 1.013819e-02, 7.534577e-03, 8.756262e-03, 8.840736e-03, 8.694753e-03, 8.756244e-03, 1.013820e-02, 1.013812e-02, 8.695444e-03, 8.841284e-03]
BSH residual: rms 7.878580e-03    max 1.013820e-02
timer:         BSH residual     0.05s     0.05s
timer: Update subspace stuf     0.15s     0.15s
Subspace solution [*]  -0.08422383  -0.13902276   1.22324660

timer:   Subspace transform     0.02s     0.02s
Norm of vector changes alpha : rms 9.870240e-03    max 1.205247e-02
ORTHOG2a: maxq trantol 7.876972e-04 6.666667e-07
timer:       Orthonormalize     0.08s     0.08s

Iteration 3 at time 12.9s

timer:        Boys localize     0.21s     0.21s
timer:      Rotate subspace     0.07s     0.07s
timer:       Make densities     0.03s     0.03s
delta rho 1.069833e-02 1.069833e-02 residuals 1.013820e-02 0.000000e+00
timer:       Nuclear energy     0.01s     0.01s
timer:              Coulomb     0.12s     0.12s
timer:        DFT potential     0.09s     0.09s
timer:                V*psi     0.16s     0.16s
timer:        Truncate Vpsi     0.18s     0.18s
timer:            PE matrix     0.02s     0.02s
timer:    KEmat reconstruct     0.01s     0.01s
timer:  KEmat differentiate     0.32s     0.32s
timer:       KEmat compress     0.04s     0.04s
timer: KEmat inner products     0.03s     0.03s
timer:            KE matrix     0.40s     0.40s
timer: Make fock matrix res     0.00s     0.00s

              kinetic     224.79000284
         nonlocal psp       0.00000000
   nuclear attraction    -735.65252261
              coulomb     210.11524105
                  PCM       0.00000000
 exchange-correlation     -26.78395810
    nuclear-repulsion     101.37759970
                total    -226.15363712

timer: Compute residual stu     0.06s     0.06s
entering apply
timer:            Apply BSH     0.82s     0.82s
timer:     Truncate new psi     0.10s     0.10s
residuals [1.430739e-04, 1.432275e-04, 1.770306e-04, 1.770518e-04, 5.043367e-03, 5.043455e-03, 3.874479e-03, 3.939772e-03, 4.044062e-03, 3.701764e-03, 3.939626e-03, 5.043457e-03, 5.043368e-03, 3.702150e-03, 4.044432e-03]
BSH residual: rms 3.723999e-03    max 5.043457e-03
timer:         BSH residual     0.06s     0.06s
timer: Update subspace stuf     0.19s     0.19s
Subspace solution [*]  -0.03388113  -0.06864407  -0.03348211   1.13600731

timer:   Subspace transform     0.03s     0.03s
Norm of vector changes alpha : rms 4.756916e-03    max 6.088179e-03
ORTHOG2a: maxq trantol 5.498839e-04 6.666667e-07
timer:       Orthonormalize     0.08s     0.08s

Iteration 4 at time 15.9s

timer:        Boys localize     0.23s     0.23s
timer:      Rotate subspace     0.07s     0.07s
timer:       Make densities     0.03s     0.03s
delta rho 5.018340e-03 5.018340e-03 residuals 5.043457e-03 0.000000e+00
timer:       Nuclear energy     0.01s     0.01s
timer:              Coulomb     0.13s     0.13s
timer:        DFT potential     0.09s     0.09s
timer:                V*psi     0.17s     0.17s
timer:        Truncate Vpsi     0.19s     0.19s
timer:            PE matrix     0.02s     0.02s
timer:    KEmat reconstruct     0.01s     0.01s
timer:  KEmat differentiate     0.34s     0.34s
timer:       KEmat compress     0.04s     0.04s
timer: KEmat inner products     0.03s     0.03s
timer:            KE matrix     0.41s     0.41s
timer: Make fock matrix res     0.00s     0.00s

              kinetic     224.71313924
         nonlocal psp       0.00000000
   nuclear attraction    -735.51250024
              coulomb     210.04062237
                  PCM       0.00000000
 exchange-correlation     -26.77401814
    nuclear-repulsion     101.37759970
                total    -226.15515708

timer: Compute residual stu     0.06s     0.06s
entering apply
timer:            Apply BSH     0.81s     0.81s
timer:     Truncate new psi     0.10s     0.10s
residuals [9.106333e-05, 9.100429e-05, 8.528561e-05, 8.531217e-05, 3.020327e-03, 3.020424e-03, 1.707541e-03, 1.971715e-03, 2.224407e-03, 2.555308e-03, 1.971678e-03, 3.020429e-03, 3.020332e-03, 2.555478e-03, 2.224729e-03]
BSH residual: rms 2.162872e-03    max 3.020429e-03
timer:         BSH residual     0.06s     0.06s
timer: Update subspace stuf     0.24s     0.24s
Subspace solution [*]   0.01670710   0.03314107  -0.24726433   0.05534956   1.14206660

timer:   Subspace transform     0.03s     0.03s
Norm of vector changes alpha : rms 2.667558e-03    max 3.715799e-03
ORTHOG2a: maxq trantol 4.342090e-04 6.666667e-07
timer:       Orthonormalize     0.08s     0.08s

Iteration 5 at time 19.0s

timer:        Boys localize     0.23s     0.23s
timer:      Rotate subspace     0.07s     0.07s
timer:       Make densities     0.03s     0.03s
delta rho 2.633760e-03 2.633760e-03 residuals 3.020429e-03 0.000000e+00
timer:       Nuclear energy     0.01s     0.01s
timer:              Coulomb     0.13s     0.13s
timer:        DFT potential     0.10s     0.10s
timer:                V*psi     0.17s     0.17s
timer:        Truncate Vpsi     0.20s     0.20s
timer:            PE matrix     0.02s     0.02s
timer:    KEmat reconstruct     0.01s     0.01s
timer:  KEmat differentiate     0.34s     0.34s
timer:       KEmat compress     0.04s     0.04s
timer: KEmat inner products     0.03s     0.03s
timer:            KE matrix     0.42s     0.42s
timer: Make fock matrix res     0.00s     0.00s

              kinetic     224.71238210
         nonlocal psp       0.00000000
   nuclear attraction    -735.50057518
              coulomb     210.02778612
                  PCM       0.00000000
 exchange-correlation     -26.77301923
    nuclear-repulsion     101.37759970
                total    -226.15582649

timer: Compute residual stu     0.06s     0.06s
entering apply
timer:            Apply BSH     0.81s     0.81s
timer:     Truncate new psi     0.09s     0.09s
residuals [9.401383e-05, 9.397439e-05, 7.286922e-05, 7.290056e-05, 1.840978e-03, 1.841050e-03, 1.116506e-03, 1.068840e-03, 1.411853e-03, 1.311316e-03, 1.068803e-03, 1.841052e-03, 1.840978e-03, 1.311343e-03, 1.412043e-03]
BSH residual: rms 1.279149e-03    max 1.841052e-03
timer:         BSH residual     0.06s     0.06s
timer: Update subspace stuf     0.24s     0.24s
Subspace solution [*]  -0.01470118   0.14879461  -0.47332509  -0.64087189   1.98010354

timer:   Subspace transform     0.03s     0.03s
Norm of vector changes alpha : rms 3.315172e-03    max 4.839736e-03
ORTHOG2a: maxq trantol 1.633446e-04 6.666667e-07
timer:       Orthonormalize     0.08s     0.08s

Iteration 6 at time 22.2s

timer:        Boys localize     0.23s     0.23s
timer:      Rotate subspace     0.07s     0.07s
timer:       Make densities     0.03s     0.03s
delta rho 3.648786e-03 3.648786e-03 residuals 1.841052e-03 0.000000e+00
timer:       Nuclear energy     0.01s     0.01s
timer:              Coulomb     0.12s     0.12s
timer:        DFT potential     0.09s     0.09s
timer:                V*psi     0.17s     0.17s
timer:        Truncate Vpsi     0.20s     0.20s
timer:            PE matrix     0.02s     0.02s
timer:    KEmat reconstruct     0.01s     0.01s
timer:  KEmat differentiate     0.33s     0.33s
timer:       KEmat compress     0.04s     0.04s
timer: KEmat inner products     0.03s     0.03s
timer:            KE matrix     0.41s     0.41s
timer: Make fock matrix res     0.00s     0.00s

              kinetic     224.73109822
         nonlocal psp       0.00000000
   nuclear attraction    -735.52724921
              coulomb     210.03664030
                  PCM       0.00000000
 exchange-correlation     -26.77443636
    nuclear-repulsion     101.37759970
                total    -226.15634735

timer: Compute residual stu     0.07s     0.07s
entering apply
timer:            Apply BSH     0.81s     0.81s
timer:     Truncate new psi     0.10s     0.10s
residuals [1.113897e-04, 1.114041e-04, 6.853603e-05, 6.850711e-05, 1.339540e-03, 1.339551e-03, 6.454846e-04, 4.544836e-04, 1.002036e-03, 9.905841e-04, 4.545113e-04, 1.339556e-03, 1.339539e-03, 9.906365e-04, 1.002061e-03]
BSH residual: rms 8.948876e-04    max 1.339556e-03
timer:         BSH residual     0.06s     0.06s
timer: Update subspace stuf     0.24s     0.24s
Subspace solution [*]   0.08827028  -0.12291824  -0.51804998   0.27662608   1.27607186

timer:   Subspace transform     0.03s     0.03s
Norm of vector changes alpha : rms 2.073731e-03    max 3.311477e-03
ORTHOG2a: maxq trantol 1.439598e-04 6.666667e-07
timer:       Orthonormalize     0.08s     0.08s

Iteration 7 at time 25.3s

timer:        Boys localize     0.23s     0.23s
timer:      Rotate subspace     0.08s     0.08s
timer:       Make densities     0.03s     0.03s
delta rho 2.398138e-03 2.398138e-03 residuals 1.339556e-03 0.000000e+00
timer:       Nuclear energy     0.01s     0.01s
timer:              Coulomb     0.13s     0.13s
timer:        DFT potential     0.08s     0.08s
timer:                V*psi     0.17s     0.17s
timer:        Truncate Vpsi     0.20s     0.20s
timer:            PE matrix     0.02s     0.02s
timer:    KEmat reconstruct     0.01s     0.01s
timer:  KEmat differentiate     0.33s     0.33s
timer:       KEmat compress     0.04s     0.04s
timer: KEmat inner products     0.03s     0.03s
timer:            KE matrix     0.40s     0.40s
timer: Make fock matrix res     0.00s     0.00s

              kinetic     224.72601793
         nonlocal psp       0.00000000
   nuclear attraction    -735.51083761
              coulomb     210.02382760
                  PCM       0.00000000
 exchange-correlation     -26.77307322
    nuclear-repulsion     101.37759970
                total    -226.15646560

timer: Compute residual stu     0.06s     0.06s
entering apply
timer:            Apply BSH     0.81s     0.81s
timer:     Truncate new psi     0.10s     0.10s
residuals [1.165542e-04, 1.165724e-04, 6.507653e-05, 6.504623e-05, 7.077902e-04, 7.077699e-04, 4.524340e-04, 3.993366e-04, 5.635036e-04, 5.760747e-04, 3.993313e-04, 7.077757e-04, 7.077955e-04, 5.760836e-04, 5.635517e-04]
BSH residual: rms 5.074090e-04    max 7.077955e-04
timer:         BSH residual     0.06s     0.06s
timer: Update subspace stuf     0.24s     0.24s
Subspace solution [*]   0.06976813   0.06862777  -0.34033174   0.00429553   1.19764031

timer:   Subspace transform     0.03s     0.03s
Norm of vector changes alpha : rms 8.301025e-04    max 1.346583e-03
ORTHOG2a: maxq trantol 1.233043e-04 6.666667e-07
timer:       Orthonormalize     0.08s     0.08s

Iteration 8 at time 28.4s

timer:        Boys localize     0.22s     0.22s
timer:      Rotate subspace     0.07s     0.07s
timer:       Make densities     0.03s     0.03s
delta rho 8.866840e-04 8.866840e-04 residuals 7.077955e-04 0.000000e+00
timer:       Nuclear energy     0.01s     0.01s
timer:              Coulomb     0.12s     0.12s
timer:        DFT potential     0.08s     0.08s
timer:                V*psi     0.16s     0.16s
timer:        Truncate Vpsi     0.18s     0.18s
timer:            PE matrix     0.02s     0.02s
timer:    KEmat reconstruct     0.01s     0.01s
timer:  KEmat differentiate     0.32s     0.32s
timer:       KEmat compress     0.04s     0.04s
timer: KEmat inner products     0.03s     0.03s
timer:            KE matrix     0.40s     0.40s
timer: Make fock matrix res     0.00s     0.00s

              kinetic     224.71712802
         nonlocal psp       0.00000000
   nuclear attraction    -735.49467074
              coulomb     210.01522182
                  PCM       0.00000000
 exchange-correlation     -26.77178423
    nuclear-repulsion     101.37759970
                total    -226.15650543

timer: Compute residual stu     0.07s     0.07s
entering apply
timer:            Apply BSH     0.83s     0.83s
timer:     Truncate new psi     0.10s     0.10s
residuals [1.134835e-04, 1.135027e-04, 5.998596e-05, 5.996205e-05, 4.360826e-04, 4.360723e-04, 3.077080e-04, 2.939238e-04, 4.079518e-04, 4.225241e-04, 2.939325e-04, 4.360803e-04, 4.360901e-04, 4.225102e-04, 4.079676e-04]
BSH residual: rms 3.416624e-04    max 4.360901e-04
timer:         BSH residual     0.06s     0.06s
timer: Update subspace stuf     0.24s     0.24s
Subspace solution [*]   0.09432729  -0.02664907  -0.38004878  -0.11750972   1.42988028

timer:   Subspace transform     0.03s     0.03s
Norm of vector changes alpha : rms 7.077692e-04    max 1.133859e-03
ORTHOG2a: maxq trantol 1.199243e-04 6.666667e-07
timer:       Orthonormalize     0.08s     0.08s

Iteration 9 at time 31.5s

timer:        Boys localize     0.23s     0.23s
timer:      Rotate subspace     0.07s     0.07s
timer:       Make densities     0.03s     0.03s
delta rho 9.319000e-04 9.319000e-04 residuals 4.360901e-04 0.000000e+00
timer:       Nuclear energy     0.01s     0.01s
timer:              Coulomb     0.12s     0.12s
timer:        DFT potential     0.09s     0.09s
timer:                V*psi     0.17s     0.17s
timer:        Truncate Vpsi     0.20s     0.20s
timer:            PE matrix     0.02s     0.02s
timer:    KEmat reconstruct     0.01s     0.01s
timer:  KEmat differentiate     0.33s     0.33s
timer:       KEmat compress     0.04s     0.04s
timer: KEmat inner products     0.03s     0.03s
timer:            KE matrix     0.41s     0.41s
timer: Make fock matrix res     0.00s     0.00s

              kinetic     224.72117602
         nonlocal psp       0.00000000
   nuclear attraction    -735.50481200
              coulomb     210.02178502
                  PCM       0.00000000
 exchange-correlation     -26.77231774
    nuclear-repulsion     101.37759970
                total    -226.15656899

timer: Compute residual stu     0.06s     0.06s
entering apply
timer:            Apply BSH     0.82s     0.82s
timer:     Truncate new psi     0.10s     0.10s
residuals [1.109343e-04, 1.109190e-04, 5.689650e-05, 5.686980e-05, 3.107277e-04, 3.107157e-04, 2.353293e-04, 1.887576e-04, 2.857832e-04, 2.909135e-04, 1.887469e-04, 3.107282e-04, 3.107436e-04, 2.909368e-04, 2.859064e-04]
BSH residual: rms 2.417457e-04    max 3.107436e-04
timer:         BSH residual     0.05s     0.05s
timer: Update subspace stuf     0.24s     0.24s
Subspace solution [*]   0.06716142   0.01412398  -0.40087148  -0.11843802   1.43802411

timer:   Subspace transform     0.03s     0.03s
Norm of vector changes alpha : rms 4.841257e-04    max 5.995045e-04
ORTHOG2a: maxq trantol 1.149360e-04 6.666667e-07
timer:       Orthonormalize     0.08s     0.08s

Iteration 10 at time 34.7s

timer:        Boys localize     0.22s     0.22s
timer:      Rotate subspace     0.06s     0.06s
timer:       Make densities     0.03s     0.03s
timer:       Load balancing     0.00s     0.00s
delta rho 6.549844e-04 6.549844e-04 residuals 3.107436e-04 0.000000e+00
timer:       Nuclear energy     0.01s     0.01s
timer:              Coulomb     0.12s     0.12s
timer:        DFT potential     0.08s     0.08s
timer:                V*psi     0.16s     0.16s
timer:        Truncate Vpsi     0.18s     0.18s
timer:            PE matrix     0.02s     0.02s
timer:    KEmat reconstruct     0.01s     0.01s
timer:  KEmat differentiate     0.32s     0.32s
timer:       KEmat compress     0.04s     0.04s
timer: KEmat inner products     0.03s     0.03s
timer:            KE matrix     0.39s     0.39s
timer: Make fock matrix res     0.00s     0.00s

              kinetic     224.71580149
         nonlocal psp       0.00000000
   nuclear attraction    -735.49576248
              coulomb     210.01743781
                  PCM       0.00000000
 exchange-correlation     -26.77160951
    nuclear-repulsion     101.37759970
                total    -226.15653298

timer: Compute residual stu     0.06s     0.06s
entering apply
timer:            Apply BSH     0.82s     0.82s
timer:     Truncate new psi     0.10s     0.10s
residuals [1.052975e-04, 1.052750e-04, 5.705222e-05, 5.709328e-05, 1.927072e-04, 1.927074e-04, 1.647475e-04, 1.213826e-04, 1.730499e-04, 2.106412e-04, 1.213827e-04, 1.927235e-04, 1.927266e-04, 2.106542e-04, 1.731191e-04]
BSH residual: rms 1.596900e-04    max 2.106542e-04
timer:         BSH residual     0.06s     0.06s
timer: Update subspace stuf     0.24s     0.24s
Subspace solution [*]   0.02713713   0.08263474  -0.34497028  -0.13382669   1.36902509

timer:   Subspace transform     0.03s     0.03s
Norm of vector changes alpha : rms 2.942409e-04    max 3.735497e-04
ORTHOG2a: maxq trantol 1.126718e-04 6.666667e-07
timer:       Orthonormalize     0.08s     0.08s

Iteration 11 at time 37.7s

timer:        Boys localize     0.23s     0.23s
timer:      Rotate subspace     0.07s     0.07s
timer:       Make densities     0.03s     0.03s
delta rho 5.077386e-04 5.077386e-04 residuals 2.106542e-04 0.000000e+00
timer:       Nuclear energy     0.01s     0.01s
timer:              Coulomb     0.13s     0.13s
timer:        DFT potential     0.08s     0.08s
timer:                V*psi     0.17s     0.17s
timer:        Truncate Vpsi     0.19s     0.19s
timer:            PE matrix     0.02s     0.02s
timer:    KEmat reconstruct     0.01s     0.01s
timer:  KEmat differentiate     0.32s     0.32s
timer:       KEmat compress     0.03s     0.03s
timer: KEmat inner products     0.03s     0.03s
timer:            KE matrix     0.39s     0.39s
timer: Make fock matrix res     0.00s     0.00s

              kinetic     224.71824462
         nonlocal psp       0.00000000
   nuclear attraction    -735.50169012
              coulomb     210.02122042
                  PCM       0.00000000
 exchange-correlation     -26.77197276
    nuclear-repulsion     101.37759970
                total    -226.15659814


Converged!

timer:              Overlap     0.02s     0.02s
timer:      focka eigen sol     0.00s     0.00s
 
alpha eigenvalues
[*] -18.65891872 -18.65881195  -9.90810092  -9.90794974  -1.00685311  -0.99416783  -0.65197382  -0.54617467  -0.45448574  -0.44983790  -0.42920761  -0.41893421  -0.38199576  -0.29554794  -0.23971952


 Dipole Moment (a.u.)
 -----------

     x:  5.147277e-08
     y:  1.434940e-07
     z:  -2.241194e-07
 Total Dipole Moment:  2.710525e-07 

timer:               dipole     0.00s     0.00s
Orbitals are localized - energies are diagonal Fock matrix elements

Analysis of alpha MO vectors
timer:      Analyze vectors     0.37s     0.37s
timer: Compute eigen gesv a     0.00s     0.00s
  MO   0 : occ=1.00 : energy= -18.65858299 : center=(-3.26,-0.31,-0.00) : radius=0.23
            O(5)   s(31) 0.995  
  MO   1 : occ=1.00 : energy= -18.65858295 : center=(3.26,0.31,-0.00) : radius=0.23
            O(4)   s(22)-0.995  
  MO   2 : occ=1.00 : energy=  -9.90781348 : center=(-1.23,0.75,-0.00) : radius=0.32
            C(1)   s( 9) 0.995  
  MO   3 : occ=1.00 : energy=  -9.90781318 : center=(1.23,-0.75,-0.00) : radius=0.32
            C(0)   s( 0) 0.995  
  MO   4 : occ=1.00 : energy=  -0.62920268 : center=(2.43,-0.10,-0.46) : radius=1.52
            O(4)  pz(26)-0.361     O(4)  px(24)-0.262     C(0)  pz( 4)-0.257     O(4)  pz(30)-0.219     C(0)  px( 2) 0.219     O(4)   s(23) 0.195     C(0)   s( 1) 0.182  
  MO   5 : occ=1.00 : energy=  -0.62920244 : center=(-2.43,0.10,-0.46) : radius=1.52
            O(5)  pz(35)-0.361     O(5)  px(33) 0.262     C(1)  pz(13)-0.257     O(5)  pz(39)-0.219     C(1)  px(11)-0.219     O(5)   s(32) 0.195     C(1)   s(10) 0.182  
  MO   6 : occ=1.00 : energy=  -0.54644998 : center=(-0.00,0.00,-0.00) : radius=1.52
            C(1)  px(11) 0.325     C(0)  px( 2)-0.325     C(1)   s(14) 0.234     C(0)   s( 5) 0.234     C(0)   s( 1) 0.228     C(1)   s(10) 0.228     C(1)  py(12)-0.196     C(0)  py( 3) 0.196  
  MO   7 : occ=1.00 : energy=  -0.48957760 : center=(-1.01,2.13,0.00) : radius=1.56
            C(1)  py(12) 0.387     H(3)   s(20) 0.313     C(1)   s(14) 0.262     H(3)   s(21) 0.240     C(1)   s(10) 0.227  
  MO   8 : occ=1.00 : energy=  -0.45988307 : center=(3.70,-0.05,0.00) : radius=1.39
            O(4)  px(24) 0.436     O(4)   s(27) 0.370     O(4)   s(23) 0.313     O(4)  px(28) 0.278     O(4)  py(25)-0.265     C(1)   s(14) 0.223     O(4)  py(29)-0.181  
  MO   9 : occ=1.00 : energy=  -0.45385418 : center=(3.15,0.86,-0.00) : radius=1.43
            O(4)  py(25)-0.520     O(4)   s(27)-0.389     O(4)  py(29)-0.335     O(4)   s(23)-0.290     C(1)   s(14) 0.206  
  MO  10 : occ=1.00 : energy=  -0.48957756 : center=(1.01,-2.13,-0.00) : radius=1.56
            C(0)  py( 3) 0.387     H(2)   s(18)-0.313     C(0)   s( 5)-0.262     H(2)   s(19)-0.240     C(0)   s( 1)-0.227  
  MO  11 : occ=1.00 : energy=  -0.62920277 : center=(-2.43,0.10,0.46) : radius=1.52
            O(5)  pz(35)-0.361     O(5)  px(33)-0.262     C(1)  pz(13)-0.257     O(5)  pz(39)-0.219     C(1)  px(11) 0.219     O(5)   s(32)-0.195     C(1)   s(10)-0.182  
  MO  12 : occ=1.00 : energy=  -0.62920286 : center=(2.43,-0.10,0.46) : radius=1.52
            O(4)  pz(26) 0.361     O(4)  px(24)-0.262     C(0)  pz( 4) 0.257     O(4)  pz(30) 0.219     C(0)  px( 2) 0.219     O(4)   s(23) 0.195     C(0)   s( 1) 0.182  
  MO  13 : occ=1.00 : energy=  -0.45385419 : center=(-3.15,-0.86,-0.00) : radius=1.43
            O(5)  py(34) 0.520     O(5)   s(36)-0.389     O(5)  py(38) 0.335     O(5)   s(32)-0.290     C(0)   s( 5) 0.206  
  MO  14 : occ=1.00 : energy=  -0.45988319 : center=(-3.70,0.05,-0.00) : radius=1.39
            O(5)  px(33) 0.436     O(5)   s(36)-0.370     O(5)   s(32)-0.313     O(5)  px(37) 0.278     O(5)  py(34)-0.265     C(0)   s( 5)-0.223     O(5)  py(38)-0.181  

Solving NDIM= 3  with thresh 1.000000e-06     k 8    conv 1.000000e-04 

timer:     Project vnuclear     0.57s     0.57s
timer:     project ao basis     0.51s     0.51s

Iteration 0 at time 41.2s

timer:        Boys localize     0.23s     0.23s
timer:      Rotate subspace     0.08s     0.08s
timer:       Make densities     0.03s     0.03s
timer:       Load balancing     0.00s     0.00s
timer:       Nuclear energy     0.03s     0.03s
timer:              Coulomb     0.39s     0.39s
timer:        DFT potential     0.11s     0.11s
timer:                V*psi     0.75s     0.75s
timer:        Truncate Vpsi     0.57s     0.57s
timer:            PE matrix     0.02s     0.02s
timer:    KEmat reconstruct     0.01s     0.01s
timer:  KEmat differentiate     0.31s     0.31s
timer:       KEmat compress     0.05s     0.05s
timer: KEmat inner products     0.03s     0.03s
timer:            KE matrix     0.41s     0.41s
timer: Make fock matrix res     0.00s     0.00s

              kinetic     224.71942358
         nonlocal psp       0.00000000
   nuclear attraction    -735.50171585
              coulomb     210.02084237
                  PCM       0.00000000
 exchange-correlation     -26.77197231
    nuclear-repulsion     101.37759970
                total    -226.15582251

timer: Compute residual stu     0.15s     0.15s
entering apply
timer:            Apply BSH     5.43s     5.43s
timer:     Truncate new psi     0.34s     0.34s
residuals [2.893803e-04, 2.893563e-04, 2.738848e-04, 2.739023e-04, 3.832615e-04, 3.832797e-04, 3.398087e-04, 3.929957e-04, 2.872632e-04, 3.782275e-04, 3.929958e-04, 3.832751e-04, 3.832584e-04, 3.782948e-04, 2.872427e-04]
BSH residual: rms 3.445418e-04    max 3.929958e-04
timer:         BSH residual     0.11s     0.11s
timer: Update subspace stuf     0.05s     0.05s
Subspace solution [*]   1.00000000

timer:   Subspace transform     0.02s     0.02s
Norm of vector changes alpha : rms 3.445418e-04    max 3.929958e-04
ORTHOG2a: maxq trantol 1.598694e-04 6.666667e-09
timer:       Orthonormalize     0.18s     0.18s

Iteration 1 at time 50.6s

timer:        Boys localize     0.44s     0.44s
timer:      Rotate subspace     0.15s     0.15s
timer:       Make densities     0.07s     0.07s
timer:       Load balancing     0.00s     0.00s
delta rho 6.605167e-04 6.605167e-04 residuals 3.929958e-04 0.000000e+00
timer:       Nuclear energy     0.04s     0.04s
timer:              Coulomb     0.69s     0.69s
timer:        DFT potential     0.23s     0.23s
timer:                V*psi     0.33s     0.33s
timer:        Truncate Vpsi     0.37s     0.37s
timer:            PE matrix     0.03s     0.03s
timer:    KEmat reconstruct     0.02s     0.02s
timer:  KEmat differentiate     0.62s     0.62s
timer:       KEmat compress     0.09s     0.09s
timer: KEmat inner products     0.05s     0.05s
timer:            KE matrix     0.78s     0.78s
timer: Make fock matrix res     0.00s     0.00s

              kinetic     224.71523470
         nonlocal psp       0.00000000
   nuclear attraction    -735.49956362
              coulomb     210.01950069
                  PCM       0.00000000
 exchange-correlation     -26.77187137
    nuclear-repulsion     101.37759970
                total    -226.15909989

timer: Compute residual stu     0.18s     0.18s
entering apply
timer:            Apply BSH     6.36s     6.36s
timer:     Truncate new psi     0.37s     0.37s
residuals [2.663646e-05, 2.663128e-05, 3.802826e-05, 3.803096e-05, 1.225222e-04, 1.225443e-04, 8.155380e-05, 7.425803e-05, 1.141103e-04, 1.283243e-04, 7.425379e-05, 1.225480e-04, 1.225263e-04, 1.283639e-04, 1.141441e-04]
BSH residual: rms 9.696875e-05    max 1.283639e-04
timer:         BSH residual     0.14s     0.14s
timer: Update subspace stuf     0.18s     0.18s
Subspace solution [*]  -0.04820020   1.04820020

timer:   Subspace transform     0.04s     0.04s
Norm of vector changes alpha : rms 1.024391e-04    max 1.348191e-04
ORTHOG2a: maxq trantol 2.450042e-05 6.666667e-09
timer:       Orthonormalize     0.18s     0.18s

Iteration 2 at time 62.0s

timer:        Boys localize     0.44s     0.44s
timer:      Rotate subspace     0.16s     0.16s
timer:       Make densities     0.07s     0.07s
delta rho 1.203320e-04 1.203320e-04 residuals 1.283639e-04 0.000000e+00
timer:       Nuclear energy     0.03s     0.03s
timer:              Coulomb     0.59s     0.59s
timer:        DFT potential     0.21s     0.21s
timer:                V*psi     0.36s     0.36s
timer:        Truncate Vpsi     0.38s     0.38s
timer:            PE matrix     0.04s     0.04s
timer:    KEmat reconstruct     0.02s     0.02s
timer:  KEmat differentiate     0.60s     0.60s
timer:       KEmat compress     0.09s     0.09s
timer: KEmat inner products     0.05s     0.05s
timer:            KE matrix     0.77s     0.77s
timer: Make fock matrix res     0.00s     0.00s

              kinetic     224.72027264
         nonlocal psp       0.00000000
   nuclear attraction    -735.50855900
              coulomb     210.02402496
                  PCM       0.00000000
 exchange-correlation     -26.77244233
    nuclear-repulsion     101.37759970
                total    -226.15910403


Converged!

timer:              Overlap     0.04s     0.04s
timer:      focka eigen sol     0.00s     0.00s
 
alpha eigenvalues
[*] -18.65891623 -18.65890141  -9.90782389  -9.90769039  -1.00687489  -0.99430492  -0.65201231  -0.54625423  -0.45443643  -0.44988670  -0.42924015  -0.41895716  -0.38198416  -0.29559100  -0.23971837


 Dipole Moment (a.u.)
 -----------

     x:  1.588427e-07
     y:  1.711357e-07
     z:  -6.661556e-08
 Total Dipole Moment:  2.428087e-07 

timer:               dipole     0.00s     0.00s
Orbitals are localized - energies are diagonal Fock matrix elements

Analysis of alpha MO vectors
timer:      Analyze vectors     0.70s     0.70s
timer: Compute eigen gesv a     0.00s     0.00s
  MO   0 : occ=1.00 : energy= -18.65862399 : center=(-3.26,-0.31,-0.00) : radius=0.23
            O(5)   s(31) 0.995  
  MO   1 : occ=1.00 : energy= -18.65862394 : center=(3.26,0.31,-0.00) : radius=0.23
            O(4)   s(22)-0.995  
  MO   2 : occ=1.00 : energy=  -9.90754352 : center=(-1.23,0.75,-0.00) : radius=0.32
            C(1)   s( 9) 0.995  
  MO   3 : occ=1.00 : energy=  -9.90754336 : center=(1.23,-0.75,-0.00) : radius=0.32
            C(0)   s( 0) 0.995  
  MO   4 : occ=1.00 : energy=  -0.62923772 : center=(2.43,-0.10,-0.46) : radius=1.53
            O(4)  pz(26)-0.361     O(4)  px(24)-0.262     C(0)  pz( 4)-0.257     O(4)  pz(30)-0.219     C(0)  px( 2) 0.219     O(4)   s(23) 0.195     C(0)   s( 1) 0.182  
  MO   5 : occ=1.00 : energy=  -0.62923748 : center=(-2.43,0.10,-0.46) : radius=1.53
            O(5)  pz(35)-0.361     O(5)  px(33) 0.262     C(1)  pz(13)-0.257     O(5)  pz(39)-0.219     C(1)  px(11)-0.219     O(5)   s(32) 0.195     C(1)   s(10) 0.182  
  MO   6 : occ=1.00 : energy=  -0.54648019 : center=(-0.00,0.00,-0.00) : radius=1.52
            C(1)  px(11) 0.325     C(0)  px( 2)-0.325     C(1)   s(14) 0.234     C(0)   s( 5) 0.234     C(0)   s( 1) 0.228     C(1)   s(10) 0.228     C(1)  py(12)-0.196     C(0)  py( 3) 0.196  
  MO   7 : occ=1.00 : energy=  -0.48961832 : center=(-1.01,2.13,0.00) : radius=1.56
            C(1)  py(12) 0.387     H(3)   s(20) 0.313     C(1)   s(14) 0.262     H(3)   s(21) 0.240     C(1)   s(10) 0.227  
  MO   8 : occ=1.00 : energy=  -0.45991586 : center=(3.70,-0.05,0.00) : radius=1.39
            O(4)  px(24) 0.436     O(4)   s(27) 0.370     O(4)   s(23) 0.313     O(4)  px(28) 0.278     O(4)  py(25)-0.265     C(1)   s(14) 0.223     O(4)  py(29)-0.181  
  MO   9 : occ=1.00 : energy=  -0.45387971 : center=(3.15,0.86,-0.00) : radius=1.43
            O(4)  py(25)-0.520     O(4)   s(27)-0.389     O(4)  py(29)-0.335     O(4)   s(23)-0.291     C(1)   s(14) 0.206  
  MO  10 : occ=1.00 : energy=  -0.48961825 : center=(1.01,-2.13,-0.00) : radius=1.56
            C(0)  py( 3) 0.387     H(2)   s(18)-0.313     C(0)   s( 5)-0.262     H(2)   s(19)-0.240     C(0)   s( 1)-0.227  
  MO  11 : occ=1.00 : energy=  -0.62923731 : center=(-2.43,0.10,0.46) : radius=1.53
            O(5)  pz(35)-0.361     O(5)  px(33)-0.262     C(1)  pz(13)-0.257     O(5)  pz(39)-0.219     C(1)  px(11) 0.219     O(5)   s(32)-0.195     C(1)   s(10)-0.182  
  MO  12 : occ=1.00 : energy=  -0.62923715 : center=(2.43,-0.10,0.46) : radius=1.53
            O(4)  pz(26) 0.361     O(4)  px(24)-0.262     C(0)  pz( 4) 0.257     O(4)  pz(30) 0.219     C(0)  px( 2) 0.219     O(4)   s(23) 0.195     C(0)   s( 1) 0.182  
  MO  13 : occ=1.00 : energy=  -0.45387948 : center=(-3.15,-0.86,-0.00) : radius=1.43
            O(5)  py(34) 0.520     O(5)   s(36)-0.389     O(5)  py(38) 0.335     O(5)   s(32)-0.291     C(0)   s( 5) 0.206  
  MO  14 : occ=1.00 : energy=  -0.45991595 : center=(-3.70,0.05,-0.00) : radius=1.39
            O(5)  px(33) 0.436     O(5)   s(36)-0.370     O(5)   s(32)-0.313     O(5)  px(37) 0.278     O(5)  py(34)-0.265     C(0)   s( 5)-0.223     O(5)  py(38)-0.181  
timer:             plotting     0.00s     0.00s

    Parallel environment
    --------------------
                  #nodes    1
       #threads per node    27+main = 28
          #total threads    28

  RMI message statistics (min / avg / max)
  ----------------------
   #messages in server q    0.00e+00 / 0.00e+00 / 0.00e+00
 #messages sent per node    0.00e+00 / 0.00e+00 / 0.00e+00
    #bytes sent per node    0.00e+00 / 0.00e+00 / 0.00e+00
 #messages recv per node    0.00e+00 / 0.00e+00 / 0.00e+00
    #bytes recv per node    0.00e+00 / 0.00e+00 / 0.00e+00
        #msgs systemwide    0.00e+00
       #bytes systemwide    0.00e+00

  Thread pool statistics (min / avg / max)
  ----------------------
         #tasks per node    0.00e+00 / 0.00e+00 / 0.00e+00
     #max q len per node    0.00e+00 / 0.00e+00 / 0.00e+00
  #hi-pri tasks per node    0.00e+00 / 0.00e+00 / 0.00e+00

         Total wall time    66.7s
         Total  cpu time    66.7s

