MADNESS runtime initialized with 27 threads in the pool and affinity -1 -1 -1

--------------------------------------------
   MADNESS 0.10.1 multiresolution suite
--------------------------------------------

   number of processors ... 1
    processor frequency ... 1.995379e+09
            host system ... linux-gnu
          configured by ... egentles
          configured on ... sn093
          configured at ... Tue Jul 11 16:06:48 EDT 2017
                    CXX ... mpicxx
               CXXFLAGS ... -g -std=c++14 -O3 -Wall -Wno-strict-aliasing -Wno-deprecated -Wno-unused-local-typedefs  -ffast-math -march=native
             tuning for ... default
                    MPI ... multiple
 multi-threaded runtime ... Intel TBB
                   BLAS ... Intel MKL 14387 14387 MFLOP/s
               compiled ... 08:44:05  on  Jul 29 2017
input filename:  /gpfs/home/egentles/auto_test_mad/geometries_LDA_boys/hydroxyl_radical.mdns

Angstrom being used to read input coordinates (1 Bohr = 1.88972613 Angstrom)

XY degenerate

 The point group is C2v

Construct XC Functional from LIBXC Library

input line was:  LDA
 1.000 lda_x 
 1.000 lda_c_vwn 

screening parameters
 rhotol, rhomin 1.000000e-07 0.000000e+00
         ggatol 1.000000e-04
polarized  true 


Solving NDIM= 3  with thresh 1.000000e-05     k 8    conv 1.000000e-04 




 MADNESS Hartree-Fock and Density Functional Theory Program
 ----------------------------------------------------------



 geometry
   eprec 1.0e-04
   units atomic
   O             0.00000000           0.00000000          -0.20360749
   H             0.00000000           0.00000000           1.62885994
 end


             restart  false
    restart from AOs  false
 number of processes  1
   no. of io servers  1
   vnuc load bal fac  12
      load bal parts  2
     simulation cube  -5.162886e+01 5.162886e+01
        total charge  0.000000e+00
            smearing  0.000000e+00
 number of electrons  5 4
  number of orbitals  5 4
     spin restricted  false
       xc functional   LDA
          xc library  libxc
 initial guess basis  6-31g
 max krylov subspace  5
    compute protocol  [1.000000e-04, 1.000000e-06]
  energy convergence  1.000000e-05
 density convergence  1.000000e-04
    maximum rotation  2.500000e-01
    polynomial order  -1
       truncate mode  1
  maximum iterations  20
 Convergence criteria are density delta & BSH residual.
        plot density  false
        plot coulomb  false
        plot orbital  0 -1
        plot npoints  101
        plot  volume  default
  canonical orbitals 
 psp or all electron  all electron
timer:           initialize     0.40s     0.40s

Solving NDIM= 3  with thresh 1.000000e-04     k 6    conv 1.000000e-04 


Solving NDIM= 3  with thresh 1.000000e-04     k 6    conv 1.000000e-04 

timer:     Project vnuclear     0.07s     0.07s
timer:     project ao basis     0.11s     0.11s
guess dens trace 9.000045e+00
timer:        guess density     0.07s     0.07s
timer:   guess Coulomb potn     0.21s     0.21s
timer:       guess lda potn     0.11s     0.11s
timer:        guess overlap     0.01s     0.01s
timer:    KEmat reconstruct     0.00s     0.00s
timer:  KEmat differentiate     0.14s     0.14s
timer:       KEmat compress     0.02s     0.02s
timer: KEmat inner products     0.03s     0.03s
timer:     guess Kinet potn     0.19s     0.19s
timer:           guess fock     0.14s     0.14s
timer:      guess eigen sol     0.00s     0.00s
grouping alpha orbitals into sets
set  0    0  -  0
set  1    1  -  4
grouping beta orbitals into sets
set  0    0  -  0
set  1    1  -  3
timer: guess orbital groupi     0.02s     0.02s
timer:     project ao basis     0.08s     0.08s

Iteration 0 at time 1.6s

timer:       Make densities     0.02s     0.02s
timer:       Load balancing     0.00s     0.00s
timer:       Nuclear energy     0.00s     0.00s
timer:              Coulomb     0.08s     0.08s
timer:        DFT potential     0.06s     0.06s
timer:                V*psi     0.03s     0.03s
timer:        Truncate Vpsi     0.02s     0.02s
timer:        DFT potential     0.04s     0.04s
timer:                V*psi     0.02s     0.02s
timer:        Truncate Vpsi     0.02s     0.02s
timer:            PE matrix     0.01s     0.01s
timer:    KEmat reconstruct     0.00s     0.00s
timer:  KEmat differentiate     0.09s     0.09s
timer:       KEmat compress     0.02s     0.02s
timer: KEmat inner products     0.02s     0.02s
timer:            KE matrix     0.14s     0.14s
timer: Make fock matrix res     0.00s     0.00s
timer:            PE matrix     0.01s     0.01s
timer:    KEmat reconstruct     0.00s     0.00s
timer:  KEmat differentiate     0.07s     0.07s
timer:       KEmat compress     0.01s     0.01s
timer: KEmat inner products     0.02s     0.02s
timer:            KE matrix     0.10s     0.10s
timer: Make fock matrix res     0.00s     0.00s
timer: Diagonalization Fock     0.00s     0.00s
timer: Diagonalization rest     0.06s     0.06s
timer: Diagonalization Fock     0.00s     0.00s
timer: Diagonalization rest     0.05s     0.05s

              kinetic      75.96616975
         nonlocal psp       0.00000000
   nuclear attraction    -189.37118206
              coulomb      42.35980708
                  PCM       0.00000000
 exchange-correlation      -8.43476887
    nuclear-repulsion       4.36569833
                total     -75.11427577

timer: Compute residual stu     0.01s     0.01s
entering apply
timer:            Apply BSH     0.20s     0.20s
timer:     Truncate new psi     0.03s     0.03s
residuals [8.412141e-03, 3.720207e-02, 1.048152e-01, 1.639885e-01, 1.118307e-01]
BSH residual: rms 1.018227e-01    max 1.639885e-01
timer:         BSH residual     0.01s     0.01s
timer: Compute residual stu     0.01s     0.01s
entering apply
timer:            Apply BSH     0.16s     0.16s
timer:     Truncate new psi     0.02s     0.02s
residuals [7.950982e-03, 4.660334e-02, 1.229200e-01, 1.944550e-01]
BSH residual: rms 1.174278e-01    max 1.944550e-01
timer:         BSH residual     0.01s     0.01s
timer: Update subspace stuf     0.02s     0.02s
Subspace solution [*]   1.00000000

timer:   Subspace transform     0.00s     0.00s
Norm of vector changes alpha : rms 1.018227e-01    max 1.639885e-01
ORTHOG2a: maxq trantol 8.274027e-04 2.000000e-06
timer:       Orthonormalize     0.02s     0.02s
Norm of vector changes beta : rms 1.174278e-01    max 1.944550e-01
ORTHOG2a: maxq trantol 1.124141e-03 2.500000e-06
timer:       Orthonormalize     0.02s     0.02s

Iteration 1 at time 3.0s

timer:       Make densities     0.02s     0.02s
timer:       Load balancing     0.00s     0.00s
delta rho 8.765638e-02 8.570885e-02 residuals 1.944550e-01 0.000000e+00
timer:       Nuclear energy     0.01s     0.01s
timer:              Coulomb     0.06s     0.06s
timer:        DFT potential     0.06s     0.06s
timer:                V*psi     0.02s     0.02s
timer:        Truncate Vpsi     0.02s     0.02s
timer:        DFT potential     0.04s     0.04s
timer:                V*psi     0.02s     0.02s
timer:        Truncate Vpsi     0.02s     0.02s
timer:            PE matrix     0.01s     0.01s
timer:    KEmat reconstruct     0.00s     0.00s
timer:  KEmat differentiate     0.07s     0.07s
timer:       KEmat compress     0.01s     0.01s
timer: KEmat inner products     0.02s     0.02s
timer:            KE matrix     0.10s     0.10s
timer: Make fock matrix res     0.00s     0.00s
timer:            PE matrix     0.01s     0.01s
timer:    KEmat reconstruct     0.00s     0.00s
timer:  KEmat differentiate     0.06s     0.06s
timer:       KEmat compress     0.01s     0.01s
timer: KEmat inner products     0.02s     0.02s
timer:            KE matrix     0.09s     0.09s
timer: Make fock matrix res     0.00s     0.00s
timer: Diagonalization Fock     0.00s     0.00s
timer: Diagonalization rest     0.04s     0.04s
timer: Diagonalization Fock     0.00s     0.00s
timer: Diagonalization rest     0.03s     0.03s

              kinetic      74.05692660
         nonlocal psp       0.00000000
   nuclear attraction    -185.76235592
              coulomb      40.30603814
                  PCM       0.00000000
 exchange-correlation      -8.15556544
    nuclear-repulsion       4.36569833
                total     -75.18925829

timer: Compute residual stu     0.01s     0.01s
entering apply
timer:            Apply BSH     0.18s     0.18s
timer:     Truncate new psi     0.02s     0.02s
residuals [9.748179e-04, 3.242242e-02, 5.470789e-02, 7.658125e-02, 6.388752e-02]
BSH residual: rms 5.289881e-02    max 7.658125e-02
timer:         BSH residual     0.01s     0.01s
timer: Compute residual stu     0.01s     0.01s
entering apply
timer:            Apply BSH     0.15s     0.15s
timer:     Truncate new psi     0.02s     0.02s
residuals [8.239633e-04, 3.130032e-02, 5.614333e-02, 8.120271e-02]
BSH residual: rms 5.178403e-02    max 8.120271e-02
timer:         BSH residual     0.01s     0.01s
timer: Update subspace stuf     0.04s     0.04s
Subspace solution [*]   0.28484488   0.71515512

timer:   Subspace transform     0.00s     0.00s
Norm of vector changes alpha : rms 3.773556e-02    max 4.814680e-02
ORTHOG2a: maxq trantol 2.080326e-03 2.000000e-06
timer:       Orthonormalize     0.02s     0.02s
Norm of vector changes beta : rms 3.782906e-02    max 5.063720e-02
ORTHOG2a: maxq trantol 2.272572e-03 2.500000e-06
timer:       Orthonormalize     0.02s     0.02s

Iteration 2 at time 4.2s

timer:       Make densities     0.02s     0.02s
delta rho 4.185852e-02 3.071748e-02 residuals 8.120271e-02 0.000000e+00
timer:       Nuclear energy     0.00s     0.00s
timer:              Coulomb     0.07s     0.07s
timer:        DFT potential     0.06s     0.06s
timer:                V*psi     0.02s     0.02s
timer:        Truncate Vpsi     0.02s     0.02s
timer:        DFT potential     0.04s     0.04s
timer:                V*psi     0.02s     0.02s
timer:        Truncate Vpsi     0.02s     0.02s
timer:            PE matrix     0.01s     0.01s
timer:    KEmat reconstruct     0.00s     0.00s
timer:  KEmat differentiate     0.07s     0.07s
timer:       KEmat compress     0.01s     0.01s
timer: KEmat inner products     0.02s     0.02s
timer:            KE matrix     0.10s     0.10s
timer: Make fock matrix res     0.00s     0.00s
timer:            PE matrix     0.01s     0.01s
timer:    KEmat reconstruct     0.00s     0.00s
timer:  KEmat differentiate     0.06s     0.06s
timer:       KEmat compress     0.01s     0.01s
timer: KEmat inner products     0.02s     0.02s
timer:            KE matrix     0.09s     0.09s
timer: Make fock matrix res     0.00s     0.00s
timer: Diagonalization Fock     0.00s     0.00s
timer: Diagonalization rest     0.04s     0.04s
timer: Diagonalization Fock     0.00s     0.00s
timer: Diagonalization rest     0.03s     0.03s

              kinetic      74.83825251
         nonlocal psp       0.00000000
   nuclear attraction    -187.36850107
              coulomb      41.23922673
                  PCM       0.00000000
 exchange-correlation      -8.28030628
    nuclear-repulsion       4.36569833
                total     -75.20562978

timer: Compute residual stu     0.01s     0.01s
entering apply
timer:            Apply BSH     0.18s     0.18s
timer:     Truncate new psi     0.02s     0.02s
residuals [7.981717e-04, 3.208641e-03, 5.098839e-03, 6.986999e-03, 6.595210e-03]
BSH residual: rms 5.084202e-03    max 6.986999e-03
timer:         BSH residual     0.01s     0.01s
timer: Compute residual stu     0.01s     0.01s
entering apply
timer:            Apply BSH     0.16s     0.16s
timer:     Truncate new psi     0.02s     0.02s
residuals [6.851137e-04, 5.403008e-03, 6.309429e-03, 6.808304e-03]
BSH residual: rms 5.381073e-03    max 6.808304e-03
timer:         BSH residual     0.01s     0.01s
timer: Update subspace stuf     0.05s     0.05s
Subspace solution [*]  -0.06219456  -0.14147198   1.20366653

timer:   Subspace transform     0.00s     0.00s
Norm of vector changes alpha : rms 6.304032e-03    max 7.962104e-03
ORTHOG2a: maxq trantol 1.109750e-03 2.000000e-06
timer:       Orthonormalize     0.02s     0.02s
Norm of vector changes beta : rms 7.216340e-03    max 9.534799e-03
ORTHOG2a: maxq trantol 1.774719e-03 2.500000e-06
timer:       Orthonormalize     0.02s     0.02s

Iteration 3 at time 5.4s

timer:       Make densities     0.02s     0.02s
delta rho 8.017844e-03 5.976809e-03 residuals 6.986999e-03 0.000000e+00
timer:       Nuclear energy     0.00s     0.00s
timer:              Coulomb     0.06s     0.06s
timer:        DFT potential     0.05s     0.05s
timer:                V*psi     0.02s     0.02s
timer:        Truncate Vpsi     0.02s     0.02s
timer:        DFT potential     0.04s     0.04s
timer:                V*psi     0.02s     0.02s
timer:        Truncate Vpsi     0.02s     0.02s
timer:            PE matrix     0.01s     0.01s
timer:    KEmat reconstruct     0.00s     0.00s
timer:  KEmat differentiate     0.07s     0.07s
timer:       KEmat compress     0.01s     0.01s
timer: KEmat inner products     0.02s     0.02s
timer:            KE matrix     0.10s     0.10s
timer: Make fock matrix res     0.00s     0.00s
timer:            PE matrix     0.01s     0.01s
timer:    KEmat reconstruct     0.00s     0.00s
timer:  KEmat differentiate     0.06s     0.06s
timer:       KEmat compress     0.01s     0.01s
timer: KEmat inner products     0.02s     0.02s
timer:            KE matrix     0.09s     0.09s
timer: Make fock matrix res     0.00s     0.00s
timer: Diagonalization Fock     0.00s     0.00s
timer: Diagonalization rest     0.03s     0.03s
timer: Diagonalization Fock     0.00s     0.00s
timer: Diagonalization rest     0.03s     0.03s

              kinetic      74.84452719
         nonlocal psp       0.00000000
   nuclear attraction    -187.39552775
              coulomb      41.26166554
                  PCM       0.00000000
 exchange-correlation      -8.28335043
    nuclear-repulsion       4.36569833
                total     -75.20698712

timer: Compute residual stu     0.01s     0.01s
entering apply
timer:            Apply BSH     0.17s     0.17s
timer:     Truncate new psi     0.02s     0.02s
residuals [1.826428e-04, 6.353391e-04, 1.006625e-03, 1.976824e-03, 2.361444e-03]
BSH residual: rms 1.478821e-03    max 2.361444e-03
timer:         BSH residual     0.01s     0.01s
timer: Compute residual stu     0.01s     0.01s
entering apply
timer:            Apply BSH     0.15s     0.15s
timer:     Truncate new psi     0.02s     0.02s
residuals [1.707465e-04, 2.304881e-03, 2.747506e-03, 1.389973e-03]
BSH residual: rms 1.924997e-03    max 2.747506e-03
timer:         BSH residual     0.01s     0.01s
timer: Update subspace stuf     0.07s     0.07s
Subspace solution [*]   0.00792431   0.02908938  -0.32177567   1.28476198

timer:   Subspace transform     0.01s     0.01s
Norm of vector changes alpha : rms 1.724532e-03    max 2.626315e-03
ORTHOG2a: maxq trantol 7.561441e-05 2.000000e-06
timer:       Orthonormalize     0.02s     0.02s
Norm of vector changes beta : rms 2.345052e-03    max 3.480810e-03
ORTHOG2a: maxq trantol 4.670708e-04 2.500000e-06
timer:       Orthonormalize     0.02s     0.02s

Iteration 4 at time 6.6s

timer:       Make densities     0.02s     0.02s
delta rho 3.244468e-03 2.769957e-03 residuals 2.747506e-03 0.000000e+00
timer:       Nuclear energy     0.00s     0.00s
timer:              Coulomb     0.06s     0.06s
timer:        DFT potential     0.05s     0.05s
timer:                V*psi     0.02s     0.02s
timer:        Truncate Vpsi     0.02s     0.02s
timer:        DFT potential     0.03s     0.03s
timer:                V*psi     0.02s     0.02s
timer:        Truncate Vpsi     0.02s     0.02s
timer:            PE matrix     0.01s     0.01s
timer:    KEmat reconstruct     0.00s     0.00s
timer:  KEmat differentiate     0.07s     0.07s
timer:       KEmat compress     0.01s     0.01s
timer: KEmat inner products     0.02s     0.02s
timer:            KE matrix     0.10s     0.10s
timer: Make fock matrix res     0.00s     0.00s
timer:            PE matrix     0.01s     0.01s
timer:    KEmat reconstruct     0.00s     0.00s
timer:  KEmat differentiate     0.06s     0.06s
timer:       KEmat compress     0.01s     0.01s
timer: KEmat inner products     0.02s     0.02s
timer:            KE matrix     0.09s     0.09s
timer: Make fock matrix res     0.00s     0.00s
timer: Diagonalization Fock     0.00s     0.00s
timer: Diagonalization rest     0.03s     0.03s
timer: Diagonalization Fock     0.00s     0.00s
timer: Diagonalization rest     0.03s     0.03s

              kinetic      74.84358497
         nonlocal psp       0.00000000
   nuclear attraction    -187.39266389
              coulomb      41.25959125
                  PCM       0.00000000
 exchange-correlation      -8.28337945
    nuclear-repulsion       4.36569833
                total     -75.20716880

timer: Compute residual stu     0.01s     0.01s
entering apply
timer:            Apply BSH     0.17s     0.17s
timer:     Truncate new psi     0.02s     0.02s
residuals [4.875452e-05, 1.701745e-04, 3.036864e-04, 1.127189e-03, 1.274452e-03]
BSH residual: rms 7.769616e-04    max 1.274452e-03
timer:         BSH residual     0.01s     0.01s
timer: Compute residual stu     0.01s     0.01s
entering apply
timer:            Apply BSH     0.15s     0.15s
timer:     Truncate new psi     0.02s     0.02s
residuals [8.257994e-05, 1.051589e-03, 1.396996e-03, 4.882762e-04]
BSH residual: rms 9.086622e-04    max 1.396996e-03
timer:         BSH residual     0.01s     0.01s
timer: Update subspace stuf     0.09s     0.09s
Subspace solution [*]   0.00023661  -0.01381026   0.14000208  -1.14496783   2.01853940

timer:   Subspace transform     0.01s     0.01s
Norm of vector changes alpha : rms 1.175384e-03    max 1.932725e-03
ORTHOG2a: maxq trantol 1.841843e-04 2.000000e-06
timer:       Orthonormalize     0.02s     0.02s
Norm of vector changes beta : rms 1.831609e-03    max 2.843385e-03
ORTHOG2a: maxq trantol 1.411443e-04 2.500000e-06
timer:       Orthonormalize     0.02s     0.02s

Iteration 5 at time 7.9s

timer:       Make densities     0.02s     0.02s
delta rho 2.534240e-03 2.234976e-03 residuals 1.396996e-03 0.000000e+00
timer:       Nuclear energy     0.00s     0.00s
timer:              Coulomb     0.06s     0.06s
timer:        DFT potential     0.05s     0.05s
timer:                V*psi     0.02s     0.02s
timer:        Truncate Vpsi     0.02s     0.02s
timer:        DFT potential     0.04s     0.04s
timer:                V*psi     0.02s     0.02s
timer:        Truncate Vpsi     0.02s     0.02s
timer:            PE matrix     0.01s     0.01s
timer:    KEmat reconstruct     0.00s     0.00s
timer:  KEmat differentiate     0.07s     0.07s
timer:       KEmat compress     0.01s     0.01s
timer: KEmat inner products     0.02s     0.02s
timer:            KE matrix     0.10s     0.10s
timer: Make fock matrix res     0.00s     0.00s
timer:            PE matrix     0.01s     0.01s
timer:    KEmat reconstruct     0.00s     0.00s
timer:  KEmat differentiate     0.06s     0.06s
timer:       KEmat compress     0.01s     0.01s
timer: KEmat inner products     0.02s     0.02s
timer:            KE matrix     0.09s     0.09s
timer: Make fock matrix res     0.00s     0.00s
timer: Diagonalization Fock     0.00s     0.00s
timer: Diagonalization rest     0.03s     0.03s
timer: Diagonalization Fock     0.00s     0.00s
timer: Diagonalization rest     0.03s     0.03s

              kinetic      74.85027179
         nonlocal psp       0.00000000
   nuclear attraction    -187.40329777
              coulomb      41.26450454
                  PCM       0.00000000
 exchange-correlation      -8.28438463
    nuclear-repulsion       4.36569833
                total     -75.20720773

timer: Compute residual stu     0.01s     0.01s
entering apply
timer:            Apply BSH     0.17s     0.17s
timer:     Truncate new psi     0.02s     0.02s
residuals [6.172770e-05, 1.678766e-04, 3.761842e-04, 1.521339e-04, 1.274694e-04]
BSH residual: rms 2.063495e-04    max 3.761842e-04
timer:         BSH residual     0.01s     0.01s
timer: Compute residual stu     0.01s     0.01s
entering apply
timer:            Apply BSH     0.15s     0.15s
timer:     Truncate new psi     0.02s     0.02s
residuals [5.693986e-05, 2.486425e-04, 6.300008e-04, 1.694306e-04]
BSH residual: rms 3.502402e-04    max 6.300008e-04
timer:         BSH residual     0.01s     0.01s
timer: Update subspace stuf     0.09s     0.09s
Subspace solution [*]   0.00539688  -0.03263243   0.41946949  -1.05604337   1.66380943

timer:   Subspace transform     0.01s     0.01s
Norm of vector changes alpha : rms 4.145184e-04    max 6.232698e-04
ORTHOG2a: maxq trantol 5.653194e-05 2.000000e-06
timer:       Orthonormalize     0.02s     0.02s
Norm of vector changes beta : rms 6.798929e-04    max 1.174884e-03
ORTHOG2a: maxq trantol 9.031879e-05 2.500000e-06
timer:       Orthonormalize     0.02s     0.02s

Iteration 6 at time 9.1s

timer:       Make densities     0.02s     0.02s
delta rho 4.957900e-04 8.447832e-04 residuals 6.300008e-04 0.000000e+00
timer:       Nuclear energy     0.00s     0.00s
timer:              Coulomb     0.06s     0.06s
timer:        DFT potential     0.05s     0.05s
timer:                V*psi     0.02s     0.02s
timer:        Truncate Vpsi     0.02s     0.02s
timer:        DFT potential     0.04s     0.04s
timer:                V*psi     0.02s     0.02s
timer:        Truncate Vpsi     0.02s     0.02s
timer:            PE matrix     0.01s     0.01s
timer:    KEmat reconstruct     0.00s     0.00s
timer:  KEmat differentiate     0.07s     0.07s
timer:       KEmat compress     0.01s     0.01s
timer: KEmat inner products     0.02s     0.02s
timer:            KE matrix     0.10s     0.10s
timer: Make fock matrix res     0.00s     0.00s
timer:            PE matrix     0.01s     0.01s
timer:    KEmat reconstruct     0.00s     0.00s
timer:  KEmat differentiate     0.06s     0.06s
timer:       KEmat compress     0.01s     0.01s
timer: KEmat inner products     0.02s     0.02s
timer:            KE matrix     0.09s     0.09s
timer: Make fock matrix res     0.00s     0.00s
timer: Diagonalization Fock     0.00s     0.00s
timer: Diagonalization rest     0.03s     0.03s
timer: Diagonalization Fock     0.00s     0.00s
timer: Diagonalization rest     0.02s     0.02s

              kinetic      74.84997728
         nonlocal psp       0.00000000
   nuclear attraction    -187.40193488
              coulomb      41.26340147
                  PCM       0.00000000
 exchange-correlation      -8.28435494
    nuclear-repulsion       4.36569833
                total     -75.20721274

timer: Compute residual stu     0.01s     0.01s
entering apply
timer:            Apply BSH     0.17s     0.17s
timer:     Truncate new psi     0.02s     0.02s
residuals [4.299989e-05, 1.097092e-04, 2.547502e-04, 1.034949e-04, 1.260964e-04]
BSH residual: rms 1.451856e-04    max 2.547502e-04
timer:         BSH residual     0.01s     0.01s
timer: Compute residual stu     0.01s     0.01s
entering apply
timer:            Apply BSH     0.15s     0.15s
timer:     Truncate new psi     0.02s     0.02s
residuals [1.985548e-05, 8.280500e-05, 2.685403e-04, 1.042541e-04]
BSH residual: rms 1.501946e-04    max 2.685403e-04
timer:         BSH residual     0.01s     0.01s
timer: Update subspace stuf     0.09s     0.09s
Subspace solution [*]  -0.02147568   0.01986433   0.18424575  -1.12338457   1.94075017

timer:   Subspace transform     0.01s     0.01s
Norm of vector changes alpha : rms 3.192695e-04    max 6.321591e-04
ORTHOG2a: maxq trantol 1.289436e-05 2.000000e-06
timer:       Orthonormalize     0.02s     0.02s
Norm of vector changes beta : rms 3.850795e-04    max 7.251416e-04
ORTHOG2a: maxq trantol 1.062504e-05 2.500000e-06
timer:       Orthonormalize     0.02s     0.02s

Iteration 7 at time 10.3s

timer:       Make densities     0.02s     0.02s
delta rho 4.027607e-04 4.922617e-04 residuals 2.685403e-04 0.000000e+00
timer:       Nuclear energy     0.00s     0.00s
timer:              Coulomb     0.06s     0.06s
timer:        DFT potential     0.05s     0.05s
timer:                V*psi     0.02s     0.02s
timer:        Truncate Vpsi     0.02s     0.02s
timer:        DFT potential     0.04s     0.04s
timer:                V*psi     0.02s     0.02s
timer:        Truncate Vpsi     0.02s     0.02s
timer:            PE matrix     0.01s     0.01s
timer:    KEmat reconstruct     0.00s     0.00s
timer:  KEmat differentiate     0.07s     0.07s
timer:       KEmat compress     0.01s     0.01s
timer: KEmat inner products     0.02s     0.02s
timer:            KE matrix     0.10s     0.10s
timer: Make fock matrix res     0.00s     0.00s
timer:            PE matrix     0.02s     0.02s
timer:    KEmat reconstruct     0.00s     0.00s
timer:  KEmat differentiate     0.06s     0.06s
timer:       KEmat compress     0.01s     0.01s
timer: KEmat inner products     0.02s     0.02s
timer:            KE matrix     0.09s     0.09s
timer: Make fock matrix res     0.00s     0.00s
timer: Diagonalization Fock     0.00s     0.00s
timer: Diagonalization rest     0.03s     0.03s
timer: Diagonalization Fock     0.00s     0.00s
timer: Diagonalization rest     0.03s     0.03s

              kinetic      74.84988532
         nonlocal psp       0.00000000
   nuclear attraction    -187.40170611
              coulomb      41.26330164
                  PCM       0.00000000
 exchange-correlation      -8.28439366
    nuclear-repulsion       4.36569833
                total     -75.20721448

timer: Compute residual stu     0.01s     0.01s
entering apply
timer:            Apply BSH     0.18s     0.18s
timer:     Truncate new psi     0.02s     0.02s
residuals [3.782000e-05, 4.481550e-05, 1.163472e-04, 9.018068e-05, 9.285974e-05]
BSH residual: rms 8.213519e-05    max 1.163472e-04
timer:         BSH residual     0.01s     0.01s
timer: Compute residual stu     0.01s     0.01s
entering apply
timer:            Apply BSH     0.15s     0.15s
timer:     Truncate new psi     0.02s     0.02s
residuals [3.809355e-05, 6.429222e-05, 1.132498e-04, 7.272256e-05]
BSH residual: rms 7.697189e-05    max 1.132498e-04
timer:         BSH residual     0.01s     0.01s
timer: Update subspace stuf     0.09s     0.09s
Subspace solution [*]  -0.03764618   0.11746347  -0.08688895  -0.43241736   1.43948903

timer:   Subspace transform     0.01s     0.01s
Norm of vector changes alpha : rms 1.467115e-04    max 2.775855e-04
ORTHOG2a: maxq trantol 2.088106e-05 2.000000e-06
timer:       Orthonormalize     0.03s     0.03s
Norm of vector changes beta : rms 1.375436e-04    max 2.515371e-04
ORTHOG2a: maxq trantol 1.879907e-05 2.500000e-06
timer:       Orthonormalize     0.02s     0.02s

Iteration 8 at time 11.5s

timer:       Make densities     0.02s     0.02s
delta rho 1.693086e-04 1.336682e-04 residuals 1.163472e-04 0.000000e+00
timer:       Nuclear energy     0.00s     0.00s
timer:              Coulomb     0.06s     0.06s
timer:        DFT potential     0.05s     0.05s
timer:                V*psi     0.02s     0.02s
timer:        Truncate Vpsi     0.02s     0.02s
timer:        DFT potential     0.04s     0.04s
timer:                V*psi     0.02s     0.02s
timer:        Truncate Vpsi     0.02s     0.02s
timer:            PE matrix     0.01s     0.01s
timer:    KEmat reconstruct     0.00s     0.00s
timer:  KEmat differentiate     0.07s     0.07s
timer:       KEmat compress     0.01s     0.01s
timer: KEmat inner products     0.02s     0.02s
timer:            KE matrix     0.10s     0.10s
timer: Make fock matrix res     0.00s     0.00s
timer:            PE matrix     0.01s     0.01s
timer:    KEmat reconstruct     0.00s     0.00s
timer:  KEmat differentiate     0.06s     0.06s
timer:       KEmat compress     0.01s     0.01s
timer: KEmat inner products     0.02s     0.02s
timer:            KE matrix     0.09s     0.09s
timer: Make fock matrix res     0.00s     0.00s
timer: Diagonalization Fock     0.00s     0.00s
timer: Diagonalization rest     0.05s     0.05s
timer: Diagonalization Fock     0.00s     0.00s
timer: Diagonalization rest     0.03s     0.03s

              kinetic      74.84902514
         nonlocal psp       0.00000000
   nuclear attraction    -187.40005223
              coulomb      41.26238839
                  PCM       0.00000000
 exchange-correlation      -8.28427414
    nuclear-repulsion       4.36569833
                total     -75.20721450


Converged!

timer:              Overlap     0.01s     0.01s
timer:      focka eigen sol     0.00s     0.00s
timer:        Transform MOs     0.01s     0.01s
timer:              Overlap     0.01s     0.01s
timer:      fockb eigen sol     0.00s     0.00s
timer:        Transform MOs     0.01s     0.01s
 
alpha eigenvalues
[*] -18.68905604  -0.92938259  -0.43534246  -0.36672376  -0.30337339

beta eigenvalues
[*] -18.66275072  -0.87709923  -0.40651659  -0.27290702


 Dipole Moment (a.u.)
 -----------

     x:  1.652246e-07
     y:  1.655487e-07
     z:  6.481882e-01
 Total Dipole Moment:  6.481882e-01 

timer:               dipole     0.00s     0.00s
Orbitals are eigenvectors - energies are eigenvalues

Analysis of alpha MO vectors
timer:      Analyze vectors     0.12s     0.12s
timer: Compute eigen gesv a     0.00s     0.00s
  MO   0 : occ=1.00 : energy= -18.68905604 : center=(0.00,0.00,-0.20) : radius=0.23
            O(0)   s( 0) 0.994  
  MO   1 : occ=1.00 : energy=  -0.92938259 : center=(0.00,0.00,0.20) : radius=1.28
            O(0)   s( 1)-0.508     O(0)   s( 5)-0.471     O(0)   s( 0) 0.222     H(1)   s( 9)-0.161  
  MO   2 : occ=1.00 : energy=  -0.43534246 : center=(0.00,0.00,-0.14) : radius=1.61
            O(0)  pz( 4)-0.556     O(0)   s( 5) 0.341     O(0)  pz( 8)-0.295     H(1)   s( 9)-0.279  
  MO   3 : occ=1.00 : energy=  -0.36672376 : center=(0.00,0.00,-0.14) : radius=1.46
            O(0)  px( 2) 0.477     O(0)  py( 3)-0.476     O(0)  px( 6) 0.333     O(0)  py( 7)-0.333  
  MO   4 : occ=1.00 : energy=  -0.30337339 : center=(-0.00,-0.00,-0.13) : radius=1.53
            O(0)  py( 3) 0.456     O(0)  px( 2) 0.455     O(0)  py( 7) 0.355     O(0)  px( 6) 0.354  
Analysis of beta MO vectors
timer:      Analyze vectors     0.10s     0.10s
timer: Compute eigen gesv a     0.00s     0.00s
  MO   0 : occ=1.00 : energy= -18.66275072 : center=(0.00,0.00,-0.20) : radius=0.23
            O(0)   s( 0) 0.994  
  MO   1 : occ=1.00 : energy=  -0.87709923 : center=(0.00,0.00,0.24) : radius=1.30
            O(0)   s( 1) 0.487     O(0)   s( 5) 0.468     O(0)   s( 0)-0.217     H(1)   s( 9) 0.183  
  MO   2 : occ=1.00 : energy=  -0.40651659 : center=(0.00,0.00,-0.15) : radius=1.65
            O(0)  pz( 4)-0.532     O(0)   s( 5) 0.375     O(0)  pz( 8)-0.298     H(1)   s( 9)-0.284     H(1)   s(10)-0.174  
  MO   3 : occ=1.00 : energy=  -0.27290702 : center=(-0.00,-0.00,-0.12) : radius=1.58
            O(0)  py( 3)-0.441     O(0)  px( 2)-0.440     O(0)  py( 7)-0.370     O(0)  px( 6)-0.369  

Solving NDIM= 3  with thresh 1.000000e-06     k 8    conv 1.000000e-04 

timer:     Project vnuclear     0.13s     0.13s
timer:     project ao basis     0.14s     0.14s

Iteration 0 at time 12.9s

timer:       Make densities     0.02s     0.02s
timer:       Load balancing     0.00s     0.00s
timer:       Nuclear energy     0.01s     0.01s
timer:              Coulomb     0.23s     0.23s
timer:        DFT potential     0.08s     0.08s
timer:                V*psi     0.05s     0.05s
timer:        Truncate Vpsi     0.05s     0.05s
timer:        DFT potential     0.05s     0.05s
timer:                V*psi     0.03s     0.03s
timer:        Truncate Vpsi     0.04s     0.04s
timer:            PE matrix     0.01s     0.01s
timer:    KEmat reconstruct     0.00s     0.00s
timer:  KEmat differentiate     0.07s     0.07s
timer:       KEmat compress     0.02s     0.02s
timer: KEmat inner products     0.02s     0.02s
timer:            KE matrix     0.12s     0.12s
timer: Make fock matrix res     0.00s     0.00s
timer:            PE matrix     0.01s     0.01s
timer:    KEmat reconstruct     0.00s     0.00s
timer:  KEmat differentiate     0.06s     0.06s
timer:       KEmat compress     0.01s     0.01s
timer: KEmat inner products     0.02s     0.02s
timer:            KE matrix     0.09s     0.09s
timer: Make fock matrix res     0.00s     0.00s
timer: Diagonalization Fock     0.00s     0.00s
timer: Diagonalization rest     0.05s     0.05s
timer: Diagonalization Fock     0.00s     0.00s
timer: Diagonalization rest     0.04s     0.04s

              kinetic      74.84893440
         nonlocal psp       0.00000000
   nuclear attraction    -187.39985444
              coulomb      41.26231810
                  PCM       0.00000000
 exchange-correlation      -8.28426653
    nuclear-repulsion       4.36569833
                total     -75.20717014

timer: Compute residual stu     0.02s     0.02s
entering apply
timer:            Apply BSH     0.97s     0.97s
timer:     Truncate new psi     0.07s     0.07s
residuals [1.902293e-04, 2.471700e-04, 2.887292e-04, 2.009559e-04, 2.030811e-04]
BSH residual: rms 2.290284e-04    max 2.887292e-04
timer:         BSH residual     0.02s     0.02s
timer: Compute residual stu     0.01s     0.01s
entering apply
timer:            Apply BSH     0.81s     0.81s
timer:     Truncate new psi     0.06s     0.06s
residuals [1.896449e-04, 2.558454e-04, 2.895616e-04, 2.031660e-04]
BSH residual: rms 2.379834e-04    max 2.895616e-04
timer:         BSH residual     0.02s     0.02s
timer: Update subspace stuf     0.02s     0.02s
Subspace solution [*]   1.00000000

timer:   Subspace transform     0.00s     0.00s
Norm of vector changes alpha : rms 2.290284e-04    max 2.887292e-04
ORTHOG2a: maxq trantol 1.344214e-05 2.000000e-08
timer:       Orthonormalize     0.04s     0.04s
Norm of vector changes beta : rms 2.379834e-04    max 2.895616e-04
ORTHOG2a: maxq trantol 1.524253e-05 2.500000e-08
timer:       Orthonormalize     0.03s     0.03s

Iteration 1 at time 16.1s

timer:       Make densities     0.03s     0.03s
timer:       Load balancing     0.00s     0.00s
delta rho 2.313764e-04 2.361597e-04 residuals 2.895616e-04 0.000000e+00
timer:       Nuclear energy     0.01s     0.01s
timer:              Coulomb     0.25s     0.25s
timer:        DFT potential     0.13s     0.13s
timer:                V*psi     0.04s     0.04s
timer:        Truncate Vpsi     0.04s     0.04s
timer:        DFT potential     0.09s     0.09s
timer:                V*psi     0.03s     0.03s
timer:        Truncate Vpsi     0.03s     0.03s
timer:            PE matrix     0.01s     0.01s
timer:    KEmat reconstruct     0.00s     0.00s
timer:  KEmat differentiate     0.12s     0.12s
timer:       KEmat compress     0.03s     0.03s
timer: KEmat inner products     0.02s     0.02s
timer:            KE matrix     0.18s     0.18s
timer: Make fock matrix res     0.00s     0.00s
timer:            PE matrix     0.01s     0.01s
timer:    KEmat reconstruct     0.00s     0.00s
timer:  KEmat differentiate     0.10s     0.10s
timer:       KEmat compress     0.01s     0.01s
timer: KEmat inner products     0.02s     0.02s
timer:            KE matrix     0.14s     0.14s
timer: Make fock matrix res     0.00s     0.00s
timer: Diagonalization Fock     0.00s     0.00s
timer: Diagonalization rest     0.06s     0.06s
timer: Diagonalization Fock     0.00s     0.00s
timer: Diagonalization rest     0.06s     0.06s

              kinetic      74.84702289
         nonlocal psp       0.00000000
   nuclear attraction    -187.39855058
              coulomb      41.26242198
                  PCM       0.00000000
 exchange-correlation      -8.28423577
    nuclear-repulsion       4.36569833
                total     -75.20764316

timer: Compute residual stu     0.02s     0.02s
entering apply
timer:            Apply BSH     1.04s     1.04s
timer:     Truncate new psi     0.07s     0.07s
residuals [9.990666e-06, 2.219852e-05, 7.663182e-05, 1.016253e-05, 1.191125e-05]
BSH residual: rms 3.663381e-05    max 7.663182e-05
timer:         BSH residual     0.02s     0.02s
timer: Compute residual stu     0.01s     0.01s
entering apply
timer:            Apply BSH     0.87s     0.87s
timer:     Truncate new psi     0.06s     0.06s
residuals [9.813936e-06, 4.398934e-05, 5.014201e-05, 1.590057e-05]
BSH residual: rms 3.463533e-05    max 5.014201e-05
timer:         BSH residual     0.02s     0.02s
timer: Update subspace stuf     0.04s     0.04s
Subspace solution [*]  -0.02969844   1.02969844

timer:   Subspace transform     0.01s     0.01s
Norm of vector changes alpha : rms 3.770596e-05    max 7.873749e-05
ORTHOG2a: maxq trantol 7.727985e-06 2.000000e-08
timer:       Orthonormalize     0.04s     0.04s
Norm of vector changes beta : rms 3.581281e-05    max 5.217470e-05
ORTHOG2a: maxq trantol 9.027120e-06 2.500000e-08
timer:       Orthonormalize     0.03s     0.03s

Iteration 2 at time 19.7s

timer:       Make densities     0.03s     0.03s
delta rho 4.108236e-05 3.335014e-05 residuals 7.663182e-05 0.000000e+00
timer:       Nuclear energy     0.01s     0.01s
timer:              Coulomb     0.23s     0.23s
timer:        DFT potential     0.11s     0.11s
timer:                V*psi     0.04s     0.04s
timer:        Truncate Vpsi     0.04s     0.04s
timer:        DFT potential     0.07s     0.07s
timer:                V*psi     0.03s     0.03s
timer:        Truncate Vpsi     0.03s     0.03s
timer:            PE matrix     0.01s     0.01s
timer:    KEmat reconstruct     0.00s     0.00s
timer:  KEmat differentiate     0.13s     0.13s
timer:       KEmat compress     0.02s     0.02s
timer: KEmat inner products     0.02s     0.02s
timer:            KE matrix     0.17s     0.17s
timer: Make fock matrix res     0.00s     0.00s
timer:            PE matrix     0.01s     0.01s
timer:    KEmat reconstruct     0.00s     0.00s
timer:  KEmat differentiate     0.10s     0.10s
timer:       KEmat compress     0.01s     0.01s
timer: KEmat inner products     0.02s     0.02s
timer:            KE matrix     0.14s     0.14s
timer: Make fock matrix res     0.00s     0.00s
timer: Diagonalization Fock     0.00s     0.00s
timer: Diagonalization rest     0.05s     0.05s
timer: Diagonalization Fock     0.00s     0.00s
timer: Diagonalization rest     0.05s     0.05s

              kinetic      74.84756626
         nonlocal psp       0.00000000
   nuclear attraction    -187.39963063
              coulomb      41.26303413
                  PCM       0.00000000
 exchange-correlation      -8.28431161
    nuclear-repulsion       4.36569833
                total     -75.20764353


Converged!

timer:              Overlap     0.01s     0.01s
timer:      focka eigen sol     0.00s     0.00s
timer:        Transform MOs     0.02s     0.02s
timer:              Overlap     0.01s     0.01s
timer:      fockb eigen sol     0.00s     0.00s
timer:        Transform MOs     0.02s     0.02s
 
alpha eigenvalues
[*] -18.68898827  -0.92940086  -0.43536735  -0.36666495  -0.30331541

beta eigenvalues
[*] -18.66268114  -0.87712227  -0.40654558  -0.27285353


 Dipole Moment (a.u.)
 -----------

     x:  -1.706852e-08
     y:  -1.675370e-08
     z:  6.482873e-01
 Total Dipole Moment:  6.482873e-01 

timer:               dipole     0.00s     0.00s
Orbitals are eigenvectors - energies are eigenvalues

Analysis of alpha MO vectors
timer:      Analyze vectors     0.17s     0.17s
timer: Compute eigen gesv a     0.00s     0.00s
  MO   0 : occ=1.00 : energy= -18.68898827 : center=(0.00,0.00,-0.20) : radius=0.23
            O(0)   s( 0)-0.994  
  MO   1 : occ=1.00 : energy=  -0.92940086 : center=(-0.00,-0.00,0.20) : radius=1.28
            O(0)   s( 1) 0.508     O(0)   s( 5) 0.471     O(0)   s( 0)-0.222     H(1)   s( 9) 0.161  
  MO   2 : occ=1.00 : energy=  -0.43536735 : center=(-0.00,-0.00,-0.14) : radius=1.61
            O(0)  pz( 4) 0.556     O(0)   s( 5)-0.341     O(0)  pz( 8) 0.295     H(1)   s( 9) 0.279  
  MO   3 : occ=1.00 : energy=  -0.36666495 : center=(0.00,0.00,-0.14) : radius=1.46
            O(0)  px( 2)-0.477     O(0)  py( 3) 0.476     O(0)  px( 6)-0.333     O(0)  py( 7) 0.333  
  MO   4 : occ=1.00 : energy=  -0.30331541 : center=(0.00,0.00,-0.13) : radius=1.53
            O(0)  py( 3) 0.456     O(0)  px( 2) 0.455     O(0)  py( 7) 0.355     O(0)  px( 6) 0.354  
Analysis of beta MO vectors
timer:      Analyze vectors     0.15s     0.15s
timer: Compute eigen gesv a     0.00s     0.00s
  MO   0 : occ=1.00 : energy= -18.66268114 : center=(0.00,0.00,-0.20) : radius=0.23
            O(0)   s( 0)-0.994  
  MO   1 : occ=1.00 : energy=  -0.87712227 : center=(-0.00,-0.00,0.24) : radius=1.30
            O(0)   s( 1) 0.487     O(0)   s( 5) 0.468     O(0)   s( 0)-0.217     H(1)   s( 9) 0.183  
  MO   2 : occ=1.00 : energy=  -0.40654558 : center=(-0.00,-0.00,-0.15) : radius=1.65
            O(0)  pz( 4) 0.532     O(0)   s( 5)-0.375     O(0)  pz( 8) 0.298     H(1)   s( 9) 0.284     H(1)   s(10) 0.174  
  MO   3 : occ=1.00 : energy=  -0.27285353 : center=(0.00,0.00,-0.12) : radius=1.58
            O(0)  py( 3)-0.441     O(0)  px( 2)-0.440     O(0)  py( 7)-0.370     O(0)  px( 6)-0.369  
timer:             plotting     0.00s     0.00s

    Parallel environment
    --------------------
                  #nodes    1
       #threads per node    27+main = 28
          #total threads    28

  RMI message statistics (min / avg / max)
  ----------------------
   #messages in server q    0.00e+00 / 0.00e+00 / 0.00e+00
 #messages sent per node    0.00e+00 / 0.00e+00 / 0.00e+00
    #bytes sent per node    0.00e+00 / 0.00e+00 / 0.00e+00
 #messages recv per node    0.00e+00 / 0.00e+00 / 0.00e+00
    #bytes recv per node    0.00e+00 / 0.00e+00 / 0.00e+00
        #msgs systemwide    0.00e+00
       #bytes systemwide    0.00e+00

  Thread pool statistics (min / avg / max)
  ----------------------
         #tasks per node    0.00e+00 / 0.00e+00 / 0.00e+00
     #max q len per node    0.00e+00 / 0.00e+00 / 0.00e+00
  #hi-pri tasks per node    0.00e+00 / 0.00e+00 / 0.00e+00

         Total wall time    21.5s
         Total  cpu time    21.5s

