MADNESS runtime initialized with 27 threads in the pool and affinity -1 -1 -1

--------------------------------------------
   MADNESS 0.10.1 multiresolution suite
--------------------------------------------

   number of processors ... 1
    processor frequency ... 1.995369e+09
            host system ... linux-gnu
          configured by ... egentles
          configured on ... sn093
          configured at ... Tue Jul 11 16:06:48 EDT 2017
                    CXX ... mpicxx
               CXXFLAGS ... -g -std=c++14 -O3 -Wall -Wno-strict-aliasing -Wno-deprecated -Wno-unused-local-typedefs  -ffast-math -march=native
             tuning for ... default
                    MPI ... multiple
 multi-threaded runtime ... Intel TBB
                   BLAS ... Intel MKL 14351 14351 MFLOP/s
               compiled ... 08:44:05  on  Jul 29 2017
input filename:  /gpfs/home/egentles/auto_test_mad/geometries_LDA_boys/isobutane.mdns

Angstrom being used to read input coordinates (1 Bohr = 1.88972613 Angstrom)

YZ degenerate

 The point group is Cs

Construct XC Functional from LIBXC Library

input line was:  LDA
 1.000 lda_x 
 1.000 lda_c_vwn 

screening parameters
 rhotol, rhomin 1.000000e-07 0.000000e+00
         ggatol 1.000000e-04
polarized  false 


Solving NDIM= 3  with thresh 1.000000e-05     k 8    conv 1.000000e-04 




 MADNESS Hartree-Fock and Density Functional Theory Program
 ----------------------------------------------------------



 geometry
   eprec 1.0e-04
   units atomic
   C            -0.71233082           0.00000001           0.00000000
   C             0.18185530           2.74065098           0.00000000
   C             0.18185554          -1.37032539           2.37347335
   C             0.18185554          -1.37032539          -2.37347335
   H            -2.78785483          -0.00000011           0.00000000
   H             2.25037408           2.82324536           0.00000000
   H            -0.49378044           3.75053003          -1.67331848
   H            -0.49378044           3.75053003           1.67331848
   H             2.25037434          -1.41162145           2.44500137
   H            -0.49378019          -0.42612944           4.08471296
   H            -0.49378001          -3.32440241           2.41139448
   H             2.25037434          -1.41162145          -2.44500137
   H            -0.49378001          -3.32440241          -2.41139448
   H            -0.49378019          -0.42612944          -4.08471296
 end


             restart  false
    restart from AOs  false
 number of processes  1
   no. of io servers  1
   vnuc load bal fac  12
      load bal parts  2
     simulation cube  -5.408471e+01 5.408471e+01
        total charge  0.000000e+00
            smearing  0.000000e+00
 number of electrons  17 17
  number of orbitals  17 17
     spin restricted  true
       xc functional   LDA
          xc library  libxc
 initial guess basis  6-31g
 max krylov subspace  5
    compute protocol  [1.000000e-04, 1.000000e-06]
  energy convergence  1.000000e-05
 density convergence  1.000000e-04
    maximum rotation  2.500000e-01
    polynomial order  -1
       truncate mode  1
  maximum iterations  20
 Convergence criteria are density delta & BSH residual.
        plot density  false
        plot coulomb  false
        plot orbital  0 -1
        plot npoints  101
        plot  volume  default
  localized orbitals  boys
 psp or all electron  all electron
timer:           initialize     0.39s     0.39s

Solving NDIM= 3  with thresh 1.000000e-04     k 6    conv 1.000000e-04 


Solving NDIM= 3  with thresh 1.000000e-04     k 6    conv 1.000000e-04 

timer:     Project vnuclear     0.58s     0.58s
timer:     project ao basis     0.39s     0.39s
guess dens trace 3.400013e+01
timer:        guess density     0.56s     0.56s
timer:   guess Coulomb potn     0.32s     0.32s
timer:       guess lda potn     0.20s     0.20s
timer:        guess overlap     0.01s     0.01s
timer:    KEmat reconstruct     0.01s     0.01s
timer:  KEmat differentiate     0.65s     0.65s
timer:       KEmat compress     0.14s     0.14s
timer: KEmat inner products     0.06s     0.06s
timer:     guess Kinet potn     0.88s     0.88s
timer:           guess fock     2.18s     2.18s
timer:      guess eigen sol     0.00s     0.00s
grouping alpha orbitals into sets
set  0    0  -  3
set  1    4  -  16
timer: guess orbital groupi     0.05s     0.05s
timer:     project ao basis     0.35s     0.35s

Iteration 0 at time 6.3s

timer:        Boys localize     0.25s     0.25s
timer:      Rotate subspace     0.11s     0.11s
timer:       Make densities     0.03s     0.03s
timer:       Load balancing     0.00s     0.00s
timer:       Nuclear energy     0.01s     0.01s
timer:              Coulomb     0.10s     0.10s
timer:        DFT potential     0.08s     0.08s
timer:                V*psi     0.20s     0.20s
timer:        Truncate Vpsi     0.25s     0.25s
timer:            PE matrix     0.02s     0.02s
timer:    KEmat reconstruct     0.01s     0.01s
timer:  KEmat differentiate     0.34s     0.34s
timer:       KEmat compress     0.04s     0.04s
timer: KEmat inner products     0.03s     0.03s
timer:            KE matrix     0.42s     0.42s
timer: Make fock matrix res     0.00s     0.00s

              kinetic     160.29168171
         nonlocal psp       0.00000000
   nuclear attraction    -644.39978659
              coulomb     217.04526444
                  PCM       0.00000000
 exchange-correlation     -24.45594459
    nuclear-repulsion     134.86081228
                total    -156.65797275

timer: Compute residual stu     0.07s     0.07s
entering apply
timer:            Apply BSH     0.88s     0.88s
timer:     Truncate new psi     0.10s     0.10s
residuals [1.008881e-02, 1.008547e-02, 1.008499e-02, 9.280732e-03, 9.792875e-02, 1.560710e-01, 1.561075e-01, 1.565884e-01, 1.560882e-01, 1.560507e-01, 1.561033e-01, 1.565760e-01, 1.565883e-01, 1.560982e-01, 9.792339e-02, 9.792334e-02, 1.242579e-01]
BSH residual: rms 1.246957e-01    max 1.565884e-01
timer:         BSH residual     0.06s     0.06s
timer: Update subspace stuf     0.05s     0.05s
Subspace solution [*]   1.00000000

timer:   Subspace transform     0.01s     0.01s
Norm of vector changes alpha : rms 1.246957e-01    max 1.565884e-01
ORTHOG2a: maxq trantol 9.263188e-03 5.882353e-07
timer:       Orthonormalize     0.09s     0.09s

Iteration 1 at time 9.4s

timer:        Boys localize     0.22s     0.22s
timer:      Rotate subspace     0.09s     0.09s
timer:       Make densities     0.03s     0.03s
timer:       Load balancing     0.00s     0.00s
delta rho 1.525067e-01 1.525067e-01 residuals 1.565884e-01 0.000000e+00
timer:       Nuclear energy     0.01s     0.01s
timer:              Coulomb     0.12s     0.12s
timer:        DFT potential     0.09s     0.09s
timer:                V*psi     0.21s     0.21s
timer:        Truncate Vpsi     0.26s     0.26s
timer:            PE matrix     0.02s     0.02s
timer:    KEmat reconstruct     0.01s     0.01s
timer:  KEmat differentiate     0.34s     0.34s
timer:       KEmat compress     0.04s     0.04s
timer: KEmat inner products     0.03s     0.03s
timer:            KE matrix     0.42s     0.42s
timer: Make fock matrix res     0.00s     0.00s

              kinetic     154.34704613
         nonlocal psp       0.00000000
   nuclear attraction    -629.58153697
              coulomb     206.94527641
                  PCM       0.00000000
 exchange-correlation     -23.49580054
    nuclear-repulsion     134.86081228
                total    -156.92420270

timer: Compute residual stu     0.07s     0.07s
entering apply
timer:            Apply BSH     0.90s     0.90s
timer:     Truncate new psi     0.10s     0.10s
residuals [9.423693e-04, 9.386808e-04, 9.387617e-04, 1.090310e-03, 4.574376e-02, 6.310721e-02, 6.310093e-02, 6.212643e-02, 6.309190e-02, 6.309749e-02, 6.309856e-02, 6.211332e-02, 6.212762e-02, 6.309378e-02, 4.573177e-02, 4.574700e-02, 5.360387e-02]
BSH residual: rms 5.123181e-02    max 6.310721e-02
timer:         BSH residual     0.06s     0.06s
timer: Update subspace stuf     0.11s     0.11s
Subspace solution [*]   0.28710749   0.71289251

timer:   Subspace transform     0.02s     0.02s
Norm of vector changes alpha : rms 3.513413e-02    max 4.267163e-02
ORTHOG2a: maxq trantol 1.806495e-03 5.882353e-07
timer:       Orthonormalize     0.09s     0.09s

Iteration 2 at time 12.6s

timer:        Boys localize     0.25s     0.25s
timer:      Rotate subspace     0.10s     0.10s
timer:       Make densities     0.03s     0.03s
delta rho 3.863114e-02 3.863114e-02 residuals 6.310721e-02 0.000000e+00
timer:       Nuclear energy     0.01s     0.01s
timer:              Coulomb     0.12s     0.12s
timer:        DFT potential     0.10s     0.10s
timer:                V*psi     0.24s     0.24s
timer:        Truncate Vpsi     0.29s     0.29s
timer:            PE matrix     0.02s     0.02s
timer:    KEmat reconstruct     0.01s     0.01s
timer:  KEmat differentiate     0.35s     0.35s
timer:       KEmat compress     0.04s     0.04s
timer: KEmat inner products     0.03s     0.03s
timer:            KE matrix     0.43s     0.43s
timer: Make fock matrix res     0.00s     0.00s

              kinetic     155.59509451
         nonlocal psp       0.00000000
   nuclear attraction    -633.57609996
              coulomb     209.89569681
                  PCM       0.00000000
 exchange-correlation     -23.76656446
    nuclear-repulsion     134.86081228
                total    -156.99106081

timer: Compute residual stu     0.08s     0.08s
entering apply
timer:            Apply BSH     0.90s     0.90s
timer:     Truncate new psi     0.10s     0.10s
residuals [6.078940e-04, 5.960873e-04, 5.960542e-04, 7.187388e-04, 9.756420e-03, 1.074852e-02, 1.074234e-02, 1.100261e-02, 1.075087e-02, 1.074445e-02, 1.074095e-02, 1.098704e-02, 1.100196e-02, 1.075086e-02, 9.748869e-03, 9.758095e-03, 7.384012e-03]
BSH residual: rms 9.066054e-03    max 1.100261e-02
timer:         BSH residual     0.06s     0.06s
timer: Update subspace stuf     0.16s     0.16s
Subspace solution [*]  -0.06529974  -0.33682978   1.40212952

timer:   Subspace transform     0.02s     0.02s
Norm of vector changes alpha : rms 1.011920e-02    max 1.222493e-02
ORTHOG2a: maxq trantol 7.808104e-04 5.882353e-07
timer:       Orthonormalize     0.09s     0.09s

Iteration 3 at time 16.0s

timer:        Boys localize     0.24s     0.24s
timer:      Rotate subspace     0.10s     0.10s
timer:       Make densities     0.03s     0.03s
delta rho 1.200879e-02 1.200879e-02 residuals 1.100261e-02 0.000000e+00
timer:       Nuclear energy     0.01s     0.01s
timer:              Coulomb     0.14s     0.14s
timer:        DFT potential     0.10s     0.10s
timer:                V*psi     0.24s     0.24s
timer:        Truncate Vpsi     0.29s     0.29s
timer:            PE matrix     0.02s     0.02s
timer:    KEmat reconstruct     0.01s     0.01s
timer:  KEmat differentiate     0.35s     0.35s
timer:       KEmat compress     0.04s     0.04s
timer: KEmat inner products     0.03s     0.03s
timer:            KE matrix     0.44s     0.44s
timer: Make fock matrix res     0.00s     0.00s

              kinetic     155.77747352
         nonlocal psp       0.00000000
   nuclear attraction    -634.19212255
              coulomb     210.37896391
                  PCM       0.00000000
 exchange-correlation     -23.82180973
    nuclear-repulsion     134.86081228
                total    -156.99668256

timer: Compute residual stu     0.08s     0.08s
entering apply
timer:            Apply BSH     0.89s     0.89s
timer:     Truncate new psi     0.10s     0.10s
residuals [1.461126e-04, 1.374459e-04, 1.371497e-04, 1.396144e-04, 2.399282e-03, 3.286315e-03, 3.295707e-03, 3.448252e-03, 3.287531e-03, 3.286817e-03, 3.295753e-03, 3.456757e-03, 3.448052e-03, 3.287484e-03, 2.411357e-03, 2.399883e-03, 4.112457e-03]
BSH residual: rms 2.817929e-03    max 4.112457e-03
timer:         BSH residual     0.06s     0.06s
timer: Update subspace stuf     0.21s     0.21s
Subspace solution [*]  -0.02022397   0.04392048  -0.29479070   1.27109419

timer:   Subspace transform     0.03s     0.03s
Norm of vector changes alpha : rms 3.092012e-03    max 4.565138e-03
ORTHOG2a: maxq trantol 3.421492e-04 5.882353e-07
timer:       Orthonormalize     0.09s     0.09s

Iteration 4 at time 19.5s

timer:        Boys localize     0.25s     0.25s
timer:      Rotate subspace     0.10s     0.10s
timer:       Make densities     0.03s     0.03s
delta rho 4.053501e-03 4.053501e-03 residuals 4.112457e-03 0.000000e+00
timer:       Nuclear energy     0.01s     0.01s
timer:              Coulomb     0.13s     0.13s
timer:        DFT potential     0.10s     0.10s
timer:                V*psi     0.23s     0.23s
timer:        Truncate Vpsi     0.29s     0.29s
timer:            PE matrix     0.02s     0.02s
timer:    KEmat reconstruct     0.01s     0.01s
timer:  KEmat differentiate     0.35s     0.35s
timer:       KEmat compress     0.04s     0.04s
timer: KEmat inner products     0.03s     0.03s
timer:            KE matrix     0.44s     0.44s
timer: Make fock matrix res     0.00s     0.00s

              kinetic     155.70428256
         nonlocal psp       0.00000000
   nuclear attraction    -633.98512811
              coulomb     210.23453974
                  PCM       0.00000000
 exchange-correlation     -23.81184698
    nuclear-repulsion     134.86081228
                total    -156.99734051

timer: Compute residual stu     0.07s     0.07s
entering apply
timer:            Apply BSH     0.89s     0.89s
timer:     Truncate new psi     0.11s     0.11s
residuals [8.952813e-05, 1.321320e-04, 1.313153e-04, 7.295032e-05, 1.239629e-03, 1.000706e-03, 1.000361e-03, 1.150900e-03, 9.910671e-04, 1.001029e-03, 9.997713e-04, 1.156910e-03, 1.150471e-03, 9.906221e-04, 1.249657e-03, 1.240154e-03, 1.890684e-03]
BSH residual: rms 1.035059e-03    max 1.890684e-03
timer:         BSH residual     0.06s     0.06s
timer: Update subspace stuf     0.25s     0.25s
Subspace solution [*]   0.00818769   0.03978312  -0.16273644  -0.18911863   1.30388426

timer:   Subspace transform     0.03s     0.03s
Norm of vector changes alpha : rms 1.657851e-03    max 2.860219e-03
ORTHOG2a: maxq trantol 1.965467e-04 5.882353e-07
timer:       Orthonormalize     0.09s     0.09s

Iteration 5 at time 23.0s

timer:        Boys localize     0.25s     0.25s
timer:      Rotate subspace     0.09s     0.09s
timer:       Make densities     0.03s     0.03s
delta rho 1.432398e-03 1.432398e-03 residuals 1.890684e-03 0.000000e+00
timer:       Nuclear energy     0.01s     0.01s
timer:              Coulomb     0.12s     0.12s
timer:        DFT potential     0.10s     0.10s
timer:                V*psi     0.23s     0.23s
timer:        Truncate Vpsi     0.30s     0.30s
timer:            PE matrix     0.02s     0.02s
timer:    KEmat reconstruct     0.01s     0.01s
timer:  KEmat differentiate     0.35s     0.35s
timer:       KEmat compress     0.04s     0.04s
timer: KEmat inner products     0.03s     0.03s
timer:            KE matrix     0.43s     0.43s
timer: Make fock matrix res     0.00s     0.00s

              kinetic     155.69437413
         nonlocal psp       0.00000000
   nuclear attraction    -633.93205046
              coulomb     210.18890562
                  PCM       0.00000000
 exchange-correlation     -23.80950574
    nuclear-repulsion     134.86081228
                total    -156.99746417

timer: Compute residual stu     0.07s     0.07s
entering apply
timer:            Apply BSH     0.89s     0.89s
timer:     Truncate new psi     0.10s     0.10s
residuals [1.338855e-04, 1.740032e-04, 1.734200e-04, 6.963260e-05, 7.988875e-04, 6.259962e-04, 6.104621e-04, 6.067925e-04, 6.089226e-04, 6.259480e-04, 6.100743e-04, 6.092964e-04, 6.067175e-04, 6.087958e-04, 8.047771e-04, 7.990903e-04, 8.711735e-04]
BSH residual: rms 6.011754e-04    max 8.711735e-04
timer:         BSH residual     0.06s     0.06s
timer: Update subspace stuf     0.25s     0.25s
Subspace solution [*]  -0.02947051   0.09493148  -0.23911771  -0.06808195   1.24173869

timer:   Subspace transform     0.04s     0.04s
Norm of vector changes alpha : rms 8.566781e-04    max 1.379114e-03
ORTHOG2a: maxq trantol 8.071387e-05 5.882353e-07
timer:       Orthonormalize     0.09s     0.09s

Iteration 6 at time 26.6s

timer:        Boys localize     0.24s     0.24s
timer:      Rotate subspace     0.09s     0.09s
timer:       Make densities     0.03s     0.03s
delta rho 6.635199e-04 6.635199e-04 residuals 8.711735e-04 0.000000e+00
timer:       Nuclear energy     0.01s     0.01s
timer:              Coulomb     0.13s     0.13s
timer:        DFT potential     0.10s     0.10s
timer:                V*psi     0.23s     0.23s
timer:        Truncate Vpsi     0.28s     0.28s
timer:            PE matrix     0.02s     0.02s
timer:    KEmat reconstruct     0.01s     0.01s
timer:  KEmat differentiate     0.35s     0.35s
timer:       KEmat compress     0.04s     0.04s
timer: KEmat inner products     0.03s     0.03s
timer:            KE matrix     0.43s     0.43s
timer: Make fock matrix res     0.00s     0.00s

              kinetic     155.70936093
         nonlocal psp       0.00000000
   nuclear attraction    -633.95891312
              coulomb     210.20275946
                  PCM       0.00000000
 exchange-correlation     -23.81155578
    nuclear-repulsion     134.86081228
                total    -156.99753623

timer: Compute residual stu     0.07s     0.07s
entering apply
timer:            Apply BSH     0.88s     0.88s
timer:     Truncate new psi     0.10s     0.10s
residuals [1.999774e-04, 9.971564e-05, 9.938986e-05, 6.303273e-05, 3.901048e-04, 2.789955e-04, 2.993343e-04, 3.459249e-04, 2.790354e-04, 2.790576e-04, 2.990901e-04, 3.593531e-04, 3.458925e-04, 2.790355e-04, 4.000436e-04, 3.905758e-04, 4.837984e-04]
BSH residual: rms 3.088443e-04    max 4.837984e-04
timer:         BSH residual     0.06s     0.06s
timer: Update subspace stuf     0.25s     0.25s
Subspace solution [*]   0.01914537   0.04725216  -0.30837969  -0.05308383   1.29506599

timer:   Subspace transform     0.04s     0.04s
Norm of vector changes alpha : rms 4.523729e-04    max 8.583194e-04
ORTHOG2a: maxq trantol 6.964121e-05 5.882353e-07
timer:       Orthonormalize     0.09s     0.09s

Iteration 7 at time 30.1s

timer:        Boys localize     0.26s     0.26s
timer:      Rotate subspace     0.10s     0.10s
timer:       Make densities     0.03s     0.03s
delta rho 3.676289e-04 3.676289e-04 residuals 4.837984e-04 0.000000e+00
timer:       Nuclear energy     0.01s     0.01s
timer:              Coulomb     0.14s     0.14s
timer:        DFT potential     0.10s     0.10s
timer:                V*psi     0.23s     0.23s
timer:        Truncate Vpsi     0.28s     0.28s
timer:            PE matrix     0.02s     0.02s
timer:    KEmat reconstruct     0.01s     0.01s
timer:  KEmat differentiate     0.36s     0.36s
timer:       KEmat compress     0.04s     0.04s
timer: KEmat inner products     0.03s     0.03s
timer:            KE matrix     0.44s     0.44s
timer: Make fock matrix res     0.00s     0.00s

              kinetic     155.70902756
         nonlocal psp       0.00000000
   nuclear attraction    -633.95157890
              coulomb     210.19500779
                  PCM       0.00000000
 exchange-correlation     -23.81082230
    nuclear-repulsion     134.86081228
                total    -156.99755357


Converged!

timer:              Overlap     0.02s     0.02s
timer:      focka eigen sol     0.00s     0.00s
 
alpha eigenvalues
[*]  -9.78561661  -9.76530367  -9.76517495  -9.76513834  -0.72831098  -0.61198312  -0.61194713  -0.49933881  -0.41905927  -0.38801486  -0.38800709  -0.33903448  -0.33902707  -0.31717407  -0.29011586  -0.29009978  -0.28020195


 Dipole Moment (a.u.)
 -----------

     x:  -6.084642e-02
     y:  1.515283e-04
     z:  2.004675e-06
 Total Dipole Moment:  6.084661e-02 

timer:               dipole     0.00s     0.00s
Orbitals are localized - energies are diagonal Fock matrix elements

Analysis of alpha MO vectors
timer:      Analyze vectors     0.40s     0.40s
timer: Compute eigen gesv a     0.00s     0.00s
  MO   0 : occ=1.00 : energy=  -9.76520157 : center=(0.18,2.74,0.00) : radius=0.32
            C( 1)   s(  9)-0.994  
  MO   1 : occ=1.00 : energy=  -9.76516328 : center=(0.18,-1.37,-2.37) : radius=0.32
            C( 3)   s( 27) 0.994  
  MO   2 : occ=1.00 : energy=  -9.76516363 : center=(0.18,-1.37,2.37) : radius=0.32
            C( 2)   s( 18)-0.994  
  MO   3 : occ=1.00 : energy=  -9.78546448 : center=(-0.71,-0.00,-0.00) : radius=0.32
            C( 0)   s(  0)-0.995  
  MO   4 : occ=1.00 : energy=  -0.44964463 : center=(-0.25,-0.69,1.20) : radius=1.66
            C( 0)  pz(  4)-0.302     C( 2)  pz( 22) 0.301     C( 2)   s( 23)-0.212     C( 2)   s( 19)-0.183     C( 0)   s(  1)-0.183     C( 0)   s(  5)-0.178     C( 0)  py(  3) 0.174     C( 2)  py( 21)-0.174  
  MO   5 : occ=1.00 : energy=  -0.41555746 : center=(-0.27,-0.74,-3.50) : radius=1.63
            C( 3)  pz( 31) 0.318     H(13)   s( 54)-0.307     H(13)   s( 55)-0.249     C( 3)   s( 28)-0.188     C( 3)  py( 30)-0.183     C( 3)   s( 32)-0.179     C( 3)  pz( 35) 0.156  
  MO   6 : occ=1.00 : energy=  -0.41554665 : center=(-0.27,3.40,1.11) : radius=1.63
            C( 1)  pz( 13) 0.318     H( 7)   s( 42) 0.307     H( 7)   s( 43) 0.249     C( 1)   s( 10) 0.187     C( 1)  py( 12) 0.184     C( 1)   s( 14) 0.179     C( 1)  pz( 17) 0.157  
  MO   7 : occ=1.00 : energy=  -0.41476470 : center=(1.56,-1.39,2.41) : radius=1.64
            C( 2)  px( 20) 0.389     H( 8)   s( 44) 0.305     H( 8)   s( 45) 0.251     C( 2)   s( 23) 0.199     C( 2)  px( 24) 0.189     C( 2)   s( 19) 0.183  
  MO   8 : occ=1.00 : energy=  -0.41555090 : center=(-0.27,-2.66,2.39) : radius=1.63
            C( 2)  py( 21) 0.367     H(10)   s( 48)-0.307     H(10)   s( 49)-0.249     C( 2)   s( 19)-0.187     C( 2)  py( 25) 0.181     C( 2)   s( 23)-0.179  
  MO   9 : occ=1.00 : energy=  -0.41555760 : center=(-0.27,-0.74,3.50) : radius=1.63
            C( 2)  pz( 22) 0.318     H( 9)   s( 46) 0.307     H( 9)   s( 47) 0.249     C( 2)   s( 19) 0.188     C( 2)  py( 21) 0.183     C( 2)   s( 23) 0.179     C( 2)  pz( 26) 0.156  
  MO  10 : occ=1.00 : energy=  -0.41554594 : center=(-0.27,3.40,-1.11) : radius=1.63
            C( 1)  pz( 13)-0.318     H( 6)   s( 40) 0.307     H( 6)   s( 41) 0.249     C( 1)   s( 10) 0.187     C( 1)  py( 12) 0.184     C( 1)   s( 14) 0.179     C( 1)  pz( 17)-0.157  
  MO  11 : occ=1.00 : energy=  -0.41476114 : center=(1.56,2.78,0.00) : radius=1.64
            C( 1)  px( 11) 0.389     H( 5)   s( 38) 0.305     H( 5)   s( 39) 0.251     C( 1)   s( 14) 0.199     C( 1)  px( 15) 0.189     C( 1)   s( 10) 0.183  
  MO  12 : occ=1.00 : energy=  -0.41476468 : center=(1.56,-1.39,-2.41) : radius=1.64
            C( 3)  px( 29) 0.389     H(11)   s( 50) 0.305     H(11)   s( 51) 0.251     C( 3)   s( 32) 0.199     C( 3)  px( 33) 0.189     C( 3)   s( 28) 0.183  
  MO  13 : occ=1.00 : energy=  -0.41555077 : center=(-0.27,-2.66,-2.39) : radius=1.63
            C( 3)  py( 30) 0.367     H(12)   s( 52)-0.307     H(12)   s( 53)-0.249     C( 3)   s( 28)-0.187     C( 3)  py( 34) 0.181     C( 3)   s( 32)-0.179  
  MO  14 : occ=1.00 : energy=  -0.44963813 : center=(-0.25,1.38,-0.00) : radius=1.66
            C( 0)  py(  3)-0.349     C( 1)  py( 12) 0.347     C( 1)   s( 14)-0.212     C( 1)   s( 10)-0.183     C( 0)   s(  1)-0.183     C( 0)   s(  5)-0.178     C( 1)  py( 16) 0.167     C( 0)  py(  7)-0.158  
  MO  15 : occ=1.00 : energy=  -0.44964430 : center=(-0.25,-0.69,-1.20) : radius=1.66
            C( 0)  pz(  4) 0.302     C( 3)  pz( 31)-0.301     C( 3)   s( 32)-0.212     C( 3)   s( 28)-0.183     C( 0)   s(  1)-0.183     C( 0)   s(  5)-0.178     C( 0)  py(  3) 0.174     C( 3)  py( 30)-0.174  
  MO  16 : occ=1.00 : energy=  -0.41602873 : center=(-2.09,-0.00,0.00) : radius=1.65
            C( 0)  px(  2)-0.396     H( 4)   s( 36) 0.308     H( 4)   s( 37) 0.256     C( 0)   s(  5) 0.214     C( 0)  px(  6)-0.181     C( 0)   s(  1) 0.180  

Solving NDIM= 3  with thresh 1.000000e-06     k 8    conv 1.000000e-04 

timer:     Project vnuclear     1.23s     1.23s
timer:     project ao basis     0.70s     0.70s

Iteration 0 at time 34.8s

timer:        Boys localize     0.27s     0.27s
timer:      Rotate subspace     0.10s     0.10s
timer:       Make densities     0.03s     0.03s
timer:       Load balancing     0.00s     0.00s
timer:       Nuclear energy     0.04s     0.04s
timer:              Coulomb     0.43s     0.43s
timer:        DFT potential     0.12s     0.12s
timer:                V*psi     0.76s     0.76s
timer:        Truncate Vpsi     1.11s     1.11s
timer:            PE matrix     0.05s     0.05s
timer:    KEmat reconstruct     0.01s     0.01s
timer:  KEmat differentiate     0.35s     0.35s
timer:       KEmat compress     0.06s     0.06s
timer: KEmat inner products     0.04s     0.04s
timer:            KE matrix     0.47s     0.47s
timer: Make fock matrix res     0.00s     0.00s

              kinetic     155.71015676
         nonlocal psp       0.00000000
   nuclear attraction    -633.95157401
              coulomb     210.19448815
                  PCM       0.00000000
 exchange-correlation     -23.81081917
    nuclear-repulsion     134.86081228
                total    -156.99693598

timer: Compute residual stu     0.30s     0.30s
entering apply
timer:            Apply BSH     6.65s     6.65s
timer:     Truncate new psi     0.40s     0.40s
residuals [3.044540e-04, 2.969755e-04, 2.966634e-04, 2.380138e-04, 5.005610e-04, 3.634686e-04, 4.345269e-04, 4.639458e-04, 3.917968e-04, 3.634347e-04, 4.345276e-04, 4.946157e-04, 4.640169e-04, 3.917419e-04, 4.409008e-04, 5.006093e-04, 4.325940e-04]
BSH residual: rms 4.081694e-04    max 5.006093e-04
timer:         BSH residual     0.17s     0.17s
timer: Update subspace stuf     0.06s     0.06s
Subspace solution [*]   1.00000000

timer:   Subspace transform     0.02s     0.02s
Norm of vector changes alpha : rms 4.081694e-04    max 5.006093e-04
ORTHOG2a: maxq trantol 7.510615e-05 5.882353e-09
timer:       Orthonormalize     0.21s     0.21s

Iteration 1 at time 46.7s

timer:        Boys localize     0.55s     0.55s
timer:      Rotate subspace     0.22s     0.22s
timer:       Make densities     0.10s     0.10s
timer:       Load balancing     0.00s     0.00s
delta rho 5.842611e-04 5.842611e-04 residuals 5.006093e-04 0.000000e+00
timer:       Nuclear energy     0.04s     0.04s
timer:              Coulomb     0.72s     0.72s
timer:        DFT potential     0.27s     0.27s
timer:                V*psi     0.54s     0.54s
timer:        Truncate Vpsi     0.59s     0.59s
timer:            PE matrix     0.05s     0.05s
timer:    KEmat reconstruct     0.02s     0.02s
timer:  KEmat differentiate     0.80s     0.80s
timer:       KEmat compress     0.13s     0.13s
timer: KEmat inner products     0.07s     0.07s
timer:            KE matrix     1.02s     1.02s
timer: Make fock matrix res     0.00s     0.00s

              kinetic     155.71341642
         nonlocal psp       0.00000000
   nuclear attraction    -633.95743394
              coulomb     210.19405537
                  PCM       0.00000000
 exchange-correlation     -23.81100619
    nuclear-repulsion     134.86081228
                total    -157.00015605

timer: Compute residual stu     0.21s     0.21s
entering apply
timer:            Apply BSH     7.46s     7.46s
timer:     Truncate new psi     0.41s     0.41s
residuals [4.174456e-05, 3.780073e-05, 3.777928e-05, 2.267305e-05, 1.280656e-04, 9.613612e-05, 1.157718e-04, 1.063711e-04, 1.018067e-04, 9.610330e-05, 1.157767e-04, 1.220028e-04, 1.063578e-04, 1.017300e-04, 1.256112e-04, 1.280654e-04, 1.658972e-04]
BSH residual: rms 1.042409e-04    max 1.658972e-04
timer:         BSH residual     0.19s     0.19s
timer: Update subspace stuf     0.20s     0.20s
Subspace solution [*]  -0.04354812   1.04354812

timer:   Subspace transform     0.05s     0.05s
Norm of vector changes alpha : rms 1.096086e-04    max 1.731367e-04
ORTHOG2a: maxq trantol 1.993541e-05 5.882353e-09
timer:       Orthonormalize     0.22s     0.22s

Iteration 2 at time 60.6s

timer:        Boys localize     0.56s     0.56s
timer:      Rotate subspace     0.19s     0.19s
timer:       Make densities     0.09s     0.09s
delta rho 1.233377e-04 1.233377e-04 residuals 1.658972e-04 0.000000e+00
timer:       Nuclear energy     0.04s     0.04s
timer:              Coulomb     0.67s     0.67s
timer:        DFT potential     0.25s     0.25s
timer:                V*psi     0.51s     0.51s
timer:        Truncate Vpsi     0.53s     0.53s
timer:            PE matrix     0.04s     0.04s
timer:    KEmat reconstruct     0.02s     0.02s
timer:  KEmat differentiate     0.78s     0.78s
timer:       KEmat compress     0.13s     0.13s
timer: KEmat inner products     0.07s     0.07s
timer:            KE matrix     1.00s     1.00s
timer: Make fock matrix res     0.00s     0.00s

              kinetic     155.71802137
         nonlocal psp       0.00000000
   nuclear attraction    -633.96539635
              coulomb     210.19788041
                  PCM       0.00000000
 exchange-correlation     -23.81147847
    nuclear-repulsion     134.86081228
                total    -157.00016075


Converged!

timer:              Overlap     0.05s     0.05s
timer:      focka eigen sol     0.00s     0.00s
 
alpha eigenvalues
[*]  -9.78546543  -9.76505208  -9.76504681  -9.76502973  -0.72851316  -0.61203986  -0.61203767  -0.49936166  -0.41913253  -0.38802511  -0.38802438  -0.33903831  -0.33903702  -0.31719342  -0.29013418  -0.29013264  -0.28024354


 Dipole Moment (a.u.)
 -----------

     x:  -6.083193e-02
     y:  9.959945e-05
     z:  1.693666e-06
 Total Dipole Moment:  6.083201e-02 

timer:               dipole     0.00s     0.00s
Orbitals are localized - energies are diagonal Fock matrix elements

Analysis of alpha MO vectors
timer:      Analyze vectors     0.87s     0.87s
timer: Compute eigen gesv a     0.00s     0.00s
  MO   0 : occ=1.00 : energy=  -9.76500307 : center=(0.18,2.74,0.00) : radius=0.32
            C( 1)   s(  9)-0.994  
  MO   1 : occ=1.00 : energy=  -9.76501966 : center=(0.18,-1.37,-2.37) : radius=0.32
            C( 3)   s( 27) 0.994  
  MO   2 : occ=1.00 : energy=  -9.76501989 : center=(0.18,-1.37,2.37) : radius=0.32
            C( 2)   s( 18)-0.994  
  MO   3 : occ=1.00 : energy=  -9.78530968 : center=(-0.71,-0.00,-0.00) : radius=0.32
            C( 0)   s(  0)-0.995  
  MO   4 : occ=1.00 : energy=  -0.44967136 : center=(-0.25,-0.69,1.20) : radius=1.66
            C( 0)  pz(  4)-0.302     C( 2)  pz( 22) 0.301     C( 2)   s( 23)-0.212     C( 2)   s( 19)-0.183     C( 0)   s(  1)-0.183     C( 0)   s(  5)-0.178     C( 0)  py(  3) 0.174     C( 2)  py( 21)-0.174  
  MO   5 : occ=1.00 : energy=  -0.41560284 : center=(-0.27,-0.74,-3.50) : radius=1.63
            C( 3)  pz( 31) 0.318     H(13)   s( 54)-0.307     H(13)   s( 55)-0.249     C( 3)   s( 28)-0.188     C( 3)  py( 30)-0.183     C( 3)   s( 32)-0.179     C( 3)  pz( 35) 0.156  
  MO   6 : occ=1.00 : energy=  -0.41559872 : center=(-0.27,3.40,1.11) : radius=1.63
            C( 1)  pz( 13) 0.318     H( 7)   s( 42) 0.307     H( 7)   s( 43) 0.249     C( 1)   s( 10) 0.188     C( 1)  py( 12) 0.184     C( 1)   s( 14) 0.179     C( 1)  pz( 17) 0.157  
  MO   7 : occ=1.00 : energy=  -0.41482707 : center=(1.56,-1.39,2.41) : radius=1.64
            C( 2)  px( 20) 0.389     H( 8)   s( 44) 0.305     H( 8)   s( 45) 0.251     C( 2)   s( 23) 0.199     C( 2)  px( 24) 0.189     C( 2)   s( 19) 0.183  
  MO   8 : occ=1.00 : energy=  -0.41559971 : center=(-0.27,-2.66,2.39) : radius=1.63
            C( 2)  py( 21) 0.367     H(10)   s( 48)-0.307     H(10)   s( 49)-0.249     C( 2)   s( 19)-0.188     C( 2)  py( 25) 0.181     C( 2)   s( 23)-0.179  
  MO   9 : occ=1.00 : energy=  -0.41560297 : center=(-0.27,-0.74,3.50) : radius=1.63
            C( 2)  pz( 22) 0.318     H( 9)   s( 46) 0.307     H( 9)   s( 47) 0.249     C( 2)   s( 19) 0.188     C( 2)  py( 21) 0.183     C( 2)   s( 23) 0.179     C( 2)  pz( 26) 0.156  
  MO  10 : occ=1.00 : energy=  -0.41559838 : center=(-0.27,3.40,-1.11) : radius=1.63
            C( 1)  pz( 13)-0.318     H( 6)   s( 40) 0.307     H( 6)   s( 41) 0.249     C( 1)   s( 10) 0.188     C( 1)  py( 12) 0.184     C( 1)   s( 14) 0.179     C( 1)  pz( 17)-0.157  
  MO  11 : occ=1.00 : energy=  -0.41482500 : center=(1.56,2.78,0.00) : radius=1.64
            C( 1)  px( 11) 0.389     H( 5)   s( 38) 0.305     H( 5)   s( 39) 0.251     C( 1)   s( 14) 0.199     C( 1)  px( 15) 0.189     C( 1)   s( 10) 0.183  
  MO  12 : occ=1.00 : energy=  -0.41482719 : center=(1.56,-1.39,-2.41) : radius=1.64
            C( 3)  px( 29) 0.389     H(11)   s( 50) 0.305     H(11)   s( 51) 0.251     C( 3)   s( 32) 0.199     C( 3)  px( 33) 0.189     C( 3)   s( 28) 0.183  
  MO  13 : occ=1.00 : energy=  -0.41559956 : center=(-0.27,-2.66,-2.39) : radius=1.63
            C( 3)  py( 30) 0.367     H(12)   s( 52)-0.307     H(12)   s( 53)-0.249     C( 3)   s( 28)-0.188     C( 3)  py( 34) 0.181     C( 3)   s( 32)-0.179  
  MO  14 : occ=1.00 : energy=  -0.44966816 : center=(-0.25,1.38,-0.00) : radius=1.66
            C( 0)  py(  3)-0.349     C( 1)  py( 12) 0.347     C( 1)   s( 14)-0.212     C( 1)   s( 10)-0.183     C( 0)   s(  1)-0.183     C( 0)   s(  5)-0.178     C( 1)  py( 16) 0.167     C( 0)  py(  7)-0.159  
  MO  15 : occ=1.00 : energy=  -0.44967107 : center=(-0.25,-0.69,-1.20) : radius=1.66
            C( 0)  pz(  4) 0.302     C( 3)  pz( 31)-0.301     C( 3)   s( 32)-0.212     C( 3)   s( 28)-0.183     C( 0)   s(  1)-0.183     C( 0)   s(  5)-0.178     C( 0)  py(  3) 0.174     C( 3)  py( 30)-0.174  
  MO  16 : occ=1.00 : energy=  -0.41606321 : center=(-2.09,-0.00,0.00) : radius=1.65
            C( 0)  px(  2)-0.396     H( 4)   s( 36) 0.308     H( 4)   s( 37) 0.256     C( 0)   s(  5) 0.213     C( 0)  px(  6)-0.181     C( 0)   s(  1) 0.180  
timer:             plotting     0.00s     0.00s

    Parallel environment
    --------------------
                  #nodes    1
       #threads per node    27+main = 28
          #total threads    28

  RMI message statistics (min / avg / max)
  ----------------------
   #messages in server q    0.00e+00 / 0.00e+00 / 0.00e+00
 #messages sent per node    0.00e+00 / 0.00e+00 / 0.00e+00
    #bytes sent per node    0.00e+00 / 0.00e+00 / 0.00e+00
 #messages recv per node    0.00e+00 / 0.00e+00 / 0.00e+00
    #bytes recv per node    0.00e+00 / 0.00e+00 / 0.00e+00
        #msgs systemwide    0.00e+00
       #bytes systemwide    0.00e+00

  Thread pool statistics (min / avg / max)
  ----------------------
         #tasks per node    0.00e+00 / 0.00e+00 / 0.00e+00
     #max q len per node    0.00e+00 / 0.00e+00 / 0.00e+00
  #hi-pri tasks per node    0.00e+00 / 0.00e+00 / 0.00e+00

         Total wall time    66.7s
         Total  cpu time    66.7s

