MADNESS runtime initialized with 27 threads in the pool and affinity -1 -1 -1

--------------------------------------------
   MADNESS 0.10.1 multiresolution suite
--------------------------------------------

   number of processors ... 1
    processor frequency ... 1.995369e+09
            host system ... linux-gnu
          configured by ... egentles
          configured on ... sn093
          configured at ... Tue Jul 11 16:06:48 EDT 2017
                    CXX ... mpicxx
               CXXFLAGS ... -g -std=c++14 -O3 -Wall -Wno-strict-aliasing -Wno-deprecated -Wno-unused-local-typedefs  -ffast-math -march=native
             tuning for ... default
                    MPI ... multiple
 multi-threaded runtime ... Intel TBB
                   BLAS ... Intel MKL 14272 14272 MFLOP/s
               compiled ... 08:44:05  on  Jul 29 2017
input filename:  /gpfs/home/egentles/auto_test_mad/geometries_LDA_boys/lithium_hydride.mdns

Angstrom being used to read input coordinates (1 Bohr = 1.88972613 Angstrom)

XY degenerate

 The point group is C2v

Construct XC Functional from LIBXC Library

input line was:  LDA
 1.000 lda_x 
 1.000 lda_c_vwn 

screening parameters
 rhotol, rhomin 1.000000e-07 0.000000e+00
         ggatol 1.000000e-04
polarized  false 


Solving NDIM= 3  with thresh 1.000000e-05     k 8    conv 1.000000e-04 




 MADNESS Hartree-Fock and Density Functional Theory Program
 ----------------------------------------------------------



 geometry
   eprec 1.0e-04
   units atomic
   H             0.00000000           0.00000000          -2.26341948
   Li            0.00000000           0.00000000           0.75447316
 end


             restart  false
    restart from AOs  false
 number of processes  1
   no. of io servers  1
   vnuc load bal fac  12
      load bal parts  2
     simulation cube  -5.226342e+01 5.226342e+01
        total charge  0.000000e+00
            smearing  0.000000e+00
 number of electrons  2 2
  number of orbitals  2 2
     spin restricted  true
       xc functional   LDA
          xc library  libxc
 initial guess basis  6-31g
 max krylov subspace  5
    compute protocol  [1.000000e-04, 1.000000e-06]
  energy convergence  1.000000e-05
 density convergence  1.000000e-04
    maximum rotation  2.500000e-01
    polynomial order  -1
       truncate mode  1
  maximum iterations  20
 Convergence criteria are density delta & BSH residual.
        plot density  false
        plot coulomb  false
        plot orbital  0 -1
        plot npoints  101
        plot  volume  default
  canonical orbitals 
 psp or all electron  all electron
timer:           initialize     0.42s     0.42s

Solving NDIM= 3  with thresh 1.000000e-04     k 6    conv 1.000000e-04 


Solving NDIM= 3  with thresh 1.000000e-04     k 6    conv 1.000000e-04 

timer:     Project vnuclear     0.04s     0.04s
timer:     project ao basis     0.10s     0.10s
guess dens trace 4.000005e+00
timer:        guess density     0.04s     0.04s
timer:   guess Coulomb potn     0.13s     0.13s
timer:       guess lda potn     0.04s     0.04s
timer:        guess overlap     0.01s     0.01s
timer:    KEmat reconstruct     0.00s     0.00s
timer:  KEmat differentiate     0.11s     0.11s
timer:       KEmat compress     0.02s     0.02s
timer: KEmat inner products     0.03s     0.03s
timer:     guess Kinet potn     0.17s     0.17s
timer:           guess fock     0.07s     0.07s
timer:      guess eigen sol     0.00s     0.00s
grouping alpha orbitals into sets
set  0    0  -  0
set  1    1  -  1
timer: guess orbital groupi     0.01s     0.01s
timer:     project ao basis     0.08s     0.08s

Iteration 0 at time 1.3s

timer:       Make densities     0.00s     0.00s
timer:       Load balancing     0.00s     0.00s
timer:       Nuclear energy     0.00s     0.00s
timer:              Coulomb     0.06s     0.06s
timer:        DFT potential     0.02s     0.02s
timer:                V*psi     0.01s     0.01s
timer:        Truncate Vpsi     0.01s     0.01s
timer:            PE matrix     0.01s     0.01s
timer:    KEmat reconstruct     0.00s     0.00s
timer:  KEmat differentiate     0.03s     0.03s
timer:       KEmat compress     0.00s     0.00s
timer: KEmat inner products     0.02s     0.02s
timer:            KE matrix     0.06s     0.06s
timer: Make fock matrix res     0.00s     0.00s
timer: Diagonalization Fock     0.00s     0.00s
timer: Diagonalization rest     0.01s     0.01s

              kinetic       8.13670662
         nonlocal psp       0.00000000
   nuclear attraction     -20.62222364
              coulomb       5.74874833
                  PCM       0.00000000
 exchange-correlation      -2.13570822
    nuclear-repulsion       0.99407115
                total      -7.87840576

timer: Compute residual stu     0.00s     0.00s
entering apply
timer:            Apply BSH     0.06s     0.06s
timer:     Truncate new psi     0.01s     0.01s
residuals [1.888950e-02, 4.679356e-01]
BSH residual: rms 3.311499e-01    max 4.679356e-01
timer:         BSH residual     0.01s     0.01s
timer: Update subspace stuf     0.00s     0.00s
Subspace solution [*]   1.00000000

timer:   Subspace transform     0.00s     0.00s
  restricting step for alpha orbitals: 1
Norm of vector changes alpha : rms 3.311499e-01    max 4.679356e-01
ORTHOG2a: maxq trantol 1.513924e-02 5.000000e-06
ORTHOG2a: maxq trantol 3.599067e-06 5.000000e-06
timer:       Orthonormalize     0.02s     0.02s

Iteration 1 at time 1.6s

timer:       Make densities     0.00s     0.00s
timer:       Load balancing     0.00s     0.00s
delta rho 4.062653e-02 4.062653e-02 residuals 4.679356e-01 0.000000e+00
timer:       Nuclear energy     0.00s     0.00s
timer:              Coulomb     0.05s     0.05s
timer:        DFT potential     0.02s     0.02s
timer:                V*psi     0.01s     0.01s
timer:        Truncate Vpsi     0.01s     0.01s
timer:            PE matrix     0.01s     0.01s
timer:    KEmat reconstruct     0.00s     0.00s
timer:  KEmat differentiate     0.03s     0.03s
timer:       KEmat compress     0.00s     0.00s
timer: KEmat inner products     0.02s     0.02s
timer:            KE matrix     0.05s     0.05s
timer: Make fock matrix res     0.00s     0.00s
timer: Diagonalization Fock     0.00s     0.00s
timer: Diagonalization rest     0.01s     0.01s

              kinetic       7.81646620
         nonlocal psp       0.00000000
   nuclear attraction     -20.18397763
              coulomb       5.49529283
                  PCM       0.00000000
 exchange-correlation      -2.03607027
    nuclear-repulsion       0.99407115
                total      -7.91421772

timer: Compute residual stu     0.00s     0.00s
entering apply
timer:            Apply BSH     0.05s     0.05s
timer:     Truncate new psi     0.01s     0.01s
residuals [2.540492e-03, 5.366558e-02]
BSH residual: rms 3.798979e-02    max 5.366558e-02
timer:         BSH residual     0.00s     0.00s
timer: Update subspace stuf     0.01s     0.01s
Subspace solution [*]   0.01354844   0.98645156

timer:   Subspace transform     0.00s     0.00s
Norm of vector changes alpha : rms 3.759763e-02    max 5.311012e-02
ORTHOG2a: maxq trantol 4.233797e-03 5.000000e-06
timer:       Orthonormalize     0.01s     0.01s

Iteration 2 at time 2.0s

timer:       Make densities     0.00s     0.00s
delta rho 7.312720e-03 7.312720e-03 residuals 5.366558e-02 0.000000e+00
timer:       Nuclear energy     0.00s     0.00s
timer:              Coulomb     0.05s     0.05s
timer:        DFT potential     0.02s     0.02s
timer:                V*psi     0.01s     0.01s
timer:        Truncate Vpsi     0.01s     0.01s
timer:            PE matrix     0.01s     0.01s
timer:    KEmat reconstruct     0.00s     0.00s
timer:  KEmat differentiate     0.03s     0.03s
timer:       KEmat compress     0.00s     0.00s
timer: KEmat inner products     0.02s     0.02s
timer:            KE matrix     0.05s     0.05s
timer: Make fock matrix res     0.00s     0.00s
timer: Diagonalization Fock     0.00s     0.00s
timer: Diagonalization rest     0.01s     0.01s

              kinetic       7.80615877
         nonlocal psp       0.00000000
   nuclear attraction     -20.21285367
              coulomb       5.53048681
                  PCM       0.00000000
 exchange-correlation      -2.03658999
    nuclear-repulsion       0.99407115
                total      -7.91872693

timer: Compute residual stu     0.00s     0.00s
entering apply
timer:            Apply BSH     0.05s     0.05s
timer:     Truncate new psi     0.01s     0.01s
residuals [1.160728e-03, 1.394882e-02]
BSH residual: rms 9.897396e-03    max 1.394882e-02
timer:         BSH residual     0.00s     0.00s
timer: Update subspace stuf     0.01s     0.01s
Subspace solution [*]   0.00007017  -0.31352165   1.31345148

timer:   Subspace transform     0.00s     0.00s
Norm of vector changes alpha : rms 1.272857e-02    max 1.794613e-02
ORTHOG2a: maxq trantol 3.461492e-04 5.000000e-06
timer:       Orthonormalize     0.01s     0.01s

Iteration 3 at time 2.3s

timer:       Make densities     0.00s     0.00s
delta rho 2.888373e-03 2.888373e-03 residuals 1.394882e-02 0.000000e+00
timer:       Nuclear energy     0.00s     0.00s
timer:              Coulomb     0.06s     0.06s
timer:        DFT potential     0.02s     0.02s
timer:                V*psi     0.01s     0.01s
timer:        Truncate Vpsi     0.01s     0.01s
timer:            PE matrix     0.01s     0.01s
timer:    KEmat reconstruct     0.00s     0.00s
timer:  KEmat differentiate     0.03s     0.03s
timer:       KEmat compress     0.00s     0.00s
timer: KEmat inner products     0.02s     0.02s
timer:            KE matrix     0.05s     0.05s
timer: Make fock matrix res     0.00s     0.00s
timer: Diagonalization Fock     0.00s     0.00s
timer: Diagonalization rest     0.01s     0.01s

              kinetic       7.79592616
         nonlocal psp       0.00000000
   nuclear attraction     -20.21419222
              coulomb       5.54082787
                  PCM       0.00000000
 exchange-correlation      -2.03596542
    nuclear-repulsion       0.99407115
                total      -7.91933245

timer: Compute residual stu     0.00s     0.00s
entering apply
timer:            Apply BSH     0.05s     0.05s
timer:     Truncate new psi     0.01s     0.01s
residuals [2.288332e-04, 2.636185e-03]
BSH residual: rms 1.871074e-03    max 2.636185e-03
timer:         BSH residual     0.00s     0.00s
timer: Update subspace stuf     0.02s     0.02s
Subspace solution [*]  -0.00034906   0.09181636  -0.47281628   1.38134898

timer:   Subspace transform     0.00s     0.00s
Norm of vector changes alpha : rms 2.741600e-03    max 3.865392e-03
ORTHOG2a: maxq trantol 1.337777e-04 5.000000e-06
timer:       Orthonormalize     0.01s     0.01s

Iteration 4 at time 2.6s

timer:       Make densities     0.00s     0.00s
delta rho 7.115512e-04 7.115512e-04 residuals 2.636185e-03 0.000000e+00
timer:       Nuclear energy     0.00s     0.00s
timer:              Coulomb     0.05s     0.05s
timer:        DFT potential     0.02s     0.02s
timer:                V*psi     0.01s     0.01s
timer:        Truncate Vpsi     0.01s     0.01s
timer:            PE matrix     0.01s     0.01s
timer:    KEmat reconstruct     0.00s     0.00s
timer:  KEmat differentiate     0.03s     0.03s
timer:       KEmat compress     0.00s     0.00s
timer: KEmat inner products     0.02s     0.02s
timer:            KE matrix     0.05s     0.05s
timer: Make fock matrix res     0.00s     0.00s
timer: Diagonalization Fock     0.00s     0.00s
timer: Diagonalization rest     0.01s     0.01s

              kinetic       7.79222703
         nonlocal psp       0.00000000
   nuclear attraction     -20.21181091
              coulomb       5.54177705
                  PCM       0.00000000
 exchange-correlation      -2.03565625
    nuclear-repulsion       0.99407115
                total      -7.91939194

timer: Compute residual stu     0.00s     0.00s
entering apply
timer:            Apply BSH     0.04s     0.04s
timer:     Truncate new psi     0.01s     0.01s
residuals [7.248103e-05, 1.394005e-03]
BSH residual: rms 9.870419e-04    max 1.394005e-03
timer:         BSH residual     0.00s     0.00s
timer: Update subspace stuf     0.02s     0.02s
Subspace solution [*]   0.00293688  -0.07593311   0.44710830  -1.52742240   2.15331033

timer:   Subspace transform     0.00s     0.00s
Norm of vector changes alpha : rms 2.092109e-03    max 2.957265e-03
ORTHOG2a: maxq trantol 2.638818e-05 5.000000e-06
timer:       Orthonormalize     0.01s     0.01s

Iteration 5 at time 3.0s

timer:       Make densities     0.00s     0.00s
delta rho 2.407595e-04 2.407595e-04 residuals 1.394005e-03 0.000000e+00
timer:       Nuclear energy     0.00s     0.00s
timer:              Coulomb     0.05s     0.05s
timer:        DFT potential     0.02s     0.02s
timer:                V*psi     0.01s     0.01s
timer:        Truncate Vpsi     0.01s     0.01s
timer:            PE matrix     0.01s     0.01s
timer:    KEmat reconstruct     0.00s     0.00s
timer:  KEmat differentiate     0.03s     0.03s
timer:       KEmat compress     0.00s     0.00s
timer: KEmat inner products     0.02s     0.02s
timer:            KE matrix     0.05s     0.05s
timer: Make fock matrix res     0.00s     0.00s
timer: Diagonalization Fock     0.00s     0.00s
timer: Diagonalization rest     0.01s     0.01s

              kinetic       7.79138602
         nonlocal psp       0.00000000
   nuclear attraction     -20.21161065
              coulomb       5.54252869
                  PCM       0.00000000
 exchange-correlation      -2.03577759
    nuclear-repulsion       0.99407115
                total      -7.91940238

timer: Compute residual stu     0.00s     0.00s
entering apply
timer:            Apply BSH     0.04s     0.04s
timer:     Truncate new psi     0.01s     0.01s
residuals [3.829356e-05, 8.059739e-04]
BSH residual: rms 5.705525e-04    max 8.059739e-04
timer:         BSH residual     0.00s     0.00s
timer: Update subspace stuf     0.02s     0.02s
Subspace solution [*]   0.01324573  -0.10987895   0.57947717  -1.34484132   1.86199736

timer:   Subspace transform     0.00s     0.00s
Norm of vector changes alpha : rms 1.299509e-03    max 1.837282e-03
ORTHOG2a: maxq trantol 3.506449e-06 5.000000e-06
timer:       Orthonormalize     0.01s     0.01s

Iteration 6 at time 3.3s

timer:       Make densities     0.00s     0.00s
delta rho 1.164197e-04 1.164197e-04 residuals 8.059739e-04 0.000000e+00
timer:       Nuclear energy     0.00s     0.00s
timer:              Coulomb     0.04s     0.04s
timer:        DFT potential     0.02s     0.02s
timer:                V*psi     0.01s     0.01s
timer:        Truncate Vpsi     0.01s     0.01s
timer:            PE matrix     0.01s     0.01s
timer:    KEmat reconstruct     0.00s     0.00s
timer:  KEmat differentiate     0.03s     0.03s
timer:       KEmat compress     0.00s     0.00s
timer: KEmat inner products     0.02s     0.02s
timer:            KE matrix     0.05s     0.05s
timer: Make fock matrix res     0.00s     0.00s
timer: Diagonalization Fock     0.00s     0.00s
timer: Diagonalization rest     0.01s     0.01s

              kinetic       7.79142180
         nonlocal psp       0.00000000
   nuclear attraction     -20.21224322
              coulomb       5.54336685
                  PCM       0.00000000
 exchange-correlation      -2.03601999
    nuclear-repulsion       0.99407115
                total      -7.91940341

timer: Compute residual stu     0.00s     0.00s
entering apply
timer:            Apply BSH     0.04s     0.04s
timer:     Truncate new psi     0.01s     0.01s
residuals [2.450305e-05, 1.054231e-04]
BSH residual: rms 7.653246e-05    max 1.054231e-04
timer:         BSH residual     0.00s     0.00s
timer: Update subspace stuf     0.02s     0.02s
Subspace solution [*]   0.00240613  -0.00037286   0.04156589  -0.11193390   1.06833474

timer:   Subspace transform     0.00s     0.00s
Norm of vector changes alpha : rms 9.923847e-05    max 1.380581e-04
ORTHOG2a: maxq trantol 2.073145e-05 5.000000e-06
timer:       Orthonormalize     0.01s     0.01s

Iteration 7 at time 3.6s

timer:       Make densities     0.00s     0.00s
delta rho 1.287645e-05 1.287645e-05 residuals 1.054231e-04 0.000000e+00
timer:       Nuclear energy     0.00s     0.00s
timer:              Coulomb     0.05s     0.05s
timer:        DFT potential     0.02s     0.02s
timer:                V*psi     0.01s     0.01s
timer:        Truncate Vpsi     0.01s     0.01s
timer:            PE matrix     0.01s     0.01s
timer:    KEmat reconstruct     0.00s     0.00s
timer:  KEmat differentiate     0.03s     0.03s
timer:       KEmat compress     0.00s     0.00s
timer: KEmat inner products     0.02s     0.02s
timer:            KE matrix     0.05s     0.05s
timer: Make fock matrix res     0.00s     0.00s
timer: Diagonalization Fock     0.00s     0.00s
timer: Diagonalization rest     0.01s     0.01s

              kinetic       7.79132353
         nonlocal psp       0.00000000
   nuclear attraction     -20.21207724
              coulomb       5.54328087
                  PCM       0.00000000
 exchange-correlation      -2.03600172
    nuclear-repulsion       0.99407115
                total      -7.91940341


Converged!

timer:              Overlap     0.01s     0.01s
timer:      focka eigen sol     0.00s     0.00s
timer:        Transform MOs     0.01s     0.01s
 
alpha eigenvalues
[*]  -1.84156897  -0.16126074


 Dipole Moment (a.u.)
 -----------

     x:  1.320366e-14
     y:  4.917492e-15
     z:  2.208247e+00
 Total Dipole Moment:  2.208247e+00 

timer:               dipole     0.00s     0.00s
Orbitals are eigenvectors - energies are eigenvalues

Analysis of alpha MO vectors
timer:      Analyze vectors     0.07s     0.07s
timer: Compute eigen gesv a     0.00s     0.00s
  MO   0 : occ=1.00 : energy=  -1.84156897 : center=(0.00,0.00,0.76) : radius=0.69
           Li(1)   s( 2)-0.997  
  MO   1 : occ=1.00 : energy=  -0.16126074 : center=(-0.00,-0.00,-1.86) : radius=2.42
            H(0)   s( 1) 0.404     H(0)   s( 0) 0.298    Li(1)   s( 7) 0.220    Li(1)  pz( 6)-0.213    Li(1)   s( 3) 0.188    Li(1)   s( 2)-0.146  

Solving NDIM= 3  with thresh 1.000000e-06     k 8    conv 1.000000e-04 

timer:     Project vnuclear     0.09s     0.09s
timer:     project ao basis     0.14s     0.14s

Iteration 0 at time 4.2s

timer:       Make densities     0.00s     0.00s
timer:       Load balancing     0.00s     0.00s
timer:       Nuclear energy     0.01s     0.01s
timer:              Coulomb     0.18s     0.18s
timer:        DFT potential     0.03s     0.03s
timer:                V*psi     0.01s     0.01s
timer:        Truncate Vpsi     0.01s     0.01s
timer:            PE matrix     0.01s     0.01s
timer:    KEmat reconstruct     0.00s     0.00s
timer:  KEmat differentiate     0.03s     0.03s
timer:       KEmat compress     0.01s     0.01s
timer: KEmat inner products     0.02s     0.02s
timer:            KE matrix     0.06s     0.06s
timer: Make fock matrix res     0.00s     0.00s
timer: Diagonalization Fock     0.00s     0.00s
timer: Diagonalization rest     0.02s     0.02s

              kinetic       7.79138018
         nonlocal psp       0.00000000
   nuclear attraction     -20.21212010
              coulomb       5.54328363
                  PCM       0.00000000
 exchange-correlation      -2.03600622
    nuclear-repulsion       0.99407115
                total      -7.91939136

timer: Compute residual stu     0.01s     0.01s
entering apply
timer:            Apply BSH     0.27s     0.27s
timer:     Truncate new psi     0.03s     0.03s
residuals [2.682086e-04, 2.288874e-04]
BSH residual: rms 2.493244e-04    max 2.682086e-04
timer:         BSH residual     0.01s     0.01s
timer: Update subspace stuf     0.00s     0.00s
Subspace solution [*]   1.00000000

timer:   Subspace transform     0.00s     0.00s
Norm of vector changes alpha : rms 2.493244e-04    max 2.682086e-04
ORTHOG2a: maxq trantol 1.594072e-05 5.000000e-08
timer:       Orthonormalize     0.02s     0.02s

Iteration 1 at time 4.9s

timer:       Make densities     0.01s     0.01s
timer:       Load balancing     0.00s     0.00s
delta rho 8.898942e-05 8.898942e-05 residuals 2.682086e-04 0.000000e+00
timer:       Nuclear energy     0.00s     0.00s
timer:              Coulomb     0.13s     0.13s
timer:        DFT potential     0.04s     0.04s
timer:                V*psi     0.02s     0.02s
timer:        Truncate Vpsi     0.01s     0.01s
timer:            PE matrix     0.01s     0.01s
timer:    KEmat reconstruct     0.00s     0.00s
timer:  KEmat differentiate     0.04s     0.04s
timer:       KEmat compress     0.01s     0.01s
timer: KEmat inner products     0.02s     0.02s
timer:            KE matrix     0.07s     0.07s
timer: Make fock matrix res     0.00s     0.00s
timer: Diagonalization Fock     0.00s     0.00s
timer: Diagonalization rest     0.02s     0.02s

              kinetic       7.79161820
         nonlocal psp       0.00000000
   nuclear attraction     -20.21252024
              coulomb       5.54339008
                  PCM       0.00000000
 exchange-correlation      -2.03604370
    nuclear-repulsion       0.99407115
                total      -7.91948451


Converged!

timer:              Overlap     0.01s     0.01s
timer:      focka eigen sol     0.00s     0.00s
timer:        Transform MOs     0.01s     0.01s
 
alpha eigenvalues
[*]  -1.84153360  -0.16128764


 Dipole Moment (a.u.)
 -----------

     x:  3.587074e-15
     y:  1.618991e-14
     z:  2.208191e+00
 Total Dipole Moment:  2.208191e+00 

timer:               dipole     0.00s     0.00s
Orbitals are eigenvectors - energies are eigenvalues

Analysis of alpha MO vectors
timer:      Analyze vectors     0.09s     0.09s
timer: Compute eigen gesv a     0.00s     0.00s
  MO   0 : occ=1.00 : energy=  -1.84153360 : center=(0.00,0.00,0.76) : radius=0.69
           Li(1)   s( 2) 0.997  
  MO   1 : occ=1.00 : energy=  -0.16128764 : center=(-0.00,0.00,-1.86) : radius=2.42
            H(0)   s( 1)-0.403     H(0)   s( 0)-0.298    Li(1)   s( 7)-0.220    Li(1)  pz( 6) 0.213    Li(1)   s( 3)-0.188    Li(1)   s( 2) 0.146  
timer:             plotting     0.00s     0.00s

    Parallel environment
    --------------------
                  #nodes    1
       #threads per node    27+main = 28
          #total threads    28

  RMI message statistics (min / avg / max)
  ----------------------
   #messages in server q    0.00e+00 / 0.00e+00 / 0.00e+00
 #messages sent per node    0.00e+00 / 0.00e+00 / 0.00e+00
    #bytes sent per node    0.00e+00 / 0.00e+00 / 0.00e+00
 #messages recv per node    0.00e+00 / 0.00e+00 / 0.00e+00
    #bytes recv per node    0.00e+00 / 0.00e+00 / 0.00e+00
        #msgs systemwide    0.00e+00
       #bytes systemwide    0.00e+00

  Thread pool statistics (min / avg / max)
  ----------------------
         #tasks per node    0.00e+00 / 0.00e+00 / 0.00e+00
     #max q len per node    0.00e+00 / 0.00e+00 / 0.00e+00
  #hi-pri tasks per node    0.00e+00 / 0.00e+00 / 0.00e+00

         Total wall time    5.4s
         Total  cpu time    5.4s

