MADNESS runtime initialized with 27 threads in the pool and affinity -1 -1 -1

--------------------------------------------
   MADNESS 0.10.1 multiresolution suite
--------------------------------------------

   number of processors ... 1
    processor frequency ... 1.995417e+09
            host system ... linux-gnu
          configured by ... egentles
          configured on ... sn093
          configured at ... Tue Jul 11 16:06:48 EDT 2017
                    CXX ... mpicxx
               CXXFLAGS ... -g -std=c++14 -O3 -Wall -Wno-strict-aliasing -Wno-deprecated -Wno-unused-local-typedefs  -ffast-math -march=native
             tuning for ... default
                    MPI ... multiple
 multi-threaded runtime ... Intel TBB
                   BLAS ... Intel MKL 14282 14282 MFLOP/s
               compiled ... 08:44:05  on  Jul 29 2017
input filename:  /gpfs/home/egentles/auto_test_mad/geometries_LDA_boys/n_propyl_chloride.mdns

Angstrom being used to read input coordinates (1 Bohr = 1.88972613 Angstrom)

Abelian pointgroup

 The point group is Cs

Construct XC Functional from LIBXC Library

input line was:  LDA
 1.000 lda_x 
 1.000 lda_c_vwn 

screening parameters
 rhotol, rhomin 1.000000e-07 0.000000e+00
         ggatol 1.000000e-04
polarized  false 


Solving NDIM= 3  with thresh 1.000000e-05     k 8    conv 1.000000e-04 




 MADNESS Hartree-Fock and Density Functional Theory Program
 ----------------------------------------------------------



 geometry
   eprec 1.0e-04
   units atomic
   Cl            3.28847676           0.18745773           0.00000000
   C             0.15280746          -1.11148909           0.00000000
   C            -1.84178749           0.96846349           0.00000000
   C            -4.50427754          -0.13436529           0.00000000
   H             0.00718665          -2.32599879           1.71095804
   H             0.00718665          -2.32599879          -1.71095804
   H            -1.56731873           2.18924739           1.69073797
   H            -1.56731873           2.18924739          -1.69073797
   H            -4.84176922          -1.32547517           1.70037557
   H            -4.84176922          -1.32547517          -1.70037557
   H            -5.94075682           1.40201702           0.00000000
 end


             restart  false
    restart from AOs  false
 number of processes  1
   no. of io servers  1
   vnuc load bal fac  12
      load bal parts  2
     simulation cube  -5.594076e+01 5.594076e+01
        total charge  0.000000e+00
            smearing  0.000000e+00
 number of electrons  21 21
  number of orbitals  21 21
     spin restricted  true
       xc functional   LDA
          xc library  libxc
 initial guess basis  6-31g
 max krylov subspace  5
    compute protocol  [1.000000e-04, 1.000000e-06]
  energy convergence  1.000000e-05
 density convergence  1.000000e-04
    maximum rotation  2.500000e-01
    polynomial order  -1
       truncate mode  1
  maximum iterations  20
 Convergence criteria are density delta & BSH residual.
        plot density  false
        plot coulomb  false
        plot orbital  0 -1
        plot npoints  101
        plot  volume  default
  localized orbitals  boys
 psp or all electron  all electron
timer:           initialize     0.39s     0.39s

Solving NDIM= 3  with thresh 1.000000e-04     k 6    conv 1.000000e-04 


Solving NDIM= 3  with thresh 1.000000e-04     k 6    conv 1.000000e-04 

timer:     Project vnuclear     0.60s     0.60s
timer:     project ao basis     0.40s     0.40s
guess dens trace 4.199999e+01
timer:        guess density     0.70s     0.70s
timer:   guess Coulomb potn     0.45s     0.45s
timer:       guess lda potn     0.23s     0.23s
timer:        guess overlap     0.02s     0.02s
timer:    KEmat reconstruct     0.03s     0.03s
timer:  KEmat differentiate     0.58s     0.58s
timer:       KEmat compress     0.09s     0.09s
timer: KEmat inner products     0.06s     0.06s
timer:     guess Kinet potn     0.77s     0.77s
timer:           guess fock     2.15s     2.15s
timer:      guess eigen sol     0.00s     0.00s
grouping alpha orbitals into sets
set  0    0  -  0
set  1    1  -  4
set  2    5  -  7
set  3    8  -  20
timer: guess orbital groupi     0.07s     0.07s
timer:     project ao basis     0.38s     0.38s

Iteration 0 at time 6.5s

timer:        Boys localize     0.30s     0.30s
timer:      Rotate subspace     0.13s     0.13s
timer:       Make densities     0.04s     0.04s
timer:       Load balancing     0.00s     0.00s
timer:       Nuclear energy     0.01s     0.01s
timer:              Coulomb     0.12s     0.12s
timer:        DFT potential     0.10s     0.10s
timer:                V*psi     0.25s     0.25s
timer:        Truncate Vpsi     0.32s     0.32s
timer:            PE matrix     0.02s     0.02s
timer:    KEmat reconstruct     0.01s     0.01s
timer:  KEmat differentiate     0.42s     0.42s
timer:       KEmat compress     0.05s     0.05s
timer: KEmat inner products     0.03s     0.03s
timer:            KE matrix     0.52s     0.52s
timer: Make fock matrix res     0.00s     0.00s

              kinetic     578.73597957
         nonlocal psp       0.00000000
   nuclear attraction   -1689.48635972
              coulomb     421.74949982
                  PCM       0.00000000
 exchange-correlation     -44.81438560
    nuclear-repulsion     157.88984081
                total    -575.92542512

timer: Compute residual stu     0.09s     0.09s
entering apply
timer:            Apply BSH     1.22s     1.22s
timer:     Truncate new psi     0.14s     0.14s
residuals [4.891631e-03, 1.001474e-02, 9.707357e-03, 9.493146e-03, 1.038368e-02, 7.454898e-03, 7.597942e-03, 7.620210e-03, 7.124057e-02, 3.629659e-02, 1.426141e-01, 8.029188e-02, 1.206593e-01, 1.423324e-01, 9.847282e-02, 8.029173e-02, 1.426143e-01, 4.709040e-02, 1.206595e-01, 3.567701e-02, 3.629669e-02]
BSH residual: rms 7.697625e-02    max 1.426143e-01
timer:         BSH residual     0.08s     0.08s
timer: Update subspace stuf     0.07s     0.07s
Subspace solution [*]   1.00000000

timer:   Subspace transform     0.01s     0.01s
Norm of vector changes alpha : rms 7.697625e-02    max 1.426143e-01
ORTHOG2a: maxq trantol 5.449646e-03 4.761905e-07
timer:       Orthonormalize     0.12s     0.12s

Iteration 1 at time 10.5s

timer:        Boys localize     0.28s     0.28s
timer:      Rotate subspace     0.12s     0.12s
timer:       Make densities     0.04s     0.04s
timer:       Load balancing     0.00s     0.00s
delta rho 1.228341e-01 1.228341e-01 residuals 1.426143e-01 0.000000e+00
timer:       Nuclear energy     0.01s     0.01s
timer:              Coulomb     0.17s     0.17s
timer:        DFT potential     0.11s     0.11s
timer:                V*psi     0.26s     0.27s
timer:        Truncate Vpsi     0.33s     0.33s
timer:            PE matrix     0.02s     0.02s
timer:    KEmat reconstruct     0.01s     0.01s
timer:  KEmat differentiate     0.41s     0.41s
timer:       KEmat compress     0.05s     0.05s
timer: KEmat inner products     0.03s     0.03s
timer:            KE matrix     0.51s     0.51s
timer: Make fock matrix res     0.00s     0.00s

              kinetic     573.55765806
         nonlocal psp       0.00000000
   nuclear attraction   -1678.77459093
              coulomb     415.34947512
                  PCM       0.00000000
 exchange-correlation     -44.18954318
    nuclear-repulsion     157.88984081
                total    -576.16716012

timer: Compute residual stu     0.09s     0.09s
entering apply
timer:            Apply BSH     1.26s     1.26s
timer:     Truncate new psi     0.15s     0.15s
residuals [6.627662e-04, 9.179041e-04, 1.008734e-03, 1.188074e-03, 1.990131e-03, 1.101491e-03, 1.100836e-03, 1.100931e-03, 2.808629e-02, 1.366125e-02, 5.443495e-02, 2.293434e-02, 4.368954e-02, 5.626729e-02, 4.536476e-02, 2.293449e-02, 5.443484e-02, 1.962574e-02, 4.368929e-02, 1.387485e-02, 1.366145e-02]
BSH residual: rms 2.909008e-02    max 5.626729e-02
timer:         BSH residual     0.08s     0.08s
timer: Update subspace stuf     0.15s     0.15s
Subspace solution [*]   0.23950506   0.76049494

timer:   Subspace transform     0.02s     0.02s
Norm of vector changes alpha : rms 2.448731e-02    max 4.056283e-02
ORTHOG2a: maxq trantol 2.121359e-03 4.761905e-07
timer:       Orthonormalize     0.12s     0.12s

Iteration 2 at time 14.7s

warning: boys localization did not fully converge:  680
timer:        Boys localize     0.31s     0.31s
timer:      Rotate subspace     0.12s     0.12s
timer:       Make densities     0.04s     0.04s
delta rho 2.860422e-02 2.860422e-02 residuals 5.626729e-02 0.000000e+00
timer:       Nuclear energy     0.01s     0.01s
timer:              Coulomb     0.15s     0.15s
timer:        DFT potential     0.11s     0.11s
timer:                V*psi     0.29s     0.29s
timer:        Truncate Vpsi     0.36s     0.36s
timer:            PE matrix     0.02s     0.02s
timer:    KEmat reconstruct     0.01s     0.01s
timer:  KEmat differentiate     0.41s     0.41s
timer:       KEmat compress     0.05s     0.05s
timer: KEmat inner products     0.03s     0.03s
timer:            KE matrix     0.51s     0.51s
timer: Make fock matrix res     0.00s     0.00s

              kinetic     574.18300993
         nonlocal psp       0.00000000
   nuclear attraction   -1681.02038189
              coulomb     417.08519165
                  PCM       0.00000000
 exchange-correlation     -44.33794935
    nuclear-repulsion     157.88984081
                total    -576.20028885

timer: Compute residual stu     0.09s     0.09s
entering apply
timer:            Apply BSH     1.22s     1.22s
timer:     Truncate new psi     0.15s     0.15s
residuals [3.024508e-04, 6.183732e-04, 6.131369e-04, 6.020126e-04, 1.127824e-03, 6.661656e-04, 6.895997e-04, 6.499001e-04, 7.197464e-03, 5.865972e-03, 6.898043e-03, 6.376578e-03, 6.055085e-03, 6.906608e-03, 8.478000e-03, 6.376611e-03, 6.897932e-03, 8.325752e-03, 6.054970e-03, 5.543663e-03, 5.866021e-03]
BSH residual: rms 5.317941e-03    max 8.478000e-03
timer:         BSH residual     0.08s     0.08s
timer: Update subspace stuf     0.22s     0.22s
Subspace solution [*]  -0.10070660  -0.34566438   1.44637098

timer:   Subspace transform     0.03s     0.03s
Norm of vector changes alpha : rms 2.477022e-02    max 7.624644e-02
ORTHOG2a: maxq trantol 3.824245e-03 4.761905e-07
timer:       Orthonormalize     0.12s     0.12s

Iteration 3 at time 19.1s

timer:        Boys localize     0.30s     0.30s
timer:      Rotate subspace     0.12s     0.12s
timer:       Make densities     0.04s     0.04s
delta rho 1.638161e-02 1.638161e-02 residuals 8.478000e-03 0.000000e+00
timer:       Nuclear energy     0.01s     0.01s
timer:              Coulomb     0.16s     0.16s
timer:        DFT potential     0.11s     0.11s
timer:                V*psi     0.29s     0.29s
timer:        Truncate Vpsi     0.34s     0.34s
timer:            PE matrix     0.02s     0.02s
timer:    KEmat reconstruct     0.01s     0.01s
timer:  KEmat differentiate     0.41s     0.41s
timer:       KEmat compress     0.05s     0.05s
timer: KEmat inner products     0.03s     0.03s
timer:            KE matrix     0.51s     0.51s
timer: Make fock matrix res     0.00s     0.00s

              kinetic     574.12966385
         nonlocal psp       0.00000000
   nuclear attraction   -1681.14026281
              coulomb     417.26803599
                  PCM       0.00000000
 exchange-correlation     -44.35375256
    nuclear-repulsion     157.88984081
                total    -576.20647472

timer: Compute residual stu     0.12s     0.12s
entering apply
timer:            Apply BSH     1.23s     1.23s
timer:     Truncate new psi     0.15s     0.15s
residuals [4.190076e-05, 1.168639e-04, 1.089750e-04, 8.023574e-05, 2.547095e-04, 2.808964e-04, 3.172313e-04, 2.240064e-04, 3.143287e-03, 2.275358e-03, 3.255556e-03, 2.678261e-03, 2.871283e-03, 3.247770e-03, 2.562397e-03, 2.678320e-03, 3.255618e-03, 3.860276e-03, 2.871262e-03, 2.467320e-03, 2.275187e-03]
BSH residual: rms 2.295940e-03    max 3.860276e-03
timer:         BSH residual     0.07s     0.07s
timer: Update subspace stuf     0.28s     0.28s
Subspace solution [*]  -0.02081511   0.00864675  -0.20073469   1.21290306

timer:   Subspace transform     0.03s     0.03s
Norm of vector changes alpha : rms 2.533779e-02    max 8.141940e-02
ORTHOG2a: maxq trantol 4.621114e-03 4.761905e-07
timer:       Orthonormalize     0.11s     0.11s

Iteration 4 at time 23.6s

warning: boys localization did not fully converge:  548
timer:        Boys localize     0.30s     0.30s
timer:      Rotate subspace     0.13s     0.13s
timer:       Make densities     0.04s     0.04s
delta rho 4.888290e-03 4.888290e-03 residuals 3.860276e-03 0.000000e+00
timer:       Nuclear energy     0.01s     0.01s
timer:              Coulomb     0.16s     0.16s
timer:        DFT potential     0.12s     0.12s
timer:                V*psi     0.30s     0.30s
timer:        Truncate Vpsi     0.36s     0.36s
timer:            PE matrix     0.02s     0.02s
timer:    KEmat reconstruct     0.01s     0.01s
timer:  KEmat differentiate     0.42s     0.42s
timer:       KEmat compress     0.05s     0.05s
timer: KEmat inner products     0.03s     0.03s
timer:            KE matrix     0.51s     0.51s
timer: Make fock matrix res     0.00s     0.00s

              kinetic     574.12471348
         nonlocal psp       0.00000000
   nuclear attraction   -1681.10214235
              coulomb     417.23043104
                  PCM       0.00000000
 exchange-correlation     -44.35043540
    nuclear-repulsion     157.88984081
                total    -576.20759242

timer: Compute residual stu     0.09s     0.09s
entering apply
timer:            Apply BSH     1.26s     1.26s
timer:     Truncate new psi     0.15s     0.15s
residuals [4.594833e-05, 1.816834e-04, 8.953243e-05, 7.590063e-05, 2.122449e-04, 1.739558e-04, 2.426925e-04, 1.076800e-04, 1.720800e-03, 1.780682e-03, 9.661702e-04, 1.429184e-03, 1.103789e-03, 1.139295e-03, 1.476962e-03, 1.429177e-03, 9.662084e-04, 2.150253e-03, 1.103821e-03, 1.736092e-03, 1.781121e-03]
BSH residual: rms 1.175241e-03    max 2.150253e-03
timer:         BSH residual     0.08s     0.08s
timer: Update subspace stuf     0.35s     0.35s
Subspace solution [*]   0.01443907   0.05188002  -0.23996413  -0.12689584   1.30054088

timer:   Subspace transform     0.04s     0.04s
Norm of vector changes alpha : rms 2.582627e-02    max 8.305913e-02
ORTHOG2a: maxq trantol 1.804553e-03 4.761905e-07
timer:       Orthonormalize     0.12s     0.12s

Iteration 5 at time 28.2s

warning: boys localization did not fully converge:  517
timer:        Boys localize     0.29s     0.29s
timer:      Rotate subspace     0.11s     0.11s
timer:       Make densities     0.04s     0.04s
delta rho 2.119521e-03 2.119521e-03 residuals 2.150253e-03 0.000000e+00
timer:       Nuclear energy     0.01s     0.01s
timer:              Coulomb     0.15s     0.15s
timer:        DFT potential     0.11s     0.11s
timer:                V*psi     0.28s     0.28s
timer:        Truncate Vpsi     0.34s     0.34s
timer:            PE matrix     0.02s     0.02s
timer:    KEmat reconstruct     0.01s     0.01s
timer:  KEmat differentiate     0.42s     0.42s
timer:       KEmat compress     0.05s     0.05s
timer: KEmat inner products     0.03s     0.03s
timer:            KE matrix     0.51s     0.51s
timer: Make fock matrix res     0.00s     0.00s

              kinetic     574.13570221
         nonlocal psp       0.00000000
   nuclear attraction   -1681.09085822
              coulomb     417.20634001
                  PCM       0.00000000
 exchange-correlation     -44.34905533
    nuclear-repulsion     157.88984081
                total    -576.20803053

timer: Compute residual stu     0.09s     0.09s
entering apply
timer:            Apply BSH     1.23s     1.23s
timer:     Truncate new psi     0.15s     0.15s
residuals [3.968632e-05, 1.856951e-04, 8.172021e-05, 6.095795e-05, 1.484463e-04, 7.807479e-05, 2.154903e-04, 9.864621e-05, 9.557564e-04, 1.050133e-03, 6.148876e-04, 8.111787e-04, 6.958882e-04, 8.187465e-04, 8.561610e-04, 8.112028e-04, 6.148892e-04, 1.198214e-03, 6.958376e-04, 1.095034e-03, 1.049732e-03]
BSH residual: rms 7.012845e-04    max 1.198214e-03
timer:         BSH residual     0.08s     0.08s
timer: Update subspace stuf     0.35s     0.35s
Subspace solution [*]  -0.04564962   0.19069685  -0.38367785  -0.46831666   1.70694728

timer:   Subspace transform     0.04s     0.04s
Norm of vector changes alpha : rms 1.737553e-02    max 5.407149e-02
ORTHOG2a: maxq trantol 2.053669e-03 4.761905e-07
timer:       Orthonormalize     0.12s     0.12s

Iteration 6 at time 32.6s

timer:        Boys localize     0.30s     0.30s
timer:      Rotate subspace     0.11s     0.11s
timer:       Make densities     0.04s     0.04s
delta rho 1.533065e-03 1.533065e-03 residuals 1.198214e-03 0.000000e+00
timer:       Nuclear energy     0.01s     0.01s
timer:              Coulomb     0.16s     0.16s
timer:        DFT potential     0.11s     0.11s
timer:                V*psi     0.30s     0.30s
timer:        Truncate Vpsi     0.36s     0.36s
timer:            PE matrix     0.02s     0.02s
timer:    KEmat reconstruct     0.01s     0.01s
timer:  KEmat differentiate     0.42s     0.42s
timer:       KEmat compress     0.05s     0.05s
timer: KEmat inner products     0.03s     0.03s
timer:            KE matrix     0.52s     0.52s
timer: Make fock matrix res     0.00s     0.00s

              kinetic     574.16456652
         nonlocal psp       0.00000000
   nuclear attraction   -1681.14263260
              coulomb     417.23104571
                  PCM       0.00000000
 exchange-correlation     -44.35105889
    nuclear-repulsion     157.88984081
                total    -576.20823845

timer: Compute residual stu     0.10s     0.10s
entering apply
timer:            Apply BSH     1.24s     1.24s
timer:     Truncate new psi     0.15s     0.15s
residuals [3.404391e-05, 9.862157e-05, 7.127224e-05, 5.966381e-05, 2.027250e-04, 9.207833e-05, 2.228607e-04, 7.260800e-05, 5.012183e-04, 9.047246e-04, 2.498913e-04, 3.618317e-04, 2.859116e-04, 4.253250e-04, 5.464948e-04, 3.619424e-04, 2.501724e-04, 7.112161e-04, 2.857278e-04, 9.252325e-04, 9.055701e-04]
BSH residual: rms 4.580303e-04    max 9.252325e-04
timer:         BSH residual     0.08s     0.08s
timer: Update subspace stuf     0.34s     0.34s
Subspace solution [*]   0.02188761   0.07658851  -0.42582267   0.14524175   1.18210481

timer:   Subspace transform     0.04s     0.04s
Norm of vector changes alpha : rms 1.805216e-02    max 5.833033e-02
ORTHOG2a: maxq trantol 2.282693e-03 4.761905e-07
timer:       Orthonormalize     0.11s     0.11s

Iteration 7 at time 37.2s

timer:        Boys localize     0.30s     0.30s
timer:      Rotate subspace     0.11s     0.11s
timer:       Make densities     0.04s     0.04s
delta rho 7.687807e-04 7.687807e-04 residuals 9.252325e-04 0.000000e+00
timer:       Nuclear energy     0.01s     0.01s
timer:              Coulomb     0.15s     0.15s
timer:        DFT potential     0.11s     0.11s
timer:                V*psi     0.29s     0.29s
timer:        Truncate Vpsi     0.34s     0.34s
timer:            PE matrix     0.02s     0.02s
timer:    KEmat reconstruct     0.01s     0.01s
timer:  KEmat differentiate     0.42s     0.42s
timer:       KEmat compress     0.05s     0.05s
timer: KEmat inner products     0.03s     0.03s
timer:            KE matrix     0.51s     0.51s
timer: Make fock matrix res     0.00s     0.00s

              kinetic     574.15895754
         nonlocal psp       0.00000000
   nuclear attraction   -1681.13331070
              coulomb     417.22648818
                  PCM       0.00000000
 exchange-correlation     -44.35023995
    nuclear-repulsion     157.88984081
                total    -576.20826411

timer: Compute residual stu     0.10s     0.10s
entering apply
timer:            Apply BSH     1.24s     1.24s
timer:     Truncate new psi     0.15s     0.15s
residuals [3.298611e-05, 6.995033e-05, 6.603391e-05, 5.649457e-05, 1.451737e-04, 1.202605e-04, 2.306443e-04, 6.909731e-05, 2.904108e-04, 3.720430e-04, 1.921157e-04, 1.913472e-04, 1.903950e-04, 3.072999e-04, 3.965220e-04, 1.913159e-04, 1.923440e-04, 3.408073e-04, 1.902180e-04, 3.654909e-04, 3.730148e-04]
BSH residual: rms 2.380363e-04    max 3.965220e-04
timer:         BSH residual     0.08s     0.08s
timer: Update subspace stuf     0.35s     0.35s
Subspace solution [*]   0.04715732  -0.12522279  -0.04845287   0.39464606   0.73187228

timer:   Subspace transform     0.04s     0.04s
Norm of vector changes alpha : rms 3.614855e-02    max 1.171261e-01
ORTHOG2a: maxq trantol 6.356956e-03 4.761905e-07
timer:       Orthonormalize     0.12s     0.12s

Iteration 8 at time 41.7s

warning: boys localization did not fully converge:  429
timer:        Boys localize     0.30s     0.30s
timer:      Rotate subspace     0.11s     0.11s
timer:       Make densities     0.04s     0.04s
delta rho 1.430485e-04 1.430485e-04 residuals 3.965220e-04 0.000000e+00
timer:       Nuclear energy     0.01s     0.01s
timer:              Coulomb     0.14s     0.14s
timer:        DFT potential     0.11s     0.11s
timer:                V*psi     0.28s     0.28s
timer:        Truncate Vpsi     0.34s     0.34s
timer:            PE matrix     0.02s     0.02s
timer:    KEmat reconstruct     0.01s     0.01s
timer:  KEmat differentiate     0.42s     0.42s
timer:       KEmat compress     0.05s     0.05s
timer: KEmat inner products     0.03s     0.03s
timer:            KE matrix     0.52s     0.52s
timer: Make fock matrix res     0.00s     0.00s

              kinetic     574.15383121
         nonlocal psp       0.00000000
   nuclear attraction   -1681.12629004
              coulomb     417.22423553
                  PCM       0.00000000
 exchange-correlation     -44.34989054
    nuclear-repulsion     157.88984081
                total    -576.20827304


Converged!

timer:              Overlap     0.02s     0.02s
timer:      focka eigen sol     0.00s     0.00s
 
alpha eigenvalues
[*] -100.30481495  -9.84463584  -9.79960219  -9.78968963  -9.12741616  -6.98584748  -6.97547369  -6.97540642  -0.78299791  -0.70507238  -0.60345249  -0.53615261  -0.43978534  -0.40771906  -0.38970303  -0.37004441  -0.33357529  -0.32234317  -0.30477986  -0.25997645  -0.25847015


 Dipole Moment (a.u.)
 -----------

     x:  -8.263334e-01
     y:  -2.012537e-01
     z:  -4.467112e-07
 Total Dipole Moment:  8.504880e-01 

timer:               dipole     0.00s     0.00s
Orbitals are localized - energies are diagonal Fock matrix elements

Analysis of alpha MO vectors
timer:      Analyze vectors     0.51s     0.51s
timer: Compute eigen gesv a     0.00s     0.00s
  MO   0 : occ=1.00 : energy=-100.30469547 : center=(3.29,0.19,0.00) : radius=0.11
           Cl( 0)   s(  0) 0.996  
  MO   1 : occ=1.00 : energy=  -9.78964285 : center=(-4.50,-0.13,0.00) : radius=0.32
            C( 3)   s( 31) 0.994  
  MO   2 : occ=1.00 : energy=  -9.79950352 : center=(-1.84,0.97,0.00) : radius=0.32
            C( 2)   s( 22) 0.994  
  MO   3 : occ=1.00 : energy=  -9.84445876 : center=(0.15,-1.11,0.00) : radius=0.32
            C( 1)   s( 13)-0.994  
  MO   4 : occ=1.00 : energy=  -9.12738084 : center=(3.29,0.19,0.00) : radius=0.49
           Cl( 0)   s(  1) 1.027    Cl( 0)   s(  0)-0.287  
  MO   5 : occ=1.00 : energy=  -6.98564665 : center=(3.29,0.19,-0.00) : radius=0.46
           Cl( 0)  px(  2)-0.904    Cl( 0)  py(  3)-0.404  
  MO   6 : occ=1.00 : energy=  -6.97542949 : center=(3.29,0.19,-0.00) : radius=0.46
           Cl( 0)  py(  3) 0.677    Cl( 0)  pz(  4) 0.662    Cl( 0)  px(  2)-0.290  
  MO   7 : occ=1.00 : energy=  -6.97541903 : center=(3.29,0.19,0.00) : radius=0.46
           Cl( 0)  pz(  4) 0.736    Cl( 0)  py(  3)-0.599    Cl( 0)  px(  2) 0.282  
  MO   8 : occ=1.00 : energy=  -0.48469434 : center=(-0.81,-0.07,0.00) : radius=1.64
            C( 1)  py( 16)-0.284     C( 2)  py( 25) 0.264     C( 2)  px( 24)-0.249     C( 1)  px( 15) 0.242     C( 1)   s( 18)-0.218     C( 1)   s( 14)-0.202     C( 2)   s( 23)-0.180     C( 2)   s( 27)-0.159     C( 1)  py( 20)-0.148  
  MO   9 : occ=1.00 : energy=  -0.39195886 : center=(3.28,0.63,0.71) : radius=1.81
           Cl( 0)  pz(  8) 0.505    Cl( 0)   s(  5) 0.407    Cl( 0)  py(  7) 0.331    Cl( 0)  pz( 12) 0.293    Cl( 0)   s(  9) 0.217    Cl( 0)   s(  1)-0.207    Cl( 0)  pz(  4)-0.200  
  MO  10 : occ=1.00 : energy=  -0.42689366 : center=(-4.71,-0.92,-1.12) : radius=1.64
            C( 3)  pz( 35) 0.316     H( 9)   s( 50)-0.304     H( 9)   s( 51)-0.247     C( 3)  py( 34) 0.219     C( 3)   s( 36)-0.198     C( 3)   s( 32)-0.185     C( 3)  pz( 39) 0.160  
  MO  11 : occ=1.00 : energy=  -0.45068092 : center=(0.06,-1.89,1.12) : radius=1.62
            C( 1)  pz( 17)-0.328     H( 4)   s( 40)-0.304     H( 4)   s( 41)-0.223     C( 1)  py( 16) 0.218     C( 1)   s( 18)-0.217     C( 1)   s( 14)-0.200     C( 1)  pz( 21)-0.175  
  MO  12 : occ=1.00 : energy=  -0.42910706 : center=(-1.66,1.75,-1.12) : radius=1.65
            C( 2)  pz( 26) 0.321     H( 7)   s( 46)-0.304     H( 7)   s( 47)-0.240     C( 2)   s( 27)-0.224     C( 2)  py( 25)-0.221     C( 2)   s( 23)-0.183     C( 2)  pz( 30) 0.164  
  MO  13 : occ=1.00 : energy=  -0.42807631 : center=(-5.43,0.88,0.00) : radius=1.66
            H(10)   s( 52)-0.304     C( 3)  py( 34)-0.290     C( 3)  px( 33) 0.258     H(10)   s( 53)-0.241     C( 3)   s( 32)-0.189     C( 3)   s( 36)-0.186     C( 3)  py( 38)-0.149  
  MO  14 : occ=1.00 : energy=  -0.47200460 : center=(-3.15,0.39,0.00) : radius=1.67
            C( 3)  px( 33) 0.338     C( 2)  px( 24)-0.337     C( 3)   s( 36) 0.190     C( 2)   s( 23) 0.189     C( 3)   s( 32) 0.183     C( 3)  px( 37) 0.161     C( 2)   s( 27) 0.161     C( 2)  px( 28)-0.153     C( 2)  py( 25)-0.150  
  MO  15 : occ=1.00 : energy=  -0.45068103 : center=(0.06,-1.89,-1.12) : radius=1.62
            C( 1)  pz( 17)-0.328     H( 5)   s( 42) 0.304     H( 5)   s( 43) 0.223     C( 1)  py( 16)-0.218     C( 1)   s( 18) 0.217     C( 1)   s( 14) 0.200     C( 1)  pz( 21)-0.175  
  MO  16 : occ=1.00 : energy=  -0.42689392 : center=(-4.71,-0.92,1.12) : radius=1.64
            C( 3)  pz( 35)-0.316     H( 8)   s( 48)-0.304     H( 8)   s( 49)-0.247     C( 3)  py( 34) 0.219     C( 3)   s( 36)-0.198     C( 3)   s( 32)-0.185     C( 3)  pz( 39)-0.160  
  MO  17 : occ=1.00 : energy=  -0.53941950 : center=(1.85,-0.40,0.00) : radius=1.76
           Cl( 0)  px(  6) 0.475     C( 1)  px( 15)-0.307    Cl( 0)   s(  5)-0.294     C( 1)   s( 18)-0.282    Cl( 0)  py(  7) 0.200    Cl( 0)  px(  2)-0.187     C( 1)  px( 19)-0.169  
  MO  18 : occ=1.00 : energy=  -0.42910669 : center=(-1.66,1.75,1.12) : radius=1.65
            C( 2)  pz( 26)-0.321     H( 6)   s( 44)-0.304     H( 6)   s( 45)-0.240     C( 2)   s( 27)-0.224     C( 2)  py( 25)-0.221     C( 2)   s( 23)-0.183     C( 2)  pz( 30)-0.164  
  MO  19 : occ=1.00 : energy=  -0.39330702 : center=(3.75,-0.50,-0.00) : radius=1.81
           Cl( 0)  py(  7) 0.476    Cl( 0)   s(  5)-0.403    Cl( 0)  px(  6)-0.377    Cl( 0)  py( 11) 0.282    Cl( 0)   s(  1) 0.208    Cl( 0)   s(  9)-0.208    Cl( 0)  py(  3)-0.188    Cl( 0)  px( 10)-0.187  
  MO  20 : occ=1.00 : energy=  -0.39195898 : center=(3.28,0.63,-0.71) : radius=1.81
           Cl( 0)  pz(  8)-0.505    Cl( 0)   s(  5) 0.407    Cl( 0)  py(  7) 0.331    Cl( 0)  pz( 12)-0.293    Cl( 0)   s(  9) 0.217    Cl( 0)   s(  1)-0.207    Cl( 0)  pz(  4) 0.200  

Solving NDIM= 3  with thresh 1.000000e-06     k 8    conv 1.000000e-04 

timer:     Project vnuclear     1.07s     1.07s
timer:     project ao basis     0.70s     0.70s

Iteration 0 at time 46.8s

warning: boys localization did not fully converge:  537
timer:        Boys localize     0.31s     0.31s
timer:      Rotate subspace     0.12s     0.12s
timer:       Make densities     0.04s     0.04s
timer:       Load balancing     0.00s     0.00s
timer:       Nuclear energy     0.04s     0.04s
timer:              Coulomb     0.47s     0.47s
timer:        DFT potential     0.13s     0.13s
timer:                V*psi     1.33s     1.33s
timer:        Truncate Vpsi     1.06s     1.06s
timer:            PE matrix     0.03s     0.03s
timer:    KEmat reconstruct     0.01s     0.01s
timer:  KEmat differentiate     0.43s     0.43s
timer:       KEmat compress     0.07s     0.07s
timer: KEmat inner products     0.05s     0.05s
timer:            KE matrix     0.56s     0.56s
timer: Make fock matrix res     0.00s     0.00s

              kinetic     574.15544741
         nonlocal psp       0.00000000
   nuclear attraction   -1681.12625009
              coulomb     417.22325625
                  PCM       0.00000000
 exchange-correlation     -44.34988790
    nuclear-repulsion     157.88984081
                total    -576.20759351

timer: Compute residual stu     0.21s     0.21s
entering apply
timer:            Apply BSH     9.37s     9.37s
timer:     Truncate new psi     0.48s     0.48s
residuals [1.880364e-04, 2.578818e-04, 2.997475e-04, 2.358316e-04, 2.485879e-04, 2.913549e-04, 3.200483e-04, 2.763338e-04, 4.377949e-04, 3.729673e-04, 4.080604e-04, 4.737827e-04, 4.406456e-04, 4.390337e-04, 5.143389e-04, 4.738606e-04, 4.082557e-04, 4.153094e-04, 4.404399e-04, 4.138072e-04, 3.736910e-04]
BSH residual: rms 3.788820e-04    max 5.143389e-04
timer:         BSH residual     0.20s     0.20s
timer: Update subspace stuf     0.08s     0.08s
Subspace solution [*]   1.00000000

timer:   Subspace transform     0.03s     0.03s
Norm of vector changes alpha : rms 3.788820e-04    max 5.143389e-04
ORTHOG2a: maxq trantol 1.190203e-04 4.761905e-09
timer:       Orthonormalize     0.27s     0.27s

Iteration 1 at time 62.3s

timer:        Boys localize     0.71s     0.71s
timer:      Rotate subspace     0.28s     0.28s
timer:       Make densities     0.11s     0.11s
timer:       Load balancing     0.00s     0.00s
delta rho 1.048926e-03 1.048926e-03 residuals 5.143389e-04 0.000000e+00
timer:       Nuclear energy     0.05s     0.05s
timer:              Coulomb     1.04s     1.04s
timer:        DFT potential     0.35s     0.35s
timer:                V*psi     0.73s     0.73s
timer:        Truncate Vpsi     1.06s     1.06s
timer:            PE matrix     0.06s     0.06s
timer:    KEmat reconstruct     0.03s     0.03s
timer:  KEmat differentiate     0.95s     0.95s
timer:       KEmat compress     0.16s     0.16s
timer: KEmat inner products     0.08s     0.08s
timer:            KE matrix     1.23s     1.23s
timer: Make fock matrix res     0.00s     0.00s

              kinetic     574.13778795
         nonlocal psp       0.00000000
   nuclear attraction   -1681.11344434
              coulomb     417.22382848
                  PCM       0.00000000
 exchange-correlation     -44.34991021
    nuclear-repulsion     157.88984081
                total    -576.21189730

timer: Compute residual stu     0.33s     0.33s
entering apply
timer:            Apply BSH    11.71s    11.71s
timer:     Truncate new psi     0.54s     0.54s
residuals [1.949274e-05, 3.047183e-05, 4.549227e-05, 3.808066e-05, 2.902914e-05, 4.490544e-05, 2.509871e-05, 2.000899e-05, 1.097312e-04, 1.166018e-04, 1.068129e-04, 1.318236e-04, 1.181459e-04, 1.987997e-04, 1.987203e-04, 1.318243e-04, 1.066977e-04, 1.085784e-04, 1.179398e-04, 1.270403e-04, 1.163465e-04]
BSH residual: rms 1.069596e-04    max 1.987997e-04
timer:         BSH residual     0.25s     0.25s
timer: Update subspace stuf     0.28s     0.28s
Subspace solution [*]  -0.09757275   1.09757275

timer:   Subspace transform     0.06s     0.06s
Norm of vector changes alpha : rms 3.281193e-03    max 1.062323e-02
ORTHOG2a: maxq trantol 1.660942e-04 4.761905e-09
timer:       Orthonormalize     0.28s     0.28s

Iteration 2 at time 82.6s

timer:        Boys localize     0.66s     0.66s
timer:      Rotate subspace     0.26s     0.26s
timer:       Make densities     0.12s     0.12s
delta rho 2.503173e-04 2.503173e-04 residuals 1.987997e-04 0.000000e+00
timer:       Nuclear energy     0.05s     0.05s
timer:              Coulomb     0.93s     0.93s
timer:        DFT potential     0.31s     0.31s
timer:                V*psi     0.68s     0.68s
timer:        Truncate Vpsi     0.74s     0.74s
timer:            PE matrix     0.05s     0.05s
timer:    KEmat reconstruct     0.02s     0.02s
timer:  KEmat differentiate     0.91s     0.91s
timer:       KEmat compress     0.15s     0.15s
timer: KEmat inner products     0.08s     0.08s
timer:            KE matrix     1.16s     1.16s
timer: Make fock matrix res     0.00s     0.00s

              kinetic     574.13895688
         nonlocal psp       0.00000000
   nuclear attraction   -1681.12093634
              coulomb     417.23069636
                  PCM       0.00000000
 exchange-correlation     -44.35046041
    nuclear-repulsion     157.88984081
                total    -576.21190270


Converged!

timer:              Overlap     0.06s     0.06s
timer:      focka eigen sol     0.00s     0.00s
 
alpha eigenvalues
[*] -100.30507278  -9.84435216  -9.79931362  -9.78938580  -9.12718629  -6.98560546  -6.97527064  -6.97516490  -0.78312763  -0.70508460  -0.60351705  -0.53617811  -0.43977931  -0.40775596  -0.38965906  -0.37004651  -0.33359242  -0.32238236  -0.30481120  -0.25994365  -0.25841229


 Dipole Moment (a.u.)
 -----------

     x:  -8.287354e-01
     y:  -2.012269e-01
     z:  -1.681937e-07
 Total Dipole Moment:  8.528157e-01 

timer:               dipole     0.00s     0.00s
Orbitals are localized - energies are diagonal Fock matrix elements

Analysis of alpha MO vectors
timer:      Analyze vectors     1.17s     1.17s
timer: Compute eigen gesv a     0.00s     0.00s
  MO   0 : occ=1.00 : energy=-100.30495365 : center=(3.29,0.19,0.00) : radius=0.11
           Cl( 0)   s(  0) 0.996  
  MO   1 : occ=1.00 : energy=  -9.78933930 : center=(-4.50,-0.13,0.00) : radius=0.32
            C( 3)   s( 31) 0.994  
  MO   2 : occ=1.00 : energy=  -9.79921584 : center=(-1.84,0.97,0.00) : radius=0.32
            C( 2)   s( 22) 0.994  
  MO   3 : occ=1.00 : energy=  -9.84417541 : center=(0.15,-1.11,0.00) : radius=0.32
            C( 1)   s( 13)-0.994  
  MO   4 : occ=1.00 : energy=  -9.12714764 : center=(3.29,0.19,0.00) : radius=0.49
           Cl( 0)   s(  1) 1.027    Cl( 0)   s(  0)-0.287  
  MO   5 : occ=1.00 : energy=  -6.98539567 : center=(3.29,0.19,0.00) : radius=0.46
           Cl( 0)  px(  2)-0.896    Cl( 0)  py(  3)-0.422  
  MO   6 : occ=1.00 : energy=  -6.97520003 : center=(3.29,0.19,-0.00) : radius=0.46
           Cl( 0)  pz(  4) 0.732    Cl( 0)  py(  3) 0.602    Cl( 0)  px(  2)-0.287  
  MO   7 : occ=1.00 : energy=  -6.97520899 : center=(3.29,0.19,0.00) : radius=0.46
           Cl( 0)  pz(  4) 0.666    Cl( 0)  py(  3)-0.664    Cl( 0)  px(  2) 0.309  
  MO   8 : occ=1.00 : energy=  -0.48466401 : center=(-0.81,-0.07,0.00) : radius=1.64
            C( 1)  py( 16)-0.284     C( 2)  py( 25) 0.264     C( 2)  px( 24)-0.249     C( 1)  px( 15) 0.242     C( 1)   s( 18)-0.217     C( 1)   s( 14)-0.202     C( 2)   s( 23)-0.180     C( 2)   s( 27)-0.158     C( 1)  py( 20)-0.148  
  MO   9 : occ=1.00 : energy=  -0.39190475 : center=(3.28,0.63,0.71) : radius=1.81
           Cl( 0)  pz(  8) 0.505    Cl( 0)   s(  5) 0.407    Cl( 0)  py(  7) 0.331    Cl( 0)  pz( 12) 0.293    Cl( 0)   s(  9) 0.217    Cl( 0)   s(  1)-0.207    Cl( 0)  pz(  4)-0.200  
  MO  10 : occ=1.00 : energy=  -0.42693718 : center=(-4.71,-0.92,-1.12) : radius=1.64
            C( 3)  pz( 35) 0.317     H( 9)   s( 50)-0.304     H( 9)   s( 51)-0.247     C( 3)  py( 34) 0.219     C( 3)   s( 36)-0.198     C( 3)   s( 32)-0.185     C( 3)  pz( 39) 0.160  
  MO  11 : occ=1.00 : energy=  -0.45074174 : center=(0.06,-1.89,1.12) : radius=1.62
            C( 1)  pz( 17)-0.328     H( 4)   s( 40)-0.304     H( 4)   s( 41)-0.223     C( 1)  py( 16) 0.218     C( 1)   s( 18)-0.217     C( 1)   s( 14)-0.200     C( 1)  pz( 21)-0.175  
  MO  12 : occ=1.00 : energy=  -0.42914525 : center=(-1.66,1.75,-1.12) : radius=1.65
            C( 2)  pz( 26) 0.321     H( 7)   s( 46)-0.304     H( 7)   s( 47)-0.240     C( 2)   s( 27)-0.224     C( 2)  py( 25)-0.221     C( 2)   s( 23)-0.183     C( 2)  pz( 30) 0.165  
  MO  13 : occ=1.00 : energy=  -0.42816484 : center=(-5.43,0.88,-0.00) : radius=1.66
            H(10)   s( 52)-0.304     C( 3)  py( 34)-0.290     C( 3)  px( 33) 0.258     H(10)   s( 53)-0.241     C( 3)   s( 32)-0.189     C( 3)   s( 36)-0.186     C( 3)  py( 38)-0.149  
  MO  14 : occ=1.00 : energy=  -0.47204325 : center=(-3.15,0.39,0.00) : radius=1.67
            C( 3)  px( 33) 0.338     C( 2)  px( 24)-0.337     C( 3)   s( 36) 0.190     C( 2)   s( 23) 0.189     C( 3)   s( 32) 0.183     C( 3)  px( 37) 0.161     C( 2)   s( 27) 0.161     C( 2)  px( 28)-0.153     C( 2)  py( 25)-0.150  
  MO  15 : occ=1.00 : energy=  -0.45074175 : center=(0.06,-1.89,-1.12) : radius=1.62
            C( 1)  pz( 17)-0.328     H( 5)   s( 42) 0.304     H( 5)   s( 43) 0.223     C( 1)  py( 16)-0.218     C( 1)   s( 18) 0.217     C( 1)   s( 14) 0.200     C( 1)  pz( 21)-0.175  
  MO  16 : occ=1.00 : energy=  -0.42693730 : center=(-4.71,-0.92,1.12) : radius=1.64
            C( 3)  pz( 35)-0.317     H( 8)   s( 48)-0.304     H( 8)   s( 49)-0.247     C( 3)  py( 34) 0.219     C( 3)   s( 36)-0.198     C( 3)   s( 32)-0.185     C( 3)  pz( 39)-0.160  
  MO  17 : occ=1.00 : energy=  -0.53940642 : center=(1.85,-0.40,0.00) : radius=1.76
           Cl( 0)  px(  6) 0.475     C( 1)  px( 15)-0.307    Cl( 0)   s(  5)-0.294     C( 1)   s( 18)-0.282    Cl( 0)  py(  7) 0.201    Cl( 0)  px(  2)-0.187     C( 1)  px( 19)-0.169  
  MO  18 : occ=1.00 : energy=  -0.42914536 : center=(-1.66,1.75,1.12) : radius=1.65
            C( 2)  pz( 26)-0.321     H( 6)   s( 44)-0.304     H( 6)   s( 45)-0.240     C( 2)   s( 27)-0.224     C( 2)  py( 25)-0.221     C( 2)   s( 23)-0.183     C( 2)  pz( 30)-0.165  
  MO  19 : occ=1.00 : energy=  -0.39326873 : center=(3.76,-0.50,-0.00) : radius=1.81
           Cl( 0)  py(  7) 0.475    Cl( 0)   s(  5)-0.403    Cl( 0)  px(  6)-0.377    Cl( 0)  py( 11) 0.282    Cl( 0)   s(  1) 0.208    Cl( 0)   s(  9)-0.208    Cl( 0)  py(  3)-0.188    Cl( 0)  px( 10)-0.187  
  MO  20 : occ=1.00 : energy=  -0.39190468 : center=(3.28,0.63,-0.71) : radius=1.81
           Cl( 0)  pz(  8)-0.505    Cl( 0)   s(  5) 0.407    Cl( 0)  py(  7) 0.331    Cl( 0)  pz( 12)-0.293    Cl( 0)   s(  9) 0.217    Cl( 0)   s(  1)-0.207    Cl( 0)  pz(  4) 0.200  
timer:             plotting     0.00s     0.00s

    Parallel environment
    --------------------
                  #nodes    1
       #threads per node    27+main = 28
          #total threads    28

  RMI message statistics (min / avg / max)
  ----------------------
   #messages in server q    0.00e+00 / 0.00e+00 / 0.00e+00
 #messages sent per node    0.00e+00 / 0.00e+00 / 0.00e+00
    #bytes sent per node    0.00e+00 / 0.00e+00 / 0.00e+00
 #messages recv per node    0.00e+00 / 0.00e+00 / 0.00e+00
    #bytes recv per node    0.00e+00 / 0.00e+00 / 0.00e+00
        #msgs systemwide    0.00e+00
       #bytes systemwide    0.00e+00

  Thread pool statistics (min / avg / max)
  ----------------------
         #tasks per node    0.00e+00 / 0.00e+00 / 0.00e+00
     #max q len per node    0.00e+00 / 0.00e+00 / 0.00e+00
  #hi-pri tasks per node    0.00e+00 / 0.00e+00 / 0.00e+00

         Total wall time    90.4s
         Total  cpu time    90.4s

