MADNESS runtime initialized with 27 threads in the pool and affinity -1 -1 -1

--------------------------------------------
   MADNESS 0.10.1 multiresolution suite
--------------------------------------------

   number of processors ... 1
    processor frequency ... 1.995417e+09
            host system ... linux-gnu
          configured by ... egentles
          configured on ... sn093
          configured at ... Tue Jul 11 16:06:48 EDT 2017
                    CXX ... mpicxx
               CXXFLAGS ... -g -std=c++14 -O3 -Wall -Wno-strict-aliasing -Wno-deprecated -Wno-unused-local-typedefs  -ffast-math -march=native
             tuning for ... default
                    MPI ... multiple
 multi-threaded runtime ... Intel TBB
                   BLAS ... Intel MKL 14197 14197 MFLOP/s
               compiled ... 08:44:05  on  Jul 29 2017
input filename:  /gpfs/home/egentles/auto_test_mad/geometries_LDA_boys/nitromethane.mdns

Angstrom being used to read input coordinates (1 Bohr = 1.88972613 Angstrom)

Abelian pointgroup

 The point group is Cs

Construct XC Functional from LIBXC Library

input line was:  LDA
 1.000 lda_x 
 1.000 lda_c_vwn 

screening parameters
 rhotol, rhomin 1.000000e-07 0.000000e+00
         ggatol 1.000000e-04
polarized  false 


Solving NDIM= 3  with thresh 1.000000e-05     k 8    conv 1.000000e-04 




 MADNESS Hartree-Fock and Density Functional Theory Program
 ----------------------------------------------------------



 geometry
   eprec 1.0e-04
   units atomic
   C             2.49607429          -0.00000000           0.00000000
   N            -0.31697203           0.00000000           0.00000000
   H             3.10210946           1.96380340           0.00000000
   H             3.10210946          -0.98190170           1.70075352
   H             3.10210946          -0.98190170          -1.70075352
   O            -1.37899812          -2.05488820           0.00000000
   O            -1.37899812           2.05488820           0.00000000
 end


             restart  false
    restart from AOs  false
 number of processes  1
   no. of io servers  1
   vnuc load bal fac  12
      load bal parts  2
     simulation cube  -5.310211e+01 5.310211e+01
        total charge  0.000000e+00
            smearing  0.000000e+00
 number of electrons  16 16
  number of orbitals  16 16
     spin restricted  true
       xc functional   LDA
          xc library  libxc
 initial guess basis  6-31g
 max krylov subspace  5
    compute protocol  [1.000000e-04, 1.000000e-06]
  energy convergence  1.000000e-05
 density convergence  1.000000e-04
    maximum rotation  2.500000e-01
    polynomial order  -1
       truncate mode  1
  maximum iterations  20
 Convergence criteria are density delta & BSH residual.
        plot density  false
        plot coulomb  false
        plot orbital  0 -1
        plot npoints  101
        plot  volume  default
  localized orbitals  boys
 psp or all electron  all electron
timer:           initialize     0.41s     0.41s

Solving NDIM= 3  with thresh 1.000000e-04     k 6    conv 1.000000e-04 


Solving NDIM= 3  with thresh 1.000000e-04     k 6    conv 1.000000e-04 

timer:     Project vnuclear     0.35s     0.35s
timer:     project ao basis     0.38s     0.38s
guess dens trace 3.200011e+01
timer:        guess density     0.38s     0.38s
timer:   guess Coulomb potn     0.35s     0.35s
timer:       guess lda potn     0.20s     0.20s
timer:        guess overlap     0.02s     0.02s
timer:    KEmat reconstruct     0.01s     0.01s
timer:  KEmat differentiate     0.45s     0.45s
timer:       KEmat compress     0.06s     0.06s
timer: KEmat inner products     0.04s     0.04s
timer:     guess Kinet potn     0.58s     0.58s
timer:           guess fock     1.49s     1.49s
timer:      guess eigen sol     0.00s     0.00s
grouping alpha orbitals into sets
set  0    0  -  1
set  1    2  -  2
set  2    3  -  3
set  3    4  -  15
timer: guess orbital groupi     0.05s     0.05s
timer:     project ao basis     0.27s     0.27s

Iteration 0 at time 4.8s

timer:        Boys localize     0.22s     0.22s
timer:      Rotate subspace     0.09s     0.09s
timer:       Make densities     0.03s     0.03s
timer:       Load balancing     0.00s     0.00s
timer:       Nuclear energy     0.01s     0.01s
timer:              Coulomb     0.10s     0.10s
timer:        DFT potential     0.08s     0.08s
timer:                V*psi     0.18s     0.18s
timer:        Truncate Vpsi     0.21s     0.21s
timer:            PE matrix     0.02s     0.02s
timer:    KEmat reconstruct     0.01s     0.01s
timer:  KEmat differentiate     0.32s     0.32s
timer:       KEmat compress     0.04s     0.04s
timer: KEmat inner products     0.03s     0.03s
timer:            KE matrix     0.39s     0.39s
timer: Make fock matrix res     0.00s     0.00s

              kinetic     245.07537101
         nonlocal psp       0.00000000
   nuclear attraction    -826.96587294
              coulomb     243.01386832
                  PCM       0.00000000
 exchange-correlation     -28.94758810
    nuclear-repulsion     124.96716883
                total    -242.85705287

timer: Compute residual stu     0.07s     0.07s
entering apply
timer:            Apply BSH     0.93s     0.93s
timer:     Truncate new psi     0.11s     0.11s
residuals [8.090429e-03, 8.109193e-03, 7.679716e-03, 1.001078e-02, 7.534372e-02, 7.559975e-02, 6.335678e-02, 7.534374e-02, 1.162932e-01, 1.168379e-01, 7.536892e-02, 7.410573e-02, 7.536856e-02, 7.559988e-02, 1.191209e-01, 1.121461e-01]
BSH residual: rms 7.821556e-02    max 1.191209e-01
timer:         BSH residual     0.06s     0.06s
timer: Update subspace stuf     0.05s     0.05s
Subspace solution [*]   1.00000000

timer:   Subspace transform     0.01s     0.01s
Norm of vector changes alpha : rms 7.821556e-02    max 1.191209e-01
ORTHOG2a: maxq trantol 1.152159e-02 6.250000e-07
ORTHOG2a: maxq trantol 7.611967e-05 6.250000e-07
timer:       Orthonormalize     0.11s     0.11s

Iteration 1 at time 7.8s

timer:        Boys localize     0.21s     0.21s
timer:      Rotate subspace     0.08s     0.08s
timer:       Make densities     0.03s     0.03s
timer:       Load balancing     0.00s     0.00s
delta rho 1.546372e-01 1.546372e-01 residuals 1.191209e-01 0.000000e+00
timer:       Nuclear energy     0.01s     0.01s
timer:              Coulomb     0.11s     0.11s
timer:        DFT potential     0.09s     0.09s
timer:                V*psi     0.18s     0.18s
timer:        Truncate Vpsi     0.22s     0.22s
timer:            PE matrix     0.02s     0.02s
timer:    KEmat reconstruct     0.01s     0.01s
timer:  KEmat differentiate     0.32s     0.32s
timer:       KEmat compress     0.04s     0.04s
timer: KEmat inner products     0.03s     0.03s
timer:            KE matrix     0.40s     0.40s
timer: Make fock matrix res     0.00s     0.00s

              kinetic     240.84158187
         nonlocal psp       0.00000000
   nuclear attraction    -820.57708814
              coulomb     239.95625143
                  PCM       0.00000000
 exchange-correlation     -28.42031843
    nuclear-repulsion     124.96716883
                total    -243.23240444

timer: Compute residual stu     0.07s     0.07s
entering apply
timer:            Apply BSH     0.93s     0.93s
timer:     Truncate new psi     0.11s     0.11s
residuals [1.021771e-03, 1.016599e-03, 1.852321e-03, 1.141546e-03, 2.399230e-02, 2.433306e-02, 2.038503e-02, 2.399221e-02, 5.580146e-02, 5.780608e-02, 1.589075e-02, 1.660023e-02, 1.589093e-02, 2.433312e-02, 5.955967e-02, 5.453246e-02]
BSH residual: rms 3.212759e-02    max 5.955967e-02
timer:         BSH residual     0.06s     0.06s
timer: Update subspace stuf     0.10s     0.10s
Subspace solution [*]   0.15339243   0.84660757

timer:   Subspace transform     0.02s     0.02s
Norm of vector changes alpha : rms 2.589056e-02    max 4.766958e-02
ORTHOG2a: maxq trantol 5.778208e-03 6.250000e-07
timer:       Orthonormalize     0.09s     0.09s

Iteration 2 at time 10.9s

timer:        Boys localize     0.25s     0.25s
timer:      Rotate subspace     0.09s     0.09s
timer:       Make densities     0.03s     0.03s
delta rho 3.746739e-02 3.746739e-02 residuals 5.955967e-02 0.000000e+00
timer:       Nuclear energy     0.01s     0.01s
timer:              Coulomb     0.13s     0.13s
timer:        DFT potential     0.10s     0.10s
timer:                V*psi     0.21s     0.21s
timer:        Truncate Vpsi     0.25s     0.25s
timer:            PE matrix     0.02s     0.02s
timer:    KEmat reconstruct     0.01s     0.01s
timer:  KEmat differentiate     0.33s     0.33s
timer:       KEmat compress     0.04s     0.04s
timer: KEmat inner products     0.03s     0.03s
timer:            KE matrix     0.41s     0.41s
timer: Make fock matrix res     0.00s     0.00s

              kinetic     242.04043845
         nonlocal psp       0.00000000
   nuclear attraction    -823.37366875
              coulomb     241.69687597
                  PCM       0.00000000
 exchange-correlation     -28.60133567
    nuclear-repulsion     124.96716883
                total    -243.27052117

timer: Compute residual stu     0.07s     0.07s
entering apply
timer:            Apply BSH     0.94s     0.94s
timer:     Truncate new psi     0.11s     0.11s
residuals [6.160716e-04, 6.161535e-04, 8.493589e-04, 4.663558e-04, 1.328464e-02, 1.352739e-02, 8.608466e-03, 1.328465e-02, 1.141201e-02, 1.132312e-02, 5.499419e-03, 5.587917e-03, 5.499463e-03, 1.352740e-02, 1.143901e-02, 1.091298e-02]
BSH residual: rms 9.336929e-03    max 1.352740e-02
timer:         BSH residual     0.06s     0.06s
timer: Update subspace stuf     0.15s     0.15s
Subspace solution [*]  -0.06557787   0.01648891   1.04908896

timer:   Subspace transform     0.02s     0.02s
Norm of vector changes alpha : rms 9.503590e-03    max 1.393460e-02
ORTHOG2a: maxq trantol 1.193852e-03 6.250000e-07
timer:       Orthonormalize     0.09s     0.09s

Iteration 3 at time 14.3s

timer:        Boys localize     0.25s     0.25s
timer:      Rotate subspace     0.09s     0.09s
timer:       Make densities     0.03s     0.03s
delta rho 1.275290e-02 1.275290e-02 residuals 1.352740e-02 0.000000e+00
timer:       Nuclear energy     0.01s     0.01s
timer:              Coulomb     0.12s     0.12s
timer:        DFT potential     0.10s     0.10s
timer:                V*psi     0.21s     0.21s
timer:        Truncate Vpsi     0.24s     0.24s
timer:            PE matrix     0.02s     0.02s
timer:    KEmat reconstruct     0.01s     0.01s
timer:  KEmat differentiate     0.33s     0.33s
timer:       KEmat compress     0.04s     0.04s
timer: KEmat inner products     0.03s     0.03s
timer:            KE matrix     0.41s     0.41s
timer: Make fock matrix res     0.00s     0.00s

              kinetic     241.82751257
         nonlocal psp       0.00000000
   nuclear attraction    -823.02473792
              coulomb     241.52455415
                  PCM       0.00000000
 exchange-correlation     -28.57523823
    nuclear-repulsion     124.96716883
                total    -243.28074059

timer: Compute residual stu     0.07s     0.07s
entering apply
timer:            Apply BSH     0.93s     0.93s
timer:     Truncate new psi     0.10s     0.10s
residuals [1.482123e-04, 1.462033e-04, 2.885704e-04, 1.098425e-04, 6.529904e-03, 6.620836e-03, 3.584767e-03, 6.529885e-03, 5.366247e-03, 5.335760e-03, 2.636018e-03, 2.696025e-03, 2.636014e-03, 6.620841e-03, 5.537791e-03, 5.193486e-03]
BSH residual: rms 4.486169e-03    max 6.620841e-03
timer:         BSH residual     0.06s     0.06s
timer: Update subspace stuf     0.20s     0.20s
Subspace solution [*]  -0.02068339  -0.13053098  -0.04545971   1.19667408

timer:   Subspace transform     0.03s     0.03s
Norm of vector changes alpha : rms 5.701852e-03    max 8.603158e-03
ORTHOG2a: maxq trantol 6.093260e-04 6.250000e-07
timer:       Orthonormalize     0.08s     0.08s

Iteration 4 at time 17.6s

timer:        Boys localize     0.24s     0.24s
timer:      Rotate subspace     0.08s     0.08s
timer:       Make densities     0.03s     0.03s
delta rho 6.800893e-03 6.800893e-03 residuals 6.620841e-03 0.000000e+00
timer:       Nuclear energy     0.01s     0.01s
timer:              Coulomb     0.13s     0.13s
timer:        DFT potential     0.09s     0.09s
timer:                V*psi     0.20s     0.20s
timer:        Truncate Vpsi     0.25s     0.25s
timer:            PE matrix     0.02s     0.02s
timer:    KEmat reconstruct     0.01s     0.01s
timer:  KEmat differentiate     0.33s     0.33s
timer:       KEmat compress     0.04s     0.04s
timer: KEmat inner products     0.03s     0.03s
timer:            KE matrix     0.41s     0.41s
timer: Make fock matrix res     0.00s     0.00s

              kinetic     241.82845014
         nonlocal psp       0.00000000
   nuclear attraction    -823.04665362
              coulomb     241.54172712
                  PCM       0.00000000
 exchange-correlation     -28.57478333
    nuclear-repulsion     124.96716883
                total    -243.28409087

timer: Compute residual stu     0.07s     0.07s
entering apply
timer:            Apply BSH     0.96s     0.96s
timer:     Truncate new psi     0.11s     0.11s
residuals [1.826856e-04, 1.795176e-04, 1.414182e-04, 8.294192e-05, 4.053631e-03, 4.138307e-03, 1.941834e-03, 4.053627e-03, 2.790553e-03, 2.607958e-03, 1.111615e-03, 1.161334e-03, 1.111620e-03, 4.138308e-03, 2.660694e-03, 2.698068e-03]
BSH residual: rms 2.546392e-03    max 4.138308e-03
timer:         BSH residual     0.06s     0.06s
timer: Update subspace stuf     0.25s     0.25s
Subspace solution [*]   0.01147629  -0.00570056  -0.22175306   0.06993143   1.14604590

timer:   Subspace transform     0.04s     0.04s
Norm of vector changes alpha : rms 3.240807e-03    max 5.307186e-03
ORTHOG2a: maxq trantol 5.588368e-04 6.250000e-07
timer:       Orthonormalize     0.09s     0.09s

Iteration 5 at time 21.1s

timer:        Boys localize     0.23s     0.23s
timer:      Rotate subspace     0.08s     0.08s
timer:       Make densities     0.03s     0.03s
delta rho 3.977270e-03 3.977270e-03 residuals 4.138308e-03 0.000000e+00
timer:       Nuclear energy     0.01s     0.01s
timer:              Coulomb     0.12s     0.12s
timer:        DFT potential     0.09s     0.09s
timer:                V*psi     0.19s     0.19s
timer:        Truncate Vpsi     0.23s     0.23s
timer:            PE matrix     0.02s     0.02s
timer:    KEmat reconstruct     0.01s     0.01s
timer:  KEmat differentiate     0.34s     0.34s
timer:       KEmat compress     0.04s     0.04s
timer: KEmat inner products     0.03s     0.03s
timer:            KE matrix     0.42s     0.42s
timer: Make fock matrix res     0.00s     0.00s

              kinetic     241.85762268
         nonlocal psp       0.00000000
   nuclear attraction    -823.11148093
              coulomb     241.57892904
                  PCM       0.00000000
 exchange-correlation     -28.57768502
    nuclear-repulsion     124.96716883
                total    -243.28544539

timer: Compute residual stu     0.09s     0.09s
entering apply
timer:            Apply BSH     0.96s     0.96s
timer:     Truncate new psi     0.12s     0.12s
residuals [8.716344e-05, 8.485377e-05, 1.477444e-04, 6.359188e-05, 2.688679e-03, 2.744292e-03, 1.297895e-03, 2.688681e-03, 1.381232e-03, 1.662800e-03, 6.190810e-04, 5.850961e-04, 6.190819e-04, 2.744293e-03, 1.696712e-03, 1.327588e-03]
BSH residual: rms 1.613776e-03    max 2.744293e-03
timer:         BSH residual     0.07s     0.07s
timer: Update subspace stuf     0.26s     0.26s
Subspace solution [*]   0.05339226   0.12930896  -0.63377806  -0.46479323   1.91587006

timer:   Subspace transform     0.03s     0.03s
Norm of vector changes alpha : rms 4.023323e-03    max 7.154782e-03
ORTHOG2a: maxq trantol 2.560389e-04 6.250000e-07
timer:       Orthonormalize     0.09s     0.09s

Iteration 6 at time 24.6s

timer:        Boys localize     0.25s     0.25s
timer:      Rotate subspace     0.09s     0.09s
timer:       Make densities     0.03s     0.03s
delta rho 5.087987e-03 5.087987e-03 residuals 2.744293e-03 0.000000e+00
timer:       Nuclear energy     0.01s     0.01s
timer:              Coulomb     0.13s     0.13s
timer:        DFT potential     0.09s     0.09s
timer:                V*psi     0.21s     0.21s
timer:        Truncate Vpsi     0.25s     0.25s
timer:            PE matrix     0.02s     0.02s
timer:    KEmat reconstruct     0.01s     0.01s
timer:  KEmat differentiate     0.33s     0.33s
timer:       KEmat compress     0.05s     0.05s
timer: KEmat inner products     0.03s     0.03s
timer:            KE matrix     0.42s     0.42s
timer: Make fock matrix res     0.00s     0.00s

              kinetic     241.87090211
         nonlocal psp       0.00000000
   nuclear attraction    -823.14794305
              coulomb     241.60187955
                  PCM       0.00000000
 exchange-correlation     -28.57858412
    nuclear-repulsion     124.96716883
                total    -243.28657667

timer: Compute residual stu     0.08s     0.08s
entering apply
timer:            Apply BSH     0.95s     0.95s
timer:     Truncate new psi     0.11s     0.11s
residuals [1.779599e-04, 1.009908e-04, 1.311528e-04, 5.823587e-05, 2.075615e-03, 2.116223e-03, 9.617871e-04, 2.075612e-03, 1.286604e-03, 1.368309e-03, 5.053738e-04, 5.225243e-04, 5.053771e-04, 2.116216e-03, 1.387649e-03, 1.261588e-03]
BSH residual: rms 1.284261e-03    max 2.116223e-03
timer:         BSH residual     0.07s     0.07s
timer: Update subspace stuf     0.27s     0.27s
Subspace solution [*]   0.10937399  -0.07213559  -0.66374630   0.18161162   1.44489628

timer:   Subspace transform     0.03s     0.03s
Norm of vector changes alpha : rms 3.301971e-03    max 6.035180e-03
ORTHOG2a: maxq trantol 2.035358e-04 6.250000e-07
timer:       Orthonormalize     0.09s     0.09s

Iteration 7 at time 28.2s

timer:        Boys localize     0.24s     0.24s
timer:      Rotate subspace     0.09s     0.09s
timer:       Make densities     0.03s     0.03s
delta rho 3.807400e-03 3.807400e-03 residuals 2.116223e-03 0.000000e+00
timer:       Nuclear energy     0.01s     0.01s
timer:              Coulomb     0.14s     0.14s
timer:        DFT potential     0.09s     0.09s
timer:                V*psi     0.21s     0.21s
timer:        Truncate Vpsi     0.25s     0.25s
timer:            PE matrix     0.02s     0.02s
timer:    KEmat reconstruct     0.01s     0.01s
timer:  KEmat differentiate     0.35s     0.35s
timer:       KEmat compress     0.04s     0.04s
timer: KEmat inner products     0.03s     0.03s
timer:            KE matrix     0.43s     0.43s
timer: Make fock matrix res     0.00s     0.00s

              kinetic     241.87137461
         nonlocal psp       0.00000000
   nuclear attraction    -823.15737103
              coulomb     241.60996986
                  PCM       0.00000000
 exchange-correlation     -28.57819660
    nuclear-repulsion     124.96716883
                total    -243.28705433

timer: Compute residual stu     0.08s     0.08s
entering apply
timer:            Apply BSH     0.94s     0.94s
timer:     Truncate new psi     0.11s     0.11s
residuals [9.547781e-05, 8.171312e-05, 1.123244e-04, 5.790870e-05, 1.217848e-03, 1.216758e-03, 8.504956e-04, 1.217853e-03, 8.308413e-04, 9.515785e-04, 4.067731e-04, 4.362120e-04, 4.067782e-04, 1.216760e-03, 9.615447e-04, 8.219087e-04]
BSH residual: rms 8.062081e-04    max 1.217853e-03
timer:         BSH residual     0.06s     0.06s
timer: Update subspace stuf     0.26s     0.26s
Subspace solution [*]   0.08640953   0.04429723  -0.44837976   0.06401176   1.25366125

timer:   Subspace transform     0.03s     0.03s
Norm of vector changes alpha : rms 1.747747e-03    max 3.187186e-03
ORTHOG2a: maxq trantol 3.309834e-04 6.250000e-07
timer:       Orthonormalize     0.09s     0.09s

Iteration 8 at time 31.8s

timer:        Boys localize     0.25s     0.25s
timer:      Rotate subspace     0.09s     0.09s
timer:       Make densities     0.03s     0.03s
delta rho 1.874458e-03 1.874458e-03 residuals 1.217853e-03 0.000000e+00
timer:       Nuclear energy     0.01s     0.01s
timer:              Coulomb     0.12s     0.12s
timer:        DFT potential     0.09s     0.09s
timer:                V*psi     0.22s     0.22s
timer:        Truncate Vpsi     0.25s     0.25s
timer:            PE matrix     0.02s     0.02s
timer:    KEmat reconstruct     0.01s     0.01s
timer:  KEmat differentiate     0.34s     0.34s
timer:       KEmat compress     0.04s     0.04s
timer: KEmat inner products     0.03s     0.03s
timer:            KE matrix     0.42s     0.42s
timer: Make fock matrix res     0.00s     0.00s

              kinetic     241.88140434
         nonlocal psp       0.00000000
   nuclear attraction    -823.18493450
              coulomb     241.62877125
                  PCM       0.00000000
 exchange-correlation     -28.57961956
    nuclear-repulsion     124.96716883
                total    -243.28720964

timer: Compute residual stu     0.08s     0.08s
entering apply
timer:            Apply BSH     0.94s     0.94s
timer:     Truncate new psi     0.11s     0.11s
residuals [8.726922e-05, 7.765770e-05, 9.752313e-05, 5.241138e-05, 7.137084e-04, 6.984505e-04, 6.486554e-04, 7.137093e-04, 7.047816e-04, 6.927477e-04, 3.667365e-04, 3.261943e-04, 3.667399e-04, 6.984520e-04, 7.057577e-04, 6.961926e-04]
BSH residual: rms 5.463446e-04    max 7.137093e-04
timer:         BSH residual     0.07s     0.07s
timer: Update subspace stuf     0.26s     0.26s
Subspace solution [*]   0.13445817   0.01516291  -0.41295866  -0.04352814   1.30686573

timer:   Subspace transform     0.03s     0.03s
Norm of vector changes alpha : rms 9.008085e-04    max 1.357039e-03
ORTHOG2a: maxq trantol 9.351788e-05 6.250000e-07
timer:       Orthonormalize     0.09s     0.09s

Iteration 9 at time 35.3s

timer:        Boys localize     0.24s     0.24s
timer:      Rotate subspace     0.09s     0.09s
timer:       Make densities     0.03s     0.03s
delta rho 1.092616e-03 1.092616e-03 residuals 7.137093e-04 0.000000e+00
timer:       Nuclear energy     0.01s     0.01s
timer:              Coulomb     0.13s     0.13s
timer:        DFT potential     0.09s     0.09s
timer:                V*psi     0.20s     0.20s
timer:        Truncate Vpsi     0.24s     0.24s
timer:            PE matrix     0.02s     0.02s
timer:    KEmat reconstruct     0.01s     0.01s
timer:  KEmat differentiate     0.34s     0.34s
timer:       KEmat compress     0.04s     0.04s
timer: KEmat inner products     0.03s     0.03s
timer:            KE matrix     0.42s     0.42s
timer: Make fock matrix res     0.00s     0.00s

              kinetic     241.86597496
         nonlocal psp       0.00000000
   nuclear attraction    -823.15590736
              coulomb     241.61328972
                  PCM       0.00000000
 exchange-correlation     -28.57779557
    nuclear-repulsion     124.96716883
                total    -243.28726941

timer: Compute residual stu     0.07s     0.07s
entering apply
timer:            Apply BSH     0.94s     0.94s
timer:     Truncate new psi     0.11s     0.11s
residuals [7.617307e-05, 7.733577e-05, 8.792944e-05, 4.744850e-05, 4.361715e-04, 4.320671e-04, 4.493710e-04, 4.361719e-04, 4.722104e-04, 4.690126e-04, 2.852760e-04, 1.871804e-04, 2.852779e-04, 4.320679e-04, 4.826061e-04, 4.538940e-04]
BSH residual: rms 3.585773e-04    max 4.826061e-04
timer:         BSH residual     0.06s     0.06s
timer: Update subspace stuf     0.26s     0.26s
Subspace solution [*]   0.07196739  -0.06606781  -0.34198750   0.09380766   1.24228025

timer:   Subspace transform     0.03s     0.03s
Norm of vector changes alpha : rms 6.631996e-04    max 9.827485e-04
ORTHOG2a: maxq trantol 9.292595e-05 6.250000e-07
timer:       Orthonormalize     0.08s     0.08s

Iteration 10 at time 38.8s

timer:        Boys localize     0.24s     0.24s
timer:      Rotate subspace     0.08s     0.08s
timer:       Make densities     0.03s     0.03s
timer:       Load balancing     0.00s     0.00s
delta rho 8.197827e-04 8.197827e-04 residuals 4.826061e-04 0.000000e+00
timer:       Nuclear energy     0.01s     0.01s
timer:              Coulomb     0.13s     0.13s
timer:        DFT potential     0.09s     0.09s
timer:                V*psi     0.20s     0.20s
timer:        Truncate Vpsi     0.24s     0.24s
timer:            PE matrix     0.02s     0.02s
timer:    KEmat reconstruct     0.01s     0.01s
timer:  KEmat differentiate     0.35s     0.35s
timer:       KEmat compress     0.04s     0.04s
timer: KEmat inner products     0.03s     0.03s
timer:            KE matrix     0.42s     0.42s
timer: Make fock matrix res     0.00s     0.00s

              kinetic     241.86868656
         nonlocal psp       0.00000000
   nuclear attraction    -823.16243531
              coulomb     241.61756277
                  PCM       0.00000000
 exchange-correlation     -28.57828117
    nuclear-repulsion     124.96716883
                total    -243.28729832

timer: Compute residual stu     0.07s     0.07s
entering apply
timer:            Apply BSH     0.94s     0.94s
timer:     Truncate new psi     0.11s     0.11s
residuals [7.300709e-05, 7.632263e-05, 7.958445e-05, 1.485847e-04, 2.993687e-04, 3.044552e-04, 3.210130e-04, 2.993683e-04, 3.076383e-04, 2.816054e-04, 2.265039e-04, 1.330534e-04, 2.265034e-04, 3.044560e-04, 2.903693e-04, 3.020026e-04]
BSH residual: rms 2.471107e-04    max 3.210130e-04
timer:         BSH residual     0.06s     0.06s
timer: Update subspace stuf     0.26s     0.26s
Subspace solution [*]   0.03691756  -0.00168420  -0.30731823  -0.02236629   1.29445115

timer:   Subspace transform     0.03s     0.03s
Norm of vector changes alpha : rms 4.211743e-04    max 5.917044e-04
ORTHOG2a: maxq trantol 9.325478e-05 6.250000e-07
timer:       Orthonormalize     0.09s     0.09s

Iteration 11 at time 42.2s

timer:        Boys localize     0.23s     0.23s
timer:      Rotate subspace     0.08s     0.08s
timer:       Make densities     0.03s     0.03s
delta rho 4.761471e-04 4.761471e-04 residuals 3.210130e-04 0.000000e+00
timer:       Nuclear energy     0.01s     0.01s
timer:              Coulomb     0.12s     0.12s
timer:        DFT potential     0.09s     0.09s
timer:                V*psi     0.19s     0.19s
timer:        Truncate Vpsi     0.23s     0.23s
timer:            PE matrix     0.02s     0.02s
timer:    KEmat reconstruct     0.01s     0.01s
timer:  KEmat differentiate     0.33s     0.33s
timer:       KEmat compress     0.04s     0.04s
timer: KEmat inner products     0.03s     0.03s
timer:            KE matrix     0.40s     0.40s
timer: Make fock matrix res     0.00s     0.00s

              kinetic     241.86570155
         nonlocal psp       0.00000000
   nuclear attraction    -823.15610578
              coulomb     241.61389056
                  PCM       0.00000000
 exchange-correlation     -28.57796085
    nuclear-repulsion     124.96716883
                total    -243.28730569


Converged!

timer:              Overlap     0.02s     0.02s
timer:      focka eigen sol     0.00s     0.00s
 
alpha eigenvalues
[*] -18.65318248 -18.65209536 -14.09992219  -9.84994553  -1.14582049  -0.98280406  -0.75418478  -0.56698689  -0.51837175  -0.49794569  -0.47933397  -0.41111306  -0.39983938  -0.30133016  -0.27928372  -0.26070654


 Dipole Moment (a.u.)
 -----------

     x:  1.382511e+00
     y:  -5.342809e-05
     z:  -3.786894e-09
 Total Dipole Moment:  1.382511e+00 

timer:               dipole     0.00s     0.00s
Orbitals are localized - energies are diagonal Fock matrix elements

Analysis of alpha MO vectors
timer:      Analyze vectors     0.39s     0.39s
timer: Compute eigen gesv a     0.00s     0.00s
  MO   0 : occ=1.00 : energy= -18.65276670 : center=(-1.38,2.05,-0.00) : radius=0.23
            O(6)   s(33)-0.995  
  MO   1 : occ=1.00 : energy= -18.65167528 : center=(-1.38,-2.05,0.00) : radius=0.23
            O(5)   s(24) 0.995  
  MO   2 : occ=1.00 : energy= -14.09885733 : center=(-0.32,0.00,-0.00) : radius=0.27
            N(1)   s( 9) 0.996  
  MO   3 : occ=1.00 : energy=  -9.84984833 : center=(2.50,-0.00,0.00) : radius=0.32
            C(0)   s( 0)-0.994  
  MO   4 : occ=1.00 : energy=  -0.66295647 : center=(-0.95,1.21,0.41) : radius=1.49
            O(6)  pz(37) 0.378     N(1)  pz(13) 0.253     O(6)  py(36)-0.252     N(1)  py(12) 0.248     O(6)  pz(41) 0.246     N(1)   s(10) 0.204     O(6)   s(34) 0.178  
  MO   5 : occ=1.00 : energy=  -0.66166570 : center=(-0.96,-1.21,-0.42) : radius=1.48
            O(5)  pz(28) 0.381     O(5)  py(27)-0.253     N(1)  pz(13) 0.249     N(1)  py(12) 0.248     O(5)  pz(32) 0.243     N(1)   s(10)-0.203     O(5)   s(25)-0.178     N(1)  pz(17) 0.159  
  MO   6 : occ=1.00 : energy=  -0.64367693 : center=(0.90,0.00,0.00) : radius=1.46
            N(1)  px(11) 0.435     C(0)  px( 2)-0.342     N(1)   s(14) 0.317     N(1)   s(10) 0.254     C(0)   s( 1) 0.166     N(1)  px(15) 0.163  
  MO   7 : occ=1.00 : energy=  -0.66295646 : center=(-0.95,1.21,-0.41) : radius=1.49
            O(6)  pz(37) 0.378     N(1)  pz(13) 0.253     O(6)  py(36) 0.252     N(1)  py(12)-0.248     O(6)  pz(41) 0.246     N(1)   s(10)-0.204     O(6)   s(34)-0.178  
  MO   8 : occ=1.00 : energy=  -0.46181527 : center=(-0.94,-2.46,0.00) : radius=1.37
            O(5)   s(29) 0.420     O(5)  py(27)-0.394     O(5)  px(26) 0.312     O(5)   s(25) 0.308     O(5)  py(31)-0.238     O(5)  px(30) 0.220     O(6)   s(38) 0.183  
  MO   9 : occ=1.00 : energy=  -0.46017587 : center=(-1.95,1.95,-0.00) : radius=1.38
            O(6)  px(35)-0.501     O(6)   s(38) 0.478     O(6)   s(34) 0.309     O(6)  px(39)-0.306     N(1)  py(16)-0.215     O(5)   s(29)-0.198  
  MO  10 : occ=1.00 : energy=  -0.48903671 : center=(2.85,-0.63,1.09) : radius=1.61
            C(0)  pz( 4) 0.332     H(3)   s(20) 0.309     C(0)   s( 5) 0.207     C(0)   s( 1) 0.199     H(3)   s(21) 0.196     C(0)  py( 3)-0.196     C(0)  pz( 8) 0.166  
  MO  11 : occ=1.00 : energy=  -0.48215088 : center=(2.89,1.27,-0.00) : radius=1.57
            C(0)  py( 3)-0.388     H(2)   s(18)-0.310     C(0)   s( 5)-0.221     C(0)   s( 1)-0.201     H(2)   s(19)-0.200     C(0)  py( 7)-0.179  
  MO  12 : occ=1.00 : energy=  -0.48903649 : center=(2.85,-0.63,-1.09) : radius=1.61
            C(0)  pz( 4) 0.332     H(4)   s(22)-0.309     C(0)   s( 5)-0.207     C(0)   s( 1)-0.199     H(4)   s(23)-0.196     C(0)  py( 3) 0.196     C(0)  pz( 8) 0.166  
  MO  13 : occ=1.00 : energy=  -0.66166589 : center=(-0.96,-1.21,0.42) : radius=1.48
            O(5)  pz(28) 0.381     O(5)  py(27) 0.253     N(1)  pz(13) 0.249     N(1)  py(12)-0.248     O(5)  pz(32) 0.243     N(1)   s(10) 0.203     O(5)   s(25) 0.178     N(1)  pz(17) 0.159  
  MO  14 : occ=1.00 : energy=  -0.46106312 : center=(-1.95,-1.95,0.00) : radius=1.39
            O(5)  px(26) 0.498     O(5)   s(29)-0.455     O(5)   s(25)-0.314     O(5)  px(30) 0.311  
  MO  15 : occ=1.00 : energy=  -0.46351928 : center=(-0.94,2.47,-0.00) : radius=1.36
            O(6)  py(36) 0.395     O(6)   s(38) 0.389     O(6)   s(34) 0.314     O(6)  px(35) 0.310     O(6)  py(40) 0.248     O(6)  px(39) 0.210     O(5)   s(29) 0.208  

Solving NDIM= 3  with thresh 1.000000e-06     k 8    conv 1.000000e-04 

timer:     Project vnuclear     0.65s     0.65s
timer:     project ao basis     0.56s     0.56s

Iteration 0 at time 45.9s

timer:        Boys localize     0.24s     0.24s
timer:      Rotate subspace     0.09s     0.09s
timer:       Make densities     0.03s     0.03s
timer:       Load balancing     0.00s     0.00s
timer:       Nuclear energy     0.03s     0.03s
timer:              Coulomb     0.38s     0.38s
timer:        DFT potential     0.11s     0.11s
timer:                V*psi     0.77s     0.77s
timer:        Truncate Vpsi     0.63s     0.63s
timer:            PE matrix     0.02s     0.02s
timer:    KEmat reconstruct     0.01s     0.01s
timer:  KEmat differentiate     0.32s     0.32s
timer:       KEmat compress     0.05s     0.05s
timer: KEmat inner products     0.04s     0.04s
timer:            KE matrix     0.42s     0.42s
timer: Make fock matrix res     0.00s     0.00s

              kinetic     241.86692122
         nonlocal psp       0.00000000
   nuclear attraction    -823.15613106
              coulomb     241.61345410
                  PCM       0.00000000
 exchange-correlation     -28.57796040
    nuclear-repulsion     124.96716883
                total    -243.28654730

timer: Compute residual stu     0.15s     0.15s
entering apply
timer:            Apply BSH     6.42s     6.42s
timer:     Truncate new psi     0.43s     0.43s
residuals [2.571513e-04, 2.862313e-04, 2.548638e-04, 2.149718e-04, 4.327877e-04, 4.202457e-04, 4.570883e-04, 4.327880e-04, 4.077716e-04, 3.460370e-04, 4.666490e-04, 3.920780e-04, 4.666507e-04, 4.202438e-04, 3.976157e-04, 3.948334e-04]
BSH residual: rms 3.861052e-04    max 4.666507e-04
timer:         BSH residual     0.14s     0.14s
timer: Update subspace stuf     0.06s     0.06s
Subspace solution [*]   1.00000000

timer:   Subspace transform     0.02s     0.02s
Norm of vector changes alpha : rms 3.861052e-04    max 4.666507e-04
ORTHOG2a: maxq trantol 6.907253e-05 6.250000e-09
timer:       Orthonormalize     0.21s     0.21s

Iteration 1 at time 56.7s

timer:        Boys localize     0.51s     0.51s
timer:      Rotate subspace     0.19s     0.19s
timer:       Make densities     0.09s     0.09s
timer:       Load balancing     0.00s     0.00s
delta rho 7.742333e-04 7.742333e-04 residuals 4.666507e-04 0.000000e+00
timer:       Nuclear energy     0.04s     0.04s
timer:              Coulomb     0.74s     0.74s
timer:        DFT potential     0.26s     0.26s
timer:                V*psi     0.39s     0.39s
timer:        Truncate Vpsi     0.44s     0.44s
timer:            PE matrix     0.04s     0.04s
timer:    KEmat reconstruct     0.02s     0.02s
timer:  KEmat differentiate     0.75s     0.75s
timer:       KEmat compress     0.11s     0.11s
timer: KEmat inner products     0.06s     0.06s
timer:            KE matrix     0.95s     0.95s
timer: Make fock matrix res     0.00s     0.00s

              kinetic     241.85871934
         nonlocal psp       0.00000000
   nuclear attraction    -823.15090819
              coulomb     241.61199229
                  PCM       0.00000000
 exchange-correlation     -28.57776491
    nuclear-repulsion     124.96716883
                total    -243.29079264

timer: Compute residual stu     0.22s     0.22s
entering apply
timer:            Apply BSH     7.77s     7.77s
timer:     Truncate new psi     0.42s     0.42s
residuals [2.482777e-05, 2.511940e-05, 3.350789e-05, 3.423725e-05, 1.394295e-04, 1.487406e-04, 1.391233e-04, 1.394293e-04, 1.531549e-04, 1.250465e-04, 1.526671e-04, 8.703430e-05, 1.526689e-04, 1.487408e-04, 1.442792e-04, 1.492073e-04]
BSH residual: rms 1.230825e-04    max 1.531549e-04
timer:         BSH residual     0.16s     0.16s
timer: Update subspace stuf     0.19s     0.19s
Subspace solution [*]  -0.06373191   1.06373191

timer:   Subspace transform     0.04s     0.04s
Norm of vector changes alpha : rms 1.318478e-04    max 1.640892e-04
ORTHOG2a: maxq trantol 3.098420e-05 6.250000e-09
timer:       Orthonormalize     0.21s     0.21s

Iteration 2 at time 70.3s

timer:        Boys localize     0.48s     0.48s
timer:      Rotate subspace     0.19s     0.19s
timer:       Make densities     0.08s     0.08s
delta rho 1.512120e-04 1.512120e-04 residuals 1.531549e-04 0.000000e+00
timer:       Nuclear energy     0.03s     0.03s
timer:              Coulomb     0.60s     0.60s
timer:        DFT potential     0.22s     0.22s
timer:                V*psi     0.38s     0.38s
timer:        Truncate Vpsi     0.42s     0.42s
timer:            PE matrix     0.04s     0.04s
timer:    KEmat reconstruct     0.02s     0.02s
timer:  KEmat differentiate     0.69s     0.69s
timer:       KEmat compress     0.11s     0.11s
timer: KEmat inner products     0.06s     0.06s
timer:            KE matrix     0.88s     0.88s
timer: Make fock matrix res     0.00s     0.00s

              kinetic     241.86341099
         nonlocal psp       0.00000000
   nuclear attraction    -823.15972441
              coulomb     241.61667318
                  PCM       0.00000000
 exchange-correlation     -28.57832789
    nuclear-repulsion     124.96716883
                total    -243.29079929


Converged!

timer:              Overlap     0.04s     0.04s
timer:      focka eigen sol     0.00s     0.00s
 
alpha eigenvalues
[*] -18.65320139 -18.65211802 -14.09976940  -9.84976238  -1.14607535  -0.98283054  -0.75430363  -0.56708934  -0.51835240  -0.49795097  -0.47931784  -0.41113774  -0.39981363  -0.30136040  -0.27944301  -0.26073756


 Dipole Moment (a.u.)
 -----------

     x:  1.381371e+00
     y:  -1.131674e-04
     z:  -4.730816e-09
 Total Dipole Moment:  1.381371e+00 

timer:               dipole     0.00s     0.00s
Orbitals are localized - energies are diagonal Fock matrix elements

Analysis of alpha MO vectors
timer:      Analyze vectors     0.77s     0.77s
timer: Compute eigen gesv a     0.00s     0.00s
  MO   0 : occ=1.00 : energy= -18.65278428 : center=(-1.38,2.05,-0.00) : radius=0.23
            O(6)   s(33)-0.995  
  MO   1 : occ=1.00 : energy= -18.65169684 : center=(-1.38,-2.05,0.00) : radius=0.23
            O(5)   s(24) 0.995  
  MO   2 : occ=1.00 : energy= -14.09870014 : center=(-0.32,0.00,-0.00) : radius=0.27
            N(1)   s( 9) 0.996  
  MO   3 : occ=1.00 : energy=  -9.84966679 : center=(2.50,-0.00,0.00) : radius=0.32
            C(0)   s( 0)-0.994  
  MO   4 : occ=1.00 : energy=  -0.66302536 : center=(-0.95,1.21,0.41) : radius=1.49
            O(6)  pz(37) 0.378     N(1)  pz(13) 0.253     O(6)  py(36)-0.252     N(1)  py(12) 0.248     O(6)  pz(41) 0.246     N(1)   s(10) 0.204     O(6)   s(34) 0.178  
  MO   5 : occ=1.00 : energy=  -0.66175049 : center=(-0.96,-1.21,-0.42) : radius=1.48
            O(5)  pz(28) 0.380     O(5)  py(27)-0.253     N(1)  pz(13) 0.249     N(1)  py(12) 0.248     O(5)  pz(32) 0.243     N(1)   s(10)-0.204     O(5)   s(25)-0.178     N(1)  pz(17) 0.159  
  MO   6 : occ=1.00 : energy=  -0.64376865 : center=(0.90,0.00,0.00) : radius=1.46
            N(1)  px(11) 0.435     C(0)  px( 2)-0.342     N(1)   s(14) 0.317     N(1)   s(10) 0.254     C(0)   s( 1) 0.167     N(1)  px(15) 0.163  
  MO   7 : occ=1.00 : energy=  -0.66302531 : center=(-0.95,1.21,-0.41) : radius=1.49
            O(6)  pz(37) 0.378     N(1)  pz(13) 0.253     O(6)  py(36) 0.252     N(1)  py(12)-0.248     O(6)  pz(41) 0.246     N(1)   s(10)-0.204     O(6)   s(34)-0.178  
  MO   8 : occ=1.00 : energy=  -0.46187284 : center=(-0.94,-2.46,0.00) : radius=1.37
            O(5)   s(29) 0.420     O(5)  py(27)-0.394     O(5)  px(26) 0.312     O(5)   s(25) 0.308     O(5)  py(31)-0.238     O(5)  px(30) 0.220     O(6)   s(38) 0.184  
  MO   9 : occ=1.00 : energy=  -0.46021351 : center=(-1.95,1.95,0.00) : radius=1.38
            O(6)  px(35)-0.501     O(6)   s(38) 0.478     O(6)   s(34) 0.309     O(6)  px(39)-0.306     N(1)  py(16)-0.215     O(5)   s(29)-0.198  
  MO  10 : occ=1.00 : energy=  -0.48905308 : center=(2.85,-0.63,1.09) : radius=1.61
            C(0)  pz( 4) 0.332     H(3)   s(20) 0.309     C(0)   s( 5) 0.207     C(0)   s( 1) 0.199     H(3)   s(21) 0.196     C(0)  py( 3)-0.196     C(0)  pz( 8) 0.165  
  MO  11 : occ=1.00 : energy=  -0.48218798 : center=(2.89,1.27,-0.00) : radius=1.57
            C(0)  py( 3)-0.388     H(2)   s(18)-0.310     C(0)   s( 5)-0.221     C(0)   s( 1)-0.201     H(2)   s(19)-0.200     C(0)  py( 7)-0.179  
  MO  12 : occ=1.00 : energy=  -0.48905294 : center=(2.85,-0.63,-1.09) : radius=1.61
            C(0)  pz( 4) 0.332     H(4)   s(22)-0.309     C(0)   s( 5)-0.207     C(0)   s( 1)-0.199     H(4)   s(23)-0.196     C(0)  py( 3) 0.196     C(0)  pz( 8) 0.165  
  MO  13 : occ=1.00 : energy=  -0.66175046 : center=(-0.96,-1.21,0.42) : radius=1.48
            O(5)  pz(28) 0.380     O(5)  py(27) 0.253     N(1)  pz(13) 0.249     N(1)  py(12)-0.248     O(5)  pz(32) 0.243     N(1)   s(10) 0.204     O(5)   s(25) 0.178     N(1)  pz(17) 0.159  
  MO  14 : occ=1.00 : energy=  -0.46114349 : center=(-1.95,-1.95,0.00) : radius=1.39
            O(5)  px(26) 0.498     O(5)   s(29)-0.455     O(5)   s(25)-0.314     O(5)  px(30) 0.311  
  MO  15 : occ=1.00 : energy=  -0.46357144 : center=(-0.94,2.47,-0.00) : radius=1.36
            O(6)  py(36) 0.395     O(6)   s(38) 0.388     O(6)   s(34) 0.314     O(6)  px(35) 0.310     O(6)  py(40) 0.248     O(6)  px(39) 0.210     O(5)   s(29) 0.208  
timer:             plotting     0.00s     0.00s

    Parallel environment
    --------------------
                  #nodes    1
       #threads per node    27+main = 28
          #total threads    28

  RMI message statistics (min / avg / max)
  ----------------------
   #messages in server q    0.00e+00 / 0.00e+00 / 0.00e+00
 #messages sent per node    0.00e+00 / 0.00e+00 / 0.00e+00
    #bytes sent per node    0.00e+00 / 0.00e+00 / 0.00e+00
 #messages recv per node    0.00e+00 / 0.00e+00 / 0.00e+00
    #bytes recv per node    0.00e+00 / 0.00e+00 / 0.00e+00
        #msgs systemwide    0.00e+00
       #bytes systemwide    0.00e+00

  Thread pool statistics (min / avg / max)
  ----------------------
         #tasks per node    0.00e+00 / 0.00e+00 / 0.00e+00
     #max q len per node    0.00e+00 / 0.00e+00 / 0.00e+00
  #hi-pri tasks per node    0.00e+00 / 0.00e+00 / 0.00e+00

         Total wall time    75.6s
         Total  cpu time    75.6s

