MADNESS runtime initialized with 27 threads in the pool and affinity -1 -1 -1

--------------------------------------------
   MADNESS 0.10.1 multiresolution suite
--------------------------------------------

   number of processors ... 1
    processor frequency ... 1.995417e+09
            host system ... linux-gnu
          configured by ... egentles
          configured on ... sn093
          configured at ... Tue Jul 11 16:06:48 EDT 2017
                    CXX ... mpicxx
               CXXFLAGS ... -g -std=c++14 -O3 -Wall -Wno-strict-aliasing -Wno-deprecated -Wno-unused-local-typedefs  -ffast-math -march=native
             tuning for ... default
                    MPI ... multiple
 multi-threaded runtime ... Intel TBB
                   BLAS ... Intel MKL 14280 14280 MFLOP/s
               compiled ... 08:44:05  on  Jul 29 2017
input filename:  /gpfs/home/egentles/auto_test_mad/geometries_LDA_boys/nitrogen_monofluoride.mdns

Angstrom being used to read input coordinates (1 Bohr = 1.88972613 Angstrom)

XY degenerate

 The point group is C2v

Construct XC Functional from LIBXC Library

input line was:  LDA
 1.000 lda_x 
 1.000 lda_c_vwn 

screening parameters
 rhotol, rhomin 1.000000e-07 0.000000e+00
         ggatol 1.000000e-04
polarized  true 


Solving NDIM= 3  with thresh 1.000000e-05     k 8    conv 1.000000e-04 




 MADNESS Hartree-Fock and Density Functional Theory Program
 ----------------------------------------------------------



 geometry
   eprec 1.0e-04
   units atomic
   N             0.00000000           0.00000000          -1.39993274
   F             0.00000000           0.00000000           1.08883658
 end


             restart  false
    restart from AOs  false
 number of processes  1
   no. of io servers  1
   vnuc load bal fac  12
      load bal parts  2
     simulation cube  -5.139993e+01 5.139993e+01
        total charge  0.000000e+00
            smearing  0.000000e+00
 number of electrons  9 7
  number of orbitals  9 7
     spin restricted  false
       xc functional   LDA
          xc library  libxc
 initial guess basis  6-31g
 max krylov subspace  5
    compute protocol  [1.000000e-04, 1.000000e-06]
  energy convergence  1.000000e-05
 density convergence  1.000000e-04
    maximum rotation  2.500000e-01
    polynomial order  -1
       truncate mode  1
  maximum iterations  20
 Convergence criteria are density delta & BSH residual.
        plot density  false
        plot coulomb  false
        plot orbital  0 -1
        plot npoints  101
        plot  volume  default
  canonical orbitals 
 psp or all electron  all electron
timer:           initialize     0.40s     0.40s

Solving NDIM= 3  with thresh 1.000000e-04     k 6    conv 1.000000e-04 


Solving NDIM= 3  with thresh 1.000000e-04     k 6    conv 1.000000e-04 

timer:     Project vnuclear     0.10s     0.10s
timer:     project ao basis     0.17s     0.17s
guess dens trace 1.599997e+01
timer:        guess density     0.13s     0.13s
timer:   guess Coulomb potn     0.25s     0.25s
timer:       guess lda potn     0.10s     0.10s
timer:        guess overlap     0.01s     0.01s
timer:    KEmat reconstruct     0.01s     0.01s
timer:  KEmat differentiate     0.21s     0.21s
timer:       KEmat compress     0.03s     0.03s
timer: KEmat inner products     0.02s     0.02s
timer:     guess Kinet potn     0.27s     0.27s
timer:           guess fock     0.31s     0.31s
timer:      guess eigen sol     0.00s     0.00s
grouping alpha orbitals into sets
set  0    0  -  0
set  1    1  -  1
set  2    2  -  8
grouping beta orbitals into sets
set  0    0  -  0
set  1    1  -  1
set  2    2  -  6
timer: guess orbital groupi     0.04s     0.04s
timer:     project ao basis     0.12s     0.12s

Iteration 0 at time 2.1s

timer:       Make densities     0.04s     0.04s
timer:       Load balancing     0.00s     0.00s
timer:       Nuclear energy     0.01s     0.01s
timer:              Coulomb     0.08s     0.08s
timer:        DFT potential     0.08s     0.08s
timer:                V*psi     0.06s     0.06s
timer:        Truncate Vpsi     0.07s     0.07s
timer:        DFT potential     0.06s     0.06s
timer:                V*psi     0.05s     0.05s
timer:        Truncate Vpsi     0.05s     0.05s
timer:            PE matrix     0.01s     0.01s
timer:    KEmat reconstruct     0.00s     0.00s
timer:  KEmat differentiate     0.15s     0.15s
timer:       KEmat compress     0.03s     0.03s
timer: KEmat inner products     0.02s     0.02s
timer:            KE matrix     0.20s     0.20s
timer: Make fock matrix res     0.00s     0.00s
timer:            PE matrix     0.01s     0.01s
timer:    KEmat reconstruct     0.00s     0.00s
timer:  KEmat differentiate     0.13s     0.13s
timer:       KEmat compress     0.01s     0.01s
timer: KEmat inner products     0.03s     0.03s
timer:            KE matrix     0.17s     0.17s
timer: Make fock matrix res     0.00s     0.00s
timer: Diagonalization Fock     0.00s     0.00s
timer: Diagonalization rest     0.13s     0.13s
timer: Diagonalization Fock     0.00s     0.00s
timer: Diagonalization rest     0.09s     0.09s

              kinetic     153.02239508
         nonlocal psp       0.00000000
   nuclear attraction    -415.34435582
              coulomb      99.77279867
                  PCM       0.00000000
 exchange-correlation     -16.06549119
    nuclear-repulsion      25.31371613
                total    -153.30093713

timer: Compute residual stu     0.02s     0.02s
entering apply
timer:            Apply BSH     0.38s     0.38s
timer:     Truncate new psi     0.05s     0.05s
residuals [7.063303e-03, 9.303127e-03, 3.243933e-02, 3.758488e-02, 5.009059e-02, 5.009058e-02, 5.524296e-02, 5.002710e-02, 5.002709e-02]
BSH residual: rms 4.173556e-02    max 5.524296e-02
timer:         BSH residual     0.03s     0.03s
timer: Compute residual stu     0.01s     0.01s
entering apply
timer:            Apply BSH     0.31s     0.31s
timer:     Truncate new psi     0.04s     0.04s
residuals [6.912260e-03, 8.443593e-03, 3.413642e-02, 3.733683e-02, 5.762793e-02, 5.762798e-02, 6.576930e-02]
BSH residual: rms 4.415229e-02    max 6.576930e-02
timer:         BSH residual     0.02s     0.02s
timer: Update subspace stuf     0.04s     0.04s
Subspace solution [*]   1.00000000

timer:   Subspace transform     0.01s     0.01s
Norm of vector changes alpha : rms 4.173556e-02    max 5.524296e-02
ORTHOG2a: maxq trantol 5.395462e-03 1.111111e-06
timer:       Orthonormalize     0.04s     0.04s
Norm of vector changes beta : rms 4.415229e-02    max 6.576930e-02
ORTHOG2a: maxq trantol 8.293002e-03 1.428571e-06
timer:       Orthonormalize     0.03s     0.03s

Iteration 1 at time 4.5s

timer:       Make densities     0.03s     0.03s
timer:       Load balancing     0.00s     0.00s
delta rho 5.312915e-02 4.882543e-02 residuals 6.576930e-02 0.000000e+00
timer:       Nuclear energy     0.01s     0.01s
timer:              Coulomb     0.07s     0.07s
timer:        DFT potential     0.09s     0.09s
timer:                V*psi     0.06s     0.06s
timer:        Truncate Vpsi     0.06s     0.06s
timer:        DFT potential     0.06s     0.06s
timer:                V*psi     0.04s     0.04s
timer:        Truncate Vpsi     0.05s     0.05s
timer:            PE matrix     0.01s     0.01s
timer:    KEmat reconstruct     0.00s     0.00s
timer:  KEmat differentiate     0.15s     0.15s
timer:       KEmat compress     0.02s     0.02s
timer: KEmat inner products     0.02s     0.02s
timer:            KE matrix     0.19s     0.19s
timer: Make fock matrix res     0.00s     0.00s
timer:            PE matrix     0.01s     0.01s
timer:    KEmat reconstruct     0.00s     0.00s
timer:  KEmat differentiate     0.12s     0.12s
timer:       KEmat compress     0.01s     0.01s
timer: KEmat inner products     0.02s     0.02s
timer:            KE matrix     0.16s     0.16s
timer: Make fock matrix res     0.00s     0.00s
timer: Diagonalization Fock     0.00s     0.00s
timer: Diagonalization rest     0.09s     0.09s
timer: Diagonalization Fock     0.00s     0.00s
timer: Diagonalization rest     0.07s     0.07s

              kinetic     152.62536607
         nonlocal psp       0.00000000
   nuclear attraction    -415.37117016
              coulomb     100.05846504
                  PCM       0.00000000
 exchange-correlation     -16.05252663
    nuclear-repulsion      25.31371613
                total    -153.42614955

timer: Compute residual stu     0.02s     0.02s
entering apply
timer:            Apply BSH     0.37s     0.37s
timer:     Truncate new psi     0.05s     0.05s
residuals [1.242522e-03, 1.758929e-03, 5.650130e-03, 7.309349e-03, 1.047915e-02, 1.047915e-02, 1.042049e-02, 1.355594e-02, 1.355593e-02]
BSH residual: rms 9.343607e-03    max 1.355594e-02
timer:         BSH residual     0.03s     0.03s
timer: Compute residual stu     0.01s     0.01s
entering apply
timer:            Apply BSH     0.32s     0.32s
timer:     Truncate new psi     0.04s     0.04s
residuals [1.165877e-03, 1.320539e-03, 6.312955e-03, 7.036747e-03, 1.354209e-02, 1.354214e-02, 8.391486e-03]
BSH residual: rms 8.698661e-03    max 1.354214e-02
timer:         BSH residual     0.02s     0.02s
timer: Update subspace stuf     0.07s     0.07s
Subspace solution [*]  -0.17423601   1.17423601

timer:   Subspace transform     0.01s     0.01s
Norm of vector changes alpha : rms 1.184904e-02    max 1.642434e-02
ORTHOG2a: maxq trantol 2.782514e-03 1.111111e-06
timer:       Orthonormalize     0.04s     0.04s
Norm of vector changes beta : rms 1.097996e-02    max 1.590002e-02
ORTHOG2a: maxq trantol 1.448253e-03 1.428571e-06
timer:       Orthonormalize     0.04s     0.04s

Iteration 2 at time 6.8s

timer:       Make densities     0.03s     0.03s
delta rho 1.853777e-02 1.487163e-02 residuals 1.355594e-02 0.000000e+00
timer:       Nuclear energy     0.01s     0.01s
timer:              Coulomb     0.08s     0.08s
timer:        DFT potential     0.08s     0.08s
timer:                V*psi     0.05s     0.05s
timer:        Truncate Vpsi     0.06s     0.06s
timer:        DFT potential     0.06s     0.06s
timer:                V*psi     0.04s     0.04s
timer:        Truncate Vpsi     0.05s     0.05s
timer:            PE matrix     0.01s     0.01s
timer:    KEmat reconstruct     0.00s     0.00s
timer:  KEmat differentiate     0.15s     0.15s
timer:       KEmat compress     0.02s     0.02s
timer: KEmat inner products     0.02s     0.02s
timer:            KE matrix     0.20s     0.20s
timer: Make fock matrix res     0.00s     0.00s
timer:            PE matrix     0.02s     0.02s
timer:    KEmat reconstruct     0.00s     0.00s
timer:  KEmat differentiate     0.13s     0.13s
timer:       KEmat compress     0.01s     0.01s
timer: KEmat inner products     0.02s     0.02s
timer:            KE matrix     0.17s     0.17s
timer: Make fock matrix res     0.00s     0.00s
timer: Diagonalization Fock     0.00s     0.00s
timer: Diagonalization rest     0.06s     0.06s
timer: Diagonalization Fock     0.00s     0.00s
timer: Diagonalization rest     0.06s     0.06s

              kinetic     152.63958154
         nonlocal psp       0.00000000
   nuclear attraction    -415.54038412
              coulomb     100.21546137
                  PCM       0.00000000
 exchange-correlation     -16.06308203
    nuclear-repulsion      25.31371613
                total    -153.43470711

timer: Compute residual stu     0.02s     0.02s
entering apply
timer:            Apply BSH     0.37s     0.37s
timer:     Truncate new psi     0.06s     0.06s
residuals [2.891325e-04, 4.057681e-04, 1.572942e-03, 2.564542e-03, 2.871525e-03, 2.871526e-03, 3.217200e-03, 5.277517e-03, 5.277512e-03]
BSH residual: rms 3.194531e-03    max 5.277517e-03
timer:         BSH residual     0.03s     0.03s
timer: Compute residual stu     0.01s     0.01s
entering apply
timer:            Apply BSH     0.31s     0.31s
timer:     Truncate new psi     0.04s     0.04s
residuals [2.717211e-04, 2.785079e-04, 1.602675e-03, 2.593069e-03, 5.859477e-03, 5.859527e-03, 3.677642e-03]
BSH residual: rms 3.618140e-03    max 5.859527e-03
timer:         BSH residual     0.02s     0.02s
timer: Update subspace stuf     0.10s     0.10s
Subspace solution [*]   0.06149932  -0.69794989   1.63645057

timer:   Subspace transform     0.01s     0.01s
Norm of vector changes alpha : rms 7.297667e-03    max 9.776729e-03
ORTHOG2a: maxq trantol 5.654892e-04 1.111111e-06
timer:       Orthonormalize     0.04s     0.04s
Norm of vector changes beta : rms 6.978949e-03    max 1.005025e-02
ORTHOG2a: maxq trantol 8.125959e-04 1.428571e-06
timer:       Orthonormalize     0.04s     0.04s

Iteration 3 at time 9.1s

timer:       Make densities     0.03s     0.03s
delta rho 9.679493e-03 8.592727e-03 residuals 5.859527e-03 0.000000e+00
timer:       Nuclear energy     0.01s     0.01s
timer:              Coulomb     0.07s     0.07s
timer:        DFT potential     0.09s     0.09s
timer:                V*psi     0.05s     0.05s
timer:        Truncate Vpsi     0.06s     0.06s
timer:        DFT potential     0.06s     0.06s
timer:                V*psi     0.04s     0.04s
timer:        Truncate Vpsi     0.05s     0.05s
timer:            PE matrix     0.01s     0.01s
timer:    KEmat reconstruct     0.00s     0.00s
timer:  KEmat differentiate     0.16s     0.16s
timer:       KEmat compress     0.02s     0.02s
timer: KEmat inner products     0.02s     0.02s
timer:            KE matrix     0.21s     0.21s
timer: Make fock matrix res     0.00s     0.00s
timer:            PE matrix     0.01s     0.01s
timer:    KEmat reconstruct     0.00s     0.00s
timer:  KEmat differentiate     0.12s     0.12s
timer:       KEmat compress     0.01s     0.01s
timer: KEmat inner products     0.02s     0.02s
timer:            KE matrix     0.16s     0.16s
timer: Make fock matrix res     0.00s     0.00s
timer: Diagonalization Fock     0.00s     0.00s
timer: Diagonalization rest     0.07s     0.07s
timer: Diagonalization Fock     0.00s     0.00s
timer: Diagonalization rest     0.05s     0.05s

              kinetic     152.62356482
         nonlocal psp       0.00000000
   nuclear attraction    -415.53888897
              coulomb     100.22901653
                  PCM       0.00000000
 exchange-correlation     -16.06371169
    nuclear-repulsion      25.31371613
                total    -153.43630319

timer: Compute residual stu     0.01s     0.01s
entering apply
timer:            Apply BSH     0.37s     0.37s
timer:     Truncate new psi     0.05s     0.05s
residuals [7.364711e-05, 8.773218e-05, 7.696901e-04, 1.960881e-03, 9.772512e-04, 9.772513e-04, 1.401740e-03, 2.892534e-03, 2.892535e-03]
BSH residual: rms 1.668633e-03    max 2.892535e-03
timer:         BSH residual     0.03s     0.03s
timer: Compute residual stu     0.01s     0.01s
entering apply
timer:            Apply BSH     0.31s     0.31s
timer:     Truncate new psi     0.04s     0.04s
residuals [1.103512e-04, 1.106589e-04, 4.147798e-04, 6.368365e-04, 3.453582e-03, 3.453626e-03, 2.159056e-03]
BSH residual: rms 2.039549e-03    max 3.453626e-03
timer:         BSH residual     0.02s     0.02s
timer: Update subspace stuf     0.13s     0.13s
Subspace solution [*]   0.01695335   0.04461295  -0.69150770   1.62994140

timer:   Subspace transform     0.01s     0.01s
Norm of vector changes alpha : rms 5.504686e-03    max 7.625120e-03
ORTHOG2a: maxq trantol 3.404185e-04 1.111111e-06
timer:       Orthonormalize     0.04s     0.04s
Norm of vector changes beta : rms 4.639235e-03    max 7.126005e-03
ORTHOG2a: maxq trantol 1.481175e-04 1.428571e-06
timer:       Orthonormalize     0.03s     0.03s

Iteration 4 at time 11.4s

timer:       Make densities     0.03s     0.03s
delta rho 4.820672e-03 6.093499e-03 residuals 3.453626e-03 0.000000e+00
timer:       Nuclear energy     0.01s     0.01s
timer:              Coulomb     0.07s     0.07s
timer:        DFT potential     0.08s     0.08s
timer:                V*psi     0.05s     0.05s
timer:        Truncate Vpsi     0.06s     0.06s
timer:        DFT potential     0.06s     0.06s
timer:                V*psi     0.04s     0.04s
timer:        Truncate Vpsi     0.05s     0.05s
timer:            PE matrix     0.01s     0.01s
timer:    KEmat reconstruct     0.00s     0.00s
timer:  KEmat differentiate     0.15s     0.15s
timer:       KEmat compress     0.02s     0.02s
timer: KEmat inner products     0.02s     0.02s
timer:            KE matrix     0.19s     0.19s
timer: Make fock matrix res     0.00s     0.00s
timer:            PE matrix     0.01s     0.01s
timer:    KEmat reconstruct     0.00s     0.00s
timer:  KEmat differentiate     0.12s     0.12s
timer:       KEmat compress     0.01s     0.01s
timer: KEmat inner products     0.02s     0.02s
timer:            KE matrix     0.16s     0.16s
timer: Make fock matrix res     0.00s     0.00s
timer: Diagonalization Fock     0.00s     0.00s
timer: Diagonalization rest     0.07s     0.07s
timer: Diagonalization Fock     0.00s     0.00s
timer: Diagonalization rest     0.05s     0.05s

              kinetic     152.68754518
         nonlocal psp       0.00000000
   nuclear attraction    -415.67048557
              coulomb     100.30567204
                  PCM       0.00000000
 exchange-correlation     -16.07326481
    nuclear-repulsion      25.31371613
                total    -153.43681704

timer: Compute residual stu     0.01s     0.01s
entering apply
timer:            Apply BSH     0.37s     0.37s
timer:     Truncate new psi     0.05s     0.05s
residuals [5.870394e-05, 1.184567e-04, 8.912749e-04, 1.697110e-03, 1.295763e-03, 1.295764e-03, 1.029033e-03, 1.265077e-03, 1.265079e-03]
BSH residual: rms 1.121001e-03    max 1.697110e-03
timer:         BSH residual     0.03s     0.03s
timer: Compute residual stu     0.01s     0.01s
entering apply
timer:            Apply BSH     0.31s     0.31s
timer:     Truncate new psi     0.04s     0.04s
residuals [5.681986e-05, 8.498848e-05, 5.109049e-04, 7.320987e-04, 2.152038e-03, 2.152066e-03, 1.181948e-03]
BSH residual: rms 1.279905e-03    max 2.152066e-03
timer:         BSH residual     0.02s     0.02s
timer: Update subspace stuf     0.16s     0.16s
Subspace solution [*]  -0.05579739   0.47870582  -1.11005779  -0.57343973   2.26058909

timer:   Subspace transform     0.01s     0.01s
Norm of vector changes alpha : rms 1.583695e-02    max 2.005969e-02
ORTHOG2a: maxq trantol 7.106977e-04 1.111111e-06
timer:       Orthonormalize     0.05s     0.05s
Norm of vector changes beta : rms 9.472831e-03    max 1.377486e-02
ORTHOG2a: maxq trantol 7.710965e-04 1.428571e-06
timer:       Orthonormalize     0.04s     0.04s

Iteration 5 at time 13.8s

timer:       Make densities     0.03s     0.03s
delta rho 7.290690e-03 8.202338e-03 residuals 2.152066e-03 0.000000e+00
timer:       Nuclear energy     0.01s     0.01s
timer:              Coulomb     0.08s     0.08s
timer:        DFT potential     0.08s     0.08s
timer:                V*psi     0.06s     0.06s
timer:        Truncate Vpsi     0.06s     0.06s
timer:        DFT potential     0.06s     0.06s
timer:                V*psi     0.04s     0.04s
timer:        Truncate Vpsi     0.05s     0.05s
timer:            PE matrix     0.01s     0.01s
timer:    KEmat reconstruct     0.00s     0.00s
timer:  KEmat differentiate     0.15s     0.15s
timer:       KEmat compress     0.02s     0.02s
timer: KEmat inner products     0.02s     0.02s
timer:            KE matrix     0.20s     0.20s
timer: Make fock matrix res     0.00s     0.00s
timer:            PE matrix     0.01s     0.01s
timer:    KEmat reconstruct     0.00s     0.00s
timer:  KEmat differentiate     0.12s     0.12s
timer:       KEmat compress     0.01s     0.01s
timer: KEmat inner products     0.02s     0.02s
timer:            KE matrix     0.16s     0.16s
timer: Make fock matrix res     0.00s     0.00s
timer: Diagonalization Fock     0.00s     0.00s
timer: Diagonalization rest     0.06s     0.06s
timer: Diagonalization Fock     0.00s     0.00s
timer: Diagonalization rest     0.05s     0.05s

              kinetic     152.68928265
         nonlocal psp       0.00000000
   nuclear attraction    -415.67732954
              coulomb     100.31187528
                  PCM       0.00000000
 exchange-correlation     -16.07466357
    nuclear-repulsion      25.31371613
                total    -153.43711906

timer: Compute residual stu     0.01s     0.01s
entering apply
timer:            Apply BSH     0.37s     0.37s
timer:     Truncate new psi     0.05s     0.05s
residuals [6.953407e-05, 1.284874e-04, 5.600614e-04, 7.344973e-04, 8.235194e-04, 8.235201e-04, 9.902995e-04, 1.497545e-03, 1.497543e-03]
BSH residual: rms 9.247726e-04    max 1.497545e-03
timer:         BSH residual     0.03s     0.03s
timer: Compute residual stu     0.01s     0.01s
entering apply
timer:            Apply BSH     0.31s     0.31s
timer:     Truncate new psi     0.04s     0.04s
residuals [4.651129e-05, 1.218071e-04, 6.500309e-04, 6.932726e-04, 1.011166e-03, 1.011177e-03, 5.314560e-04]
BSH residual: rms 6.811281e-04    max 1.011177e-03
timer:         BSH residual     0.02s     0.02s
timer: Update subspace stuf     0.16s     0.16s
Subspace solution [*]  -0.03681489   0.32042764  -0.15795625  -0.40092392   1.27526743

timer:   Subspace transform     0.01s     0.01s
Norm of vector changes alpha : rms 1.260778e-03    max 1.956966e-03
ORTHOG2a: maxq trantol 3.554849e-04 1.111111e-06
timer:       Orthonormalize     0.05s     0.05s
Norm of vector changes beta : rms 1.084397e-03    max 1.549807e-03
ORTHOG2a: maxq trantol 1.940689e-04 1.428571e-06
timer:       Orthonormalize     0.04s     0.04s

Iteration 6 at time 16.1s

timer:       Make densities     0.03s     0.03s
delta rho 2.669194e-03 1.858330e-03 residuals 1.497545e-03 0.000000e+00
timer:       Nuclear energy     0.01s     0.01s
timer:              Coulomb     0.08s     0.08s
timer:        DFT potential     0.08s     0.08s
timer:                V*psi     0.06s     0.06s
timer:        Truncate Vpsi     0.06s     0.06s
timer:        DFT potential     0.06s     0.06s
timer:                V*psi     0.05s     0.05s
timer:        Truncate Vpsi     0.05s     0.05s
timer:            PE matrix     0.01s     0.01s
timer:    KEmat reconstruct     0.00s     0.00s
timer:  KEmat differentiate     0.15s     0.15s
timer:       KEmat compress     0.02s     0.02s
timer: KEmat inner products     0.02s     0.02s
timer:            KE matrix     0.19s     0.19s
timer: Make fock matrix res     0.00s     0.00s
timer:            PE matrix     0.01s     0.01s
timer:    KEmat reconstruct     0.00s     0.00s
timer:  KEmat differentiate     0.12s     0.12s
timer:       KEmat compress     0.01s     0.01s
timer: KEmat inner products     0.02s     0.02s
timer:            KE matrix     0.16s     0.16s
timer: Make fock matrix res     0.00s     0.00s
timer: Diagonalization Fock     0.00s     0.00s
timer: Diagonalization rest     0.06s     0.06s
timer: Diagonalization Fock     0.00s     0.00s
timer: Diagonalization rest     0.05s     0.05s

              kinetic     152.69116544
         nonlocal psp       0.00000000
   nuclear attraction    -415.68092233
              coulomb     100.31360742
                  PCM       0.00000000
 exchange-correlation     -16.07483479
    nuclear-repulsion      25.31371613
                total    -153.43726812

timer: Compute residual stu     0.01s     0.01s
entering apply
timer:            Apply BSH     0.38s     0.38s
timer:     Truncate new psi     0.05s     0.05s
residuals [4.312075e-05, 8.989072e-05, 2.673918e-04, 5.884140e-04, 4.313589e-04, 4.313596e-04, 8.375627e-04, 4.170473e-04, 4.170473e-04]
BSH residual: rms 4.532817e-04    max 8.375627e-04
timer:         BSH residual     0.03s     0.03s
timer: Compute residual stu     0.02s     0.02s
entering apply
timer:            Apply BSH     0.31s     0.31s
timer:     Truncate new psi     0.04s     0.04s
residuals [4.152457e-05, 8.029069e-05, 1.978420e-04, 2.663058e-04, 5.048000e-04, 5.048140e-04, 3.344303e-04]
BSH residual: rms 3.250791e-04    max 5.048140e-04
timer:         BSH residual     0.02s     0.02s
timer: Update subspace stuf     0.16s     0.16s
Subspace solution [*]  -0.13404952   0.02417937  -0.10214727  -0.65417536   1.86619278

timer:   Subspace transform     0.01s     0.01s
Norm of vector changes alpha : rms 6.646307e-03    max 8.386180e-03
ORTHOG2a: maxq trantol 2.777597e-04 1.111111e-06
timer:       Orthonormalize     0.04s     0.04s
Norm of vector changes beta : rms 4.020835e-03    max 5.808991e-03
ORTHOG2a: maxq trantol 2.570315e-04 1.428571e-06
timer:       Orthonormalize     0.04s     0.04s

Iteration 7 at time 18.5s

timer:       Make densities     0.03s     0.03s
delta rho 3.388259e-03 3.034082e-03 residuals 8.375627e-04 0.000000e+00
timer:       Nuclear energy     0.01s     0.01s
timer:              Coulomb     0.08s     0.08s
timer:        DFT potential     0.09s     0.09s
timer:                V*psi     0.05s     0.05s
timer:        Truncate Vpsi     0.06s     0.06s
timer:        DFT potential     0.06s     0.06s
timer:                V*psi     0.04s     0.04s
timer:        Truncate Vpsi     0.05s     0.05s
timer:            PE matrix     0.01s     0.01s
timer:    KEmat reconstruct     0.00s     0.00s
timer:  KEmat differentiate     0.15s     0.15s
timer:       KEmat compress     0.02s     0.02s
timer: KEmat inner products     0.02s     0.02s
timer:            KE matrix     0.19s     0.19s
timer: Make fock matrix res     0.00s     0.00s
timer:            PE matrix     0.01s     0.01s
timer:    KEmat reconstruct     0.00s     0.00s
timer:  KEmat differentiate     0.12s     0.12s
timer:       KEmat compress     0.01s     0.01s
timer: KEmat inner products     0.02s     0.02s
timer:            KE matrix     0.16s     0.16s
timer: Make fock matrix res     0.00s     0.00s
timer: Diagonalization Fock     0.00s     0.00s
timer: Diagonalization rest     0.06s     0.06s
timer: Diagonalization Fock     0.00s     0.00s
timer: Diagonalization rest     0.06s     0.06s

              kinetic     152.68640735
         nonlocal psp       0.00000000
   nuclear attraction    -415.67522751
              coulomb     100.31266244
                  PCM       0.00000000
 exchange-correlation     -16.07489493
    nuclear-repulsion      25.31371613
                total    -153.43733652

timer: Compute residual stu     0.01s     0.01s
entering apply
timer:            Apply BSH     0.37s     0.37s
timer:     Truncate new psi     0.05s     0.05s
residuals [4.838864e-05, 8.834788e-05, 2.120486e-04, 3.084092e-04, 3.596404e-04, 3.596402e-04, 7.556519e-04, 6.902648e-04, 6.902641e-04]
BSH residual: rms 4.634232e-04    max 7.556519e-04
timer:         BSH residual     0.03s     0.03s
timer: Compute residual stu     0.01s     0.01s
entering apply
timer:            Apply BSH     0.33s     0.33s
timer:     Truncate new psi     0.04s     0.04s
residuals [3.809141e-05, 9.094521e-05, 2.321728e-04, 3.379496e-04, 4.655800e-04, 4.655810e-04, 3.648752e-04]
BSH residual: rms 3.261245e-04    max 4.655810e-04
timer:         BSH residual     0.02s     0.02s
timer: Update subspace stuf     0.17s     0.17s
Subspace solution [*]   0.06517322   0.39144169  -0.55459666  -0.75511660   1.85309835

timer:   Subspace transform     0.01s     0.01s
Norm of vector changes alpha : rms 3.009777e-03    max 3.980773e-03
ORTHOG2a: maxq trantol 1.724886e-04 1.111111e-06
timer:       Orthonormalize     0.04s     0.04s
Norm of vector changes beta : rms 1.718321e-03    max 3.095373e-03
ORTHOG2a: maxq trantol 2.456464e-04 1.428571e-06
timer:       Orthonormalize     0.04s     0.04s

Iteration 8 at time 20.9s

timer:       Make densities     0.03s     0.03s
delta rho 1.883517e-03 1.277175e-03 residuals 7.556519e-04 0.000000e+00
timer:       Nuclear energy     0.01s     0.01s
timer:              Coulomb     0.08s     0.08s
timer:        DFT potential     0.08s     0.08s
timer:                V*psi     0.06s     0.06s
timer:        Truncate Vpsi     0.06s     0.06s
timer:        DFT potential     0.06s     0.06s
timer:                V*psi     0.05s     0.05s
timer:        Truncate Vpsi     0.05s     0.05s
timer:            PE matrix     0.01s     0.01s
timer:    KEmat reconstruct     0.00s     0.00s
timer:  KEmat differentiate     0.15s     0.15s
timer:       KEmat compress     0.02s     0.02s
timer: KEmat inner products     0.02s     0.02s
timer:            KE matrix     0.19s     0.19s
timer: Make fock matrix res     0.00s     0.00s
timer:            PE matrix     0.01s     0.01s
timer:    KEmat reconstruct     0.00s     0.00s
timer:  KEmat differentiate     0.12s     0.12s
timer:       KEmat compress     0.01s     0.01s
timer: KEmat inner products     0.02s     0.02s
timer:            KE matrix     0.16s     0.16s
timer: Make fock matrix res     0.00s     0.00s
timer: Diagonalization Fock     0.00s     0.00s
timer: Diagonalization rest     0.06s     0.06s
timer: Diagonalization Fock     0.00s     0.00s
timer: Diagonalization rest     0.05s     0.05s

              kinetic     152.68316084
         nonlocal psp       0.00000000
   nuclear attraction    -415.66818962
              coulomb     100.30830584
                  PCM       0.00000000
 exchange-correlation     -16.07430718
    nuclear-repulsion      25.31371613
                total    -153.43731400

timer: Compute residual stu     0.01s     0.01s
entering apply
timer:            Apply BSH     0.37s     0.37s
timer:     Truncate new psi     0.05s     0.05s
residuals [3.623434e-05, 5.411863e-05, 1.683079e-04, 1.506999e-04, 1.893894e-04, 1.893896e-04, 4.208159e-04, 3.582454e-04, 3.582454e-04]
BSH residual: rms 2.496179e-04    max 4.208159e-04
timer:         BSH residual     0.03s     0.03s
timer: Compute residual stu     0.01s     0.01s
entering apply
timer:            Apply BSH     0.31s     0.31s
timer:     Truncate new psi     0.04s     0.04s
residuals [3.461970e-05, 6.538517e-05, 1.731608e-04, 2.614747e-04, 1.747273e-04, 1.747336e-04, 2.002481e-04]
BSH residual: rms 1.711258e-04    max 2.614747e-04
timer:         BSH residual     0.02s     0.02s
timer: Update subspace stuf     0.16s     0.16s
Subspace solution [*]  -0.26728166   0.48833544  -0.13108009  -0.89715432   1.80718064

timer:   Subspace transform     0.01s     0.01s
Norm of vector changes alpha : rms 9.976132e-04    max 1.525763e-03
ORTHOG2a: maxq trantol 6.878889e-05 1.111111e-06
timer:       Orthonormalize     0.04s     0.04s
Norm of vector changes beta : rms 8.354458e-04    max 1.509008e-03
ORTHOG2a: maxq trantol 3.147585e-05 1.428571e-06
timer:       Orthonormalize     0.04s     0.04s

Iteration 9 at time 23.2s

timer:       Make densities     0.03s     0.03s
delta rho 1.222258e-03 1.028558e-03 residuals 4.208159e-04 0.000000e+00
timer:       Nuclear energy     0.01s     0.01s
timer:              Coulomb     0.08s     0.08s
timer:        DFT potential     0.09s     0.09s
timer:                V*psi     0.06s     0.06s
timer:        Truncate Vpsi     0.06s     0.06s
timer:        DFT potential     0.06s     0.06s
timer:                V*psi     0.04s     0.04s
timer:        Truncate Vpsi     0.05s     0.05s
timer:            PE matrix     0.01s     0.01s
timer:    KEmat reconstruct     0.00s     0.00s
timer:  KEmat differentiate     0.15s     0.15s
timer:       KEmat compress     0.02s     0.02s
timer: KEmat inner products     0.02s     0.02s
timer:            KE matrix     0.19s     0.19s
timer: Make fock matrix res     0.00s     0.00s
timer:            PE matrix     0.01s     0.01s
timer:    KEmat reconstruct     0.00s     0.00s
timer:  KEmat differentiate     0.12s     0.12s
timer:       KEmat compress     0.01s     0.01s
timer: KEmat inner products     0.02s     0.02s
timer:            KE matrix     0.16s     0.16s
timer: Make fock matrix res     0.00s     0.00s
timer: Diagonalization Fock     0.00s     0.00s
timer: Diagonalization rest     0.06s     0.06s
timer: Diagonalization Fock     0.00s     0.00s
timer: Diagonalization rest     0.05s     0.05s

              kinetic     152.68663423
         nonlocal psp       0.00000000
   nuclear attraction    -415.67505215
              coulomb     100.31228094
                  PCM       0.00000000
 exchange-correlation     -16.07494914
    nuclear-repulsion      25.31371613
                total    -153.43736999

timer: Compute residual stu     0.01s     0.01s
entering apply
timer:            Apply BSH     0.37s     0.37s
timer:     Truncate new psi     0.05s     0.05s
residuals [3.237463e-05, 5.268109e-05, 1.007946e-04, 1.311836e-04, 8.013782e-05, 8.013796e-05, 3.085072e-04, 1.019199e-04, 1.019200e-04]
BSH residual: rms 1.333285e-04    max 3.085072e-04
timer:         BSH residual     0.03s     0.03s
timer: Compute residual stu     0.01s     0.01s
entering apply
timer:            Apply BSH     0.31s     0.31s
timer:     Truncate new psi     0.04s     0.04s
residuals [2.954475e-05, 4.957671e-05, 8.763077e-05, 2.195484e-04, 3.657234e-05, 3.657361e-05, 2.171267e-04]
BSH residual: rms 1.248030e-04    max 2.195484e-04
timer:         BSH residual     0.02s     0.02s
timer: Update subspace stuf     0.16s     0.16s
Subspace solution [*]   0.12124119  -0.06985117  -0.36592816  -0.10524197   1.41978012

timer:   Subspace transform     0.02s     0.02s
Norm of vector changes alpha : rms 8.815496e-04    max 1.577572e-03
ORTHOG2a: maxq trantol 4.439096e-05 1.111111e-06
timer:       Orthonormalize     0.05s     0.05s
Norm of vector changes beta : rms 5.912380e-04    max 1.174793e-03
ORTHOG2a: maxq trantol 4.408318e-05 1.428571e-06
timer:       Orthonormalize     0.04s     0.04s

Iteration 10 at time 25.6s

timer:       Make densities     0.03s     0.03s
timer:       Load balancing     0.00s     0.00s
delta rho 6.050629e-04 3.102549e-04 residuals 3.085072e-04 0.000000e+00
timer:       Nuclear energy     0.01s     0.01s
timer:              Coulomb     0.08s     0.08s
timer:        DFT potential     0.09s     0.09s
timer:                V*psi     0.06s     0.06s
timer:        Truncate Vpsi     0.06s     0.06s
timer:        DFT potential     0.06s     0.06s
timer:                V*psi     0.04s     0.04s
timer:        Truncate Vpsi     0.05s     0.05s
timer:            PE matrix     0.01s     0.01s
timer:    KEmat reconstruct     0.00s     0.00s
timer:  KEmat differentiate     0.15s     0.15s
timer:       KEmat compress     0.02s     0.02s
timer: KEmat inner products     0.02s     0.02s
timer:            KE matrix     0.20s     0.20s
timer: Make fock matrix res     0.00s     0.00s
timer:            PE matrix     0.01s     0.01s
timer:    KEmat reconstruct     0.00s     0.00s
timer:  KEmat differentiate     0.12s     0.12s
timer:       KEmat compress     0.01s     0.01s
timer: KEmat inner products     0.02s     0.02s
timer:            KE matrix     0.16s     0.16s
timer: Make fock matrix res     0.00s     0.00s
timer: Diagonalization Fock     0.00s     0.00s
timer: Diagonalization rest     0.06s     0.06s
timer: Diagonalization Fock     0.00s     0.00s
timer: Diagonalization rest     0.05s     0.05s

              kinetic     152.68474758
         nonlocal psp       0.00000000
   nuclear attraction    -415.67070631
              coulomb     100.30955242
                  PCM       0.00000000
 exchange-correlation     -16.07468650
    nuclear-repulsion      25.31371613
                total    -153.43737668

timer: Compute residual stu     0.01s     0.01s
entering apply
timer:            Apply BSH     0.37s     0.37s
timer:     Truncate new psi     0.05s     0.05s
residuals [2.983281e-05, 5.188412e-05, 8.101085e-05, 9.857343e-05, 5.895042e-05, 5.895007e-05, 1.268080e-04, 1.097891e-04, 1.097894e-04]
BSH residual: rms 8.628076e-05    max 1.268080e-04
timer:         BSH residual     0.03s     0.03s
timer: Compute residual stu     0.01s     0.01s
entering apply
timer:            Apply BSH     0.31s     0.31s
timer:     Truncate new psi     0.04s     0.04s
residuals [2.765227e-05, 4.960108e-05, 7.827540e-05, 1.121459e-04, 5.001057e-05, 5.001222e-05, 7.932690e-05]
BSH residual: rms 6.889298e-05    max 1.121459e-04
timer:         BSH residual     0.02s     0.02s
timer: Update subspace stuf     0.16s     0.16s
Subspace solution [*]  -0.01454093   0.03577793  -0.11596342  -0.04321839   1.13794481

timer:   Subspace transform     0.01s     0.01s
Norm of vector changes alpha : rms 1.324057e-04    max 3.307579e-04
ORTHOG2a: maxq trantol 3.423562e-05 1.111111e-06
timer:       Orthonormalize     0.04s     0.04s
Norm of vector changes beta : rms 1.651124e-04    max 2.535676e-04
ORTHOG2a: maxq trantol 3.542255e-05 1.428571e-06
timer:       Orthonormalize     0.04s     0.04s

Iteration 11 at time 27.9s

timer:       Make densities     0.03s     0.03s
delta rho 1.948775e-04 2.053581e-04 residuals 1.268080e-04 0.000000e+00
timer:       Nuclear energy     0.01s     0.01s
timer:              Coulomb     0.08s     0.08s
timer:        DFT potential     0.08s     0.08s
timer:                V*psi     0.06s     0.06s
timer:        Truncate Vpsi     0.06s     0.06s
timer:        DFT potential     0.06s     0.06s
timer:                V*psi     0.04s     0.04s
timer:        Truncate Vpsi     0.05s     0.05s
timer:            PE matrix     0.01s     0.01s
timer:    KEmat reconstruct     0.00s     0.00s
timer:  KEmat differentiate     0.15s     0.15s
timer:       KEmat compress     0.02s     0.02s
timer: KEmat inner products     0.02s     0.02s
timer:            KE matrix     0.20s     0.20s
timer: Make fock matrix res     0.00s     0.00s
timer:            PE matrix     0.01s     0.01s
timer:    KEmat reconstruct     0.00s     0.00s
timer:  KEmat differentiate     0.12s     0.12s
timer:       KEmat compress     0.01s     0.01s
timer: KEmat inner products     0.02s     0.02s
timer:            KE matrix     0.16s     0.16s
timer: Make fock matrix res     0.00s     0.00s
timer: Diagonalization Fock     0.00s     0.00s
timer: Diagonalization rest     0.06s     0.06s
timer: Diagonalization Fock     0.00s     0.00s
timer: Diagonalization rest     0.05s     0.05s

              kinetic     152.68630046
         nonlocal psp       0.00000000
   nuclear attraction    -415.67368333
              coulomb     100.31121609
                  PCM       0.00000000
 exchange-correlation     -16.07492460
    nuclear-repulsion      25.31371613
                total    -153.43737525

timer: Compute residual stu     0.01s     0.01s
entering apply
timer:            Apply BSH     0.37s     0.37s
timer:     Truncate new psi     0.05s     0.05s
residuals [2.998476e-05, 5.377267e-05, 8.691454e-05, 9.881520e-05, 4.226374e-05, 4.226244e-05, 1.094353e-04, 5.331306e-05, 5.331343e-05]
BSH residual: rms 6.859074e-05    max 1.094353e-04
timer:         BSH residual     0.03s     0.03s
timer: Compute residual stu     0.01s     0.01s
entering apply
timer:            Apply BSH     0.31s     0.31s
timer:     Truncate new psi     0.04s     0.04s
residuals [3.075605e-05, 5.528413e-05, 7.964394e-05, 2.171928e-04, 5.425020e-05, 5.425036e-05, 8.968123e-05]
BSH residual: rms 1.010283e-04    max 2.171928e-04
timer:         BSH residual     0.02s     0.02s
timer: Update subspace stuf     0.16s     0.16s
Subspace solution [*]   0.00518708  -0.09994065   0.10750137   0.16266913   0.82458307

timer:   Subspace transform     0.01s     0.01s
Norm of vector changes alpha : rms 7.129311e-05    max 1.346383e-04
ORTHOG2a: maxq trantol 3.467500e-05 1.111111e-06
timer:       Orthonormalize     0.04s     0.04s
Norm of vector changes beta : rms 1.142894e-04    max 2.120282e-04
ORTHOG2a: maxq trantol 3.607706e-05 1.428571e-06
timer:       Orthonormalize     0.04s     0.04s

Iteration 12 at time 30.3s

timer:       Make densities     0.03s     0.03s
delta rho 8.413017e-05 7.191982e-05 residuals 2.171928e-04 0.000000e+00
timer:       Nuclear energy     0.01s     0.01s
timer:              Coulomb     0.08s     0.08s
timer:        DFT potential     0.08s     0.08s
timer:                V*psi     0.06s     0.06s
timer:        Truncate Vpsi     0.06s     0.06s
timer:        DFT potential     0.06s     0.06s
timer:                V*psi     0.04s     0.04s
timer:        Truncate Vpsi     0.05s     0.05s
timer:            PE matrix     0.01s     0.01s
timer:    KEmat reconstruct     0.00s     0.00s
timer:  KEmat differentiate     0.15s     0.15s
timer:       KEmat compress     0.02s     0.02s
timer: KEmat inner products     0.02s     0.02s
timer:            KE matrix     0.20s     0.20s
timer: Make fock matrix res     0.00s     0.00s
timer:            PE matrix     0.01s     0.01s
timer:    KEmat reconstruct     0.00s     0.00s
timer:  KEmat differentiate     0.12s     0.12s
timer:       KEmat compress     0.01s     0.01s
timer: KEmat inner products     0.02s     0.02s
timer:            KE matrix     0.16s     0.16s
timer: Make fock matrix res     0.00s     0.00s
timer: Diagonalization Fock     0.00s     0.00s
timer: Diagonalization rest     0.06s     0.06s
timer: Diagonalization Fock     0.00s     0.00s
timer: Diagonalization rest     0.05s     0.05s

              kinetic     152.68583876
         nonlocal psp       0.00000000
   nuclear attraction    -415.67273722
              coulomb     100.31068548
                  PCM       0.00000000
 exchange-correlation     -16.07487868
    nuclear-repulsion      25.31371613
                total    -153.43737553


Converged!

timer:              Overlap     0.01s     0.01s
timer:      focka eigen sol     0.00s     0.00s
timer:        Transform MOs     0.02s     0.02s
timer:              Overlap     0.01s     0.01s
timer:      fockb eigen sol     0.00s     0.00s
timer:        Transform MOs     0.02s     0.02s
 
alpha eigenvalues
[*] -24.20033466 -14.01748866  -1.22383386  -0.73491004  -0.49450485  -0.49450485  -0.48032821  -0.25959519  -0.25959519

beta eigenvalues
[*] -24.19022327 -13.97582800  -1.19985268  -0.67814506  -0.46115638  -0.46115638  -0.42679890


 Dipole Moment (a.u.)
 -----------

     x:  -3.063952e-06
     y:  -3.067443e-06
     z:  1.339697e-01
 Total Dipole Moment:  1.339697e-01 

timer:               dipole     0.00s     0.00s
Orbitals are eigenvectors - energies are eigenvalues

Analysis of alpha MO vectors
timer:      Analyze vectors     0.20s     0.20s
timer: Compute eigen gesv a     0.00s     0.00s
  MO   0 : occ=1.00 : energy= -24.20033466 : center=(0.00,0.00,1.09) : radius=0.21
            F(1)   s( 9) 0.994  
  MO   1 : occ=1.00 : energy= -14.01748866 : center=(0.00,0.00,-1.40) : radius=0.27
            N(0)   s( 0) 0.994  
  MO   2 : occ=1.00 : energy=  -1.22383386 : center=(0.00,0.00,0.61) : radius=1.22
            F(1)   s(14) 0.483     F(1)   s(10) 0.468     F(1)   s( 9)-0.217     N(0)   s( 1) 0.179  
  MO   3 : occ=1.00 : energy=  -0.73491004 : center=(0.00,0.00,-0.00) : radius=1.88
            N(0)   s( 1)-0.441     N(0)   s( 5)-0.362     F(1)   s(14) 0.342     F(1)  pz(13) 0.331     F(1)   s(10) 0.236     N(0)   s( 0) 0.181     F(1)  pz(17) 0.173  
  MO   4 : occ=1.00 : energy=  -0.49450485 : center=(0.00,-0.00,0.56) : radius=1.61
            F(1)  py(12) 0.585     F(1)  py(16) 0.392     N(0)  py( 3) 0.284     N(0)  py( 7) 0.165  
  MO   5 : occ=1.00 : energy=  -0.49450485 : center=(-0.00,0.00,0.56) : radius=1.61
            F(1)  px(11)-0.585     F(1)  px(15)-0.392     N(0)  px( 2)-0.284     N(0)  px( 6)-0.165  
  MO   6 : occ=1.00 : energy=  -0.48032821 : center=(0.00,0.00,-0.81) : radius=2.08
            N(0)   s( 5) 0.492     F(1)  pz(13) 0.442     N(0)  pz( 4)-0.390     F(1)  pz(17) 0.306     N(0)   s( 1) 0.249  
  MO   7 : occ=1.00 : energy=  -0.25959519 : center=(-0.00,0.00,-0.90) : radius=1.88
            N(0)  px( 2) 0.639     N(0)  px( 6) 0.430     F(1)  px(11)-0.355     F(1)  px(15)-0.285  
  MO   8 : occ=1.00 : energy=  -0.25959519 : center=(-0.00,-0.00,-0.90) : radius=1.88
            N(0)  py( 3)-0.639     N(0)  py( 7)-0.430     F(1)  py(12) 0.355     F(1)  py(16) 0.285  
Analysis of beta MO vectors
timer:      Analyze vectors     0.16s     0.16s
timer: Compute eigen gesv a     0.00s     0.00s
  MO   0 : occ=1.00 : energy= -24.19022327 : center=(0.00,0.00,1.09) : radius=0.21
            F(1)   s( 9) 0.994  
  MO   1 : occ=1.00 : energy= -13.97582800 : center=(0.00,0.00,-1.40) : radius=0.27
            N(0)   s( 0) 0.994  
  MO   2 : occ=1.00 : energy=  -1.19985268 : center=(0.00,0.00,0.65) : radius=1.20
            F(1)   s(14)-0.503     F(1)   s(10)-0.471     F(1)   s( 9) 0.221  
  MO   3 : occ=1.00 : energy=  -0.67814506 : center=(0.00,0.00,0.30) : radius=1.82
            F(1)  pz(13) 0.402     N(0)   s( 1)-0.376     N(0)   s( 5)-0.306     F(1)   s(14) 0.303     F(1)  pz(17) 0.234     F(1)   s(10) 0.221     N(0)   s( 0) 0.161  
  MO   4 : occ=1.00 : energy=  -0.46115638 : center=(0.00,-0.00,0.77) : radius=1.51
            F(1)  py(12) 0.601     F(1)  py(16) 0.420     N(0)  py( 3) 0.189  
  MO   5 : occ=1.00 : energy=  -0.46115638 : center=(-0.00,-0.00,0.77) : radius=1.51
            F(1)  px(11) 0.601     F(1)  px(15) 0.420     N(0)  px( 2) 0.189  
  MO   6 : occ=1.00 : energy=  -0.42679890 : center=(0.00,0.00,-1.13) : radius=2.04
            N(0)   s( 5) 0.561     F(1)  pz(13) 0.399     N(0)  pz( 4)-0.351     F(1)  pz(17) 0.279     N(0)   s( 1) 0.275  

Solving NDIM= 3  with thresh 1.000000e-06     k 8    conv 1.000000e-04 

timer:     Project vnuclear     0.18s     0.18s
timer:     project ao basis     0.22s     0.22s

Iteration 0 at time 32.6s

timer:       Make densities     0.04s     0.04s
timer:       Load balancing     0.00s     0.00s
timer:       Nuclear energy     0.02s     0.02s
timer:              Coulomb     0.27s     0.27s
timer:        DFT potential     0.11s     0.11s
timer:                V*psi     0.11s     0.11s
timer:        Truncate Vpsi     0.15s     0.15s
timer:        DFT potential     0.09s     0.09s
timer:                V*psi     0.08s     0.08s
timer:        Truncate Vpsi     0.11s     0.11s
timer:            PE matrix     0.01s     0.01s
timer:    KEmat reconstruct     0.00s     0.00s
timer:  KEmat differentiate     0.15s     0.15s
timer:       KEmat compress     0.02s     0.02s
timer: KEmat inner products     0.02s     0.02s
timer:            KE matrix     0.21s     0.21s
timer: Make fock matrix res     0.00s     0.00s
timer:            PE matrix     0.01s     0.01s
timer:    KEmat reconstruct     0.00s     0.00s
timer:  KEmat differentiate     0.12s     0.12s
timer:       KEmat compress     0.02s     0.02s
timer: KEmat inner products     0.02s     0.02s
timer:            KE matrix     0.16s     0.16s
timer: Make fock matrix res     0.00s     0.00s
timer: Diagonalization Fock     0.00s     0.00s
timer: Diagonalization rest     0.13s     0.13s
timer: Diagonalization Fock     0.00s     0.00s
timer: Diagonalization rest     0.11s     0.11s

              kinetic     152.68627926
         nonlocal psp       0.00000000
   nuclear attraction    -415.67265002
              coulomb     100.31055844
                  PCM       0.00000000
 exchange-correlation     -16.07487424
    nuclear-repulsion      25.31371613
                total    -153.43697044

timer: Compute residual stu     0.04s     0.04s
entering apply
timer:            Apply BSH     2.34s     2.34s
timer:     Truncate new psi     0.17s     0.17s
residuals [3.521428e-04, 2.434444e-04, 3.291093e-04, 2.975435e-04, 2.988436e-04, 2.988436e-04, 3.406240e-04, 2.328841e-04, 2.328922e-04]
BSH residual: rms 2.950006e-04    max 3.521428e-04
timer:         BSH residual     0.05s     0.05s
timer: Compute residual stu     0.03s     0.03s
entering apply
timer:            Apply BSH     1.85s     1.85s
timer:     Truncate new psi     0.13s     0.13s
residuals [3.531762e-04, 2.427477e-04, 3.154073e-04, 2.913665e-04, 2.779516e-04, 2.779563e-04, 3.141105e-04]
BSH residual: rms 2.979018e-04    max 3.531762e-04
timer:         BSH residual     0.04s     0.04s
timer: Update subspace stuf     0.03s     0.03s
Subspace solution [*]   1.00000000

timer:   Subspace transform     0.01s     0.01s
Norm of vector changes alpha : rms 2.950006e-04    max 3.521428e-04
ORTHOG2a: maxq trantol 7.067722e-05 1.111111e-08
timer:       Orthonormalize     0.08s     0.08s
Norm of vector changes beta : rms 2.979018e-04    max 3.531762e-04
ORTHOG2a: maxq trantol 3.985881e-05 1.428571e-08
timer:       Orthonormalize     0.07s     0.07s

Iteration 1 at time 39.4s

timer:       Make densities     0.06s     0.06s
timer:       Load balancing     0.00s     0.00s
delta rho 4.834343e-04 4.679160e-04 residuals 3.531762e-04 0.000000e+00
timer:       Nuclear energy     0.01s     0.01s
timer:              Coulomb     0.32s     0.32s
timer:        DFT potential     0.21s     0.21s
timer:                V*psi     0.10s     0.10s
timer:        Truncate Vpsi     0.11s     0.11s
timer:        DFT potential     0.16s     0.16s
timer:                V*psi     0.08s     0.08s
timer:        Truncate Vpsi     0.08s     0.08s
timer:            PE matrix     0.02s     0.02s
timer:    KEmat reconstruct     0.01s     0.01s
timer:  KEmat differentiate     0.25s     0.25s
timer:       KEmat compress     0.04s     0.04s
timer: KEmat inner products     0.03s     0.03s
timer:            KE matrix     0.33s     0.33s
timer: Make fock matrix res     0.00s     0.00s
timer:            PE matrix     0.02s     0.02s
timer:    KEmat reconstruct     0.01s     0.01s
timer:  KEmat differentiate     0.21s     0.21s
timer:       KEmat compress     0.03s     0.03s
timer: KEmat inner products     0.03s     0.03s
timer:            KE matrix     0.27s     0.27s
timer: Make fock matrix res     0.00s     0.00s
timer: Diagonalization Fock     0.00s     0.00s
timer: Diagonalization rest     0.12s     0.12s
timer: Diagonalization Fock     0.00s     0.00s
timer: Diagonalization rest     0.09s     0.09s

              kinetic     152.68663836
         nonlocal psp       0.00000000
   nuclear attraction    -415.67392770
              coulomb     100.30989486
                  PCM       0.00000000
 exchange-correlation     -16.07483504
    nuclear-repulsion      25.31371613
                total    -153.43851339

timer: Compute residual stu     0.04s     0.04s
entering apply
timer:            Apply BSH     2.45s     2.45s
timer:     Truncate new psi     0.16s     0.16s
residuals [2.117999e-05, 1.474156e-05, 5.017753e-05, 6.856878e-05, 3.937415e-05, 3.937427e-05, 9.626640e-05, 3.165945e-05, 3.166120e-05]
BSH residual: rms 4.973038e-05    max 9.626640e-05
timer:         BSH residual     0.05s     0.05s
timer: Compute residual stu     0.03s     0.03s
entering apply
timer:            Apply BSH     1.93s     1.93s
timer:     Truncate new psi     0.13s     0.13s
residuals [2.129262e-05, 1.403224e-05, 4.868790e-05, 4.782215e-05, 3.278543e-05, 3.278830e-05, 5.884624e-05]
BSH residual: rms 3.949790e-05    max 5.884624e-05
timer:         BSH residual     0.05s     0.05s
timer: Update subspace stuf     0.09s     0.09s
Subspace solution [*]  -0.02685498   1.02685498

timer:   Subspace transform     0.01s     0.01s
Norm of vector changes alpha : rms 5.202168e-05    max 1.018189e-04
ORTHOG2a: maxq trantol 1.629306e-05 1.111111e-08
timer:       Orthonormalize     0.08s     0.08s
Norm of vector changes beta : rms 4.113155e-05    max 6.154537e-05
ORTHOG2a: maxq trantol 3.874571e-06 1.428571e-08
timer:       Orthonormalize     0.07s     0.07s

Iteration 2 at time 47.0s

timer:       Make densities     0.06s     0.06s
delta rho 1.335881e-04 1.284836e-04 residuals 9.626640e-05 0.000000e+00
timer:       Nuclear energy     0.01s     0.01s
timer:              Coulomb     0.31s     0.31s
timer:        DFT potential     0.18s     0.18s
timer:                V*psi     0.11s     0.11s
timer:        Truncate Vpsi     0.11s     0.11s
timer:        DFT potential     0.12s     0.12s
timer:                V*psi     0.09s     0.09s
timer:        Truncate Vpsi     0.09s     0.09s
timer:            PE matrix     0.02s     0.02s
timer:    KEmat reconstruct     0.01s     0.01s
timer:  KEmat differentiate     0.23s     0.23s
timer:       KEmat compress     0.03s     0.03s
timer: KEmat inner products     0.03s     0.03s
timer:            KE matrix     0.30s     0.30s
timer: Make fock matrix res     0.00s     0.00s
timer:            PE matrix     0.02s     0.02s
timer:    KEmat reconstruct     0.00s     0.00s
timer:  KEmat differentiate     0.18s     0.18s
timer:       KEmat compress     0.03s     0.03s
timer: KEmat inner products     0.03s     0.03s
timer:            KE matrix     0.24s     0.24s
timer: Make fock matrix res     0.00s     0.00s
timer: Diagonalization Fock     0.00s     0.00s
timer: Diagonalization rest     0.11s     0.11s
timer: Diagonalization Fock     0.00s     0.00s
timer: Diagonalization rest     0.10s     0.10s

              kinetic     152.68975901
         nonlocal psp       0.00000000
   nuclear attraction    -415.67876638
              coulomb     100.31188022
                  PCM       0.00000000
 exchange-correlation     -16.07510351
    nuclear-repulsion      25.31371613
                total    -153.43851453


Converged!

timer:              Overlap     0.01s     0.01s
timer:      focka eigen sol     0.00s     0.00s
timer:        Transform MOs     0.04s     0.04s
timer:              Overlap     0.01s     0.01s
timer:      fockb eigen sol     0.00s     0.00s
timer:        Transform MOs     0.03s     0.03s
 
alpha eigenvalues
[*] -24.20003995 -14.01763738  -1.22394028  -0.73495718  -0.49448660  -0.49448660  -0.48039215  -0.25958423  -0.25958423

beta eigenvalues
[*] -24.18993231 -13.97597327  -1.19994684  -0.67817660  -0.46113058  -0.46113058  -0.42682515


 Dipole Moment (a.u.)
 -----------

     x:  -3.683925e-07
     y:  -4.126120e-07
     z:  1.338487e-01
 Total Dipole Moment:  1.338487e-01 

timer:               dipole     0.00s     0.00s
Orbitals are eigenvectors - energies are eigenvalues

Analysis of alpha MO vectors
timer:      Analyze vectors     0.31s     0.31s
timer: Compute eigen gesv a     0.00s     0.00s
  MO   0 : occ=1.00 : energy= -24.20003995 : center=(-0.00,-0.00,1.09) : radius=0.21
            F(1)   s( 9) 0.994  
  MO   1 : occ=1.00 : energy= -14.01763738 : center=(0.00,0.00,-1.40) : radius=0.27
            N(0)   s( 0) 0.994  
  MO   2 : occ=1.00 : energy=  -1.22394028 : center=(0.00,0.00,0.61) : radius=1.22
            F(1)   s(14) 0.483     F(1)   s(10) 0.468     F(1)   s( 9)-0.217     N(0)   s( 1) 0.179  
  MO   3 : occ=1.00 : energy=  -0.73495718 : center=(-0.00,-0.00,-0.00) : radius=1.88
            N(0)   s( 1)-0.441     N(0)   s( 5)-0.362     F(1)   s(14) 0.342     F(1)  pz(13) 0.331     F(1)   s(10) 0.236     N(0)   s( 0) 0.181     F(1)  pz(17) 0.173  
  MO   4 : occ=1.00 : energy=  -0.49448660 : center=(0.00,-0.00,0.56) : radius=1.61
            F(1)  py(12)-0.495     F(1)  py(16)-0.331     F(1)  px(11) 0.312     N(0)  py( 3)-0.241     F(1)  px(15) 0.209  
  MO   5 : occ=1.00 : energy=  -0.49448660 : center=(-0.00,-0.00,0.56) : radius=1.61
            F(1)  px(11)-0.495     F(1)  px(15)-0.331     F(1)  py(12)-0.312     N(0)  px( 2)-0.241     F(1)  py(16)-0.209  
  MO   6 : occ=1.00 : energy=  -0.48039215 : center=(0.00,0.00,-0.81) : radius=2.08
            N(0)   s( 5)-0.492     F(1)  pz(13)-0.442     N(0)  pz( 4) 0.390     F(1)  pz(17)-0.306     N(0)   s( 1)-0.249  
  MO   7 : occ=1.00 : energy=  -0.25958423 : center=(0.00,-0.00,-0.90) : radius=1.88
            N(0)  px( 2) 0.640     N(0)  px( 6) 0.430     F(1)  px(11)-0.356     F(1)  px(15)-0.285  
  MO   8 : occ=1.00 : energy=  -0.25958423 : center=(-0.00,0.00,-0.90) : radius=1.88
            N(0)  py( 3)-0.640     N(0)  py( 7)-0.430     F(1)  py(12) 0.356     F(1)  py(16) 0.285  
Analysis of beta MO vectors
timer:      Analyze vectors     0.25s     0.25s
timer: Compute eigen gesv a     0.00s     0.00s
  MO   0 : occ=1.00 : energy= -24.18993231 : center=(0.00,0.00,1.09) : radius=0.21
            F(1)   s( 9) 0.994  
  MO   1 : occ=1.00 : energy= -13.97597327 : center=(0.00,0.00,-1.40) : radius=0.27
            N(0)   s( 0)-0.994  
  MO   2 : occ=1.00 : energy=  -1.19994684 : center=(0.00,0.00,0.65) : radius=1.20
            F(1)   s(14)-0.503     F(1)   s(10)-0.471     F(1)   s( 9) 0.221  
  MO   3 : occ=1.00 : energy=  -0.67817660 : center=(-0.00,-0.00,0.30) : radius=1.82
            F(1)  pz(13) 0.402     N(0)   s( 1)-0.376     N(0)   s( 5)-0.306     F(1)   s(14) 0.303     F(1)  pz(17) 0.234     F(1)   s(10) 0.221     N(0)   s( 0) 0.161  
  MO   4 : occ=1.00 : energy=  -0.46113058 : center=(-0.00,-0.00,0.77) : radius=1.51
            F(1)  py(12)-0.556     F(1)  py(16)-0.389     F(1)  px(11)-0.256     F(1)  px(15)-0.179     N(0)  py( 3)-0.175  
  MO   5 : occ=1.00 : energy=  -0.46113058 : center=(0.00,-0.00,0.77) : radius=1.51
            F(1)  px(11)-0.556     F(1)  px(15)-0.389     F(1)  py(12) 0.256     F(1)  py(16) 0.179     N(0)  px( 2)-0.175  
  MO   6 : occ=1.00 : energy=  -0.42682515 : center=(0.00,0.00,-1.13) : radius=2.04
            N(0)   s( 5) 0.561     F(1)  pz(13) 0.399     N(0)  pz( 4)-0.351     F(1)  pz(17) 0.279     N(0)   s( 1) 0.275  
timer:             plotting     0.00s     0.00s

    Parallel environment
    --------------------
                  #nodes    1
       #threads per node    27+main = 28
          #total threads    28

  RMI message statistics (min / avg / max)
  ----------------------
   #messages in server q    0.00e+00 / 0.00e+00 / 0.00e+00
 #messages sent per node    0.00e+00 / 0.00e+00 / 0.00e+00
    #bytes sent per node    0.00e+00 / 0.00e+00 / 0.00e+00
 #messages recv per node    0.00e+00 / 0.00e+00 / 0.00e+00
    #bytes recv per node    0.00e+00 / 0.00e+00 / 0.00e+00
        #msgs systemwide    0.00e+00
       #bytes systemwide    0.00e+00

  Thread pool statistics (min / avg / max)
  ----------------------
         #tasks per node    0.00e+00 / 0.00e+00 / 0.00e+00
     #max q len per node    0.00e+00 / 0.00e+00 / 0.00e+00
  #hi-pri tasks per node    0.00e+00 / 0.00e+00 / 0.00e+00

         Total wall time    50.1s
         Total  cpu time    50.1s

