MADNESS runtime initialized with 27 threads in the pool and affinity -1 -1 -1

--------------------------------------------
   MADNESS 0.10.1 multiresolution suite
--------------------------------------------

   number of processors ... 1
    processor frequency ... 1.995407e+09
            host system ... linux-gnu
          configured by ... egentles
          configured on ... sn093
          configured at ... Tue Jul 11 16:06:48 EDT 2017
                    CXX ... mpicxx
               CXXFLAGS ... -g -std=c++14 -O3 -Wall -Wno-strict-aliasing -Wno-deprecated -Wno-unused-local-typedefs  -ffast-math -march=native
             tuning for ... default
                    MPI ... multiple
 multi-threaded runtime ... Intel TBB
                   BLAS ... Intel MKL 14295 14295 MFLOP/s
               compiled ... 08:44:05  on  Jul 29 2017
input filename:  /gpfs/home/egentles/auto_test_mad/geometries_LDA_boys/octane.mdns

Angstrom being used to read input coordinates (1 Bohr = 1.88972613 Angstrom)

Abelian pointgroup

 The point group is C2h

Construct XC Functional from LIBXC Library

input line was:  LDA
 1.000 lda_x 
 1.000 lda_c_vwn 

screening parameters
 rhotol, rhomin 1.000000e-07 0.000000e+00
         ggatol 1.000000e-04
polarized  false 


Solving NDIM= 3  with thresh 1.000000e-05     k 8    conv 1.000000e-04 




 MADNESS Hartree-Fock and Density Functional Theory Program
 ----------------------------------------------------------



 geometry
   eprec 1.0e-04
   units atomic
   C            -1.18638053          -0.82797167           0.00000000
   C             1.18638053           0.82797167           0.00000000
   C            -3.67744140           0.64364517           0.00000000
   C             3.67744140          -0.64364517           0.00000000
   C            -6.04798565          -1.01182877           0.00000000
   C             6.04798565           1.01182877           0.00000000
   C            -8.51905930           0.47908438           0.00000000
   C             8.51905930          -0.47908438           0.00000000
   H            -1.13903660          -2.07112473           1.65832161
   H            -1.13903660          -2.07112473          -1.65832161
   H             1.13903660           2.07112473           1.65832161
   H             1.13903660           2.07112473          -1.65832161
   H            -3.72779160           1.88724803          -1.65855782
   H            -3.72779160           1.88724803           1.65855782
   H             3.72779160          -1.88724803          -1.65855782
   H             3.72779160          -1.88724803           1.65855782
   H            -5.99608283          -2.25571418           1.65690998
   H            -5.99608283          -2.25571418          -1.65690998
   H             5.99608283           2.25571418           1.65690998
   H             5.99608283           2.25571418          -1.65690998
   H           -10.17246991          -0.76014087           0.00000000
   H            -8.65650520           1.69537504          -1.66530037
   H            -8.65650520           1.69537504           1.66530037
   H            10.17246991           0.76014087           0.00000000
   H             8.65650520          -1.69537504          -1.66530037
   H             8.65650520          -1.69537504           1.66530037
 end


             restart  false
    restart from AOs  false
 number of processes  1
   no. of io servers  1
   vnuc load bal fac  12
      load bal parts  2
     simulation cube  -6.017247e+01 6.017247e+01
        total charge  0.000000e+00
            smearing  0.000000e+00
 number of electrons  33 33
  number of orbitals  33 33
     spin restricted  true
       xc functional   LDA
          xc library  libxc
 initial guess basis  6-31g
 max krylov subspace  5
    compute protocol  [1.000000e-04, 1.000000e-06]
  energy convergence  1.000000e-05
 density convergence  1.000000e-04
    maximum rotation  2.500000e-01
    polynomial order  -1
       truncate mode  1
  maximum iterations  20
 Convergence criteria are density delta & BSH residual.
        plot density  false
        plot coulomb  false
        plot orbital  0 -1
        plot npoints  101
        plot  volume  default
  localized orbitals  boys
 psp or all electron  all electron
timer:           initialize     0.40s     0.40s

Solving NDIM= 3  with thresh 1.000000e-04     k 6    conv 1.000000e-04 


Solving NDIM= 3  with thresh 1.000000e-04     k 6    conv 1.000000e-04 

timer:     Project vnuclear     1.69s     1.69s
timer:     project ao basis     0.79s     0.79s
guess dens trace 6.600023e+01
timer:        guess density     1.56s     1.56s
timer:   guess Coulomb potn     0.64s     0.64s
timer:       guess lda potn     0.37s     0.37s
timer:        guess overlap     0.04s     0.04s
timer:    KEmat reconstruct     0.03s     0.03s
timer:  KEmat differentiate     1.09s     1.09s
timer:       KEmat compress     0.17s     0.17s
timer: KEmat inner products     0.14s     0.14s
timer:     guess Kinet potn     1.46s     1.46s
timer:           guess fock     4.72s     4.72s
timer:      guess eigen sol     0.00s     0.00s
grouping alpha orbitals into sets
set  0    0  -  7
set  1    8  -  32
timer: guess orbital groupi     0.17s     0.17s
timer:     project ao basis     0.81s     0.81s

Iteration 0 at time 13.2s

timer:        Boys localize     0.80s     0.80s
timer:      Rotate subspace     0.53s     0.53s
timer:       Make densities     0.07s     0.07s
timer:       Load balancing     0.00s     0.00s
timer:       Nuclear energy     0.02s     0.02s
timer:              Coulomb     0.23s     0.23s
timer:        DFT potential     0.18s     0.18s
timer:                V*psi     0.67s     0.67s
timer:        Truncate Vpsi     0.79s     0.79s
timer:            PE matrix     0.05s     0.05s
timer:    KEmat reconstruct     0.02s     0.02s
timer:  KEmat differentiate     0.72s     0.72s
timer:       KEmat compress     0.12s     0.12s
timer: KEmat inner products     0.05s     0.05s
timer:            KE matrix     0.91s     0.91s
timer: Make fock matrix res     0.00s     0.00s

              kinetic     318.72229258
         nonlocal psp       0.00000000
   nuclear attraction   -1492.25108837
              coulomb     536.07689753
                  PCM       0.00000000
 exchange-correlation     -48.09982062
    nuclear-repulsion     373.32391847
                total    -312.22780041

timer: Compute residual stu     0.25s     0.25s
entering apply
timer:            Apply BSH     2.02s     2.02s
timer:     Truncate new psi     0.22s     0.22s
residuals [1.007670e-02, 1.007649e-02, 9.686336e-03, 9.686650e-03, 9.690717e-03, 9.692499e-03, 9.681389e-03, 9.678674e-03, 1.345754e-01, 8.857964e-02, 1.050803e-01, 1.345751e-01, 1.523235e-01, 1.347754e-01, 1.325589e-01, 1.345804e-01, 1.325585e-01, 1.347751e-01, 8.626509e-02, 8.579907e-02, 1.523229e-01, 1.517919e-01, 1.050796e-01, 1.523247e-01, 1.517924e-01, 1.347741e-01, 1.523241e-01, 8.626034e-02, 8.857777e-02, 1.347738e-01, 1.325636e-01, 1.345801e-01, 1.325633e-01]
BSH residual: rms 1.121510e-01    max 1.523247e-01
timer:         BSH residual     0.18s     0.18s
timer: Update subspace stuf     0.12s     0.12s
Subspace solution [*]   1.00000000

timer:   Subspace transform     0.01s     0.01s
Norm of vector changes alpha : rms 1.121510e-01    max 1.523247e-01
ORTHOG2a: maxq trantol 8.360972e-03 3.333333e-07
timer:       Orthonormalize     0.23s     0.23s

Iteration 1 at time 21.5s

timer:        Boys localize     0.49s     0.49s
timer:      Rotate subspace     0.41s     0.41s
timer:       Make densities     0.07s     0.07s
timer:       Load balancing     0.00s     0.00s
delta rho 1.902415e-01 1.902415e-01 residuals 1.523247e-01 0.000000e+00
timer:       Nuclear energy     0.02s     0.02s
timer:              Coulomb     0.25s     0.25s
timer:        DFT potential     0.19s     0.19s
timer:                V*psi     0.70s     0.70s
timer:        Truncate Vpsi     0.83s     0.83s
timer:            PE matrix     0.05s     0.05s
timer:    KEmat reconstruct     0.02s     0.02s
timer:  KEmat differentiate     0.69s     0.69s
timer:       KEmat compress     0.08s     0.08s
timer: KEmat inner products     0.05s     0.05s
timer:            KE matrix     0.86s     0.86s
timer: Make fock matrix res     0.00s     0.00s

              kinetic     308.08058468
         nonlocal psp       0.00000000
   nuclear attraction   -1465.74421519
              coulomb     518.06696023
                  PCM       0.00000000
 exchange-correlation     -46.44359295
    nuclear-repulsion     373.32391847
                total    -312.71634475

timer: Compute residual stu     0.19s     0.19s
entering apply
timer:            Apply BSH     2.06s     2.06s
timer:     Truncate new psi     0.23s     0.23s
residuals [9.450984e-04, 9.451766e-04, 9.929494e-04, 9.928211e-04, 9.817597e-04, 9.817097e-04, 9.721352e-04, 9.714958e-04, 4.894069e-02, 4.046629e-02, 5.092226e-02, 4.894095e-02, 6.040163e-02, 5.196824e-02, 4.720674e-02, 4.894369e-02, 4.720695e-02, 5.196840e-02, 3.896340e-02, 3.855998e-02, 6.040202e-02, 6.119884e-02, 5.092289e-02, 6.040235e-02, 6.119956e-02, 5.196706e-02, 6.040281e-02, 3.896231e-02, 4.046525e-02, 5.196720e-02, 4.720988e-02, 4.894392e-02, 4.721012e-02]
BSH residual: rms 4.416729e-02    max 6.119956e-02
timer:         BSH residual     0.16s     0.16s
timer: Update subspace stuf     0.24s     0.24s
Subspace solution [*]   0.27182853   0.72817147

timer:   Subspace transform     0.04s     0.04s
Norm of vector changes alpha : rms 3.074138e-02    max 4.191396e-02
ORTHOG2a: maxq trantol 1.981611e-03 3.333333e-07
timer:       Orthonormalize     0.21s     0.21s

Iteration 2 at time 29.5s

timer:        Boys localize     0.47s     0.47s
timer:      Rotate subspace     0.38s     0.38s
timer:       Make densities     0.07s     0.07s
delta rho 4.667412e-02 4.667412e-02 residuals 6.119956e-02 0.000000e+00
timer:       Nuclear energy     0.02s     0.02s
timer:              Coulomb     0.22s     0.22s
timer:        DFT potential     0.20s     0.20s
timer:                V*psi     0.67s     0.67s
timer:        Truncate Vpsi     0.81s     0.81s
timer:            PE matrix     0.04s     0.04s
timer:    KEmat reconstruct     0.02s     0.02s
timer:  KEmat differentiate     0.70s     0.70s
timer:       KEmat compress     0.08s     0.08s
timer: KEmat inner products     0.05s     0.05s
timer:            KE matrix     0.85s     0.85s
timer: Make fock matrix res     0.00s     0.00s

              kinetic     310.13144592
         nonlocal psp       0.00000000
   nuclear attraction   -1472.43901412
              coulomb     523.05543698
                  PCM       0.00000000
 exchange-correlation     -46.88854703
    nuclear-repulsion     373.32391847
                total    -312.81675978

timer: Compute residual stu     0.22s     0.22s
entering apply
timer:            Apply BSH     2.06s     2.06s
timer:     Truncate new psi     0.23s     0.23s
residuals [5.979577e-04, 5.979502e-04, 6.469783e-04, 6.468471e-04, 6.208472e-04, 6.208480e-04, 6.179925e-04, 6.177585e-04, 7.821982e-03, 8.510029e-03, 1.018541e-02, 7.822175e-03, 9.033544e-03, 7.456622e-03, 7.800899e-03, 7.822748e-03, 7.801028e-03, 7.456754e-03, 8.595828e-03, 8.570565e-03, 9.033890e-03, 8.614000e-03, 1.018541e-02, 9.033821e-03, 8.613763e-03, 7.456414e-03, 9.034069e-03, 8.596043e-03, 8.509825e-03, 7.456484e-03, 7.801609e-03, 7.822860e-03, 7.801746e-03]
BSH residual: rms 7.307300e-03    max 1.018541e-02
timer:         BSH residual     0.15s     0.15s
timer: Update subspace stuf     0.36s     0.36s
Subspace solution [*]  -0.07280704  -0.32884526   1.40165231

timer:   Subspace transform     0.05s     0.05s
Norm of vector changes alpha : rms 8.728037e-03    max 1.227243e-02
ORTHOG2a: maxq trantol 7.502154e-04 3.333333e-07
timer:       Orthonormalize     0.20s     0.20s

Iteration 3 at time 37.6s

timer:        Boys localize     0.45s     0.45s
timer:      Rotate subspace     0.33s     0.33s
timer:       Make densities     0.07s     0.07s
delta rho 1.435995e-02 1.435995e-02 residuals 1.018541e-02 0.000000e+00
timer:       Nuclear energy     0.02s     0.02s
timer:              Coulomb     0.24s     0.24s
timer:        DFT potential     0.18s     0.18s
timer:                V*psi     0.65s     0.65s
timer:        Truncate Vpsi     0.80s     0.80s
timer:            PE matrix     0.04s     0.04s
timer:    KEmat reconstruct     0.02s     0.02s
timer:  KEmat differentiate     0.70s     0.70s
timer:       KEmat compress     0.08s     0.08s
timer: KEmat inner products     0.05s     0.05s
timer:            KE matrix     0.86s     0.86s
timer: Make fock matrix res     0.00s     0.00s

              kinetic     310.32596844
         nonlocal psp       0.00000000
   nuclear attraction   -1473.25761382
              coulomb     523.74572504
                  PCM       0.00000000
 exchange-correlation     -46.96446925
    nuclear-repulsion     373.32391847
                total    -312.82647113

timer: Compute residual stu     0.20s     0.20s
entering apply
timer:            Apply BSH     2.04s     2.04s
timer:     Truncate new psi     0.22s     0.22s
residuals [1.165065e-04, 1.159365e-04, 2.310418e-04, 2.310321e-04, 2.026379e-04, 2.034578e-04, 1.178712e-04, 1.164907e-04, 3.315426e-03, 1.971825e-03, 2.087368e-03, 3.315428e-03, 3.185445e-03, 3.296765e-03, 3.396202e-03, 3.315660e-03, 3.396148e-03, 3.296811e-03, 1.891295e-03, 1.849078e-03, 3.185519e-03, 3.036963e-03, 2.087226e-03, 3.185488e-03, 3.036875e-03, 3.296725e-03, 3.185494e-03, 1.891482e-03, 1.972032e-03, 3.296698e-03, 3.396096e-03, 3.315776e-03, 3.396091e-03]
BSH residual: rms 2.581545e-03    max 3.396202e-03
timer:         BSH residual     0.14s     0.14s
timer: Update subspace stuf     0.50s     0.50s
Subspace solution [*]  -0.02069766   0.02987023  -0.26624027   1.25706770

timer:   Subspace transform     0.06s     0.06s
Norm of vector changes alpha : rms 2.929101e-03    max 3.614696e-03
ORTHOG2a: maxq trantol 3.280070e-04 3.333333e-07
timer:       Orthonormalize     0.20s     0.20s

Iteration 4 at time 45.6s

timer:        Boys localize     0.48s     0.48s
timer:      Rotate subspace     0.36s     0.36s
timer:       Make densities     0.07s     0.07s
delta rho 4.933243e-03 4.933243e-03 residuals 3.396202e-03 0.000000e+00
timer:       Nuclear energy     0.02s     0.02s
timer:              Coulomb     0.25s     0.25s
timer:        DFT potential     0.19s     0.19s
timer:                V*psi     0.65s     0.65s
timer:        Truncate Vpsi     0.80s     0.80s
timer:            PE matrix     0.04s     0.04s
timer:    KEmat reconstruct     0.02s     0.02s
timer:  KEmat differentiate     0.70s     0.70s
timer:       KEmat compress     0.08s     0.08s
timer: KEmat inner products     0.05s     0.05s
timer:            KE matrix     0.86s     0.86s
timer: Make fock matrix res     0.00s     0.00s

              kinetic     310.19604525
         nonlocal psp       0.00000000
   nuclear attraction   -1472.87692328
              coulomb     523.47628147
                  PCM       0.00000000
 exchange-correlation     -46.94701700
    nuclear-repulsion     373.32391847
                total    -312.82769510

timer: Compute residual stu     0.18s     0.18s
entering apply
timer:            Apply BSH     2.02s     2.02s
timer:     Truncate new psi     0.22s     0.22s
residuals [8.644026e-05, 1.810860e-04, 1.137280e-04, 1.136076e-04, 9.828187e-05, 9.884603e-05, 7.544438e-05, 7.352217e-05, 1.176886e-03, 1.069279e-03, 1.167368e-03, 1.176915e-03, 1.181254e-03, 1.337264e-03, 1.116413e-03, 1.176889e-03, 1.116368e-03, 1.337294e-03, 9.691429e-04, 9.603603e-04, 1.181413e-03, 1.080146e-03, 1.167313e-03, 1.181305e-03, 1.080388e-03, 1.337286e-03, 1.181355e-03, 9.694192e-04, 1.069331e-03, 1.337246e-03, 1.116177e-03, 1.177430e-03, 1.116191e-03]
BSH residual: rms 1.007629e-03    max 1.337294e-03
timer:         BSH residual     0.13s     0.13s
timer: Update subspace stuf     0.63s     0.63s
Subspace solution [*]   0.01134968   0.04941138  -0.19328301  -0.17688614   1.30940809

timer:   Subspace transform     0.08s     0.08s
Norm of vector changes alpha : rms 1.596052e-03    max 2.060518e-03
ORTHOG2a: maxq trantol 1.599639e-04 3.333333e-07
timer:       Orthonormalize     0.20s     0.20s

Iteration 5 at time 53.8s

timer:        Boys localize     0.48s     0.48s
timer:      Rotate subspace     0.35s     0.35s
timer:       Make densities     0.07s     0.07s
delta rho 1.819024e-03 1.819024e-03 residuals 1.337294e-03 0.000000e+00
timer:       Nuclear energy     0.03s     0.03s
timer:              Coulomb     0.25s     0.25s
timer:        DFT potential     0.20s     0.20s
timer:                V*psi     0.67s     0.67s
timer:        Truncate Vpsi     0.81s     0.81s
timer:            PE matrix     0.04s     0.04s
timer:    KEmat reconstruct     0.02s     0.02s
timer:  KEmat differentiate     0.69s     0.69s
timer:       KEmat compress     0.08s     0.08s
timer: KEmat inner products     0.05s     0.05s
timer:            KE matrix     0.85s     0.85s
timer: Make fock matrix res     0.00s     0.00s

              kinetic     310.17786070
         nonlocal psp       0.00000000
   nuclear attraction   -1472.77279836
              coulomb     523.38523742
                  PCM       0.00000000
 exchange-correlation     -46.94215097
    nuclear-repulsion     373.32391847
                total    -312.82793274

timer: Compute residual stu     0.18s     0.18s
entering apply
timer:            Apply BSH     2.03s     2.03s
timer:     Truncate new psi     0.22s     0.22s
residuals [1.877944e-04, 1.933413e-04, 1.043002e-04, 1.042751e-04, 8.394119e-05, 8.386256e-05, 6.321824e-05, 6.116407e-05, 6.175566e-04, 7.013148e-04, 7.141935e-04, 6.176054e-04, 6.725059e-04, 6.766128e-04, 6.071596e-04, 6.176183e-04, 6.070966e-04, 6.767769e-04, 6.404318e-04, 6.158720e-04, 6.726695e-04, 6.773051e-04, 7.159856e-04, 6.721814e-04, 6.778150e-04, 6.766408e-04, 6.722455e-04, 6.409282e-04, 7.013101e-04, 6.766341e-04, 6.077178e-04, 6.188080e-04, 6.077362e-04]
BSH residual: rms 5.743000e-04    max 7.159856e-04
timer:         BSH residual     0.14s     0.14s
timer: Update subspace stuf     0.58s     0.58s
Subspace solution [*]  -0.03371211   0.11876851  -0.24353925  -0.20486354   1.36334639

timer:   Subspace transform     0.09s     0.09s
Norm of vector changes alpha : rms 8.521399e-04    max 1.049877e-03
ORTHOG2a: maxq trantol 1.220328e-04 3.333333e-07
timer:       Orthonormalize     0.19s     0.19s

Iteration 6 at time 61.9s

timer:        Boys localize     0.44s     0.44s
timer:      Rotate subspace     0.32s     0.32s
timer:       Make densities     0.06s     0.06s
delta rho 9.449814e-04 9.449814e-04 residuals 7.159856e-04 0.000000e+00
timer:       Nuclear energy     0.02s     0.02s
timer:              Coulomb     0.21s     0.21s
timer:        DFT potential     0.19s     0.19s
timer:                V*psi     0.64s     0.64s
timer:        Truncate Vpsi     0.80s     0.80s
timer:            PE matrix     0.04s     0.04s
timer:    KEmat reconstruct     0.02s     0.02s
timer:  KEmat differentiate     0.70s     0.70s
timer:       KEmat compress     0.08s     0.08s
timer: KEmat inner products     0.05s     0.05s
timer:            KE matrix     0.86s     0.86s
timer: Make fock matrix res     0.00s     0.00s

              kinetic     310.20912001
         nonlocal psp       0.00000000
   nuclear attraction   -1472.82875136
              coulomb     523.41389261
                  PCM       0.00000000
 exchange-correlation     -46.94608326
    nuclear-repulsion     373.32391847
                total    -312.82790353

timer: Compute residual stu     0.18s     0.18s
entering apply
timer:            Apply BSH     2.03s     2.03s
timer:     Truncate new psi     0.22s     0.22s
residuals [1.961203e-04, 6.391737e-05, 9.908904e-05, 9.879847e-05, 9.786026e-05, 9.714070e-05, 5.779264e-05, 5.551962e-05, 3.517109e-04, 3.715887e-04, 3.474262e-04, 3.517925e-04, 2.891488e-04, 3.704468e-04, 3.728490e-04, 3.518014e-04, 3.726865e-04, 3.711590e-04, 3.453127e-04, 3.271596e-04, 2.888947e-04, 3.032182e-04, 3.518872e-04, 2.886563e-04, 3.054565e-04, 3.704711e-04, 2.885032e-04, 3.447515e-04, 3.715829e-04, 3.708440e-04, 3.730533e-04, 3.541325e-04, 3.730234e-04]
BSH residual: rms 3.052503e-04    max 3.730533e-04
timer:         BSH residual     0.14s     0.14s
timer: Update subspace stuf     0.61s     0.61s
Subspace solution [*]   0.01518647   0.02698144  -0.23656656  -0.03405652   1.22845518

timer:   Subspace transform     0.08s     0.08s
Norm of vector changes alpha : rms 4.159562e-04    max 5.403009e-04
ORTHOG2a: maxq trantol 1.232746e-04 3.333333e-07
timer:       Orthonormalize     0.19s     0.19s

Iteration 7 at time 70.0s

timer:        Boys localize     0.45s     0.45s
timer:      Rotate subspace     0.34s     0.34s
timer:       Make densities     0.07s     0.07s
delta rho 3.999513e-04 3.999513e-04 residuals 3.730533e-04 0.000000e+00
timer:       Nuclear energy     0.02s     0.02s
timer:              Coulomb     0.23s     0.23s
timer:        DFT potential     0.19s     0.19s
timer:                V*psi     0.65s     0.65s
timer:        Truncate Vpsi     0.80s     0.80s
timer:            PE matrix     0.04s     0.04s
timer:    KEmat reconstruct     0.02s     0.02s
timer:  KEmat differentiate     0.70s     0.70s
timer:       KEmat compress     0.08s     0.08s
timer: KEmat inner products     0.05s     0.05s
timer:            KE matrix     0.86s     0.86s
timer: Make fock matrix res     0.00s     0.00s

              kinetic     310.20715450
         nonlocal psp       0.00000000
   nuclear attraction   -1472.81253173
              coulomb     523.39833881
                  PCM       0.00000000
 exchange-correlation     -46.94480122
    nuclear-repulsion     373.32391847
                total    -312.82792118


Converged!

timer:              Overlap     0.04s     0.04s
timer:      focka eigen sol     0.00s     0.00s
 
alpha eigenvalues
[*]  -9.77582418  -9.77571324  -9.77453686  -9.77444639  -9.77404054  -9.77367599  -9.76687633  -9.76684715  -0.73406182  -0.71219845  -0.67682775  -0.63039532  -0.57775711  -0.52978627  -0.51515464  -0.51031668  -0.43730366  -0.41686634  -0.39546223  -0.38578617  -0.37876362  -0.37112387  -0.34903041  -0.34354536  -0.31945960  -0.31395808  -0.31081645  -0.28979701  -0.28846367  -0.28245457  -0.27701072  -0.27565049  -0.27266849


 Dipole Moment (a.u.)
 -----------

     x:  2.609357e-06
     y:  -5.974984e-07
     z:  -8.440639e-07
 Total Dipole Moment:  2.806812e-06 

timer:               dipole     0.00s     0.00s
Orbitals are localized - energies are diagonal Fock matrix elements

Analysis of alpha MO vectors
timer:      Analyze vectors     0.89s     0.89s
timer: Compute eigen gesv a     0.00s     0.00s
  MO   0 : occ=1.00 : energy=  -9.76680965 : center=(8.52,-0.48,-0.00) : radius=0.32
            C( 7)   s( 63)-0.994  
  MO   1 : occ=1.00 : energy=  -9.76680890 : center=(-8.52,0.48,-0.00) : radius=0.32
            C( 6)   s( 54) 0.994  
  MO   2 : occ=1.00 : energy=  -9.77563423 : center=(6.05,1.01,0.00) : radius=0.32
            C( 5)   s( 45)-0.994  
  MO   3 : occ=1.00 : energy=  -9.77563424 : center=(-6.05,-1.01,0.00) : radius=0.32
            C( 4)   s( 36)-0.994  
  MO   4 : occ=1.00 : energy=  -9.77383751 : center=(3.68,-0.64,-0.00) : radius=0.32
            C( 3)   s( 27) 0.994  
  MO   5 : occ=1.00 : energy=  -9.77383755 : center=(-3.68,0.64,-0.00) : radius=0.32
            C( 2)   s( 18)-0.994  
  MO   6 : occ=1.00 : energy=  -9.77436023 : center=(1.19,0.83,0.00) : radius=0.32
            C( 1)   s(  9) 0.994  
  MO   7 : occ=1.00 : energy=  -9.77436052 : center=(-1.19,-0.83,0.00) : radius=0.32
            C( 0)   s(  0) 0.994  
  MO   8 : occ=1.00 : energy=  -0.41355213 : center=(3.71,-1.47,-1.11) : radius=1.65
            C( 3)  pz( 31)-0.320     H(14)   s( 84) 0.308     H(14)   s( 85) 0.259     C( 3)  py( 30)-0.228     C( 3)   s( 32) 0.209     C( 3)   s( 28) 0.181     C( 3)  pz( 35)-0.143  
  MO   9 : occ=1.00 : energy=  -0.44796797 : center=(-4.86,-0.18,0.00) : radius=1.66
            C( 2)  px( 20)-0.295     C( 4)  px( 38) 0.295     C( 2)  py( 21)-0.221     C( 4)  py( 39) 0.220     C( 4)   s( 41) 0.214     C( 2)   s( 19) 0.187     C( 4)   s( 37) 0.180     C( 2)   s( 23) 0.170  
  MO  10 : occ=1.00 : energy=  -0.44976445 : center=(7.28,0.25,0.00) : radius=1.65
            C( 7)  px( 65)-0.312     C( 5)  px( 47) 0.310     C( 7)   s( 68) 0.211     C( 5)  py( 48)-0.199     C( 7)  py( 66) 0.189     C( 5)   s( 46) 0.188     C( 7)   s( 64) 0.183     C( 5)   s( 50) 0.152     C( 7)  px( 69)-0.151  
  MO  11 : occ=1.00 : energy=  -0.41355221 : center=(3.71,-1.47,1.11) : radius=1.65
            C( 3)  pz( 31) 0.320     H(15)   s( 86) 0.308     H(15)   s( 87) 0.259     C( 3)  py( 30)-0.228     C( 3)   s( 32) 0.209     C( 3)   s( 28) 0.181     C( 3)  pz( 35) 0.143  
  MO  12 : occ=1.00 : energy=  -0.41439278 : center=(8.60,-1.28,-1.11) : radius=1.63
            C( 7)  pz( 67)-0.318     H(24)   s(104) 0.306     H(24)   s(105) 0.248     C( 7)  py( 66)-0.226     C( 7)   s( 68) 0.188     C( 7)   s( 64) 0.186     C( 7)  pz( 71)-0.160  
  MO  13 : occ=1.00 : energy=  -0.41383751 : center=(-6.01,-1.83,1.11) : radius=1.64
            C( 4)  pz( 40) 0.321     H(16)   s( 88) 0.308     H(16)   s( 89) 0.255     C( 4)  py( 39)-0.228     C( 4)   s( 41) 0.198     C( 4)   s( 37) 0.183     C( 4)  pz( 44) 0.149  
  MO  14 : occ=1.00 : energy=  -0.41379848 : center=(1.16,1.65,1.11) : radius=1.65
            C( 1)  pz( 13) 0.320     H(10)   s( 76) 0.308     H(10)   s( 77) 0.258     C( 1)  py( 12) 0.228     C( 1)   s( 14) 0.206     C( 1)   s( 10) 0.182     C( 1)  pz( 17) 0.143  
  MO  15 : occ=1.00 : energy=  -0.41355216 : center=(-3.71,1.47,-1.11) : radius=1.65
            C( 2)  pz( 22) 0.320     H(12)   s( 80)-0.308     H(12)   s( 81)-0.259     C( 2)  py( 21)-0.228     C( 2)   s( 23)-0.209     C( 2)   s( 19)-0.181     C( 2)  pz( 26) 0.143  
  MO  16 : occ=1.00 : energy=  -0.41379851 : center=(1.16,1.65,-1.11) : radius=1.65
            C( 1)  pz( 13)-0.320     H(11)   s( 78) 0.308     H(11)   s( 79) 0.258     C( 1)  py( 12) 0.228     C( 1)   s( 14) 0.206     C( 1)   s( 10) 0.182     C( 1)  pz( 17)-0.143  
  MO  17 : occ=1.00 : energy=  -0.41383735 : center=(-6.01,-1.83,-1.11) : radius=1.64
            C( 4)  pz( 40)-0.321     H(17)   s( 90) 0.308     H(17)   s( 91) 0.255     C( 4)  py( 39)-0.228     C( 4)   s( 41) 0.198     C( 4)   s( 37) 0.183     C( 4)  pz( 44)-0.149  
  MO  18 : occ=1.00 : energy=  -0.44851291 : center=(-2.43,-0.09,-0.00) : radius=1.66
            C( 2)  px( 20) 0.312     C( 0)  px(  2)-0.311     C( 0)  py(  3) 0.197     C( 2)  py( 21)-0.196     C( 2)   s( 23) 0.190     C( 0)   s(  1) 0.184     C( 2)   s( 19) 0.183     C( 0)   s(  5) 0.183  
  MO  19 : occ=1.00 : energy=  -0.44868223 : center=(-0.00,-0.00,-0.00) : radius=1.66
            C( 1)  px( 11) 0.296     C( 0)  px(  2)-0.296     C( 1)  py( 12) 0.220     C( 0)  py(  3)-0.220     C( 0)   s(  5)-0.188     C( 1)   s( 14)-0.188     C( 0)   s(  1)-0.184     C( 1)   s( 10)-0.184  
  MO  20 : occ=1.00 : energy=  -0.41439260 : center=(8.60,-1.28,1.11) : radius=1.63
            C( 7)  pz( 67) 0.318     H(25)   s(106) 0.306     H(25)   s(107) 0.248     C( 7)  py( 66)-0.226     C( 7)   s( 68) 0.188     C( 7)   s( 64) 0.186     C( 7)  pz( 71) 0.160  
  MO  21 : occ=1.00 : energy=  -0.41592163 : center=(9.60,0.35,-0.00) : radius=1.63
            H(23)   s(102)-0.307     C( 7)  px( 65)-0.305     H(23)   s(103)-0.247     C( 7)  py( 66)-0.244     C( 7)   s( 64)-0.189     C( 7)   s( 68)-0.172     C( 7)  px( 69)-0.152  
  MO  22 : occ=1.00 : energy=  -0.44976427 : center=(-7.28,-0.25,0.00) : radius=1.65
            C( 6)  px( 56) 0.312     C( 4)  px( 38)-0.310     C( 6)   s( 59) 0.211     C( 4)  py( 39) 0.199     C( 6)  py( 57)-0.189     C( 4)   s( 37) 0.188     C( 6)   s( 55) 0.183     C( 4)   s( 41) 0.152     C( 6)  px( 60) 0.151  
  MO  23 : occ=1.00 : energy=  -0.41439257 : center=(-8.60,1.28,-1.11) : radius=1.63
            C( 6)  pz( 58) 0.318     H(21)   s( 98)-0.306     H(21)   s( 99)-0.248     C( 6)  py( 57)-0.226     C( 6)   s( 59)-0.188     C( 6)   s( 55)-0.186     C( 6)  pz( 62) 0.160  
  MO  24 : occ=1.00 : energy=  -0.41592173 : center=(-9.60,-0.35,-0.00) : radius=1.63
            H(20)   s( 96)-0.307     C( 6)  px( 56) 0.305     H(20)   s( 97)-0.247     C( 6)  py( 57) 0.244     C( 6)   s( 55)-0.189     C( 6)   s( 59)-0.172     C( 6)  px( 60) 0.152  
  MO  25 : occ=1.00 : energy=  -0.41383750 : center=(6.01,1.83,1.11) : radius=1.64
            C( 5)  pz( 49)-0.321     H(18)   s( 92)-0.308     H(18)   s( 93)-0.255     C( 5)  py( 48)-0.228     C( 5)   s( 50)-0.198     C( 5)   s( 46)-0.183     C( 5)  pz( 53)-0.149  
  MO  26 : occ=1.00 : energy=  -0.41439270 : center=(-8.60,1.28,1.11) : radius=1.63
            C( 6)  pz( 58)-0.318     H(22)   s(100)-0.306     H(22)   s(101)-0.248     C( 6)  py( 57)-0.226     C( 6)   s( 59)-0.188     C( 6)   s( 55)-0.186     C( 6)  pz( 62)-0.160  
  MO  27 : occ=1.00 : energy=  -0.44851301 : center=(2.43,0.09,-0.00) : radius=1.66
            C( 3)  px( 29)-0.312     C( 1)  px( 11) 0.311     C( 1)  py( 12)-0.197     C( 3)  py( 30) 0.196     C( 3)   s( 32) 0.190     C( 1)   s( 10) 0.184     C( 3)   s( 28) 0.183     C( 1)   s( 14) 0.183  
  MO  28 : occ=1.00 : energy=  -0.44796860 : center=(4.86,0.18,-0.00) : radius=1.66
            C( 3)  px( 29)-0.295     C( 5)  px( 47) 0.295     C( 3)  py( 30)-0.221     C( 5)  py( 48) 0.220     C( 5)   s( 50)-0.214     C( 3)   s( 28)-0.187     C( 5)   s( 46)-0.180     C( 3)   s( 32)-0.170  
  MO  29 : occ=1.00 : energy=  -0.41383738 : center=(6.01,1.83,-1.11) : radius=1.64
            C( 5)  pz( 49) 0.321     H(19)   s( 94)-0.308     H(19)   s( 95)-0.255     C( 5)  py( 48)-0.228     C( 5)   s( 50)-0.198     C( 5)   s( 46)-0.183     C( 5)  pz( 53) 0.149  
  MO  30 : occ=1.00 : energy=  -0.41379853 : center=(-1.16,-1.65,1.11) : radius=1.65
            C( 0)  pz(  4) 0.320     H( 8)   s( 72) 0.308     H( 8)   s( 73) 0.258     C( 0)  py(  3)-0.228     C( 0)   s(  5) 0.206     C( 0)   s(  1) 0.182     C( 0)  pz(  8) 0.143  
  MO  31 : occ=1.00 : energy=  -0.41355217 : center=(-3.71,1.47,1.11) : radius=1.65
            C( 2)  pz( 22)-0.320     H(13)   s( 82)-0.308     H(13)   s( 83)-0.259     C( 2)  py( 21)-0.228     C( 2)   s( 23)-0.209     C( 2)   s( 19)-0.181     C( 2)  pz( 26)-0.143  
  MO  32 : occ=1.00 : energy=  -0.41379813 : center=(-1.16,-1.65,-1.11) : radius=1.65
            C( 0)  pz(  4) 0.320     H( 9)   s( 74)-0.308     H( 9)   s( 75)-0.258     C( 0)  py(  3) 0.228     C( 0)   s(  5)-0.206     C( 0)   s(  1)-0.182     C( 0)  pz(  8) 0.143  

Solving NDIM= 3  with thresh 1.000000e-06     k 8    conv 1.000000e-04 

timer:     Project vnuclear     3.76s     3.76s
timer:     project ao basis     1.33s     1.33s

Iteration 0 at time 81.2s

timer:        Boys localize     0.50s     0.50s
timer:      Rotate subspace     0.34s     0.34s
timer:       Make densities     0.07s     0.07s
timer:       Load balancing     0.00s     0.00s
timer:       Nuclear energy     0.09s     0.09s
timer:              Coulomb     0.73s     0.73s
timer:        DFT potential     0.25s     0.25s
timer:                V*psi     4.27s     4.27s
timer:        Truncate Vpsi     3.28s     3.28s
timer:            PE matrix     0.08s     0.08s
timer:    KEmat reconstruct     0.02s     0.02s
timer:  KEmat differentiate     0.73s     0.73s
timer:       KEmat compress     0.13s     0.13s
timer: KEmat inner products     0.08s     0.08s
timer:            KE matrix     0.97s     0.97s
timer: Make fock matrix res     0.00s     0.00s

              kinetic     310.20972308
         nonlocal psp       0.00000000
   nuclear attraction   -1472.81251948
              coulomb     523.39588773
                  PCM       0.00000000
 exchange-correlation     -46.94479504
    nuclear-repulsion     373.32391847
                total    -312.82778524

timer: Compute residual stu     0.48s     0.48s
entering apply
timer:            Apply BSH    16.21s    16.21s
timer:     Truncate new psi     0.91s     0.91s
residuals [2.516255e-04, 2.578738e-04, 3.025612e-04, 3.024745e-04, 3.461308e-04, 3.458376e-04, 2.641030e-04, 2.632768e-04, 5.101058e-04, 5.348028e-04, 4.739908e-04, 5.100777e-04, 4.227667e-04, 4.921415e-04, 4.933841e-04, 5.100124e-04, 4.934193e-04, 4.920732e-04, 5.550851e-04, 5.068150e-04, 4.230255e-04, 4.616168e-04, 4.753917e-04, 4.231860e-04, 4.614878e-04, 4.920418e-04, 4.231358e-04, 5.545105e-04, 5.336681e-04, 4.920194e-04, 4.932258e-04, 5.097876e-04, 4.932480e-04]
BSH residual: rms 4.509084e-04    max 5.550851e-04
timer:         BSH residual     0.35s     0.35s
timer: Update subspace stuf     0.12s     0.12s
Subspace solution [*]   1.00000000

timer:   Subspace transform     0.05s     0.05s
Norm of vector changes alpha : rms 4.509084e-04    max 5.550851e-04
ORTHOG2a: maxq trantol 9.597130e-05 3.333333e-09
timer:       Orthonormalize     0.52s     0.52s

Iteration 1 at time 111.8s

timer:        Boys localize     1.18s     1.18s
timer:      Rotate subspace     0.80s     0.80s
timer:       Make densities     0.18s     0.18s
timer:       Load balancing     0.00s     0.00s
delta rho 9.115221e-04 9.115221e-04 residuals 5.550851e-04 0.000000e+00
timer:       Nuclear energy     0.07s     0.07s
timer:              Coulomb     1.20s     1.20s
timer:        DFT potential     0.51s     0.51s
timer:                V*psi     1.57s     1.57s
timer:        Truncate Vpsi     2.10s     2.10s
timer:            PE matrix     0.12s     0.12s
timer:    KEmat reconstruct     0.05s     0.05s
timer:  KEmat differentiate     1.72s     1.72s
timer:       KEmat compress     0.32s     0.32s
timer: KEmat inner products     0.16s     0.16s
timer:            KE matrix     2.26s     2.26s
timer: Make fock matrix res     0.00s     0.00s

              kinetic     310.21573119
         nonlocal psp       0.00000000
   nuclear attraction   -1472.82486338
              coulomb     523.39522110
                  PCM       0.00000000
 exchange-correlation     -46.94520526
    nuclear-repulsion     373.32391847
                total    -312.83519788

timer: Compute residual stu     0.66s     0.66s
entering apply
timer:            Apply BSH    18.11s    18.11s
timer:     Truncate new psi     0.92s     0.92s
residuals [3.214514e-05, 3.312337e-05, 4.046970e-05, 4.054239e-05, 3.264471e-05, 3.278140e-05, 3.314936e-05, 3.266340e-05, 1.736393e-04, 1.273509e-04, 1.264662e-04, 1.736218e-04, 1.178666e-04, 1.617877e-04, 1.612155e-04, 1.740697e-04, 1.612312e-04, 1.618215e-04, 1.303736e-04, 1.138748e-04, 1.179255e-04, 1.400504e-04, 1.269745e-04, 1.179078e-04, 1.406130e-04, 1.617733e-04, 1.179038e-04, 1.302918e-04, 1.267634e-04, 1.617505e-04, 1.612613e-04, 1.739464e-04, 1.612396e-04]
BSH residual: rms 1.285806e-04    max 1.740697e-04
timer:         BSH residual     0.47s     0.47s
timer: Update subspace stuf     0.49s     0.49s
Subspace solution [*]  -0.06829539   1.06829539

timer:   Subspace transform     0.10s     0.10s
Norm of vector changes alpha : rms 1.385127e-04    max 1.893591e-04
ORTHOG2a: maxq trantol 3.772284e-05 3.333333e-09
timer:       Orthonormalize     0.54s     0.54s

Iteration 2 at time 145.3s

timer:        Boys localize     1.20s     1.20s
timer:      Rotate subspace     0.74s     0.74s
timer:       Make densities     0.21s     0.21s
delta rho 1.972714e-04 1.972714e-04 residuals 1.740697e-04 0.000000e+00
timer:       Nuclear energy     0.09s     0.09s
timer:              Coulomb     1.17s     1.17s
timer:        DFT potential     0.48s     0.48s
timer:                V*psi     1.65s     1.65s
timer:        Truncate Vpsi     2.06s     2.06s
timer:            PE matrix     0.13s     0.13s
timer:    KEmat reconstruct     0.05s     0.05s
timer:  KEmat differentiate     1.78s     1.78s
timer:       KEmat compress     0.34s     0.34s
timer: KEmat inner products     0.17s     0.17s
timer:            KE matrix     2.35s     2.35s
timer: Make fock matrix res     0.00s     0.00s

              kinetic     310.22620241
         nonlocal psp       0.00000000
   nuclear attraction   -1472.84317484
              coulomb     523.40410376
                  PCM       0.00000000
 exchange-correlation     -46.94626143
    nuclear-repulsion     373.32391847
                total    -312.83521164


Converged!

timer:              Overlap     0.11s     0.11s
timer:      focka eigen sol     0.00s     0.00s
 
alpha eigenvalues
[*]  -9.77563510  -9.77563119  -9.77431910  -9.77419296  -9.77376633  -9.77376385  -9.76675233  -9.76675110  -0.73431331  -0.71248025  -0.67701971  -0.63049932  -0.57780374  -0.52986828  -0.51530446  -0.51034020  -0.43731865  -0.41692580  -0.39550370  -0.38585532  -0.37883994  -0.37122733  -0.34906146  -0.34358519  -0.31957914  -0.31397271  -0.31084761  -0.28988630  -0.28853485  -0.28255043  -0.27704532  -0.27570926  -0.27271739


 Dipole Moment (a.u.)
 -----------

     x:  7.495870e-07
     y:  -5.730276e-10
     z:  -1.612443e-07
 Total Dipole Moment:  7.667338e-07 

timer:               dipole     0.01s     0.01s
Orbitals are localized - energies are diagonal Fock matrix elements

Analysis of alpha MO vectors
timer:      Analyze vectors     2.25s     2.25s
timer: Compute eigen gesv a     0.00s     0.00s
  MO   0 : occ=1.00 : energy=  -9.76669942 : center=(8.52,-0.48,-0.00) : radius=0.32
            C( 7)   s( 63)-0.994  
  MO   1 : occ=1.00 : energy=  -9.76669875 : center=(-8.52,0.48,-0.00) : radius=0.32
            C( 6)   s( 54) 0.994  
  MO   2 : occ=1.00 : energy=  -9.77552185 : center=(6.05,1.01,0.00) : radius=0.32
            C( 5)   s( 45)-0.994  
  MO   3 : occ=1.00 : energy=  -9.77552184 : center=(-6.05,-1.01,0.00) : radius=0.32
            C( 4)   s( 36)-0.994  
  MO   4 : occ=1.00 : energy=  -9.77369032 : center=(3.68,-0.64,-0.00) : radius=0.32
            C( 3)   s( 27) 0.994  
  MO   5 : occ=1.00 : energy=  -9.77369036 : center=(-3.68,0.64,-0.00) : radius=0.32
            C( 2)   s( 18)-0.994  
  MO   6 : occ=1.00 : energy=  -9.77415546 : center=(1.19,0.83,0.00) : radius=0.32
            C( 1)   s(  9) 0.994  
  MO   7 : occ=1.00 : energy=  -9.77415548 : center=(-1.19,-0.83,0.00) : radius=0.32
            C( 0)   s(  0) 0.994  
  MO   8 : occ=1.00 : energy=  -0.41363179 : center=(3.71,-1.47,-1.11) : radius=1.65
            C( 3)  pz( 31)-0.320     H(14)   s( 84) 0.308     H(14)   s( 85) 0.259     C( 3)  py( 30)-0.228     C( 3)   s( 32) 0.209     C( 3)   s( 28) 0.181     C( 3)  pz( 35)-0.143  
  MO   9 : occ=1.00 : energy=  -0.44806253 : center=(-4.86,-0.18,0.00) : radius=1.66
            C( 2)  px( 20)-0.295     C( 4)  px( 38) 0.295     C( 2)  py( 21)-0.221     C( 4)  py( 39) 0.220     C( 4)   s( 41) 0.214     C( 2)   s( 19) 0.187     C( 4)   s( 37) 0.180     C( 2)   s( 23) 0.170  
  MO  10 : occ=1.00 : energy=  -0.44985070 : center=(7.28,0.25,-0.00) : radius=1.65
            C( 7)  px( 65)-0.312     C( 5)  px( 47) 0.309     C( 7)   s( 68) 0.210     C( 5)  py( 48)-0.199     C( 7)  py( 66) 0.189     C( 5)   s( 46) 0.188     C( 7)   s( 64) 0.183     C( 5)   s( 50) 0.151     C( 7)  px( 69)-0.151  
  MO  11 : occ=1.00 : energy=  -0.41363178 : center=(3.71,-1.47,1.11) : radius=1.65
            C( 3)  pz( 31) 0.320     H(15)   s( 86) 0.308     H(15)   s( 87) 0.259     C( 3)  py( 30)-0.228     C( 3)   s( 32) 0.209     C( 3)   s( 28) 0.181     C( 3)  pz( 35) 0.143  
  MO  12 : occ=1.00 : energy=  -0.41448843 : center=(8.60,-1.28,-1.11) : radius=1.63
            C( 7)  pz( 67)-0.318     H(24)   s(104) 0.306     H(24)   s(105) 0.247     C( 7)  py( 66)-0.226     C( 7)   s( 68) 0.188     C( 7)   s( 64) 0.186     C( 7)  pz( 71)-0.160  
  MO  13 : occ=1.00 : energy=  -0.41394441 : center=(-6.01,-1.83,1.11) : radius=1.64
            C( 4)  pz( 40) 0.321     H(16)   s( 88) 0.308     H(16)   s( 89) 0.255     C( 4)  py( 39)-0.228     C( 4)   s( 41) 0.198     C( 4)   s( 37) 0.184     C( 4)  pz( 44) 0.149  
  MO  14 : occ=1.00 : energy=  -0.41385898 : center=(1.16,1.65,1.11) : radius=1.65
            C( 1)  pz( 13) 0.320     H(10)   s( 76) 0.308     H(10)   s( 77) 0.258     C( 1)  py( 12) 0.228     C( 1)   s( 14) 0.206     C( 1)   s( 10) 0.182     C( 1)  pz( 17) 0.143  
  MO  15 : occ=1.00 : energy=  -0.41363168 : center=(-3.71,1.47,-1.11) : radius=1.65
            C( 2)  pz( 22) 0.320     H(12)   s( 80)-0.308     H(12)   s( 81)-0.259     C( 2)  py( 21)-0.228     C( 2)   s( 23)-0.209     C( 2)   s( 19)-0.181     C( 2)  pz( 26) 0.143  
  MO  16 : occ=1.00 : energy=  -0.41385879 : center=(1.16,1.65,-1.11) : radius=1.65
            C( 1)  pz( 13)-0.320     H(11)   s( 78) 0.308     H(11)   s( 79) 0.258     C( 1)  py( 12) 0.228     C( 1)   s( 14) 0.206     C( 1)   s( 10) 0.182     C( 1)  pz( 17)-0.143  
  MO  17 : occ=1.00 : energy=  -0.41394410 : center=(-6.01,-1.83,-1.11) : radius=1.64
            C( 4)  pz( 40)-0.321     H(17)   s( 90) 0.308     H(17)   s( 91) 0.255     C( 4)  py( 39)-0.228     C( 4)   s( 41) 0.198     C( 4)   s( 37) 0.184     C( 4)  pz( 44)-0.149  
  MO  18 : occ=1.00 : energy=  -0.44855877 : center=(-2.43,-0.09,-0.00) : radius=1.66
            C( 2)  px( 20) 0.312     C( 0)  px(  2)-0.311     C( 0)  py(  3) 0.197     C( 2)  py( 21)-0.196     C( 2)   s( 23) 0.189     C( 0)   s(  1) 0.185     C( 2)   s( 19) 0.184     C( 0)   s(  5) 0.183  
  MO  19 : occ=1.00 : energy=  -0.44873266 : center=(-0.00,-0.00,-0.00) : radius=1.66
            C( 0)  px(  2)-0.296     C( 1)  px( 11) 0.296     C( 1)  py( 12) 0.220     C( 0)  py(  3)-0.220     C( 0)   s(  5)-0.188     C( 1)   s( 14)-0.188     C( 1)   s( 10)-0.184     C( 0)   s(  1)-0.184  
  MO  20 : occ=1.00 : energy=  -0.41448832 : center=(8.60,-1.28,1.11) : radius=1.63
            C( 7)  pz( 67) 0.318     H(25)   s(106) 0.306     H(25)   s(107) 0.247     C( 7)  py( 66)-0.226     C( 7)   s( 68) 0.188     C( 7)   s( 64) 0.186     C( 7)  pz( 71) 0.160  
  MO  21 : occ=1.00 : energy=  -0.41604959 : center=(9.60,0.35,0.00) : radius=1.63
            H(23)   s(102)-0.307     C( 7)  px( 65)-0.305     H(23)   s(103)-0.247     C( 7)  py( 66)-0.244     C( 7)   s( 64)-0.189     C( 7)   s( 68)-0.172     C( 7)  px( 69)-0.152  
  MO  22 : occ=1.00 : energy=  -0.44985053 : center=(-7.28,-0.25,-0.00) : radius=1.65
            C( 6)  px( 56) 0.312     C( 4)  px( 38)-0.309     C( 6)   s( 59) 0.210     C( 4)  py( 39) 0.199     C( 6)  py( 57)-0.189     C( 4)   s( 37) 0.188     C( 6)   s( 55) 0.183     C( 4)   s( 41) 0.151     C( 6)  px( 60) 0.151  
  MO  23 : occ=1.00 : energy=  -0.41448839 : center=(-8.60,1.28,-1.11) : radius=1.63
            C( 6)  pz( 58) 0.318     H(21)   s( 98)-0.306     H(21)   s( 99)-0.247     C( 6)  py( 57)-0.226     C( 6)   s( 59)-0.188     C( 6)   s( 55)-0.186     C( 6)  pz( 62) 0.160  
  MO  24 : occ=1.00 : energy=  -0.41604951 : center=(-9.60,-0.35,0.00) : radius=1.63
            H(20)   s( 96)-0.307     C( 6)  px( 56) 0.305     H(20)   s( 97)-0.247     C( 6)  py( 57) 0.244     C( 6)   s( 55)-0.189     C( 6)   s( 59)-0.172     C( 6)  px( 60) 0.152  
  MO  25 : occ=1.00 : energy=  -0.41394437 : center=(6.01,1.83,1.11) : radius=1.64
            C( 5)  pz( 49)-0.321     H(18)   s( 92)-0.308     H(18)   s( 93)-0.255     C( 5)  py( 48)-0.228     C( 5)   s( 50)-0.198     C( 5)   s( 46)-0.184     C( 5)  pz( 53)-0.149  
  MO  26 : occ=1.00 : energy=  -0.41448838 : center=(-8.60,1.28,1.11) : radius=1.63
            C( 6)  pz( 58)-0.318     H(22)   s(100)-0.306     H(22)   s(101)-0.247     C( 6)  py( 57)-0.226     C( 6)   s( 59)-0.188     C( 6)   s( 55)-0.186     C( 6)  pz( 62)-0.160  
  MO  27 : occ=1.00 : energy=  -0.44855871 : center=(2.43,0.09,0.00) : radius=1.66
            C( 3)  px( 29)-0.312     C( 1)  px( 11) 0.311     C( 1)  py( 12)-0.197     C( 3)  py( 30) 0.196     C( 3)   s( 32) 0.189     C( 1)   s( 10) 0.185     C( 3)   s( 28) 0.184     C( 1)   s( 14) 0.183  
  MO  28 : occ=1.00 : energy=  -0.44806232 : center=(4.86,0.18,0.00) : radius=1.66
            C( 3)  px( 29)-0.295     C( 5)  px( 47) 0.295     C( 3)  py( 30)-0.221     C( 5)  py( 48) 0.220     C( 5)   s( 50)-0.214     C( 3)   s( 28)-0.187     C( 5)   s( 46)-0.180     C( 3)   s( 32)-0.170  
  MO  29 : occ=1.00 : energy=  -0.41394415 : center=(6.01,1.83,-1.11) : radius=1.64
            C( 5)  pz( 49) 0.321     H(19)   s( 94)-0.308     H(19)   s( 95)-0.255     C( 5)  py( 48)-0.228     C( 5)   s( 50)-0.198     C( 5)   s( 46)-0.184     C( 5)  pz( 53) 0.149  
  MO  30 : occ=1.00 : energy=  -0.41385902 : center=(-1.16,-1.65,1.11) : radius=1.65
            C( 0)  pz(  4) 0.320     H( 8)   s( 72) 0.308     H( 8)   s( 73) 0.258     C( 0)  py(  3)-0.228     C( 0)   s(  5) 0.206     C( 0)   s(  1) 0.182     C( 0)  pz(  8) 0.143  
  MO  31 : occ=1.00 : energy=  -0.41363153 : center=(-3.71,1.47,1.11) : radius=1.65
            C( 2)  pz( 22)-0.320     H(13)   s( 82)-0.308     H(13)   s( 83)-0.259     C( 2)  py( 21)-0.228     C( 2)   s( 23)-0.209     C( 2)   s( 19)-0.181     C( 2)  pz( 26)-0.143  
  MO  32 : occ=1.00 : energy=  -0.41385868 : center=(-1.16,-1.65,-1.11) : radius=1.65
            C( 0)  pz(  4) 0.320     H( 9)   s( 74)-0.308     H( 9)   s( 75)-0.258     C( 0)  py(  3) 0.228     C( 0)   s(  5)-0.206     C( 0)   s(  1)-0.182     C( 0)  pz(  8) 0.143  
timer:             plotting     0.00s     0.00s

    Parallel environment
    --------------------
                  #nodes    1
       #threads per node    27+main = 28
          #total threads    28

  RMI message statistics (min / avg / max)
  ----------------------
   #messages in server q    0.00e+00 / 0.00e+00 / 0.00e+00
 #messages sent per node    0.00e+00 / 0.00e+00 / 0.00e+00
    #bytes sent per node    0.00e+00 / 0.00e+00 / 0.00e+00
 #messages recv per node    0.00e+00 / 0.00e+00 / 0.00e+00
    #bytes recv per node    0.00e+00 / 0.00e+00 / 0.00e+00
        #msgs systemwide    0.00e+00
       #bytes systemwide    0.00e+00

  Thread pool statistics (min / avg / max)
  ----------------------
         #tasks per node    0.00e+00 / 0.00e+00 / 0.00e+00
     #max q len per node    0.00e+00 / 0.00e+00 / 0.00e+00
  #hi-pri tasks per node    0.00e+00 / 0.00e+00 / 0.00e+00

         Total wall time    161.0s
         Total  cpu time    161.0s

