MADNESS runtime initialized with 27 threads in the pool and affinity -1 -1 -1

--------------------------------------------
   MADNESS 0.10.1 multiresolution suite
--------------------------------------------

   number of processors ... 1
    processor frequency ... 1.995379e+09
            host system ... linux-gnu
          configured by ... egentles
          configured on ... sn093
          configured at ... Tue Jul 11 16:06:48 EDT 2017
                    CXX ... mpicxx
               CXXFLAGS ... -g -std=c++14 -O3 -Wall -Wno-strict-aliasing -Wno-deprecated -Wno-unused-local-typedefs  -ffast-math -march=native
             tuning for ... default
                    MPI ... multiple
 multi-threaded runtime ... Intel TBB
                   BLAS ... Intel MKL 14245 14245 MFLOP/s
               compiled ... 08:44:05  on  Jul 29 2017
input filename:  /gpfs/home/egentles/auto_test_mad/geometries_LDA_boys/phosphorus_diatomic.mdns

Angstrom being used to read input coordinates (1 Bohr = 1.88972613 Angstrom)

XY degenerate

 The point group is D2h

Construct XC Functional from LIBXC Library

input line was:  LDA
 1.000 lda_x 
 1.000 lda_c_vwn 

screening parameters
 rhotol, rhomin 1.000000e-07 0.000000e+00
         ggatol 1.000000e-04
polarized  false 


Solving NDIM= 3  with thresh 1.000000e-05     k 8    conv 1.000000e-04 




 MADNESS Hartree-Fock and Density Functional Theory Program
 ----------------------------------------------------------



 geometry
   eprec 1.0e-04
   units atomic
   P             0.00000000           0.00000000          -1.78900373
   P             0.00000000           0.00000000           1.78900373
 end


             restart  false
    restart from AOs  false
 number of processes  1
   no. of io servers  1
   vnuc load bal fac  12
      load bal parts  2
     simulation cube  -5.178900e+01 5.178900e+01
        total charge  0.000000e+00
            smearing  0.000000e+00
 number of electrons  15 15
  number of orbitals  15 15
     spin restricted  true
       xc functional   LDA
          xc library  libxc
 initial guess basis  6-31g
 max krylov subspace  5
    compute protocol  [1.000000e-04, 1.000000e-06]
  energy convergence  1.000000e-05
 density convergence  1.000000e-04
    maximum rotation  2.500000e-01
    polynomial order  -1
       truncate mode  1
  maximum iterations  20
 Convergence criteria are density delta & BSH residual.
        plot density  false
        plot coulomb  false
        plot orbital  0 -1
        plot npoints  101
        plot  volume  default
  canonical orbitals 
 psp or all electron  all electron
timer:           initialize     0.40s     0.40s

Solving NDIM= 3  with thresh 1.000000e-04     k 6    conv 1.000000e-04 


Solving NDIM= 3  with thresh 1.000000e-04     k 6    conv 1.000000e-04 

timer:     Project vnuclear     0.18s     0.18s
timer:     project ao basis     0.26s     0.26s
guess dens trace 2.999995e+01
timer:        guess density     0.33s     0.33s
timer:   guess Coulomb potn     0.37s     0.37s
timer:       guess lda potn     0.18s     0.18s
timer:        guess overlap     0.01s     0.01s
timer:    KEmat reconstruct     0.01s     0.01s
timer:  KEmat differentiate     0.34s     0.34s
timer:       KEmat compress     0.06s     0.06s
timer: KEmat inner products     0.03s     0.03s
timer:     guess Kinet potn     0.44s     0.44s
timer:           guess fock     0.62s     0.62s
timer:      guess eigen sol     0.00s     0.00s
grouping alpha orbitals into sets
set  0    0  -  1
set  1    2  -  3
set  2    4  -  9
set  3    10  -  14
timer: guess orbital groupi     0.05s     0.05s
timer:     project ao basis     0.20s     0.20s

Iteration 0 at time 3.3s

timer:       Make densities     0.03s     0.03s
timer:       Load balancing     0.00s     0.00s
timer:       Nuclear energy     0.01s     0.01s
timer:              Coulomb     0.10s     0.10s
timer:        DFT potential     0.07s     0.07s
timer:                V*psi     0.13s     0.13s
timer:        Truncate Vpsi     0.17s     0.17s
timer:            PE matrix     0.02s     0.02s
timer:    KEmat reconstruct     0.01s     0.01s
timer:  KEmat differentiate     0.38s     0.38s
timer:       KEmat compress     0.05s     0.05s
timer: KEmat inner products     0.03s     0.03s
timer:            KE matrix     0.47s     0.47s
timer: Make fock matrix res     0.00s     0.00s
timer: Diagonalization Fock     0.00s     0.00s
timer: Diagonalization rest     0.25s     0.25s

              kinetic     681.25901776
         nonlocal psp       0.00000000
   nuclear attraction   -1749.84651458
              coulomb     369.53238821
                  PCM       0.00000000
 exchange-correlation     -43.92175520
    nuclear-repulsion      62.88416179
                total    -680.09270201

timer: Compute residual stu     0.05s     0.05s
entering apply
timer:            Apply BSH     1.28s     1.28s
timer:     Truncate new psi     0.16s     0.16s
residuals [5.391429e-03, 5.482077e-03, 1.095271e-02, 1.008814e-02, 8.289428e-03, 8.022267e-03, 8.388942e-03, 8.388942e-03, 7.935665e-03, 7.935665e-03, 3.528219e-02, 2.230154e-02, 5.380867e-02, 6.217836e-02, 6.217836e-02]
BSH residual: rms 2.949631e-02    max 6.217836e-02
timer:         BSH residual     0.06s     0.06s
timer: Update subspace stuf     0.05s     0.05s
Subspace solution [*]   1.00000000

timer:   Subspace transform     0.01s     0.01s
Norm of vector changes alpha : rms 2.949631e-02    max 6.217836e-02
ORTHOG2a: maxq trantol 2.998105e-03 6.666667e-07
timer:       Orthonormalize     0.10s     0.10s

Iteration 1 at time 6.6s

timer:       Make densities     0.04s     0.04s
timer:       Load balancing     0.00s     0.00s
delta rho 7.632971e-02 7.632971e-02 residuals 6.217836e-02 0.000000e+00
timer:       Nuclear energy     0.01s     0.01s
timer:              Coulomb     0.12s     0.12s
timer:        DFT potential     0.08s     0.08s
timer:                V*psi     0.16s     0.16s
timer:        Truncate Vpsi     0.19s     0.19s
timer:            PE matrix     0.02s     0.02s
timer:    KEmat reconstruct     0.01s     0.01s
timer:  KEmat differentiate     0.38s     0.38s
timer:       KEmat compress     0.05s     0.05s
timer: KEmat inner products     0.03s     0.03s
timer:            KE matrix     0.47s     0.47s
timer: Make fock matrix res     0.00s     0.00s
timer: Diagonalization Fock     0.00s     0.00s
timer: Diagonalization rest     0.22s     0.22s

              kinetic     678.89826234
         nonlocal psp       0.00000000
   nuclear attraction   -1747.49364836
              coulomb     369.32008726
                  PCM       0.00000000
 exchange-correlation     -43.82940442
    nuclear-repulsion      62.88416179
                total    -680.22054139

timer: Compute residual stu     0.05s     0.05s
entering apply
timer:            Apply BSH     1.30s     1.30s
timer:     Truncate new psi     0.16s     0.16s
residuals [8.069318e-04, 8.204459e-04, 2.346087e-03, 2.157859e-03, 1.593072e-03, 1.605738e-03, 1.519103e-03, 1.519103e-03, 1.470509e-03, 1.470509e-03, 1.241855e-02, 7.920068e-03, 1.281631e-02, 1.997892e-02, 1.997892e-02]
BSH residual: rms 8.963116e-03    max 1.997892e-02
timer:         BSH residual     0.06s     0.06s
timer: Update subspace stuf     0.09s     0.09s
Subspace solution [*]  -0.33069159   1.33069159

timer:   Subspace transform     0.02s     0.02s
Norm of vector changes alpha : rms 1.392480e-02    max 2.673322e-02
ORTHOG2a: maxq trantol 1.871462e-03 6.666667e-07
timer:       Orthonormalize     0.10s     0.10s

Iteration 2 at time 10.1s

timer:       Make densities     0.05s     0.05s
delta rho 3.030935e-02 3.030935e-02 residuals 1.997892e-02 0.000000e+00
timer:       Nuclear energy     0.01s     0.01s
timer:              Coulomb     0.11s     0.11s
timer:        DFT potential     0.08s     0.08s
timer:                V*psi     0.16s     0.16s
timer:        Truncate Vpsi     0.19s     0.19s
timer:            PE matrix     0.02s     0.02s
timer:    KEmat reconstruct     0.01s     0.01s
timer:  KEmat differentiate     0.38s     0.38s
timer:       KEmat compress     0.04s     0.04s
timer: KEmat inner products     0.03s     0.03s
timer:            KE matrix     0.47s     0.47s
timer: Make fock matrix res     0.00s     0.00s
timer: Diagonalization Fock     0.00s     0.00s
timer: Diagonalization rest     0.19s     0.19s

              kinetic     678.61142120
         nonlocal psp       0.00000000
   nuclear attraction   -1747.51685473
              coulomb     369.62201276
                  PCM       0.00000000
 exchange-correlation     -43.83447424
    nuclear-repulsion      62.88416179
                total    -680.23373323

timer: Compute residual stu     0.05s     0.05s
entering apply
timer:            Apply BSH     1.25s     1.25s
timer:     Truncate new psi     0.16s     0.16s
residuals [1.269726e-04, 1.309602e-04, 5.116342e-04, 4.902109e-04, 7.457787e-04, 7.781938e-04, 6.177186e-04, 6.177185e-04, 6.249815e-04, 6.249815e-04, 3.716498e-03, 6.645892e-03, 4.757904e-03, 7.189947e-03, 7.189947e-03]
BSH residual: rms 3.533176e-03    max 7.189947e-03
timer:         BSH residual     0.07s     0.07s
timer: Update subspace stuf     0.14s     0.14s
Subspace solution [*]   0.10089696  -0.86355387   1.76265691

timer:   Subspace transform     0.02s     0.02s
Norm of vector changes alpha : rms 8.323270e-03    max 1.558943e-02
ORTHOG2a: maxq trantol 7.914205e-04 6.666667e-07
timer:       Orthonormalize     0.09s     0.09s

Iteration 3 at time 13.6s

timer:       Make densities     0.03s     0.03s
delta rho 1.322116e-02 1.322116e-02 residuals 7.189947e-03 0.000000e+00
timer:       Nuclear energy     0.01s     0.01s
timer:              Coulomb     0.11s     0.11s
timer:        DFT potential     0.07s     0.07s
timer:                V*psi     0.15s     0.15s
timer:        Truncate Vpsi     0.19s     0.19s
timer:            PE matrix     0.02s     0.02s
timer:    KEmat reconstruct     0.01s     0.01s
timer:  KEmat differentiate     0.39s     0.39s
timer:       KEmat compress     0.05s     0.05s
timer: KEmat inner products     0.03s     0.03s
timer:            KE matrix     0.47s     0.47s
timer: Make fock matrix res     0.00s     0.00s
timer: Diagonalization Fock     0.00s     0.00s
timer: Diagonalization rest     0.21s     0.21s

              kinetic     678.65043587
         nonlocal psp       0.00000000
   nuclear attraction   -1747.64565798
              coulomb     369.71419881
                  PCM       0.00000000
 exchange-correlation     -43.84039778
    nuclear-repulsion      62.88416179
                total    -680.23725928

timer: Compute residual stu     0.04s     0.04s
entering apply
timer:            Apply BSH     1.26s     1.26s
timer:     Truncate new psi     0.16s     0.16s
residuals [1.032771e-04, 9.529619e-05, 1.897078e-04, 1.661490e-04, 8.787957e-05, 7.853557e-05, 9.082142e-05, 9.082142e-05, 7.670515e-05, 7.670515e-05, 1.104535e-03, 2.931001e-03, 1.627558e-03, 2.550019e-03, 2.550019e-03]
BSH residual: rms 1.306149e-03    max 2.931001e-03
timer:         BSH residual     0.06s     0.06s
timer: Update subspace stuf     0.18s     0.18s
Subspace solution [*]  -0.00613481   0.16029610  -0.70427744   1.55011615

timer:   Subspace transform     0.03s     0.03s
Norm of vector changes alpha : rms 2.910371e-03    max 6.128773e-03
ORTHOG2a: maxq trantol 3.587037e-04 6.666667e-07
timer:       Orthonormalize     0.10s     0.10s

Iteration 4 at time 17.1s

timer:       Make densities     0.04s     0.04s
delta rho 2.423768e-03 2.423768e-03 residuals 2.931001e-03 0.000000e+00
timer:       Nuclear energy     0.01s     0.01s
timer:              Coulomb     0.12s     0.12s
timer:        DFT potential     0.08s     0.08s
timer:                V*psi     0.15s     0.15s
timer:        Truncate Vpsi     0.20s     0.20s
timer:            PE matrix     0.02s     0.02s
timer:    KEmat reconstruct     0.01s     0.01s
timer:  KEmat differentiate     0.39s     0.39s
timer:       KEmat compress     0.05s     0.05s
timer: KEmat inner products     0.03s     0.03s
timer:            KE matrix     0.49s     0.49s
timer: Make fock matrix res     0.00s     0.00s
timer: Diagonalization Fock     0.00s     0.00s
timer: Diagonalization rest     0.24s     0.24s

              kinetic     678.71352464
         nonlocal psp       0.00000000
   nuclear attraction   -1747.75610155
              coulomb     369.76470731
                  PCM       0.00000000
 exchange-correlation     -43.84419332
    nuclear-repulsion      62.88416179
                total    -680.23790113

timer: Compute residual stu     0.05s     0.05s
entering apply
timer:            Apply BSH     1.25s     1.25s
timer:     Truncate new psi     0.16s     0.16s
residuals [5.740107e-05, 5.874644e-05, 1.437534e-04, 1.278756e-04, 1.206516e-04, 1.168763e-04, 1.106206e-04, 1.106206e-04, 1.089559e-04, 1.089559e-04, 3.766836e-04, 1.388272e-03, 7.984715e-04, 7.926530e-04, 7.926530e-04]
BSH residual: rms 5.217624e-04    max 1.388272e-03
timer:         BSH residual     0.06s     0.06s
timer: Update subspace stuf     0.23s     0.23s
Subspace solution [*]  -0.01755449   0.14247689  -0.27421605  -0.22128224   1.37057589

timer:   Subspace transform     0.03s     0.03s
Norm of vector changes alpha : rms 1.284515e-03    max 3.151593e-03
ORTHOG2a: maxq trantol 1.237471e-04 6.666667e-07
timer:       Orthonormalize     0.10s     0.10s

Iteration 5 at time 20.7s

timer:       Make densities     0.04s     0.04s
delta rho 1.596928e-03 1.596928e-03 residuals 1.388272e-03 0.000000e+00
timer:       Nuclear energy     0.01s     0.01s
timer:              Coulomb     0.11s     0.11s
timer:        DFT potential     0.07s     0.07s
timer:                V*psi     0.14s     0.14s
timer:        Truncate Vpsi     0.18s     0.18s
timer:            PE matrix     0.02s     0.02s
timer:    KEmat reconstruct     0.01s     0.01s
timer:  KEmat differentiate     0.37s     0.37s
timer:       KEmat compress     0.04s     0.04s
timer: KEmat inner products     0.03s     0.03s
timer:            KE matrix     0.46s     0.46s
timer: Make fock matrix res     0.00s     0.00s
timer: Diagonalization Fock     0.00s     0.00s
timer: Diagonalization rest     0.21s     0.21s

              kinetic     678.70419035
         nonlocal psp       0.00000000
   nuclear attraction   -1747.72494608
              coulomb     369.74109358
                  PCM       0.00000000
 exchange-correlation     -43.84250170
    nuclear-repulsion      62.88416179
                total    -680.23800207

timer: Compute residual stu     0.04s     0.04s
entering apply
timer:            Apply BSH     1.22s     1.22s
timer:     Truncate new psi     0.16s     0.16s
residuals [4.907096e-05, 4.856005e-05, 7.928975e-05, 7.974010e-05, 6.565624e-05, 7.125258e-05, 5.733747e-05, 5.733747e-05, 5.762091e-05, 5.762091e-05, 2.963233e-04, 4.522701e-04, 2.474039e-04, 1.651006e-04, 1.651006e-04]
BSH residual: rms 1.728382e-04    max 4.522701e-04
timer:         BSH residual     0.06s     0.06s
timer: Update subspace stuf     0.23s     0.23s
Subspace solution [*]  -0.01479915   0.05700516   0.03508735  -0.55960180   1.48230844

timer:   Subspace transform     0.03s     0.03s
Norm of vector changes alpha : rms 3.317785e-04    max 9.446149e-04
ORTHOG2a: maxq trantol 5.254289e-05 6.666667e-07
timer:       Orthonormalize     0.10s     0.10s

Iteration 6 at time 24.2s

timer:       Make densities     0.03s     0.03s
delta rho 8.465261e-04 8.465261e-04 residuals 4.522701e-04 0.000000e+00
timer:       Nuclear energy     0.01s     0.01s
timer:              Coulomb     0.10s     0.10s
timer:        DFT potential     0.07s     0.07s
timer:                V*psi     0.14s     0.14s
timer:        Truncate Vpsi     0.17s     0.17s
timer:            PE matrix     0.02s     0.02s
timer:    KEmat reconstruct     0.01s     0.01s
timer:  KEmat differentiate     0.36s     0.36s
timer:       KEmat compress     0.04s     0.04s
timer: KEmat inner products     0.03s     0.03s
timer:            KE matrix     0.45s     0.45s
timer: Make fock matrix res     0.00s     0.00s
timer: Diagonalization Fock     0.00s     0.00s
timer: Diagonalization rest     0.16s     0.16s

              kinetic     678.68781747
         nonlocal psp       0.00000000
   nuclear attraction   -1747.70090088
              coulomb     369.73250467
                  PCM       0.00000000
 exchange-correlation     -43.84159889
    nuclear-repulsion      62.88416179
                total    -680.23801584

timer: Compute residual stu     0.04s     0.04s
entering apply
timer:            Apply BSH     1.25s     1.25s
timer:     Truncate new psi     0.16s     0.16s
residuals [6.029750e-05, 5.905086e-05, 6.289602e-05, 5.211635e-05, 3.037223e-05, 3.461761e-05, 2.378546e-05, 2.378546e-05, 1.122255e-05, 1.122255e-05, 1.713049e-04, 1.982664e-04, 1.023416e-04, 7.262712e-05, 7.262715e-05]
BSH residual: rms 8.445007e-05    max 1.982664e-04
timer:         BSH residual     0.06s     0.06s
timer: Update subspace stuf     0.22s     0.22s
Subspace solution [*]  -0.00913722   0.03267552   0.05978948  -0.80767093   1.72434315

timer:   Subspace transform     0.03s     0.03s
Norm of vector changes alpha : rms 1.768528e-04    max 5.136126e-04
ORTHOG2a: maxq trantol 3.829321e-05 6.666667e-07
timer:       Orthonormalize     0.10s     0.10s

Iteration 7 at time 27.7s

timer:       Make densities     0.04s     0.04s
delta rho 2.858636e-04 2.858636e-04 residuals 1.982664e-04 0.000000e+00
timer:       Nuclear energy     0.01s     0.01s
timer:              Coulomb     0.11s     0.11s
timer:        DFT potential     0.08s     0.08s
timer:                V*psi     0.16s     0.16s
timer:        Truncate Vpsi     0.19s     0.19s
timer:            PE matrix     0.02s     0.02s
timer:    KEmat reconstruct     0.01s     0.01s
timer:  KEmat differentiate     0.40s     0.40s
timer:       KEmat compress     0.05s     0.05s
timer: KEmat inner products     0.03s     0.03s
timer:            KE matrix     0.48s     0.48s
timer: Make fock matrix res     0.00s     0.00s
timer: Diagonalization Fock     0.00s     0.00s
timer: Diagonalization rest     0.16s     0.16s

              kinetic     678.67823921
         nonlocal psp       0.00000000
   nuclear attraction   -1747.68810868
              coulomb     369.72891557
                  PCM       0.00000000
 exchange-correlation     -43.84122617
    nuclear-repulsion      62.88416179
                total    -680.23801829

timer: Compute residual stu     0.04s     0.04s
entering apply
timer:            Apply BSH     1.26s     1.26s
timer:     Truncate new psi     0.16s     0.16s
residuals [6.776396e-05, 6.570780e-05, 5.648745e-05, 4.896362e-05, 4.356892e-05, 2.436115e-05, 2.561343e-05, 2.561342e-05, 7.646246e-06, 7.646248e-06, 8.517685e-05, 6.948494e-05, 8.605377e-05, 4.629465e-05, 4.630034e-05]
BSH residual: rms 5.303703e-05    max 8.605377e-05
timer:         BSH residual     0.07s     0.07s
timer: Update subspace stuf     0.22s     0.22s
Subspace solution [*]   0.00132705   0.00213000   0.08577814  -0.50297096   1.41373578

timer:   Subspace transform     0.03s     0.03s
Norm of vector changes alpha : rms 8.026147e-05    max 1.611980e-04
ORTHOG2a: maxq trantol 3.258170e-05 6.666667e-07
timer:       Orthonormalize     0.10s     0.10s

Iteration 8 at time 31.2s

timer:       Make densities     0.04s     0.04s
delta rho 8.650821e-05 8.650821e-05 residuals 8.605377e-05 0.000000e+00
timer:       Nuclear energy     0.01s     0.01s
timer:              Coulomb     0.12s     0.12s
timer:        DFT potential     0.08s     0.08s
timer:                V*psi     0.16s     0.16s
timer:        Truncate Vpsi     0.19s     0.19s
timer:            PE matrix     0.02s     0.02s
timer:    KEmat reconstruct     0.01s     0.01s
timer:  KEmat differentiate     0.39s     0.39s
timer:       KEmat compress     0.04s     0.04s
timer: KEmat inner products     0.03s     0.03s
timer:            KE matrix     0.47s     0.47s
timer: Make fock matrix res     0.00s     0.00s
timer: Diagonalization Fock     0.00s     0.00s
timer: Diagonalization rest     0.15s     0.15s

              kinetic     678.67784539
         nonlocal psp       0.00000000
   nuclear attraction   -1747.68813037
              coulomb     369.72937358
                  PCM       0.00000000
 exchange-correlation     -43.84126906
    nuclear-repulsion      62.88416179
                total    -680.23801867


Converged!

timer:              Overlap     0.01s     0.01s
timer:      focka eigen sol     0.00s     0.00s
timer:        Transform MOs     0.05s     0.05s
 
alpha eigenvalues
[*] -76.02178613 -76.02161311  -6.29626114  -6.29578848  -4.54443761  -4.54443761  -4.54421304  -4.54421304  -4.54040550  -4.53818408  -0.62421622  -0.42675089  -0.26816993  -0.26628818  -0.26628818


 Dipole Moment (a.u.)
 -----------

     x:  3.927086e-07
     y:  9.090919e-07
     z:  -6.078256e-05
 Total Dipole Moment:  6.079063e-05 

timer:               dipole     0.00s     0.00s
Orbitals are eigenvectors - energies are eigenvalues

Analysis of alpha MO vectors
timer:      Analyze vectors     0.46s     0.46s
timer: Compute eigen gesv a     0.00s     0.00s
  MO   0 : occ=1.00 : energy= -76.02178613 : center=(0.00,0.00,-0.78) : radius=1.61
            P(0)   s( 0) 0.844     P(1)   s(13) 0.529  
  MO   1 : occ=1.00 : energy= -76.02161311 : center=(0.00,0.00,0.78) : radius=1.61
            P(1)   s(13)-0.844     P(0)   s( 0) 0.529  
  MO   2 : occ=1.00 : energy=  -6.29626114 : center=(-0.00,-0.00,-0.17) : radius=1.87
            P(0)   s( 1) 0.759     P(1)   s(14) 0.690  
  MO   3 : occ=1.00 : energy=  -6.29578848 : center=(-0.00,-0.00,0.17) : radius=1.87
            P(1)   s(14) 0.759     P(0)   s( 1)-0.690  
  MO   4 : occ=1.00 : energy=  -4.54443761 : center=(-0.00,-0.00,-0.28) : radius=1.85
            P(0)  px( 2) 0.543     P(0)  py( 3)-0.522     P(1)  px(15) 0.464     P(1)  py(16)-0.447  
  MO   5 : occ=1.00 : energy=  -4.54443761 : center=(-0.00,-0.00,-0.28) : radius=1.85
            P(0)  py( 3) 0.543     P(0)  px( 2) 0.522     P(1)  py(16) 0.464     P(1)  px(15) 0.447  
  MO   6 : occ=1.00 : energy=  -4.54421304 : center=(-0.00,-0.00,0.28) : radius=1.85
            P(1)  px(15) 0.549     P(1)  py(16)-0.515     P(0)  px( 2)-0.469     P(0)  py( 3) 0.441  
  MO   7 : occ=1.00 : energy=  -4.54421304 : center=(-0.00,-0.00,0.28) : radius=1.85
            P(1)  py(16) 0.549     P(1)  px(15) 0.515     P(0)  py( 3)-0.469     P(0)  px( 2)-0.441  
  MO   8 : occ=1.00 : energy=  -4.54040550 : center=(-0.00,-0.00,-0.04) : radius=1.87
            P(0)  pz( 4)-0.707     P(1)  pz(17) 0.693  
  MO   9 : occ=1.00 : energy=  -4.53818408 : center=(-0.00,-0.00,0.04) : radius=1.87
            P(1)  pz(17) 0.707     P(0)  pz( 4) 0.693  
  MO  10 : occ=1.00 : energy=  -0.62421622 : center=(-0.00,-0.00,-0.00) : radius=2.15
            P(0)   s( 5) 0.487     P(1)   s(18) 0.487     P(0)   s( 1)-0.240     P(1)   s(14)-0.240  
  MO  11 : occ=1.00 : energy=  -0.42675089 : center=(-0.00,-0.00,-0.00) : radius=3.17
            P(1)   s(18)-0.507     P(0)   s( 5) 0.507     P(0)   s( 9) 0.378     P(1)   s(22)-0.378     P(1)   s(14) 0.246     P(0)   s( 1)-0.246  
  MO  12 : occ=1.00 : energy=  -0.26816993 : center=(-0.00,-0.00,0.00) : radius=3.35
            P(1)  pz(21)-0.503     P(0)  pz( 8) 0.502     P(1)   s(22)-0.261     P(0)   s( 9)-0.261     P(1)  pz(17) 0.197     P(0)  pz( 4)-0.197  
  MO  13 : occ=1.00 : energy=  -0.26628818 : center=(-0.00,-0.00,0.00) : radius=2.87
            P(1)  py(20)-0.327     P(0)  py( 7)-0.327     P(1)  px(19) 0.321     P(0)  px( 6) 0.321     P(1)  py(24)-0.170     P(0)  py(11)-0.170     P(1)  px(23) 0.166     P(0)  px(10) 0.166  
  MO  14 : occ=1.00 : energy=  -0.26628818 : center=(0.00,0.00,0.00) : radius=2.87
            P(1)  px(19) 0.327     P(0)  px( 6) 0.327     P(1)  py(20) 0.321     P(0)  py( 7) 0.321     P(1)  px(23) 0.170     P(0)  px(10) 0.170     P(1)  py(24) 0.166     P(0)  py(11) 0.166  

Solving NDIM= 3  with thresh 1.000000e-06     k 8    conv 1.000000e-04 

timer:     Project vnuclear     0.28s     0.28s
timer:     project ao basis     0.45s     0.45s

Iteration 0 at time 34.4s

timer:       Make densities     0.04s     0.04s
timer:       Load balancing     0.00s     0.00s
timer:       Nuclear energy     0.02s     0.02s
timer:              Coulomb     0.36s     0.36s
timer:        DFT potential     0.10s     0.10s
timer:                V*psi     0.33s     0.33s
timer:        Truncate Vpsi     0.42s     0.42s
timer:            PE matrix     0.02s     0.02s
timer:    KEmat reconstruct     0.01s     0.01s
timer:  KEmat differentiate     0.37s     0.37s
timer:       KEmat compress     0.05s     0.05s
timer: KEmat inner products     0.04s     0.04s
timer:            KE matrix     0.48s     0.48s
timer: Make fock matrix res     0.00s     0.00s
timer: Diagonalization Fock     0.00s     0.00s
timer: Diagonalization rest     0.34s     0.34s

              kinetic     678.67974826
         nonlocal psp       0.00000000
   nuclear attraction   -1747.68920592
              coulomb     369.72912974
                  PCM       0.00000000
 exchange-correlation     -43.84128513
    nuclear-repulsion      62.88416179
                total    -680.23745126

timer: Compute residual stu     0.10s     0.10s
entering apply
timer:            Apply BSH     6.60s     6.60s
timer:     Truncate new psi     0.47s     0.47s
residuals [1.752864e-04, 1.749593e-04, 1.983274e-04, 1.928072e-04, 2.144883e-04, 2.144882e-04, 2.161592e-04, 2.161592e-04, 2.520168e-04, 2.493122e-04, 2.056495e-04, 2.796451e-04, 3.073179e-04, 3.017093e-04, 3.017113e-04]
BSH residual: rms 2.374825e-04    max 3.073179e-04
timer:         BSH residual     0.11s     0.11s
timer: Update subspace stuf     0.05s     0.05s
Subspace solution [*]   1.00000000

timer:   Subspace transform     0.02s     0.02s
Norm of vector changes alpha : rms 2.374825e-04    max 3.073179e-04
ORTHOG2a: maxq trantol 3.169565e-05 6.666667e-09
timer:       Orthonormalize     0.17s     0.17s

Iteration 1 at time 44.6s

timer:       Make densities     0.08s     0.08s
timer:       Load balancing     0.00s     0.00s
delta rho 9.564864e-04 9.564864e-04 residuals 3.073179e-04 0.000000e+00
timer:       Nuclear energy     0.03s     0.03s
timer:              Coulomb     0.71s     0.71s
timer:        DFT potential     0.23s     0.23s
timer:                V*psi     0.30s     0.30s
timer:        Truncate Vpsi     0.32s     0.32s
timer:            PE matrix     0.04s     0.04s
timer:    KEmat reconstruct     0.02s     0.02s
timer:  KEmat differentiate     0.63s     0.63s
timer:       KEmat compress     0.09s     0.09s
timer: KEmat inner products     0.05s     0.05s
timer:            KE matrix     0.79s     0.79s
timer: Make fock matrix res     0.00s     0.00s
timer: Diagonalization Fock     0.00s     0.00s
timer: Diagonalization rest     0.26s     0.26s

              kinetic     678.66707482
         nonlocal psp       0.00000000
   nuclear attraction   -1747.67496545
              coulomb     369.72442722
                  PCM       0.00000000
 exchange-correlation     -43.84074307
    nuclear-repulsion      62.88416179
                total    -680.24004469

timer: Compute residual stu     0.12s     0.12s
entering apply
timer:            Apply BSH     7.96s     7.96s
timer:     Truncate new psi     0.54s     0.54s
residuals [1.046429e-05, 1.041617e-05, 2.269148e-05, 2.047134e-05, 1.061543e-05, 1.061580e-05, 1.576606e-05, 1.576670e-05, 1.273162e-05, 1.819750e-05, 3.011402e-05, 2.970820e-05, 9.783065e-05, 7.696349e-05, 7.696477e-05]
BSH residual: rms 4.129163e-05    max 9.783065e-05
timer:         BSH residual     0.13s     0.13s
timer: Update subspace stuf     0.12s     0.12s
Subspace solution [*]  -0.02978057   1.02978057

timer:   Subspace transform     0.04s     0.04s
Norm of vector changes alpha : rms 3.707973e-04    max 6.859258e-04
ORTHOG2a: maxq trantol 1.201269e-05 6.666667e-09
timer:       Orthonormalize     0.18s     0.18s

Iteration 2 at time 57.2s

timer:       Make densities     0.08s     0.08s
delta rho 9.555815e-05 9.555815e-05 residuals 9.783065e-05 0.000000e+00
timer:       Nuclear energy     0.02s     0.02s
timer:              Coulomb     0.60s     0.60s
timer:        DFT potential     0.18s     0.18s
timer:                V*psi     0.30s     0.30s
timer:        Truncate Vpsi     0.32s     0.32s
timer:            PE matrix     0.03s     0.03s
timer:    KEmat reconstruct     0.01s     0.01s
timer:  KEmat differentiate     0.56s     0.56s
timer:       KEmat compress     0.08s     0.08s
timer: KEmat inner products     0.05s     0.05s
timer:            KE matrix     0.71s     0.71s
timer: Make fock matrix res     0.00s     0.00s
timer: Diagonalization Fock     0.00s     0.00s
timer: Diagonalization rest     0.24s     0.24s

              kinetic     678.66756592
         nonlocal psp       0.00000000
   nuclear attraction   -1747.67857329
              coulomb     369.72773430
                  PCM       0.00000000
 exchange-correlation     -43.84093638
    nuclear-repulsion      62.88416179
                total    -680.24004767


Converged!

timer:              Overlap     0.01s     0.01s
timer:      focka eigen sol     0.00s     0.00s
timer:        Transform MOs     0.07s     0.07s
 
alpha eigenvalues
[*] -76.02199759 -76.02199302  -6.29638043  -6.29591987  -4.54453576  -4.54453576  -4.54433871  -4.54433871  -4.54051936  -4.53830101  -0.62424205  -0.42680376  -0.26823519  -0.26632498  -0.26632498


 Dipole Moment (a.u.)
 -----------

     x:  -6.061131e-08
     y:  4.200686e-09
     z:  -5.071000e-06
 Total Dipole Moment:  5.071364e-06 

timer:               dipole     0.00s     0.00s
Orbitals are eigenvectors - energies are eigenvalues

Analysis of alpha MO vectors
timer:      Analyze vectors     0.70s     0.70s
timer: Compute eigen gesv a     0.00s     0.00s
  MO   0 : occ=1.00 : energy= -76.02199759 : center=(0.00,0.00,-1.75) : radius=0.38
            P(0)   s( 0)-0.991  
  MO   1 : occ=1.00 : energy= -76.02199302 : center=(0.00,0.00,1.75) : radius=0.38
            P(1)   s(13) 0.991  
  MO   2 : occ=1.00 : energy=  -6.29638043 : center=(-0.00,0.00,0.01) : radius=1.88
            P(1)   s(14)-0.726     P(0)   s( 1)-0.724  
  MO   3 : occ=1.00 : energy=  -6.29591987 : center=(0.00,0.00,-0.01) : radius=1.88
            P(0)   s( 1)-0.726     P(1)   s(14) 0.724  
  MO   4 : occ=1.00 : energy=  -4.54453576 : center=(0.00,0.00,-0.01) : radius=1.87
            P(0)  py( 3)-0.701     P(1)  py(16)-0.698  
  MO   5 : occ=1.00 : energy=  -4.54453576 : center=(0.00,-0.00,-0.01) : radius=1.87
            P(0)  px( 2)-0.701     P(1)  px(15)-0.698  
  MO   6 : occ=1.00 : energy=  -4.54433871 : center=(0.00,-0.00,0.01) : radius=1.87
            P(1)  py(16) 0.702     P(0)  py( 3)-0.699  
  MO   7 : occ=1.00 : energy=  -4.54433871 : center=(-0.00,0.00,0.01) : radius=1.87
            P(1)  px(15)-0.702     P(0)  px( 2) 0.699  
  MO   8 : occ=1.00 : energy=  -4.54051936 : center=(-0.00,-0.00,-0.00) : radius=1.87
            P(0)  pz( 4) 0.700     P(1)  pz(17)-0.700  
  MO   9 : occ=1.00 : energy=  -4.53830101 : center=(0.00,0.00,0.00) : radius=1.87
            P(1)  pz(17)-0.701     P(0)  pz( 4)-0.700  
  MO  10 : occ=1.00 : energy=  -0.62424205 : center=(-0.00,-0.00,-0.00) : radius=2.15
            P(1)   s(18)-0.487     P(0)   s( 5)-0.487     P(0)   s( 1) 0.240     P(1)   s(14) 0.240  
  MO  11 : occ=1.00 : energy=  -0.42680376 : center=(-0.00,-0.00,-0.00) : radius=3.17
            P(0)   s( 5)-0.507     P(1)   s(18) 0.507     P(1)   s(22) 0.378     P(0)   s( 9)-0.378     P(1)   s(14)-0.246     P(0)   s( 1) 0.246  
  MO  12 : occ=1.00 : energy=  -0.26823519 : center=(-0.00,-0.00,0.00) : radius=3.35
            P(0)  pz( 8) 0.503     P(1)  pz(21)-0.503     P(1)   s(22)-0.261     P(0)   s( 9)-0.261     P(0)  pz( 4)-0.197     P(1)  pz(17) 0.197  
  MO  13 : occ=1.00 : energy=  -0.26632498 : center=(0.00,0.00,0.00) : radius=2.87
            P(1)  px(19) 0.458     P(0)  px( 6) 0.458     P(0)  px(10) 0.238     P(1)  px(23) 0.238     P(1)  px(15)-0.177     P(0)  px( 2)-0.177  
  MO  14 : occ=1.00 : energy=  -0.26632498 : center=(-0.00,0.00,0.00) : radius=2.87
            P(1)  py(20)-0.458     P(0)  py( 7)-0.458     P(0)  py(11)-0.238     P(1)  py(24)-0.238     P(1)  py(16) 0.177     P(0)  py( 3) 0.177  
timer:             plotting     0.00s     0.00s

    Parallel environment
    --------------------
                  #nodes    1
       #threads per node    27+main = 28
          #total threads    28

  RMI message statistics (min / avg / max)
  ----------------------
   #messages in server q    0.00e+00 / 0.00e+00 / 0.00e+00
 #messages sent per node    0.00e+00 / 0.00e+00 / 0.00e+00
    #bytes sent per node    0.00e+00 / 0.00e+00 / 0.00e+00
 #messages recv per node    0.00e+00 / 0.00e+00 / 0.00e+00
    #bytes recv per node    0.00e+00 / 0.00e+00 / 0.00e+00
        #msgs systemwide    0.00e+00
       #bytes systemwide    0.00e+00

  Thread pool statistics (min / avg / max)
  ----------------------
         #tasks per node    0.00e+00 / 0.00e+00 / 0.00e+00
     #max q len per node    0.00e+00 / 0.00e+00 / 0.00e+00
  #hi-pri tasks per node    0.00e+00 / 0.00e+00 / 0.00e+00

         Total wall time    61.4s
         Total  cpu time    61.4s

