MADNESS runtime initialized with 27 threads in the pool and affinity -1 -1 -1

--------------------------------------------
   MADNESS 0.10.1 multiresolution suite
--------------------------------------------

   number of processors ... 1
    processor frequency ... 1.995369e+09
            host system ... linux-gnu
          configured by ... egentles
          configured on ... sn093
          configured at ... Tue Jul 11 16:06:48 EDT 2017
                    CXX ... mpicxx
               CXXFLAGS ... -g -std=c++14 -O3 -Wall -Wno-strict-aliasing -Wno-deprecated -Wno-unused-local-typedefs  -ffast-math -march=native
             tuning for ... default
                    MPI ... multiple
 multi-threaded runtime ... Intel TBB
                   BLAS ... Intel MKL 14270 14270 MFLOP/s
               compiled ... 08:44:05  on  Jul 29 2017
input filename:  /gpfs/home/egentles/auto_test_mad/geometries_LDA_boys/phosphorus_tetramer.mdns

Angstrom being used to read input coordinates (1 Bohr = 1.88972613 Angstrom)

Cubic point group

 The point group is Cs

Construct XC Functional from LIBXC Library

input line was:  LDA
 1.000 lda_x 
 1.000 lda_c_vwn 

screening parameters
 rhotol, rhomin 1.000000e-07 0.000000e+00
         ggatol 1.000000e-04
polarized  false 


Solving NDIM= 3  with thresh 1.000000e-05     k 8    conv 1.000000e-04 




 MADNESS Hartree-Fock and Density Functional Theory Program
 ----------------------------------------------------------



 geometry
   eprec 1.0e-04
   units atomic
   P             2.41592167          -0.83871643           0.00000000
   P            -1.59603309          -1.99824856           0.00000000
   P            -0.40994429           1.41848250           2.08814738
   P            -0.40994429           1.41848250          -2.08814738
 end


             restart  false
    restart from AOs  false
 number of processes  1
   no. of io servers  1
   vnuc load bal fac  12
      load bal parts  2
     simulation cube  -5.241592e+01 5.241592e+01
        total charge  0.000000e+00
            smearing  0.000000e+00
 number of electrons  30 30
  number of orbitals  30 30
     spin restricted  true
       xc functional   LDA
          xc library  libxc
 initial guess basis  6-31g
 max krylov subspace  5
    compute protocol  [1.000000e-04, 1.000000e-06]
  energy convergence  1.000000e-05
 density convergence  1.000000e-04
    maximum rotation  2.500000e-01
    polynomial order  -1
       truncate mode  1
  maximum iterations  20
 Convergence criteria are density delta & BSH residual.
        plot density  false
        plot coulomb  false
        plot orbital  0 -1
        plot npoints  101
        plot  volume  default
  localized orbitals  boys
 psp or all electron  all electron
timer:           initialize     0.40s     0.40s

Solving NDIM= 3  with thresh 1.000000e-04     k 6    conv 1.000000e-04 


Solving NDIM= 3  with thresh 1.000000e-04     k 6    conv 1.000000e-04 

timer:     Project vnuclear     0.45s     0.45s
timer:     project ao basis     0.46s     0.46s
guess dens trace 5.999989e+01
timer:        guess density     1.09s     1.09s
timer:   guess Coulomb potn     0.69s     0.69s
timer:       guess lda potn     0.35s     0.35s
timer:        guess overlap     0.02s     0.02s
timer:    KEmat reconstruct     0.01s     0.01s
timer:  KEmat differentiate     0.61s     0.61s
timer:       KEmat compress     0.09s     0.09s
timer: KEmat inner products     0.05s     0.05s
timer:     guess Kinet potn     0.78s     0.78s
timer:           guess fock     2.89s     2.89s
timer:      guess eigen sol     0.00s     0.00s
grouping alpha orbitals into sets
set  0    0  -  3
set  1    4  -  7
set  2    8  -  19
set  3    20  -  29
timer: guess orbital groupi     0.11s     0.11s
timer:     project ao basis     0.39s     0.39s

Iteration 0 at time 8.0s

warning: boys localization did not fully converge:  2453
timer:        Boys localize     0.50s     0.50s
timer:      Rotate subspace     0.21s     0.21s
timer:       Make densities     0.05s     0.05s
timer:       Load balancing     0.00s     0.00s
timer:       Nuclear energy     0.01s     0.01s
timer:              Coulomb     0.14s     0.14s
timer:        DFT potential     0.11s     0.11s
timer:                V*psi     0.38s     0.38s
timer:        Truncate Vpsi     0.46s     0.46s
timer:            PE matrix     0.03s     0.03s
timer:    KEmat reconstruct     0.01s     0.01s
timer:  KEmat differentiate     0.54s     0.54s
timer:       KEmat compress     0.06s     0.06s
timer: KEmat inner products     0.04s     0.04s
timer:            KE matrix     0.66s     0.66s
timer: Make fock matrix res     0.00s     0.00s

              kinetic    1362.67933474
         nonlocal psp       0.00000000
   nuclear attraction   -3891.96146526
              coulomb     933.83975938
                  PCM       0.00000000
 exchange-correlation     -88.02540111
    nuclear-repulsion     323.25738502
                total   -1360.21038723

timer: Compute residual stu     0.17s     0.17s
entering apply
timer:            Apply BSH     1.81s     1.81s
timer:     Truncate new psi     0.22s     0.22s
residuals [5.413281e-03, 5.414319e-03, 5.417906e-03, 5.417764e-03, 1.015823e-02, 1.015654e-02, 1.016297e-02, 1.015329e-02, 8.422464e-03, 8.346200e-03, 8.384298e-03, 8.310967e-03, 8.279960e-03, 8.242436e-03, 8.246372e-03, 8.339337e-03, 8.305483e-03, 8.257228e-03, 8.272918e-03, 8.234415e-03, 7.529129e-02, 7.529136e-02, 4.446615e-02, 4.447948e-02, 4.444660e-02, 4.444702e-02, 7.526921e-02, 7.528839e-02, 7.529098e-02, 7.528920e-02]
BSH residual: rms 3.797926e-02    max 7.529136e-02
timer:         BSH residual     0.10s     0.10s
timer: Update subspace stuf     0.09s     0.09s
Subspace solution [*]   1.00000000

timer:   Subspace transform     0.01s     0.01s
Norm of vector changes alpha : rms 3.797926e-02    max 7.529136e-02
ORTHOG2a: maxq trantol 2.275261e-03 3.333333e-07
timer:       Orthonormalize     0.16s     0.16s

Iteration 1 at time 13.7s

warning: boys localization did not fully converge:  1836
timer:        Boys localize     0.38s     0.38s
timer:      Rotate subspace     0.16s     0.16s
timer:       Make densities     0.06s     0.06s
timer:       Load balancing     0.00s     0.00s
delta rho 1.113041e-01 1.113041e-01 residuals 7.529136e-02 0.000000e+00
timer:       Nuclear energy     0.01s     0.01s
timer:              Coulomb     0.18s     0.18s
timer:        DFT potential     0.13s     0.13s
timer:                V*psi     0.38s     0.38s
timer:        Truncate Vpsi     0.47s     0.47s
timer:            PE matrix     0.03s     0.03s
timer:    KEmat reconstruct     0.01s     0.01s
timer:  KEmat differentiate     0.65s     0.65s
timer:       KEmat compress     0.07s     0.07s
timer: KEmat inner products     0.05s     0.05s
timer:            KE matrix     0.78s     0.78s
timer: Make fock matrix res     0.00s     0.00s

              kinetic    1358.53669966
         nonlocal psp       0.00000000
   nuclear attraction   -3891.51236430
              coulomb     937.11891350
                  PCM       0.00000000
 exchange-correlation     -87.94077161
    nuclear-repulsion     323.25738502
                total   -1360.54013773

timer: Compute residual stu     0.18s     0.18s
entering apply
timer:            Apply BSH     1.89s     1.88s
timer:     Truncate new psi     0.23s     0.22s
residuals [8.080865e-04, 8.069291e-04, 8.085794e-04, 8.085644e-04, 2.361467e-03, 2.361873e-03, 2.362407e-03, 2.363439e-03, 1.942623e-03, 1.802486e-03, 1.846721e-03, 1.804087e-03, 1.836910e-03, 1.712878e-03, 1.729413e-03, 1.801101e-03, 1.801047e-03, 1.801489e-03, 1.801226e-03, 1.709999e-03, 2.576885e-02, 2.576949e-02, 2.093828e-02, 2.092507e-02, 2.090265e-02, 2.090582e-02, 2.576213e-02, 2.576131e-02, 2.577320e-02, 2.576024e-02]
BSH residual: rms 1.390126e-02    max 2.577320e-02
timer:         BSH residual     0.14s     0.14s
timer: Update subspace stuf     0.20s     0.20s
Subspace solution [*]  -0.19137454   1.19137454

timer:   Subspace transform     0.04s     0.04s
Norm of vector changes alpha : rms 4.170094e-02    max 1.235242e-01
ORTHOG2a: maxq trantol 1.253238e-02 3.333333e-07
ORTHOG2a: maxq trantol 1.920497e-04 3.333333e-07
timer:       Orthonormalize     0.19s     0.19s

Iteration 2 at time 20.0s

warning: boys localization did not fully converge:  1769
timer:        Boys localize     0.40s     0.40s
timer:      Rotate subspace     0.16s     0.16s
timer:       Make densities     0.05s     0.05s
delta rho 3.889352e-02 3.889352e-02 residuals 2.577320e-02 0.000000e+00
timer:       Nuclear energy     0.01s     0.01s
timer:              Coulomb     0.16s     0.16s
timer:        DFT potential     0.12s     0.12s
timer:                V*psi     0.41s     0.41s
timer:        Truncate Vpsi     0.52s     0.52s
timer:            PE matrix     0.03s     0.03s
timer:    KEmat reconstruct     0.01s     0.01s
timer:  KEmat differentiate     0.61s     0.61s
timer:       KEmat compress     0.08s     0.08s
timer: KEmat inner products     0.04s     0.04s
timer:            KE matrix     0.74s     0.74s
timer: Make fock matrix res     0.00s     0.00s

              kinetic    1357.22567364
         nonlocal psp       0.00000000
   nuclear attraction   -3889.24564380
              coulomb     936.04290423
                  PCM       0.00000000
 exchange-correlation     -87.85984706
    nuclear-repulsion     323.25738502
                total   -1360.57952796

timer: Compute residual stu     0.20s     0.20s
entering apply
timer:            Apply BSH     1.88s     1.88s
timer:     Truncate new psi     0.23s     0.23s
residuals [1.630803e-04, 1.653928e-04, 1.669872e-04, 1.670643e-04, 5.442459e-04, 4.926899e-04, 4.930670e-04, 4.924082e-04, 8.205073e-04, 8.173002e-04, 8.046884e-04, 8.001424e-04, 8.112846e-04, 7.765199e-04, 7.662490e-04, 7.807110e-04, 7.863646e-04, 8.286043e-04, 7.922573e-04, 7.616921e-04, 1.299969e-02, 1.299764e-02, 9.921577e-03, 9.929948e-03, 9.921643e-03, 9.920533e-03, 1.299537e-02, 1.299714e-02, 1.301062e-02, 1.299920e-02]
BSH residual: rms 6.871736e-03    max 1.301062e-02
timer:         BSH residual     0.12s     0.12s
timer: Update subspace stuf     0.31s     0.31s
Subspace solution [*]  -0.11524137  -0.30289384   1.41813521

timer:   Subspace transform     0.04s     0.04s
Norm of vector changes alpha : rms 2.889749e-02    max 9.086593e-02
ORTHOG2a: maxq trantol 1.002927e-02 3.333333e-07
ORTHOG2a: maxq trantol 5.898434e-05 3.333333e-07
timer:       Orthonormalize     0.20s     0.20s

Iteration 3 at time 26.4s

warning: boys localization did not fully converge:  1714
timer:        Boys localize     0.42s     0.42s
timer:      Rotate subspace     0.18s     0.18s
timer:       Make densities     0.06s     0.06s
delta rho 2.087892e-02 2.087892e-02 residuals 1.301062e-02 0.000000e+00
timer:       Nuclear energy     0.01s     0.01s
timer:              Coulomb     0.17s     0.17s
timer:        DFT potential     0.15s     0.15s
timer:                V*psi     0.40s     0.40s
timer:        Truncate Vpsi     0.49s     0.49s
timer:            PE matrix     0.03s     0.03s
timer:    KEmat reconstruct     0.01s     0.01s
timer:  KEmat differentiate     0.56s     0.56s
timer:       KEmat compress     0.07s     0.07s
timer: KEmat inner products     0.04s     0.04s
timer:            KE matrix     0.69s     0.69s
timer: Make fock matrix res     0.00s     0.00s

              kinetic    1357.32465823
         nonlocal psp       0.00000000
   nuclear attraction   -3890.05945996
              coulomb     936.76905820
                  PCM       0.00000000
 exchange-correlation     -87.88633811
    nuclear-repulsion     323.25738502
                total   -1360.59469661

timer: Compute residual stu     0.16s     0.16s
entering apply
timer:            Apply BSH     1.84s     1.84s
timer:     Truncate new psi     0.22s     0.22s
residuals [1.390077e-04, 1.389889e-04, 1.427064e-04, 1.423998e-04, 2.715916e-04, 2.757587e-04, 2.670427e-04, 2.775588e-04, 2.710242e-04, 3.335431e-04, 3.079190e-04, 2.635374e-04, 3.069356e-04, 2.423203e-04, 2.011442e-04, 2.342266e-04, 2.362835e-04, 3.462296e-04, 2.574445e-04, 2.232246e-04, 5.296646e-03, 5.294525e-03, 5.528246e-03, 5.524845e-03, 5.522732e-03, 5.523952e-03, 5.298532e-03, 5.297402e-03, 5.299442e-03, 5.297917e-03]
BSH residual: rms 3.118450e-03    max 5.528246e-03
timer:         BSH residual     0.12s     0.12s
timer: Update subspace stuf     0.38s     0.38s
Subspace solution [*]   0.06596126  -0.21616505  -0.36096041   1.51116420

timer:   Subspace transform     0.05s     0.05s
Norm of vector changes alpha : rms 1.537446e-02    max 4.429353e-02
ORTHOG2a: maxq trantol 5.096066e-03 3.333333e-07
timer:       Orthonormalize     0.15s     0.15s

Iteration 4 at time 32.8s

warning: boys localization did not fully converge:  1715
timer:        Boys localize     0.39s     0.39s
timer:      Rotate subspace     0.16s     0.16s
timer:       Make densities     0.06s     0.06s
delta rho 6.353257e-03 6.353257e-03 residuals 5.528246e-03 0.000000e+00
timer:       Nuclear energy     0.01s     0.01s
timer:              Coulomb     0.18s     0.18s
timer:        DFT potential     0.13s     0.13s
timer:                V*psi     0.39s     0.39s
timer:        Truncate Vpsi     0.47s     0.47s
timer:            PE matrix     0.03s     0.03s
timer:    KEmat reconstruct     0.01s     0.01s
timer:  KEmat differentiate     0.57s     0.57s
timer:       KEmat compress     0.07s     0.07s
timer: KEmat inner products     0.04s     0.04s
timer:            KE matrix     0.69s     0.69s
timer: Make fock matrix res     0.00s     0.00s

              kinetic    1357.42912495
         nonlocal psp       0.00000000
   nuclear attraction   -3890.09200747
              coulomb     936.69348191
                  PCM       0.00000000
 exchange-correlation     -87.88685047
    nuclear-repulsion     323.25738502
                total   -1360.59886604

timer: Compute residual stu     0.18s     0.18s
entering apply
timer:            Apply BSH     1.88s     1.88s
timer:     Truncate new psi     0.22s     0.22s
residuals [1.101702e-04, 1.091756e-04, 1.136834e-04, 1.138703e-04, 2.501799e-04, 2.121983e-04, 2.144347e-04, 2.117005e-04, 2.778825e-04, 1.980566e-04, 2.645863e-04, 2.688192e-04, 2.327524e-04, 2.198449e-04, 2.281737e-04, 2.448332e-04, 2.298487e-04, 2.405363e-04, 2.573367e-04, 1.823385e-04, 2.848145e-03, 2.849364e-03, 2.216537e-03, 2.223593e-03, 2.206148e-03, 2.209020e-03, 2.844038e-03, 2.847105e-03, 2.844520e-03, 2.845564e-03]
BSH residual: rms 1.518222e-03    max 2.849364e-03
timer:         BSH residual     0.11s     0.11s
timer: Update subspace stuf     0.46s     0.46s
Subspace solution [*]   0.01569511   0.03945336  -0.22131768   0.00595131   1.16021790

timer:   Subspace transform     0.07s     0.07s
Norm of vector changes alpha : rms 6.133626e-03    max 1.965467e-02
ORTHOG2a: maxq trantol 8.115207e-04 3.333333e-07
timer:       Orthonormalize     0.15s     0.15s

Iteration 5 at time 39.2s

warning: boys localization did not fully converge:  1673
timer:        Boys localize     0.38s     0.38s
timer:      Rotate subspace     0.16s     0.16s
timer:       Make densities     0.05s     0.05s
delta rho 2.563320e-03 2.563320e-03 residuals 2.849364e-03 0.000000e+00
timer:       Nuclear energy     0.01s     0.01s
timer:              Coulomb     0.17s     0.17s
timer:        DFT potential     0.13s     0.13s
timer:                V*psi     0.39s     0.39s
timer:        Truncate Vpsi     0.48s     0.48s
timer:            PE matrix     0.03s     0.03s
timer:    KEmat reconstruct     0.01s     0.01s
timer:  KEmat differentiate     0.56s     0.56s
timer:       KEmat compress     0.07s     0.07s
timer: KEmat inner products     0.04s     0.04s
timer:            KE matrix     0.69s     0.69s
timer: Make fock matrix res     0.00s     0.00s

              kinetic    1357.43724914
         nonlocal psp       0.00000000
   nuclear attraction   -3890.09376585
              coulomb     936.68480575
                  PCM       0.00000000
 exchange-correlation     -87.88537010
    nuclear-repulsion     323.25738502
                total   -1360.59969603

timer: Compute residual stu     0.18s     0.18s
entering apply
timer:            Apply BSH     1.84s     1.84s
timer:     Truncate new psi     0.23s     0.23s
residuals [9.318708e-05, 9.320245e-05, 9.373487e-05, 9.396829e-05, 1.519124e-04, 1.484954e-04, 1.727845e-04, 1.458945e-04, 1.372833e-04, 1.449986e-04, 1.998453e-04, 1.982184e-04, 1.794602e-04, 1.435577e-04, 1.281422e-04, 1.709040e-04, 1.487055e-04, 1.750768e-04, 2.026132e-04, 1.212326e-04, 1.737860e-03, 1.739150e-03, 1.290831e-03, 1.286937e-03, 1.274427e-03, 1.279193e-03, 1.733469e-03, 1.733948e-03, 1.732862e-03, 1.732992e-03]
BSH residual: rms 9.147427e-04    max 1.739150e-03
timer:         BSH residual     0.15s     0.15s
timer: Update subspace stuf     0.47s     0.47s
Subspace solution [*]   0.05516157  -0.02357679  -0.32165372   0.26754787   1.02252108

timer:   Subspace transform     0.06s     0.06s
Norm of vector changes alpha : rms 7.764818e-03    max 2.934920e-02
ORTHOG2a: maxq trantol 1.075722e-03 3.333333e-07
timer:       Orthonormalize     0.16s     0.16s

Iteration 6 at time 45.6s

warning: boys localization did not fully converge:  1704
timer:        Boys localize     0.39s     0.39s
timer:      Rotate subspace     0.16s     0.16s
timer:       Make densities     0.06s     0.06s
delta rho 1.958147e-03 1.958147e-03 residuals 1.739150e-03 0.000000e+00
timer:       Nuclear energy     0.01s     0.01s
timer:              Coulomb     0.17s     0.17s
timer:        DFT potential     0.14s     0.14s
timer:                V*psi     0.38s     0.38s
timer:        Truncate Vpsi     0.47s     0.47s
timer:            PE matrix     0.03s     0.03s
timer:    KEmat reconstruct     0.01s     0.01s
timer:  KEmat differentiate     0.56s     0.56s
timer:       KEmat compress     0.07s     0.07s
timer: KEmat inner products     0.04s     0.04s
timer:            KE matrix     0.69s     0.69s
timer: Make fock matrix res     0.00s     0.00s

              kinetic    1357.42470049
         nonlocal psp       0.00000000
   nuclear attraction   -3890.07707141
              coulomb     936.67918719
                  PCM       0.00000000
 exchange-correlation     -87.88412186
    nuclear-repulsion     323.25738502
                total   -1360.59992057

timer: Compute residual stu     0.16s     0.16s
entering apply
timer:            Apply BSH     1.85s     1.85s
timer:     Truncate new psi     0.22s     0.22s
residuals [9.112237e-05, 9.175736e-05, 8.879862e-05, 8.892055e-05, 1.041610e-04, 1.394872e-04, 1.307650e-04, 1.396599e-04, 8.900743e-05, 1.001299e-04, 1.711865e-04, 1.259019e-04, 1.474051e-04, 1.411517e-04, 7.409007e-05, 1.417947e-04, 1.079998e-04, 1.805070e-04, 1.365282e-04, 6.174187e-05, 6.189805e-04, 6.178501e-04, 7.320434e-04, 7.085714e-04, 6.992928e-04, 7.024051e-04, 6.305272e-04, 6.276936e-04, 6.149967e-04, 6.273075e-04]
BSH residual: rms 3.934885e-04    max 7.320434e-04
timer:         BSH residual     0.12s     0.12s
timer: Update subspace stuf     0.47s     0.47s
Subspace solution [*]   0.02478873  -0.01454600  -0.22009010  -0.03361310   1.24346048

timer:   Subspace transform     0.07s     0.07s
Norm of vector changes alpha : rms 1.635223e-03    max 5.419502e-03
ORTHOG2a: maxq trantol 1.219496e-04 3.333333e-07
timer:       Orthonormalize     0.15s     0.15s

Iteration 7 at time 52.0s

warning: boys localization did not fully converge:  1684
timer:        Boys localize     0.38s     0.38s
timer:      Rotate subspace     0.17s     0.17s
timer:       Make densities     0.05s     0.05s
delta rho 1.113203e-03 1.113203e-03 residuals 7.320434e-04 0.000000e+00
timer:       Nuclear energy     0.01s     0.01s
timer:              Coulomb     0.17s     0.17s
timer:        DFT potential     0.13s     0.13s
timer:                V*psi     0.40s     0.40s
timer:        Truncate Vpsi     0.48s     0.48s
timer:            PE matrix     0.03s     0.03s
timer:    KEmat reconstruct     0.01s     0.01s
timer:  KEmat differentiate     0.57s     0.57s
timer:       KEmat compress     0.07s     0.07s
timer: KEmat inner products     0.04s     0.04s
timer:            KE matrix     0.69s     0.69s
timer: Make fock matrix res     0.00s     0.00s

              kinetic    1357.38776811
         nonlocal psp       0.00000000
   nuclear attraction   -3890.01812456
              coulomb     936.65495915
                  PCM       0.00000000
 exchange-correlation     -87.88201755
    nuclear-repulsion     323.25738502
                total   -1360.60002983

timer: Compute residual stu     0.17s     0.17s
entering apply
timer:            Apply BSH     1.83s     1.83s
timer:     Truncate new psi     0.22s     0.22s
residuals [9.132460e-05, 9.518855e-05, 8.705339e-05, 8.722600e-05, 8.466400e-05, 7.474536e-05, 1.035290e-04, 7.900738e-05, 6.077586e-05, 1.294828e-04, 1.541160e-04, 1.060368e-04, 1.323486e-04, 7.674060e-05, 5.161491e-05, 1.270184e-04, 1.437214e-04, 1.107087e-04, 1.196358e-04, 4.525124e-05, 4.238407e-04, 4.217825e-04, 3.900800e-04, 3.614783e-04, 3.534453e-04, 3.536054e-04, 4.309103e-04, 4.281631e-04, 4.126983e-04, 4.274202e-04]
BSH residual: rms 2.464129e-04    max 4.309103e-04
timer:         BSH residual     0.11s     0.11s
timer: Update subspace stuf     0.45s     0.45s
Subspace solution [*]   0.03267218  -0.03630725  -0.21718711  -0.10481732   1.32563949

timer:   Subspace transform     0.06s     0.06s
Norm of vector changes alpha : rms 1.151529e-03    max 3.581629e-03
ORTHOG2a: maxq trantol 9.883880e-05 3.333333e-07
timer:       Orthonormalize     0.15s     0.15s

Iteration 8 at time 58.3s

warning: boys localization did not fully converge:  1680
timer:        Boys localize     0.37s     0.37s
timer:      Rotate subspace     0.15s     0.15s
timer:       Make densities     0.05s     0.05s
delta rho 5.025049e-04 5.025049e-04 residuals 4.309103e-04 0.000000e+00
timer:       Nuclear energy     0.01s     0.01s
timer:              Coulomb     0.15s     0.15s
timer:        DFT potential     0.12s     0.12s
timer:                V*psi     0.38s     0.38s
timer:        Truncate Vpsi     0.46s     0.46s
timer:            PE matrix     0.03s     0.03s
timer:    KEmat reconstruct     0.01s     0.01s
timer:  KEmat differentiate     0.57s     0.57s
timer:       KEmat compress     0.07s     0.07s
timer: KEmat inner products     0.04s     0.04s
timer:            KE matrix     0.69s     0.69s
timer: Make fock matrix res     0.00s     0.00s

              kinetic    1357.36682924
         nonlocal psp       0.00000000
   nuclear attraction   -3889.99045553
              coulomb     936.64742137
                  PCM       0.00000000
 exchange-correlation     -87.88122394
    nuclear-repulsion     323.25738502
                total   -1360.60004384

timer: Compute residual stu     0.18s     0.18s
entering apply
timer:            Apply BSH     1.85s     1.85s
timer:     Truncate new psi     0.22s     0.22s
residuals [9.408800e-05, 9.801657e-05, 8.633627e-05, 8.640228e-05, 8.154561e-05, 6.893768e-05, 9.774549e-05, 7.533878e-05, 5.985436e-05, 1.338896e-04, 1.476886e-04, 1.055895e-04, 1.272786e-04, 6.482716e-05, 5.006726e-05, 1.568936e-04, 9.644856e-05, 1.123051e-04, 1.176198e-04, 1.143537e-04, 3.372717e-04, 3.350999e-04, 2.569917e-04, 2.265257e-04, 2.047418e-04, 2.041902e-04, 3.417258e-04, 3.395812e-04, 3.220482e-04, 3.395638e-04]
BSH residual: rms 1.905219e-04    max 3.417258e-04
timer:         BSH residual     0.11s     0.11s
timer: Update subspace stuf     0.46s     0.46s
Subspace solution [*]   0.06259709   0.01326796  -0.49658409   0.06827111   1.35244794

timer:   Subspace transform     0.07s     0.07s
Norm of vector changes alpha : rms 1.810875e-03    max 6.436428e-03
ORTHOG2a: maxq trantol 9.505940e-05 3.333333e-07
timer:       Orthonormalize     0.15s     0.15s

Iteration 9 at time 64.5s

warning: boys localization did not fully converge:  1113
timer:        Boys localize     0.39s     0.39s
timer:      Rotate subspace     0.17s     0.17s
timer:       Make densities     0.05s     0.05s
delta rho 2.788383e-04 2.788383e-04 residuals 3.417258e-04 0.000000e+00
timer:       Nuclear energy     0.01s     0.01s
timer:              Coulomb     0.17s     0.17s
timer:        DFT potential     0.13s     0.13s
timer:                V*psi     0.38s     0.38s
timer:        Truncate Vpsi     0.46s     0.46s
timer:            PE matrix     0.03s     0.03s
timer:    KEmat reconstruct     0.01s     0.01s
timer:  KEmat differentiate     0.57s     0.57s
timer:       KEmat compress     0.07s     0.07s
timer: KEmat inner products     0.04s     0.04s
timer:            KE matrix     0.70s     0.70s
timer: Make fock matrix res     0.00s     0.00s

              kinetic    1357.35930895
         nonlocal psp       0.00000000
   nuclear attraction   -3889.98570174
              coulomb     936.65026520
                  PCM       0.00000000
 exchange-correlation     -87.88128817
    nuclear-repulsion     323.25738502
                total   -1360.60003074


Converged!

timer:              Overlap     0.03s     0.03s
timer:      focka eigen sol     0.00s     0.00s
 
alpha eigenvalues
[*] -76.02788329 -76.02783127 -76.02774275 -76.02714105  -6.29903031  -6.29890983  -6.29884970  -6.29879095  -4.54665181  -4.54646715  -4.54636125  -4.54620901  -4.54553956  -4.54547082  -4.54546135  -4.54543462  -4.54539361  -4.54529482  -4.54523225  -4.54520494  -0.74054723  -0.49518385  -0.49514520  -0.49504126  -0.32371540  -0.27613268  -0.27611158  -0.27601107  -0.24734746  -0.24733981


 Dipole Moment (a.u.)
 -----------

     x:  2.231909e-04
     y:  2.595676e-04
     z:  -2.419679e-06
 Total Dipole Moment:  3.423381e-04 

timer:               dipole     0.00s     0.00s
Orbitals are localized - energies are diagonal Fock matrix elements

Analysis of alpha MO vectors
timer:      Analyze vectors     0.66s     0.66s
timer: Compute eigen gesv a     0.00s     0.00s
  MO   0 : occ=1.00 : energy= -76.02748973 : center=(-1.60,-2.00,0.00) : radius=0.12
            P(1)   s(13) 0.996  
  MO   1 : occ=1.00 : energy= -76.02750611 : center=(2.42,-0.84,-0.00) : radius=0.12
            P(0)   s( 0)-0.996  
  MO   2 : occ=1.00 : energy= -76.02750382 : center=(-0.41,1.42,2.09) : radius=0.12
            P(2)   s(26)-0.996  
  MO   3 : occ=1.00 : energy= -76.02751393 : center=(-0.41,1.42,-2.09) : radius=0.12
            P(3)   s(39)-0.996  
  MO   4 : occ=1.00 : energy=  -6.29896441 : center=(2.41,-0.84,0.00) : radius=0.57
            P(0)   s( 1)-1.027     P(0)   s( 0) 0.277  
  MO   5 : occ=1.00 : energy=  -6.29896227 : center=(-0.41,1.42,-2.09) : radius=0.57
            P(3)   s(40)-1.027     P(3)   s(39) 0.277  
  MO   6 : occ=1.00 : energy=  -6.29896796 : center=(-1.59,-2.00,0.00) : radius=0.57
            P(1)   s(14) 1.027     P(1)   s(13)-0.277  
  MO   7 : occ=1.00 : energy=  -6.29895682 : center=(-0.41,1.42,2.09) : radius=0.57
            P(2)   s(27) 1.027     P(2)   s(26)-0.277  
  MO   8 : occ=1.00 : energy=  -4.54624285 : center=(-1.60,-2.00,0.00) : radius=0.55
            P(1)  py(16) 0.825     P(1)  px(15) 0.499     P(1)  pz(17)-0.227  
  MO   9 : occ=1.00 : energy=  -4.54570435 : center=(-0.41,1.42,2.09) : radius=0.55
            P(2)  pz(30) 0.930     P(2)  py(29)-0.329  
  MO  10 : occ=1.00 : energy=  -4.54570439 : center=(2.42,-0.84,-0.00) : radius=0.55
            P(0)  pz( 4) 0.706     P(0)  py( 3) 0.563     P(0)  px( 2)-0.407  
  MO  11 : occ=1.00 : energy=  -4.54571055 : center=(-0.41,1.42,2.09) : radius=0.55
            P(2)  px(28) 0.853     P(2)  py(29)-0.444     P(2)  pz(30)-0.239  
  MO  12 : occ=1.00 : energy=  -4.54571408 : center=(2.42,-0.84,0.00) : radius=0.55
            P(0)  pz( 4)-0.695     P(0)  py( 3) 0.568     P(0)  px( 2)-0.419  
  MO  13 : occ=1.00 : energy=  -4.54569233 : center=(2.42,-0.84,-0.00) : radius=0.55
            P(0)  px( 2)-0.800     P(0)  py( 3)-0.585  
  MO  14 : occ=1.00 : energy=  -4.54545385 : center=(-1.60,-2.00,-0.00) : radius=0.55
            P(1)  pz(17)-0.889     P(1)  px(15)-0.437  
  MO  15 : occ=1.00 : energy=  -4.54570588 : center=(-0.41,1.42,-2.09) : radius=0.55
            P(3)  py(42) 0.828     P(3)  px(41) 0.493     P(3)  pz(43)-0.230  
  MO  16 : occ=1.00 : energy=  -4.54571639 : center=(-0.41,1.42,-2.09) : radius=0.55
            P(3)  pz(43)-0.932     P(3)  py(42)-0.319  
  MO  17 : occ=1.00 : energy=  -4.54569848 : center=(-0.41,1.42,2.09) : radius=0.55
            P(2)  py(29) 0.822     P(2)  px(28) 0.496     P(2)  pz(30) 0.243  
  MO  18 : occ=1.00 : energy=  -4.54571562 : center=(-0.41,1.42,-2.09) : radius=0.55
            P(3)  px(41) 0.853     P(3)  py(42)-0.440     P(3)  pz(43) 0.243  
  MO  19 : occ=1.00 : energy=  -4.54538147 : center=(-1.60,-2.00,0.00) : radius=0.55
            P(1)  px(15) 0.736     P(1)  py(16)-0.548     P(1)  pz(17)-0.374  
  MO  20 : occ=1.00 : energy=  -0.39250369 : center=(1.23,0.35,-1.28) : radius=2.40
            P(3)  px(45) 0.409     P(0)  pz( 8)-0.342     P(0)  py( 7) 0.258     P(0)   s( 5) 0.194     P(3)   s(44) 0.194     P(3)  py(46)-0.181  
  MO  21 : occ=1.00 : energy=  -0.39250351 : center=(1.23,0.35,1.28) : radius=2.40
            P(2)  px(32)-0.409     P(0)  pz( 8)-0.342     P(0)  py( 7)-0.258     P(0)   s( 5)-0.194     P(2)   s(31)-0.194     P(2)  py(33) 0.181  
  MO  22 : occ=1.00 : energy=  -0.37949271 : center=(-2.01,-2.51,-0.00) : radius=2.34
            P(1)   s(18) 0.571     P(1)   s(22) 0.492     P(1)   s(14)-0.305     P(1)  py(20)-0.264     P(1)  px(19)-0.211  
  MO  23 : occ=1.00 : energy=  -0.37956581 : center=(3.04,-1.05,0.00) : radius=2.34
            P(0)   s( 5) 0.571     P(0)   s( 9) 0.492     P(0)  px( 6) 0.319     P(0)   s( 1)-0.305  
  MO  24 : occ=1.00 : energy=  -0.37954970 : center=(-0.52,1.78,2.62) : radius=2.34
            P(2)   s(31)-0.571     P(2)   s(35)-0.492     P(2)   s(27) 0.305     P(2)  pz(34)-0.276  
  MO  25 : occ=1.00 : energy=  -0.37955102 : center=(-0.52,1.78,-2.62) : radius=2.34
            P(3)   s(44)-0.571     P(3)   s(48)-0.492     P(3)   s(40) 0.305     P(3)  pz(47) 0.276  
  MO  26 : occ=1.00 : energy=  -0.39249717 : center=(-0.50,1.73,0.00) : radius=2.40
            P(3)  pz(47) 0.406     P(2)  pz(34)-0.406     P(3)   s(44) 0.194     P(2)   s(31) 0.194     P(2)  py(33) 0.189     P(3)  py(46) 0.189     P(3)  pz(51) 0.171     P(2)  pz(38)-0.171  
  MO  27 : occ=1.00 : energy=  -0.39249511 : center=(-1.23,-0.35,1.28) : radius=2.41
            P(2)  py(33)-0.371     P(1)  pz(21) 0.342     P(1)  py(20) 0.293     P(2)  px(32)-0.249     P(2)   s(31) 0.194     P(1)   s(18) 0.194  
  MO  28 : occ=1.00 : energy=  -0.39251931 : center=(0.50,-1.73,-0.00) : radius=2.40
            P(1)  px(19) 0.445     P(0)  px( 6)-0.335     P(0)  py( 7)-0.302     P(0)   s( 5) 0.194     P(1)   s(18) 0.194     P(1)  px(23) 0.182     P(1)  px(15)-0.172  
  MO  29 : occ=1.00 : energy=  -0.39249589 : center=(-1.23,-0.35,-1.28) : radius=2.41
            P(3)  py(46) 0.371     P(1)  pz(21) 0.342     P(1)  py(20)-0.293     P(3)  px(45) 0.249     P(3)   s(44)-0.194     P(1)   s(18)-0.194  

Solving NDIM= 3  with thresh 1.000000e-06     k 8    conv 1.000000e-04 

timer:     Project vnuclear     0.72s     0.72s
timer:     project ao basis     0.82s     0.82s

Iteration 0 at time 70.6s

warning: boys localization did not fully converge:  1231
timer:        Boys localize     0.41s     0.41s
timer:      Rotate subspace     0.19s     0.19s
timer:       Make densities     0.06s     0.06s
timer:       Load balancing     0.00s     0.00s
timer:       Nuclear energy     0.05s     0.05s
timer:              Coulomb     0.50s     0.50s
timer:        DFT potential     0.18s     0.18s
timer:                V*psi     2.69s     2.69s
timer:        Truncate Vpsi     1.82s     1.82s
timer:            PE matrix     0.05s     0.05s
timer:    KEmat reconstruct     0.02s     0.02s
timer:  KEmat differentiate     0.62s     0.62s
timer:       KEmat compress     0.11s     0.11s
timer: KEmat inner products     0.06s     0.06s
timer:            KE matrix     0.81s     0.81s
timer: Make fock matrix res     0.00s     0.00s

              kinetic    1357.36188584
         nonlocal psp       0.00000000
   nuclear attraction   -3889.98570421
              coulomb     936.64878690
                  PCM       0.00000000
 exchange-correlation     -87.88128578
    nuclear-repulsion     323.25738502
                total   -1360.59893223

timer: Compute residual stu     0.39s     0.39s
entering apply
timer:            Apply BSH    12.50s    12.50s
timer:     Truncate new psi     0.74s     0.74s
residuals [2.479668e-04, 3.076324e-04, 2.250996e-04, 2.211733e-04, 2.868701e-04, 3.205698e-04, 2.327244e-04, 3.261912e-04, 2.623633e-04, 3.188451e-04, 2.904817e-04, 3.223781e-04, 2.837889e-04, 2.963836e-04, 2.471919e-04, 3.516921e-04, 3.077305e-04, 3.423406e-04, 3.242812e-04, 2.631579e-04, 5.150465e-04, 5.146723e-04, 5.349411e-04, 5.746121e-04, 4.499825e-04, 4.500878e-04, 4.991198e-04, 4.856467e-04, 5.051353e-04, 4.856055e-04]
BSH residual: rms 3.753721e-04    max 5.746121e-04
timer:         BSH residual     0.27s     0.27s
timer: Update subspace stuf     0.10s     0.10s
Subspace solution [*]   1.00000000

timer:   Subspace transform     0.04s     0.04s
Norm of vector changes alpha : rms 3.753721e-04    max 5.746121e-04
ORTHOG2a: maxq trantol 1.137661e-04 3.333333e-09
timer:       Orthonormalize     0.34s     0.34s

Iteration 1 at time 92.8s

warning: boys localization did not fully converge:  1058
timer:        Boys localize     0.92s     0.92s
timer:      Rotate subspace     0.36s     0.36s
timer:       Make densities     0.16s     0.16s
timer:       Load balancing     0.00s     0.00s
delta rho 1.114159e-03 1.114159e-03 residuals 5.746121e-04 0.000000e+00
timer:       Nuclear energy     0.08s     0.08s
timer:              Coulomb     1.40s     1.40s
timer:        DFT potential     0.48s     0.48s
timer:                V*psi     1.12s     1.12s
timer:        Truncate Vpsi     1.74s     1.74s
timer:            PE matrix     0.07s     0.07s
timer:    KEmat reconstruct     0.03s     0.03s
timer:  KEmat differentiate     1.25s     1.25s
timer:       KEmat compress     0.21s     0.21s
timer: KEmat inner products     0.11s     0.11s
timer:            KE matrix     1.61s     1.61s
timer: Make fock matrix res     0.00s     0.00s

              kinetic    1357.33760601
         nonlocal psp       0.00000000
   nuclear attraction   -3889.95565409
              coulomb     936.63537821
                  PCM       0.00000000
 exchange-correlation     -87.88016818
    nuclear-repulsion     323.25738502
                total   -1360.60545303

timer: Compute residual stu     0.51s     0.51s
entering apply
timer:            Apply BSH    17.07s    17.07s
timer:     Truncate new psi     0.89s     0.89s
residuals [1.355550e-05, 1.883650e-05, 1.376396e-05, 1.316157e-05, 4.662726e-05, 3.674923e-05, 4.199628e-05, 4.316149e-05, 5.665284e-05, 4.925470e-05, 7.263835e-05, 7.212373e-05, 7.155906e-05, 6.833911e-05, 3.657223e-05, 6.658747e-05, 4.938891e-05, 6.332341e-05, 6.844083e-05, 2.688040e-05, 1.708471e-04, 1.716521e-04, 1.549282e-04, 1.699018e-04, 1.456814e-04, 1.451422e-04, 2.215945e-04, 2.180142e-04, 1.660609e-04, 2.185475e-04]
BSH residual: rms 1.121561e-04    max 2.215945e-04
timer:         BSH residual     0.33s     0.33s
timer: Update subspace stuf     0.35s     0.35s
Subspace solution [*]  -0.02743576   1.02743576

timer:   Subspace transform     0.08s     0.08s
Norm of vector changes alpha : rms 1.181370e-04    max 2.295928e-04
ORTHOG2a: maxq trantol 5.740339e-05 3.333333e-09
timer:       Orthonormalize     0.35s     0.35s

Iteration 2 at time 121.9s

warning: boys localization did not fully converge:  1020
timer:        Boys localize     0.82s     0.82s
timer:      Rotate subspace     0.29s     0.29s
timer:       Make densities     0.14s     0.14s
delta rho 2.191600e-04 2.191600e-04 residuals 2.215945e-04 0.000000e+00
timer:       Nuclear energy     0.07s     0.07s
timer:              Coulomb     1.14s     1.14s
timer:        DFT potential     0.40s     0.40s
timer:                V*psi     1.14s     1.14s
timer:        Truncate Vpsi     1.44s     1.44s
timer:            PE matrix     0.08s     0.08s
timer:    KEmat reconstruct     0.03s     0.03s
timer:  KEmat differentiate     1.15s     1.15s
timer:       KEmat compress     0.19s     0.19s
timer: KEmat inner products     0.10s     0.10s
timer:            KE matrix     1.48s     1.48s
timer: Make fock matrix res     0.00s     0.00s

              kinetic    1357.34358389
         nonlocal psp       0.00000000
   nuclear attraction   -3889.97445667
              coulomb     936.64894685
                  PCM       0.00000000
 exchange-correlation     -87.88092720
    nuclear-repulsion     323.25738502
                total   -1360.60546811


Converged!

timer:              Overlap     0.08s     0.08s
timer:      focka eigen sol     0.00s     0.00s
 
alpha eigenvalues
[*] -76.02780060 -76.02779702 -76.02778630 -76.02777666  -6.29908447  -6.29898130  -6.29897697  -6.29896763  -4.54682774  -4.54636799  -4.54636239  -4.54635518  -4.54556050  -4.54555998  -4.54550896  -4.54550384  -4.54550274  -4.54537536  -4.54537135  -4.54536764  -0.74075432  -0.49524731  -0.49524340  -0.49523478  -0.32390249  -0.27623899  -0.27623383  -0.27622899  -0.24743622  -0.24743453


 Dipole Moment (a.u.)
 -----------

     x:  4.301572e-05
     y:  1.169268e-04
     z:  3.226195e-06
 Total Dipole Moment:  1.246300e-04 

timer:               dipole     0.00s     0.00s
Orbitals are localized - energies are diagonal Fock matrix elements

Analysis of alpha MO vectors
timer:      Analyze vectors     1.52s     1.52s
timer: Compute eigen gesv a     0.00s     0.00s
  MO   0 : occ=1.00 : energy= -76.02762223 : center=(-1.60,-2.00,0.00) : radius=0.12
            P(1)   s(13) 0.996  
  MO   1 : occ=1.00 : energy= -76.02762610 : center=(2.42,-0.84,-0.00) : radius=0.12
            P(0)   s( 0)-0.996  
  MO   2 : occ=1.00 : energy= -76.02765715 : center=(-0.41,1.42,2.09) : radius=0.12
            P(2)   s(26)-0.996  
  MO   3 : occ=1.00 : energy= -76.02765742 : center=(-0.41,1.42,-2.09) : radius=0.12
            P(3)   s(39)-0.996  
  MO   4 : occ=1.00 : energy=  -6.29906255 : center=(2.41,-0.84,0.00) : radius=0.57
            P(0)   s( 1)-1.027     P(0)   s( 0) 0.277  
  MO   5 : occ=1.00 : energy=  -6.29907907 : center=(-0.41,1.42,-2.09) : radius=0.57
            P(3)   s(40)-1.027     P(3)   s(39) 0.277  
  MO   6 : occ=1.00 : energy=  -6.29906317 : center=(-1.59,-2.00,-0.00) : radius=0.57
            P(1)   s(14) 1.027     P(1)   s(13)-0.277  
  MO   7 : occ=1.00 : energy=  -6.29907859 : center=(-0.41,1.42,2.09) : radius=0.57
            P(2)   s(27) 1.027     P(2)   s(26)-0.277  
  MO   8 : occ=1.00 : energy=  -4.54631689 : center=(-1.60,-2.00,0.00) : radius=0.55
            P(1)  py(16) 0.825     P(1)  px(15) 0.499     P(1)  pz(17)-0.227  
  MO   9 : occ=1.00 : energy=  -4.54577823 : center=(-0.41,1.42,2.09) : radius=0.55
            P(2)  pz(30) 0.930     P(2)  py(29)-0.331  
  MO  10 : occ=1.00 : energy=  -4.54578060 : center=(2.42,-0.84,-0.00) : radius=0.55
            P(0)  pz( 4) 0.705     P(0)  py( 3) 0.561     P(0)  px( 2)-0.411  
  MO  11 : occ=1.00 : energy=  -4.54579678 : center=(-0.41,1.42,2.09) : radius=0.55
            P(2)  px(28) 0.853     P(2)  py(29)-0.445     P(2)  pz(30)-0.238  
  MO  12 : occ=1.00 : energy=  -4.54578826 : center=(2.42,-0.84,0.00) : radius=0.55
            P(0)  pz( 4)-0.696     P(0)  py( 3) 0.565     P(0)  px( 2)-0.421  
  MO  13 : occ=1.00 : energy=  -4.54576696 : center=(2.42,-0.84,-0.00) : radius=0.55
            P(0)  px( 2)-0.796     P(0)  py( 3)-0.589  
  MO  14 : occ=1.00 : energy=  -4.54552977 : center=(-1.60,-2.00,-0.00) : radius=0.55
            P(1)  pz(17)-0.889     P(1)  px(15)-0.437  
  MO  15 : occ=1.00 : energy=  -4.54578697 : center=(-0.41,1.42,-2.09) : radius=0.55
            P(3)  py(42) 0.827     P(3)  px(41) 0.494     P(3)  pz(43)-0.232  
  MO  16 : occ=1.00 : energy=  -4.54578423 : center=(-0.41,1.42,-2.09) : radius=0.55
            P(3)  pz(43)-0.932     P(3)  py(42)-0.320  
  MO  17 : occ=1.00 : energy=  -4.54579124 : center=(-0.41,1.42,2.09) : radius=0.55
            P(2)  py(29) 0.821     P(2)  px(28) 0.497     P(2)  pz(30) 0.245  
  MO  18 : occ=1.00 : energy=  -4.54579710 : center=(-0.41,1.42,-2.09) : radius=0.55
            P(3)  px(41) 0.853     P(3)  py(42)-0.442     P(3)  pz(43) 0.242  
  MO  19 : occ=1.00 : energy=  -4.54546822 : center=(-1.60,-2.00,0.00) : radius=0.55
            P(1)  px(15) 0.736     P(1)  py(16)-0.548     P(1)  pz(17)-0.374  
  MO  20 : occ=1.00 : energy=  -0.39263898 : center=(1.23,0.35,-1.28) : radius=2.41
            P(3)  px(45) 0.409     P(0)  pz( 8)-0.342     P(0)  py( 7) 0.258     P(0)   s( 5) 0.194     P(3)   s(44) 0.194     P(3)  py(46)-0.181  
  MO  21 : occ=1.00 : energy=  -0.39263967 : center=(1.23,0.35,1.28) : radius=2.41
            P(2)  px(32)-0.409     P(0)  pz( 8)-0.342     P(0)  py( 7)-0.258     P(0)   s( 5)-0.194     P(2)   s(31)-0.194     P(2)  py(33) 0.181  
  MO  22 : occ=1.00 : energy=  -0.37966241 : center=(-2.01,-2.51,-0.00) : radius=2.34
            P(1)   s(18) 0.571     P(1)   s(22) 0.492     P(1)   s(14)-0.305     P(1)  py(20)-0.264     P(1)  px(19)-0.211  
  MO  23 : occ=1.00 : energy=  -0.37966715 : center=(3.04,-1.05,0.00) : radius=2.34
            P(0)   s( 5) 0.571     P(0)   s( 9) 0.492     P(0)  px( 6) 0.319     P(0)   s( 1)-0.305  
  MO  24 : occ=1.00 : energy=  -0.37967861 : center=(-0.52,1.78,2.62) : radius=2.34
            P(2)   s(31)-0.571     P(2)   s(35)-0.492     P(2)   s(27) 0.305     P(2)  pz(34)-0.276  
  MO  25 : occ=1.00 : energy=  -0.37967958 : center=(-0.52,1.78,-2.62) : radius=2.34
            P(3)   s(44)-0.571     P(3)   s(48)-0.492     P(3)   s(40) 0.305     P(3)  pz(47) 0.276  
  MO  26 : occ=1.00 : energy=  -0.39265191 : center=(-0.50,1.73,0.00) : radius=2.41
            P(3)  pz(47) 0.406     P(2)  pz(34)-0.406     P(3)   s(44) 0.194     P(2)   s(31) 0.194     P(2)  py(33) 0.189     P(3)  py(46) 0.189     P(2)  pz(38)-0.171     P(3)  pz(51) 0.171  
  MO  27 : occ=1.00 : energy=  -0.39264148 : center=(-1.23,-0.35,1.28) : radius=2.41
            P(2)  py(33)-0.371     P(1)  pz(21) 0.342     P(1)  py(20) 0.293     P(2)  px(32)-0.249     P(2)   s(31) 0.194     P(1)   s(18) 0.194  
  MO  28 : occ=1.00 : energy=  -0.39265598 : center=(0.50,-1.73,-0.00) : radius=2.41
            P(1)  px(19) 0.445     P(0)  px( 6)-0.335     P(0)  py( 7)-0.302     P(0)   s( 5) 0.194     P(1)   s(18) 0.194     P(1)  px(23) 0.182     P(1)  px(15)-0.172  
  MO  29 : occ=1.00 : energy=  -0.39264219 : center=(-1.23,-0.35,-1.28) : radius=2.41
            P(3)  py(46) 0.371     P(1)  pz(21) 0.342     P(1)  py(20)-0.293     P(3)  px(45) 0.249     P(3)   s(44)-0.194     P(1)   s(18)-0.194  
timer:             plotting     0.00s     0.00s

    Parallel environment
    --------------------
                  #nodes    1
       #threads per node    27+main = 28
          #total threads    28

  RMI message statistics (min / avg / max)
  ----------------------
   #messages in server q    0.00e+00 / 0.00e+00 / 0.00e+00
 #messages sent per node    0.00e+00 / 0.00e+00 / 0.00e+00
    #bytes sent per node    0.00e+00 / 0.00e+00 / 0.00e+00
 #messages recv per node    0.00e+00 / 0.00e+00 / 0.00e+00
    #bytes recv per node    0.00e+00 / 0.00e+00 / 0.00e+00
        #msgs systemwide    0.00e+00
       #bytes systemwide    0.00e+00

  Thread pool statistics (min / avg / max)
  ----------------------
         #tasks per node    0.00e+00 / 0.00e+00 / 0.00e+00
     #max q len per node    0.00e+00 / 0.00e+00 / 0.00e+00
  #hi-pri tasks per node    0.00e+00 / 0.00e+00 / 0.00e+00

         Total wall time    132.8s
         Total  cpu time    132.8s

