MADNESS runtime initialized with 27 threads in the pool and affinity -1 -1 -1

--------------------------------------------
   MADNESS 0.10.1 multiresolution suite
--------------------------------------------

   number of processors ... 1
    processor frequency ... 1.995370e+09
            host system ... linux-gnu
          configured by ... egentles
          configured on ... sn093
          configured at ... Tue Jul 11 16:06:48 EDT 2017
                    CXX ... mpicxx
               CXXFLAGS ... -g -std=c++14 -O3 -Wall -Wno-strict-aliasing -Wno-deprecated -Wno-unused-local-typedefs  -ffast-math -march=native
             tuning for ... default
                    MPI ... multiple
 multi-threaded runtime ... Intel TBB
                   BLAS ... Intel MKL 14252 14252 MFLOP/s
               compiled ... 08:44:05  on  Jul 29 2017
input filename:  /gpfs/home/egentles/auto_test_mad/geometries_LDA_boys/silyl_radical.mdns

Angstrom being used to read input coordinates (1 Bohr = 1.88972613 Angstrom)

YZ degenerate

 The point group is Cs

Construct XC Functional from LIBXC Library

input line was:  LDA
 1.000 lda_x 
 1.000 lda_c_vwn 

screening parameters
 rhotol, rhomin 1.000000e-07 0.000000e+00
         ggatol 1.000000e-04
polarized  true 


Solving NDIM= 3  with thresh 1.000000e-05     k 8    conv 1.000000e-04 




 MADNESS Hartree-Fock and Density Functional Theory Program
 ----------------------------------------------------------



 geometry
   eprec 1.0e-04
   units atomic
   Si            0.15470187           0.00000000           0.00000000
   H            -0.72194208          -2.63201056          -0.00000000
   H            -0.72194208           1.31600528          -2.27938766
   H            -0.72194208           1.31600528           2.27938766
 end


             restart  false
    restart from AOs  false
 number of processes  1
   no. of io servers  1
   vnuc load bal fac  12
      load bal parts  2
     simulation cube  -5.263201e+01 5.263201e+01
        total charge  0.000000e+00
            smearing  0.000000e+00
 number of electrons  9 8
  number of orbitals  9 8
     spin restricted  false
       xc functional   LDA
          xc library  libxc
 initial guess basis  6-31g
 max krylov subspace  5
    compute protocol  [1.000000e-04, 1.000000e-06]
  energy convergence  1.000000e-05
 density convergence  1.000000e-04
    maximum rotation  2.500000e-01
    polynomial order  -1
       truncate mode  1
  maximum iterations  20
 Convergence criteria are density delta & BSH residual.
        plot density  false
        plot coulomb  false
        plot orbital  0 -1
        plot npoints  101
        plot  volume  default
  localized orbitals  boys
 psp or all electron  all electron
timer:           initialize     0.40s     0.40s

Solving NDIM= 3  with thresh 1.000000e-04     k 6    conv 1.000000e-04 


Solving NDIM= 3  with thresh 1.000000e-04     k 6    conv 1.000000e-04 

timer:     Project vnuclear     0.14s     0.14s
timer:     project ao basis     0.18s     0.18s
guess dens trace 1.699995e+01
timer:        guess density     0.20s     0.20s
timer:   guess Coulomb potn     0.26s     0.26s
timer:       guess lda potn     0.11s     0.11s
timer:        guess overlap     0.01s     0.01s
timer:    KEmat reconstruct     0.01s     0.01s
timer:  KEmat differentiate     0.21s     0.21s
timer:       KEmat compress     0.03s     0.03s
timer: KEmat inner products     0.03s     0.03s
timer:     guess Kinet potn     0.27s     0.27s
timer:           guess fock     0.47s     0.47s
timer:      guess eigen sol     0.00s     0.00s
grouping alpha orbitals into sets
set  0    0  -  0
set  1    1  -  1
set  2    2  -  4
set  3    5  -  8
grouping beta orbitals into sets
set  0    0  -  0
set  1    1  -  1
set  2    2  -  4
set  3    5  -  7
timer: guess orbital groupi     0.04s     0.04s
timer:     project ao basis     0.14s     0.14s

Iteration 0 at time 2.4s

warning: boys localization did not fully converge:  642
timer:        Boys localize     0.11s     0.11s
timer:      Rotate subspace     0.03s     0.03s
warning: boys localization did not fully converge:  623
timer:        Boys localize     0.10s     0.10s
timer:      Rotate subspace     0.02s     0.02s
timer:       Make densities     0.03s     0.03s
timer:       Load balancing     0.00s     0.00s
timer:       Nuclear energy     0.00s     0.00s
timer:              Coulomb     0.08s     0.08s
timer:        DFT potential     0.08s     0.08s
timer:                V*psi     0.06s     0.06s
timer:        Truncate Vpsi     0.06s     0.06s
timer:        DFT potential     0.05s     0.05s
timer:                V*psi     0.05s     0.05s
timer:        Truncate Vpsi     0.06s     0.06s
timer:            PE matrix     0.01s     0.01s
timer:    KEmat reconstruct     0.00s     0.00s
timer:  KEmat differentiate     0.14s     0.14s
timer:       KEmat compress     0.02s     0.02s
timer: KEmat inner products     0.02s     0.02s
timer:            KE matrix     0.19s     0.19s
timer: Make fock matrix res     0.00s     0.00s
timer:            PE matrix     0.01s     0.01s
timer:    KEmat reconstruct     0.00s     0.00s
timer:  KEmat differentiate     0.13s     0.13s
timer:       KEmat compress     0.01s     0.01s
timer: KEmat inner products     0.02s     0.02s
timer:            KE matrix     0.17s     0.17s
timer: Make fock matrix res     0.00s     0.00s

              kinetic     290.59086124
         nonlocal psp       0.00000000
   nuclear attraction    -724.68460310
              coulomb     149.10471943
                  PCM       0.00000000
 exchange-correlation     -20.78376462
    nuclear-repulsion      15.79777027
                total    -289.97501678

timer: Compute residual stu     0.03s     0.03s
entering apply
timer:            Apply BSH     0.41s     0.41s
timer:     Truncate new psi     0.05s     0.05s
residuals [5.515023e-03, 1.153687e-02, 9.430304e-03, 9.429395e-03, 9.537189e-03, 4.858907e-02, 4.858854e-02, 4.857547e-02, 2.892471e-02]
BSH residual: rms 3.045995e-02    max 4.858907e-02
timer:         BSH residual     0.03s     0.03s
timer: Compute residual stu     0.02s     0.02s
entering apply
timer:            Apply BSH     0.35s     0.35s
timer:     Truncate new psi     0.05s     0.05s
residuals [5.506441e-03, 1.147660e-02, 9.332774e-03, 9.331760e-03, 9.148732e-03, 4.975627e-02, 4.975550e-02, 4.974641e-02]
BSH residual: rms 3.131676e-02    max 4.975627e-02
timer:         BSH residual     0.02s     0.02s
timer: Update subspace stuf     0.04s     0.04s
Subspace solution [*]   1.00000000

timer:   Subspace transform     0.01s     0.01s
Norm of vector changes alpha : rms 3.045995e-02    max 4.858907e-02
ORTHOG2a: maxq trantol 1.653942e-03 1.111111e-06
timer:       Orthonormalize     0.04s     0.04s
Norm of vector changes beta : rms 3.131676e-02    max 4.975627e-02
ORTHOG2a: maxq trantol 1.418924e-03 1.250000e-06
timer:       Orthonormalize     0.04s     0.04s

Iteration 1 at time 4.9s

timer:        Boys localize     0.12s     0.12s
timer:      Rotate subspace     0.03s     0.03s
timer:        Boys localize     0.11s     0.11s
timer:      Rotate subspace     0.03s     0.03s
timer:       Make densities     0.03s     0.03s
timer:       Load balancing     0.00s     0.00s
delta rho 5.286427e-02 5.233028e-02 residuals 4.975627e-02 0.000000e+00
timer:       Nuclear energy     0.01s     0.01s
timer:              Coulomb     0.08s     0.08s
timer:        DFT potential     0.08s     0.08s
timer:                V*psi     0.06s     0.06s
timer:        Truncate Vpsi     0.06s     0.06s
timer:        DFT potential     0.06s     0.06s
timer:                V*psi     0.05s     0.05s
timer:        Truncate Vpsi     0.06s     0.06s
timer:            PE matrix     0.01s     0.01s
timer:    KEmat reconstruct     0.00s     0.00s
timer:  KEmat differentiate     0.14s     0.14s
timer:       KEmat compress     0.03s     0.03s
timer: KEmat inner products     0.02s     0.02s
timer:            KE matrix     0.20s     0.20s
timer: Make fock matrix res     0.00s     0.00s
timer:            PE matrix     0.01s     0.01s
timer:    KEmat reconstruct     0.00s     0.00s
timer:  KEmat differentiate     0.13s     0.13s
timer:       KEmat compress     0.02s     0.02s
timer: KEmat inner products     0.02s     0.02s
timer:            KE matrix     0.17s     0.17s
timer: Make fock matrix res     0.00s     0.00s

              kinetic     289.37375202
         nonlocal psp       0.00000000
   nuclear attraction    -723.19222560
              coulomb     148.69450647
                  PCM       0.00000000
 exchange-correlation     -20.71354084
    nuclear-repulsion      15.79777027
                total    -290.03973768

timer: Compute residual stu     0.03s     0.03s
entering apply
timer:            Apply BSH     0.41s     0.41s
timer:     Truncate new psi     0.06s     0.06s
residuals [8.908854e-04, 2.299405e-03, 1.678456e-03, 1.677915e-03, 1.652141e-03, 1.509315e-02, 1.509325e-02, 1.509158e-02, 1.035575e-02]
BSH residual: rms 9.457800e-03    max 1.509325e-02
timer:         BSH residual     0.03s     0.03s
timer: Compute residual stu     0.03s     0.03s
entering apply
timer:            Apply BSH     0.36s     0.36s
timer:     Truncate new psi     0.05s     0.05s
residuals [8.863009e-04, 2.265681e-03, 1.663865e-03, 1.663300e-03, 1.591884e-03, 1.638559e-02, 1.638569e-02, 1.638464e-02]
BSH residual: rms 1.012066e-02    max 1.638569e-02
timer:         BSH residual     0.02s     0.02s
timer: Update subspace stuf     0.08s     0.08s
Subspace solution [*]  -0.28386021   1.28386021

timer:   Subspace transform     0.01s     0.01s
Norm of vector changes alpha : rms 4.155872e-02    max 8.215943e-02
ORTHOG2a: maxq trantol 4.723339e-03 1.111111e-06
timer:       Orthonormalize     0.04s     0.04s
Norm of vector changes beta : rms 4.505546e-02    max 8.218502e-02
ORTHOG2a: maxq trantol 5.793199e-03 1.250000e-06
timer:       Orthonormalize     0.04s     0.04s

Iteration 2 at time 7.5s

timer:        Boys localize     0.12s     0.12s
timer:      Rotate subspace     0.02s     0.02s
timer:        Boys localize     0.11s     0.11s
timer:      Rotate subspace     0.02s     0.02s
timer:       Make densities     0.03s     0.03s
delta rho 2.140954e-02 2.085358e-02 residuals 1.638569e-02 0.000000e+00
timer:       Nuclear energy     0.01s     0.01s
timer:              Coulomb     0.08s     0.08s
timer:        DFT potential     0.08s     0.08s
timer:                V*psi     0.06s     0.06s
timer:        Truncate Vpsi     0.06s     0.06s
timer:        DFT potential     0.06s     0.06s
timer:                V*psi     0.05s     0.05s
timer:        Truncate Vpsi     0.06s     0.06s
timer:            PE matrix     0.01s     0.01s
timer:    KEmat reconstruct     0.00s     0.00s
timer:  KEmat differentiate     0.14s     0.14s
timer:       KEmat compress     0.02s     0.02s
timer: KEmat inner products     0.02s     0.02s
timer:            KE matrix     0.18s     0.18s
timer: Make fock matrix res     0.00s     0.00s
timer:            PE matrix     0.01s     0.01s
timer:    KEmat reconstruct     0.00s     0.00s
timer:  KEmat differentiate     0.13s     0.13s
timer:       KEmat compress     0.02s     0.02s
timer: KEmat inner products     0.02s     0.02s
timer:            KE matrix     0.17s     0.17s
timer: Make fock matrix res     0.00s     0.00s

              kinetic     289.28371709
         nonlocal psp       0.00000000
   nuclear attraction    -723.30622512
              coulomb     148.89827617
                  PCM       0.00000000
 exchange-correlation     -20.72110550
    nuclear-repulsion      15.79777027
                total    -290.04756709

timer: Compute residual stu     0.03s     0.03s
entering apply
timer:            Apply BSH     0.40s     0.40s
timer:     Truncate new psi     0.05s     0.05s
residuals [1.252790e-04, 6.484571e-04, 6.207903e-04, 6.184752e-04, 5.715540e-04, 6.441800e-03, 6.441589e-03, 6.443313e-03, 5.167000e-03]
BSH residual: rms 4.119544e-03    max 6.443313e-03
timer:         BSH residual     0.03s     0.03s
timer: Compute residual stu     0.02s     0.02s
entering apply
timer:            Apply BSH     0.35s     0.35s
timer:     Truncate new psi     0.05s     0.05s
residuals [1.245040e-04, 6.696796e-04, 6.034799e-04, 5.992622e-04, 5.641078e-04, 7.078576e-03, 7.078736e-03, 7.079727e-03]
BSH residual: rms 4.356644e-03    max 7.079727e-03
timer:         BSH residual     0.02s     0.02s
timer: Update subspace stuf     0.13s     0.13s
Subspace solution [*]  -0.08685278  -0.05621382   1.14306660

timer:   Subspace transform     0.01s     0.01s
Norm of vector changes alpha : rms 2.758424e-02    max 5.716060e-02
ORTHOG2a: maxq trantol 4.584396e-03 1.111111e-06
timer:       Orthonormalize     0.04s     0.04s
Norm of vector changes beta : rms 3.023629e-02    max 5.852913e-02
ORTHOG2a: maxq trantol 6.416337e-03 1.250000e-06
timer:       Orthonormalize     0.04s     0.04s

Iteration 3 at time 10.1s

timer:        Boys localize     0.12s     0.12s
timer:      Rotate subspace     0.03s     0.03s
timer:        Boys localize     0.11s     0.11s
timer:      Rotate subspace     0.02s     0.02s
timer:       Make densities     0.03s     0.03s
delta rho 7.146432e-03 6.776396e-03 residuals 7.079727e-03 0.000000e+00
timer:       Nuclear energy     0.01s     0.01s
timer:              Coulomb     0.09s     0.09s
timer:        DFT potential     0.08s     0.08s
timer:                V*psi     0.05s     0.05s
timer:        Truncate Vpsi     0.06s     0.06s
timer:        DFT potential     0.06s     0.06s
timer:                V*psi     0.05s     0.05s
timer:        Truncate Vpsi     0.06s     0.06s
timer:            PE matrix     0.01s     0.01s
timer:    KEmat reconstruct     0.00s     0.00s
timer:  KEmat differentiate     0.14s     0.14s
timer:       KEmat compress     0.02s     0.02s
timer: KEmat inner products     0.02s     0.02s
timer:            KE matrix     0.19s     0.19s
timer: Make fock matrix res     0.00s     0.00s
timer:            PE matrix     0.01s     0.01s
timer:    KEmat reconstruct     0.00s     0.00s
timer:  KEmat differentiate     0.13s     0.13s
timer:       KEmat compress     0.01s     0.01s
timer: KEmat inner products     0.02s     0.02s
timer:            KE matrix     0.17s     0.17s
timer: Make fock matrix res     0.00s     0.00s

              kinetic     289.27314095
         nonlocal psp       0.00000000
   nuclear attraction    -723.32530508
              coulomb     148.92765075
                  PCM       0.00000000
 exchange-correlation     -20.72250441
    nuclear-repulsion      15.79777027
                total    -290.04924752

timer: Compute residual stu     0.03s     0.03s
entering apply
timer:            Apply BSH     0.40s     0.40s
timer:     Truncate new psi     0.06s     0.06s
residuals [5.977203e-05, 1.531618e-04, 2.138488e-04, 2.117246e-04, 1.630404e-04, 3.074553e-03, 3.075871e-03, 3.076694e-03, 2.549871e-03]
BSH residual: rms 1.972757e-03    max 3.076694e-03
timer:         BSH residual     0.03s     0.03s
timer: Compute residual stu     0.03s     0.03s
entering apply
timer:            Apply BSH     0.36s     0.36s
timer:     Truncate new psi     0.05s     0.05s
residuals [5.912627e-05, 1.694076e-04, 2.037399e-04, 2.005692e-04, 1.684655e-04, 3.656067e-03, 3.656814e-03, 3.656688e-03]
BSH residual: rms 2.243123e-03    max 3.656814e-03
timer:         BSH residual     0.02s     0.02s
timer: Update subspace stuf     0.17s     0.17s
Subspace solution [*]   0.06932447  -0.12854411  -0.79037527   1.84959492

timer:   Subspace transform     0.01s     0.01s
Norm of vector changes alpha : rms 1.153601e-01    max 2.373581e-01
ORTHOG2a: maxq trantol 2.072435e-02 1.111111e-06
ORTHOG2a: maxq trantol 5.615719e-04 1.111111e-06
timer:       Orthonormalize     0.06s     0.06s
Norm of vector changes beta : rms 3.224813e-02    max 6.559620e-02
ORTHOG2a: maxq trantol 7.296254e-03 1.250000e-06
timer:       Orthonormalize     0.04s     0.04s

Iteration 4 at time 12.8s

warning: boys localization did not fully converge:  614
timer:        Boys localize     0.12s     0.12s
timer:      Rotate subspace     0.03s     0.03s
timer:        Boys localize     0.11s     0.11s
timer:      Rotate subspace     0.02s     0.02s
timer:       Make densities     0.03s     0.03s
delta rho 3.393009e-03 3.168359e-03 residuals 3.656814e-03 0.000000e+00
timer:       Nuclear energy     0.01s     0.01s
timer:              Coulomb     0.08s     0.08s
timer:        DFT potential     0.09s     0.09s
timer:                V*psi     0.06s     0.06s
timer:        Truncate Vpsi     0.06s     0.06s
timer:        DFT potential     0.06s     0.06s
timer:                V*psi     0.05s     0.05s
timer:        Truncate Vpsi     0.06s     0.06s
timer:            PE matrix     0.01s     0.01s
timer:    KEmat reconstruct     0.00s     0.00s
timer:  KEmat differentiate     0.14s     0.14s
timer:       KEmat compress     0.02s     0.02s
timer: KEmat inner products     0.02s     0.02s
timer:            KE matrix     0.18s     0.18s
timer: Make fock matrix res     0.00s     0.00s
timer:            PE matrix     0.01s     0.01s
timer:    KEmat reconstruct     0.00s     0.00s
timer:  KEmat differentiate     0.13s     0.13s
timer:       KEmat compress     0.01s     0.01s
timer: KEmat inner products     0.02s     0.02s
timer:            KE matrix     0.17s     0.17s
timer: Make fock matrix res     0.00s     0.00s

              kinetic     289.30523527
         nonlocal psp       0.00000000
   nuclear attraction    -723.37988000
              coulomb     148.95295079
                  PCM       0.00000000
 exchange-correlation     -20.72593039
    nuclear-repulsion      15.79777027
                total    -290.04985406

timer: Compute residual stu     0.03s     0.03s
entering apply
timer:            Apply BSH     0.39s     0.39s
timer:     Truncate new psi     0.05s     0.05s
residuals [3.799443e-05, 1.360002e-04, 7.888832e-05, 8.070089e-05, 9.802759e-05, 9.373013e-04, 9.360519e-04, 9.375559e-04, 1.402954e-03]
BSH residual: rms 7.183548e-04    max 1.402954e-03
timer:         BSH residual     0.03s     0.03s
timer: Compute residual stu     0.02s     0.02s
entering apply
timer:            Apply BSH     0.35s     0.35s
timer:     Truncate new psi     0.05s     0.05s
residuals [3.817785e-05, 1.288930e-04, 9.664876e-05, 9.217805e-05, 1.018698e-04, 1.103908e-03, 1.102629e-03, 1.104667e-03]
BSH residual: rms 6.801634e-04    max 1.104667e-03
timer:         BSH residual     0.02s     0.02s
timer: Update subspace stuf     0.21s     0.21s
Subspace solution [*]  -0.04212315   0.10084775   0.64662630  -2.04204738   2.33669648

timer:   Subspace transform     0.01s     0.01s
  restricting step for alpha orbitals: 2 3
Norm of vector changes alpha : rms 1.313600e-01    max 2.791249e-01
ORTHOG2a: maxq trantol 2.653958e-02 1.111111e-06
ORTHOG2a: maxq trantol 5.923322e-04 1.111111e-06
timer:       Orthonormalize     0.06s     0.06s
  restricting step for beta orbitals: 2 3 4
Norm of vector changes beta : rms 3.174263e-01    max 6.255411e-01
ORTHOG2a: maxq trantol 6.699322e-02 1.250000e-06
ORTHOG2a: maxq trantol 2.640429e-03 1.250000e-06
timer:       Orthonormalize     0.06s     0.06s

Iteration 5 at time 15.5s

warning: boys localization did not fully converge:  611
timer:        Boys localize     0.12s     0.12s
timer:      Rotate subspace     0.03s     0.03s
timer:        Boys localize     0.11s     0.11s
timer:      Rotate subspace     0.02s     0.02s
timer:       Make densities     0.03s     0.03s
delta rho 1.375632e-03 1.657939e-03 residuals 1.402954e-03 0.000000e+00
timer:       Nuclear energy     0.01s     0.01s
timer:              Coulomb     0.08s     0.08s
timer:        DFT potential     0.08s     0.08s
timer:                V*psi     0.06s     0.06s
timer:        Truncate Vpsi     0.06s     0.06s
timer:        DFT potential     0.06s     0.06s
timer:                V*psi     0.05s     0.05s
timer:        Truncate Vpsi     0.06s     0.06s
timer:            PE matrix     0.01s     0.01s
timer:    KEmat reconstruct     0.00s     0.00s
timer:  KEmat differentiate     0.14s     0.14s
timer:       KEmat compress     0.02s     0.02s
timer: KEmat inner products     0.02s     0.02s
timer:            KE matrix     0.19s     0.19s
timer: Make fock matrix res     0.00s     0.00s
timer:            PE matrix     0.01s     0.01s
timer:    KEmat reconstruct     0.00s     0.00s
timer:  KEmat differentiate     0.14s     0.14s
timer:       KEmat compress     0.01s     0.01s
timer: KEmat inner products     0.02s     0.02s
timer:            KE matrix     0.18s     0.18s
timer: Make fock matrix res     0.00s     0.00s

              kinetic     289.31710160
         nonlocal psp       0.00000000
   nuclear attraction    -723.38434424
              coulomb     148.94658455
                  PCM       0.00000000
 exchange-correlation     -20.72699077
    nuclear-repulsion      15.79777027
                total    -290.04987860

timer: Compute residual stu     0.03s     0.03s
entering apply
timer:            Apply BSH     0.39s     0.39s
timer:     Truncate new psi     0.05s     0.05s
residuals [3.634961e-05, 9.615069e-05, 5.326985e-05, 5.716210e-05, 5.844899e-05, 1.079853e-03, 1.078872e-03, 1.079457e-03, 1.501471e-03]
BSH residual: rms 8.006788e-04    max 1.501471e-03
timer:         BSH residual     0.03s     0.03s
timer: Compute residual stu     0.02s     0.02s
entering apply
timer:            Apply BSH     0.36s     0.36s
timer:     Truncate new psi     0.05s     0.05s
residuals [3.480344e-05, 8.879581e-05, 6.729671e-05, 7.826799e-05, 1.038203e-04, 5.391656e-04, 5.358752e-04, 5.395397e-04]
BSH residual: rms 3.353159e-04    max 5.395397e-04
timer:         BSH residual     0.02s     0.02s
timer: Update subspace stuf     0.21s     0.21s
Subspace solution [*]  -0.02086154   0.01451909   0.74625873  -1.85695151   2.11703523

timer:   Subspace transform     0.02s     0.02s
Norm of vector changes alpha : rms 1.944050e-02    max 3.553567e-02
ORTHOG2a: maxq trantol 3.945633e-03 1.111111e-06
timer:       Orthonormalize     0.04s     0.04s
  restricting step for beta orbitals: 2 3 4
Norm of vector changes beta : rms 4.718385e-01    max 9.417051e-01
ORTHOG2a: maxq trantol 6.449094e-02 1.250000e-06
ORTHOG2a: maxq trantol 4.172256e-03 1.250000e-06
timer:       Orthonormalize     0.06s     0.06s

Iteration 6 at time 18.3s

warning: boys localization did not fully converge:  611
timer:        Boys localize     0.12s     0.12s
timer:      Rotate subspace     0.03s     0.03s
timer:        Boys localize     0.11s     0.11s
timer:      Rotate subspace     0.02s     0.02s
timer:       Make densities     0.03s     0.03s
delta rho 1.443646e-03 1.178308e-03 residuals 1.501471e-03 0.000000e+00
timer:       Nuclear energy     0.01s     0.01s
timer:              Coulomb     0.08s     0.08s
timer:        DFT potential     0.08s     0.08s
timer:                V*psi     0.06s     0.06s
timer:        Truncate Vpsi     0.06s     0.06s
timer:        DFT potential     0.06s     0.06s
timer:                V*psi     0.05s     0.05s
timer:        Truncate Vpsi     0.06s     0.06s
timer:            PE matrix     0.01s     0.01s
timer:    KEmat reconstruct     0.00s     0.00s
timer:  KEmat differentiate     0.14s     0.14s
timer:       KEmat compress     0.02s     0.02s
timer: KEmat inner products     0.02s     0.02s
timer:            KE matrix     0.18s     0.18s
timer: Make fock matrix res     0.00s     0.00s
timer:            PE matrix     0.01s     0.01s
timer:    KEmat reconstruct     0.00s     0.00s
timer:  KEmat differentiate     0.13s     0.13s
timer:       KEmat compress     0.01s     0.01s
timer: KEmat inner products     0.02s     0.02s
timer:            KE matrix     0.17s     0.17s
timer: Make fock matrix res     0.00s     0.00s

              kinetic     289.31587485
         nonlocal psp       0.00000000
   nuclear attraction    -723.37397921
              coulomb     148.93705130
                  PCM       0.00000000
 exchange-correlation     -20.72658463
    nuclear-repulsion      15.79777027
                total    -290.04986742

timer: Compute residual stu     0.03s     0.03s
entering apply
timer:            Apply BSH     0.39s     0.39s
timer:     Truncate new psi     0.05s     0.05s
residuals [4.017568e-05, 1.254986e-04, 6.333605e-05, 6.708805e-05, 6.830728e-05, 1.371911e-03, 1.371757e-03, 1.372249e-03, 1.884969e-03]
BSH residual: rms 1.012729e-03    max 1.884969e-03
timer:         BSH residual     0.03s     0.03s
timer: Compute residual stu     0.03s     0.03s
entering apply
timer:            Apply BSH     0.36s     0.36s
timer:     Truncate new psi     0.05s     0.05s
residuals [3.985866e-05, 1.211506e-04, 6.074421e-05, 6.075650e-05, 1.061242e-04, 3.739786e-04, 3.743006e-04, 3.750100e-04]
BSH residual: rms 2.386166e-04    max 3.750100e-04
timer:         BSH residual     0.02s     0.02s
timer: Update subspace stuf     0.21s     0.21s
Subspace solution [*]  -0.00653156   0.53909700  -1.38521746   1.64655335   0.20609867

timer:   Subspace transform     0.01s     0.01s
Norm of vector changes alpha : rms 6.136869e-03    max 1.111654e-02
ORTHOG2a: maxq trantol 3.817348e-03 1.111111e-06
timer:       Orthonormalize     0.04s     0.04s
  restricting step for beta orbitals: 2 3 4
Norm of vector changes beta : rms 5.752664e-01    max 1.144826e+00
ORTHOG2a: maxq trantol 3.586132e-02 1.250000e-06
ORTHOG2a: maxq trantol 2.004743e-03 1.250000e-06
timer:       Orthonormalize     0.06s     0.06s

Iteration 7 at time 21.0s

warning: boys localization did not fully converge:  612
timer:        Boys localize     0.12s     0.12s
timer:      Rotate subspace     0.03s     0.03s
timer:        Boys localize     0.11s     0.11s
timer:      Rotate subspace     0.02s     0.02s
timer:       Make densities     0.03s     0.03s
delta rho 7.499779e-05 2.420166e-04 residuals 1.884969e-03 0.000000e+00
timer:       Nuclear energy     0.01s     0.01s
timer:              Coulomb     0.08s     0.08s
timer:        DFT potential     0.08s     0.08s
timer:                V*psi     0.06s     0.06s
timer:        Truncate Vpsi     0.06s     0.06s
timer:        DFT potential     0.06s     0.06s
timer:                V*psi     0.05s     0.05s
timer:        Truncate Vpsi     0.06s     0.06s
timer:            PE matrix     0.01s     0.01s
timer:    KEmat reconstruct     0.00s     0.00s
timer:  KEmat differentiate     0.14s     0.14s
timer:       KEmat compress     0.02s     0.02s
timer: KEmat inner products     0.02s     0.02s
timer:            KE matrix     0.18s     0.18s
timer: Make fock matrix res     0.00s     0.00s
timer:            PE matrix     0.01s     0.01s
timer:    KEmat reconstruct     0.00s     0.00s
timer:  KEmat differentiate     0.13s     0.13s
timer:       KEmat compress     0.01s     0.01s
timer: KEmat inner products     0.02s     0.02s
timer:            KE matrix     0.17s     0.17s
timer: Make fock matrix res     0.00s     0.00s

              kinetic     289.31456973
         nonlocal psp       0.00000000
   nuclear attraction    -723.37258894
              coulomb     148.93695622
                  PCM       0.00000000
 exchange-correlation     -20.72655826
    nuclear-repulsion      15.79777027
                total    -290.04985097

timer: Compute residual stu     0.03s     0.03s
entering apply
timer:            Apply BSH     0.39s     0.39s
timer:     Truncate new psi     0.05s     0.05s
residuals [4.032929e-05, 1.200340e-04, 5.848344e-05, 6.054409e-05, 6.217672e-05, 9.820016e-04, 9.820314e-04, 9.825389e-04, 1.309553e-03]
BSH residual: rms 7.177133e-04    max 1.309553e-03
timer:         BSH residual     0.03s     0.03s
timer: Compute residual stu     0.02s     0.02s
entering apply
timer:            Apply BSH     0.35s     0.35s
timer:     Truncate new psi     0.05s     0.05s
residuals [4.004997e-05, 1.161615e-04, 5.849846e-05, 5.028537e-05, 1.076213e-04, 3.530085e-04, 3.532451e-04, 3.536853e-04]
BSH residual: rms 2.255884e-04    max 3.536853e-04
timer:         BSH residual     0.02s     0.02s
timer: Update subspace stuf     0.21s     0.21s
Subspace solution [*]   0.20898747  -0.51745240   0.70561155  -0.86860548   1.47145885

timer:   Subspace transform     0.01s     0.01s
Norm of vector changes alpha : rms 3.299130e-03    max 6.966819e-03
ORTHOG2a: maxq trantol 1.446921e-03 1.111111e-06
timer:       Orthonormalize     0.04s     0.04s
  restricting step for beta orbitals: 2 3 4
Norm of vector changes beta : rms 2.393663e-01    max 4.880256e-01
ORTHOG2a: maxq trantol 3.255669e-02 1.250000e-06
ORTHOG2a: maxq trantol 6.741117e-04 1.250000e-06
timer:       Orthonormalize     0.05s     0.05s

Iteration 8 at time 23.7s

warning: boys localization did not fully converge:  610
timer:        Boys localize     0.12s     0.12s
timer:      Rotate subspace     0.03s     0.03s
timer:        Boys localize     0.11s     0.11s
timer:      Rotate subspace     0.02s     0.02s
timer:       Make densities     0.03s     0.03s
delta rho 4.227976e-04 4.522858e-04 residuals 1.309553e-03 0.000000e+00
timer:       Nuclear energy     0.01s     0.01s
timer:              Coulomb     0.07s     0.07s
timer:        DFT potential     0.08s     0.08s
timer:                V*psi     0.06s     0.06s
timer:        Truncate Vpsi     0.06s     0.06s
timer:        DFT potential     0.06s     0.06s
timer:                V*psi     0.05s     0.05s
timer:        Truncate Vpsi     0.06s     0.06s
timer:            PE matrix     0.01s     0.01s
timer:    KEmat reconstruct     0.00s     0.00s
timer:  KEmat differentiate     0.15s     0.15s
timer:       KEmat compress     0.02s     0.02s
timer: KEmat inner products     0.02s     0.02s
timer:            KE matrix     0.19s     0.19s
timer: Make fock matrix res     0.00s     0.00s
timer:            PE matrix     0.01s     0.01s
timer:    KEmat reconstruct     0.00s     0.00s
timer:  KEmat differentiate     0.13s     0.13s
timer:       KEmat compress     0.01s     0.01s
timer: KEmat inner products     0.02s     0.02s
timer:            KE matrix     0.17s     0.17s
timer: Make fock matrix res     0.00s     0.00s

              kinetic     289.30939883
         nonlocal psp       0.00000000
   nuclear attraction    -723.36935269
              coulomb     148.93881160
                  PCM       0.00000000
 exchange-correlation     -20.72646819
    nuclear-repulsion      15.79777027
                total    -290.04984019

timer: Compute residual stu     0.03s     0.03s
entering apply
timer:            Apply BSH     0.39s     0.39s
timer:     Truncate new psi     0.05s     0.05s
residuals [3.055566e-05, 1.016876e-04, 4.082834e-05, 4.200949e-05, 4.064913e-05, 4.040424e-04, 4.040211e-04, 4.046641e-04, 5.166313e-04]
BSH residual: rms 2.931633e-04    max 5.166313e-04
timer:         BSH residual     0.03s     0.03s
timer: Compute residual stu     0.02s     0.02s
entering apply
timer:            Apply BSH     0.37s     0.37s
timer:     Truncate new psi     0.05s     0.05s
residuals [3.021260e-05, 9.506701e-05, 5.612766e-05, 4.297521e-05, 1.063282e-04, 2.105165e-04, 2.106428e-04, 2.117817e-04]
BSH residual: rms 1.413296e-04    max 2.117817e-04
timer:         BSH residual     0.02s     0.02s
timer: Update subspace stuf     0.21s     0.21s
Subspace solution [*]   0.05759281   0.07261618  -0.67300362   0.44022248   1.10257215

timer:   Subspace transform     0.02s     0.02s
Norm of vector changes alpha : rms 5.082303e-03    max 1.040072e-02
ORTHOG2a: maxq trantol 1.125612e-04 1.111111e-06
timer:       Orthonormalize     0.04s     0.04s
  restricting step for beta orbitals: 2 4
Norm of vector changes beta : rms 1.593342e-01    max 3.110351e-01
ORTHOG2a: maxq trantol 2.132480e-02 1.250000e-06
ORTHOG2a: maxq trantol 5.030569e-04 1.250000e-06
timer:       Orthonormalize     0.06s     0.06s

Iteration 9 at time 26.4s

warning: boys localization did not fully converge:  608
timer:        Boys localize     0.12s     0.12s
timer:      Rotate subspace     0.03s     0.03s
timer:        Boys localize     0.11s     0.11s
timer:      Rotate subspace     0.02s     0.02s
timer:       Make densities     0.03s     0.03s
delta rho 4.598958e-04 6.854558e-04 residuals 5.166313e-04 0.000000e+00
timer:       Nuclear energy     0.01s     0.01s
timer:              Coulomb     0.08s     0.08s
timer:        DFT potential     0.08s     0.08s
timer:                V*psi     0.06s     0.06s
timer:        Truncate Vpsi     0.06s     0.06s
timer:        DFT potential     0.06s     0.06s
timer:                V*psi     0.05s     0.05s
timer:        Truncate Vpsi     0.06s     0.06s
timer:            PE matrix     0.01s     0.01s
timer:    KEmat reconstruct     0.00s     0.00s
timer:  KEmat differentiate     0.14s     0.14s
timer:       KEmat compress     0.02s     0.02s
timer: KEmat inner products     0.02s     0.02s
timer:            KE matrix     0.18s     0.18s
timer: Make fock matrix res     0.00s     0.00s
timer:            PE matrix     0.01s     0.01s
timer:    KEmat reconstruct     0.00s     0.00s
timer:  KEmat differentiate     0.13s     0.13s
timer:       KEmat compress     0.01s     0.01s
timer: KEmat inner products     0.02s     0.02s
timer:            KE matrix     0.17s     0.17s
timer: Make fock matrix res     0.00s     0.00s

              kinetic     289.30676206
         nonlocal psp       0.00000000
   nuclear attraction    -723.36970785
              coulomb     148.94175878
                  PCM       0.00000000
 exchange-correlation     -20.72645755
    nuclear-repulsion      15.79777027
                total    -290.04987429

timer: Compute residual stu     0.03s     0.03s
entering apply
timer:            Apply BSH     0.39s     0.39s
timer:     Truncate new psi     0.05s     0.05s
residuals [2.448052e-05, 8.982308e-05, 2.342695e-05, 2.270304e-05, 2.035070e-05, 1.037314e-04, 1.034079e-04, 1.055461e-04, 1.760354e-04]
BSH residual: rms 9.050950e-05    max 1.760354e-04
timer:         BSH residual     0.03s     0.03s
timer: Compute residual stu     0.02s     0.02s
entering apply
timer:            Apply BSH     0.36s     0.36s
timer:     Truncate new psi     0.05s     0.05s
residuals [2.439793e-05, 8.239301e-05, 5.032495e-05, 2.683170e-05, 6.181298e-05, 8.729790e-05, 8.713964e-05, 9.089229e-05]
BSH residual: rms 6.885937e-05    max 9.089229e-05
timer:         BSH residual     0.02s     0.02s
timer: Update subspace stuf     0.21s     0.21s
Subspace solution [*]   0.09336637  -0.57746909   0.47076901   0.74325689   0.27007681

timer:   Subspace transform     0.01s     0.01s
Norm of vector changes alpha : rms 1.562481e-03    max 3.171830e-03
ORTHOG2a: maxq trantol 6.196303e-05 1.111111e-06
timer:       Orthonormalize     0.04s     0.04s
  restricting step for beta orbitals: 2 4
Norm of vector changes beta : rms 1.654193e-01    max 3.222308e-01
ORTHOG2a: maxq trantol 2.264666e-02 1.250000e-06
ORTHOG2a: maxq trantol 5.194893e-04 1.250000e-06
timer:       Orthonormalize     0.06s     0.06s

Iteration 10 at time 29.1s

warning: boys localization did not fully converge:  608
timer:        Boys localize     0.12s     0.12s
timer:      Rotate subspace     0.03s     0.03s
timer:        Boys localize     0.11s     0.11s
timer:      Rotate subspace     0.02s     0.02s
timer:       Make densities     0.03s     0.03s
timer:       Load balancing     0.00s     0.00s
delta rho 3.342123e-05 4.316643e-05 residuals 1.760354e-04 0.000000e+00
timer:       Nuclear energy     0.01s     0.01s
timer:              Coulomb     0.09s     0.09s
timer:        DFT potential     0.08s     0.08s
timer:                V*psi     0.05s     0.05s
timer:        Truncate Vpsi     0.06s     0.06s
timer:        DFT potential     0.06s     0.06s
timer:                V*psi     0.05s     0.05s
timer:        Truncate Vpsi     0.06s     0.06s
timer:            PE matrix     0.01s     0.01s
timer:    KEmat reconstruct     0.00s     0.00s
timer:  KEmat differentiate     0.14s     0.14s
timer:       KEmat compress     0.02s     0.02s
timer: KEmat inner products     0.02s     0.02s
timer:            KE matrix     0.19s     0.19s
timer: Make fock matrix res     0.00s     0.00s
timer:            PE matrix     0.01s     0.01s
timer:    KEmat reconstruct     0.00s     0.00s
timer:  KEmat differentiate     0.13s     0.13s
timer:       KEmat compress     0.02s     0.02s
timer: KEmat inner products     0.02s     0.02s
timer:            KE matrix     0.18s     0.18s
timer: Make fock matrix res     0.00s     0.00s

              kinetic     289.30697807
         nonlocal psp       0.00000000
   nuclear attraction    -723.36981562
              coulomb     148.94168324
                  PCM       0.00000000
 exchange-correlation     -20.72649025
    nuclear-repulsion      15.79777027
                total    -290.04987429


Converged!

timer:              Overlap     0.01s     0.01s
timer:      focka eigen sol     0.00s     0.00s
timer:              Overlap     0.01s     0.01s
timer:      fockb eigen sol     0.00s     0.00s
 
alpha eigenvalues
[*] -65.12742435  -5.02946109  -3.47219987  -3.46702826  -3.46702038  -0.49387093  -0.32331331  -0.32331158  -0.19525343

beta eigenvalues
[*] -65.12410406  -5.02543486  -3.46396246  -3.46378914  -3.46376320  -0.47756318  -0.31560463  -0.31560307


 Dipole Moment (a.u.)
 -----------

     x:  1.239238e-02
     y:  3.923038e-05
     z:  1.014368e-07
 Total Dipole Moment:  1.239244e-02 

timer:               dipole     0.00s     0.00s
Orbitals are localized - energies are diagonal Fock matrix elements

Analysis of alpha MO vectors
timer:      Analyze vectors     0.20s     0.20s
timer: Compute eigen gesv a     0.00s     0.00s
  MO   0 : occ=1.00 : energy= -65.12738365 : center=(0.15,0.00,0.00) : radius=0.13
           Si(0)   s( 0) 0.997  
  MO   1 : occ=1.00 : energy=  -5.02939539 : center=(0.15,-0.00,-0.00) : radius=0.63
           Si(0)   s( 1)-1.025    Si(0)   s( 0) 0.270  
  MO   2 : occ=1.00 : energy=  -3.46700724 : center=(0.16,-0.00,0.00) : radius=0.61
           Si(0)  pz( 4) 0.983  
  MO   3 : occ=1.00 : energy=  -3.46717686 : center=(0.16,0.00,0.00) : radius=0.61
           Si(0)  py( 3) 0.968  
  MO   4 : occ=1.00 : energy=  -3.47195856 : center=(0.16,-0.00,-0.00) : radius=0.61
           Si(0)  px( 2) 0.969  
  MO   5 : occ=1.00 : energy=  -0.36533050 : center=(-0.59,0.98,-1.69) : radius=1.94
            H(2)   s(16)-0.335     H(2)   s(15)-0.326    Si(0)  pz( 8) 0.287    Si(0)   s( 5)-0.259    Si(0)  py( 7)-0.166    Si(0)  px( 6) 0.154  
  MO   6 : occ=1.00 : energy=  -0.36533110 : center=(-0.59,0.98,1.69) : radius=1.94
            H(3)   s(18) 0.335     H(3)   s(17) 0.326    Si(0)  pz( 8) 0.287    Si(0)   s( 5) 0.259    Si(0)  py( 7) 0.166    Si(0)  px( 6)-0.154  
  MO   7 : occ=1.00 : energy=  -0.36532562 : center=(-0.59,-1.95,0.00) : radius=1.94
            H(1)   s(14)-0.335    Si(0)  py( 7) 0.332     H(1)   s(13)-0.326    Si(0)   s( 5)-0.259    Si(0)  px( 6) 0.154    Si(0)  py( 3)-0.140  
  MO   8 : occ=1.00 : energy=  -0.23997416 : center=(1.44,-0.00,-0.00) : radius=2.47
           Si(0)  px( 6)-0.499    Si(0)   s( 5)-0.452    Si(0)  px(10)-0.368    Si(0)   s( 9)-0.307    Si(0)   s( 1) 0.192    Si(0)  px( 2) 0.186  
Analysis of beta MO vectors
timer:      Analyze vectors     0.17s     0.17s
timer: Compute eigen gesv a     0.00s     0.00s
  MO   0 : occ=1.00 : energy= -65.12406492 : center=(0.15,-0.00,0.00) : radius=0.13
           Si(0)   s( 0) 0.996  
  MO   1 : occ=1.00 : energy=  -5.02541558 : center=(0.15,-0.00,-0.00) : radius=0.63
           Si(0)   s( 1)-1.025    Si(0)   s( 0) 0.270  
  MO   2 : occ=1.00 : energy=  -3.46375815 : center=(0.15,0.00,-0.00) : radius=0.61
           Si(0)  pz( 4) 0.687    Si(0)  py( 3)-0.682    Si(0)  px( 2)-0.208  
  MO   3 : occ=1.00 : energy=  -3.46378448 : center=(0.15,0.00,0.00) : radius=0.61
           Si(0)  pz( 4) 0.712    Si(0)  py( 3) 0.642    Si(0)  px( 2) 0.247  
  MO   4 : occ=1.00 : energy=  -3.46394824 : center=(0.16,-0.00,-0.00) : radius=0.61
           Si(0)  px( 2) 0.936    Si(0)  py( 3)-0.321  
  MO   5 : occ=1.00 : energy=  -0.36961839 : center=(-0.41,1.00,-1.73) : radius=1.90
            H(2)   s(16)-0.336    Si(0)   s( 5)-0.327     H(2)   s(15)-0.323    Si(0)  pz( 8) 0.275    Si(0)   s( 1) 0.159    Si(0)  py( 7)-0.159  
  MO   6 : occ=1.00 : energy=  -0.36961879 : center=(-0.41,1.00,1.73) : radius=1.90
            H(3)   s(18) 0.336    Si(0)   s( 5) 0.327     H(3)   s(17) 0.323    Si(0)  pz( 8) 0.275    Si(0)   s( 1)-0.159    Si(0)  py( 7) 0.159  
  MO   7 : occ=1.00 : energy=  -0.36961569 : center=(-0.41,-2.00,-0.00) : radius=1.90
            H(1)   s(14)-0.336    Si(0)   s( 5)-0.327     H(1)   s(13)-0.323    Si(0)  py( 7) 0.318    Si(0)   s( 1) 0.159  

Solving NDIM= 3  with thresh 1.000000e-06     k 8    conv 1.000000e-04 

timer:     Project vnuclear     0.24s     0.24s
timer:     project ao basis     0.25s     0.25s

Iteration 0 at time 31.7s

warning: boys localization did not fully converge:  631
timer:        Boys localize     0.14s     0.14s
timer:      Rotate subspace     0.03s     0.03s
timer:        Boys localize     0.12s     0.12s
timer:      Rotate subspace     0.02s     0.02s
timer:       Make densities     0.03s     0.03s
timer:       Load balancing     0.00s     0.00s
timer:       Nuclear energy     0.02s     0.02s
timer:              Coulomb     0.28s     0.28s
timer:        DFT potential     0.11s     0.11s
timer:                V*psi     0.16s     0.16s
timer:        Truncate Vpsi     0.19s     0.19s
timer:        DFT potential     0.09s     0.09s
timer:                V*psi     0.09s     0.09s
timer:        Truncate Vpsi     0.15s     0.15s
timer:            PE matrix     0.01s     0.01s
timer:    KEmat reconstruct     0.00s     0.00s
timer:  KEmat differentiate     0.15s     0.15s
timer:       KEmat compress     0.02s     0.02s
timer: KEmat inner products     0.02s     0.02s
timer:            KE matrix     0.20s     0.20s
timer: Make fock matrix res     0.00s     0.00s
timer:            PE matrix     0.01s     0.01s
timer:    KEmat reconstruct     0.00s     0.00s
timer:  KEmat differentiate     0.13s     0.13s
timer:       KEmat compress     0.02s     0.02s
timer: KEmat inner products     0.02s     0.02s
timer:            KE matrix     0.18s     0.18s
timer: Make fock matrix res     0.00s     0.00s

              kinetic     289.30733059
         nonlocal psp       0.00000000
   nuclear attraction    -723.36981901
              coulomb     148.94159801
                  PCM       0.00000000
 exchange-correlation     -20.72649015
    nuclear-repulsion      15.79777027
                total    -290.04961030

timer: Compute residual stu     0.06s     0.06s
entering apply
timer:            Apply BSH     2.68s     2.68s
timer:     Truncate new psi     0.17s     0.17s
residuals [1.749324e-04, 1.948659e-04, 2.060392e-04, 2.081874e-04, 2.374496e-04, 3.177937e-04, 3.175692e-04, 3.322310e-04, 3.592931e-04]
BSH residual: rms 2.691680e-04    max 3.592931e-04
timer:         BSH residual     0.05s     0.05s
timer: Compute residual stu     0.07s     0.07s
entering apply
timer:            Apply BSH     2.40s     2.40s
timer:     Truncate new psi     0.15s     0.15s
residuals [1.750720e-04, 1.974569e-04, 2.124671e-04, 2.095852e-04, 2.446211e-04, 3.211881e-04, 3.209824e-04, 3.275393e-04]
BSH residual: rms 2.578809e-04    max 3.275393e-04
timer:         BSH residual     0.05s     0.05s
timer: Update subspace stuf     0.04s     0.04s
Subspace solution [*]   1.00000000

timer:   Subspace transform     0.01s     0.01s
Norm of vector changes alpha : rms 2.691680e-04    max 3.592931e-04
ORTHOG2a: maxq trantol 5.160753e-05 1.111111e-08
timer:       Orthonormalize     0.08s     0.08s
Norm of vector changes beta : rms 2.578809e-04    max 3.275393e-04
ORTHOG2a: maxq trantol 3.608143e-05 1.250000e-08
timer:       Orthonormalize     0.07s     0.07s

Iteration 1 at time 39.8s

warning: boys localization did not fully converge:  608
timer:        Boys localize     0.21s     0.21s
timer:      Rotate subspace     0.05s     0.05s
timer:        Boys localize     0.20s     0.20s
timer:      Rotate subspace     0.05s     0.05s
timer:       Make densities     0.06s     0.06s
timer:       Load balancing     0.00s     0.00s
delta rho 6.407744e-04 6.751852e-04 residuals 3.592931e-04 0.000000e+00
timer:       Nuclear energy     0.02s     0.02s
timer:              Coulomb     0.43s     0.43s
timer:        DFT potential     0.23s     0.23s
timer:                V*psi     0.11s     0.11s
timer:        Truncate Vpsi     0.11s     0.11s
timer:        DFT potential     0.17s     0.17s
timer:                V*psi     0.10s     0.10s
timer:        Truncate Vpsi     0.10s     0.10s
timer:            PE matrix     0.02s     0.02s
timer:    KEmat reconstruct     0.01s     0.01s
timer:  KEmat differentiate     0.24s     0.24s
timer:       KEmat compress     0.04s     0.04s
timer: KEmat inner products     0.03s     0.03s
timer:            KE matrix     0.33s     0.33s
timer: Make fock matrix res     0.00s     0.00s
timer:            PE matrix     0.02s     0.02s
timer:    KEmat reconstruct     0.01s     0.01s
timer:  KEmat differentiate     0.22s     0.22s
timer:       KEmat compress     0.04s     0.04s
timer: KEmat inner products     0.03s     0.03s
timer:            KE matrix     0.30s     0.30s
timer: Make fock matrix res     0.00s     0.00s

              kinetic     289.32129279
         nonlocal psp       0.00000000
   nuclear attraction    -723.38676658
              coulomb     148.94386358
                  PCM       0.00000000
 exchange-correlation     -20.72687244
    nuclear-repulsion      15.79777027
                total    -290.05071238

timer: Compute residual stu     0.07s     0.07s
entering apply
timer:            Apply BSH     3.21s     3.21s
timer:     Truncate new psi     0.19s     0.19s
residuals [1.784166e-05, 1.807862e-05, 1.332155e-05, 1.346476e-05, 1.245221e-05, 6.391743e-05, 6.405458e-05, 6.369174e-05, 1.210330e-04]
BSH residual: rms 5.583012e-05    max 1.210330e-04
timer:         BSH residual     0.05s     0.05s
timer: Compute residual stu     0.09s     0.09s
entering apply
timer:            Apply BSH     2.79s     2.79s
timer:     Truncate new psi     0.16s     0.16s
residuals [1.766232e-05, 1.987941e-05, 1.311150e-05, 1.302778e-05, 1.377668e-05, 5.809167e-05, 5.799018e-05, 5.850422e-05]
BSH residual: rms 3.774723e-05    max 5.850422e-05
timer:         BSH residual     0.05s     0.05s
timer: Update subspace stuf     0.13s     0.13s
Subspace solution [*]   0.11370242   0.88629758

timer:   Subspace transform     0.01s     0.01s
Norm of vector changes alpha : rms 6.509743e-05    max 1.032995e-04
ORTHOG2a: maxq trantol 1.296003e-05 1.111111e-08
timer:       Orthonormalize     0.07s     0.07s
Norm of vector changes beta : rms 2.940060e-03    max 5.810789e-03
ORTHOG2a: maxq trantol 6.027326e-05 1.250000e-08
timer:       Orthonormalize     0.07s     0.07s

Iteration 2 at time 49.8s

warning: boys localization did not fully converge:  606
timer:        Boys localize     0.20s     0.20s
timer:      Rotate subspace     0.04s     0.04s
timer:        Boys localize     0.18s     0.18s
timer:      Rotate subspace     0.04s     0.04s
timer:       Make densities     0.05s     0.05s
delta rho 1.383741e-04 1.369721e-04 residuals 1.210330e-04 0.000000e+00
timer:       Nuclear energy     0.02s     0.02s
timer:              Coulomb     0.35s     0.35s
timer:        DFT potential     0.20s     0.20s
timer:                V*psi     0.11s     0.11s
timer:        Truncate Vpsi     0.11s     0.11s
timer:        DFT potential     0.15s     0.15s
timer:                V*psi     0.10s     0.10s
timer:        Truncate Vpsi     0.10s     0.10s
timer:            PE matrix     0.02s     0.02s
timer:    KEmat reconstruct     0.01s     0.01s
timer:  KEmat differentiate     0.22s     0.22s
timer:       KEmat compress     0.04s     0.04s
timer: KEmat inner products     0.03s     0.03s
timer:            KE matrix     0.29s     0.29s
timer: Make fock matrix res     0.00s     0.00s
timer:            PE matrix     0.02s     0.02s
timer:    KEmat reconstruct     0.01s     0.01s
timer:  KEmat differentiate     0.22s     0.22s
timer:       KEmat compress     0.03s     0.03s
timer: KEmat inner products     0.03s     0.03s
timer:            KE matrix     0.29s     0.29s
timer: Make fock matrix res     0.00s     0.00s

              kinetic     289.32515265
         nonlocal psp       0.00000000
   nuclear attraction    -723.39171086
              coulomb     148.94508559
                  PCM       0.00000000
 exchange-correlation     -20.72701123
    nuclear-repulsion      15.79777027
                total    -290.05071358


Converged!

timer:              Overlap     0.02s     0.02s
timer:      focka eigen sol     0.00s     0.00s
timer:              Overlap     0.01s     0.01s
timer:      fockb eigen sol     0.00s     0.00s
 
alpha eigenvalues
[*] -65.12663238  -5.02937079  -3.47203765  -3.46684541  -3.46684480  -0.49397273  -0.32334888  -0.32334740  -0.19528267

beta eigenvalues
[*] -65.12330913  -5.02534329  -3.46382157  -3.46360692  -3.46360652  -0.47766446  -0.31563963  -0.31563845


 Dipole Moment (a.u.)
 -----------

     x:  1.242819e-02
     y:  2.163474e-05
     z:  6.150194e-07
 Total Dipole Moment:  1.242820e-02 

timer:               dipole     0.00s     0.00s
Orbitals are localized - energies are diagonal Fock matrix elements

Analysis of alpha MO vectors
timer:      Analyze vectors     0.32s     0.32s
timer: Compute eigen gesv a     0.00s     0.00s
  MO   0 : occ=1.00 : energy= -65.12659171 : center=(0.15,0.00,0.00) : radius=0.13
           Si(0)   s( 0) 0.997  
  MO   1 : occ=1.00 : energy=  -5.02930451 : center=(0.15,-0.00,-0.00) : radius=0.63
           Si(0)   s( 1)-1.025    Si(0)   s( 0) 0.270  
  MO   2 : occ=1.00 : energy=  -3.46682385 : center=(0.16,-0.00,0.00) : radius=0.61
           Si(0)  pz( 4) 0.983  
  MO   3 : occ=1.00 : energy=  -3.46700108 : center=(0.16,0.00,0.00) : radius=0.61
           Si(0)  py( 3) 0.968  
  MO   4 : occ=1.00 : energy=  -3.47179644 : center=(0.16,-0.00,-0.00) : radius=0.61
           Si(0)  px( 2) 0.969  
  MO   5 : occ=1.00 : energy=  -0.36537826 : center=(-0.59,0.98,-1.69) : radius=1.94
            H(2)   s(16)-0.335     H(2)   s(15)-0.325    Si(0)  pz( 8) 0.287    Si(0)   s( 5)-0.259    Si(0)  py( 7)-0.166    Si(0)  px( 6) 0.154  
  MO   6 : occ=1.00 : energy=  -0.36537846 : center=(-0.59,0.98,1.69) : radius=1.94
            H(3)   s(18) 0.335     H(3)   s(17) 0.325    Si(0)  pz( 8) 0.287    Si(0)   s( 5) 0.259    Si(0)  py( 7) 0.166    Si(0)  px( 6)-0.154  
  MO   7 : occ=1.00 : energy=  -0.36537525 : center=(-0.59,-1.95,0.00) : radius=1.94
            H(1)   s(14)-0.335    Si(0)  py( 7) 0.332     H(1)   s(13)-0.325    Si(0)   s( 5)-0.259    Si(0)  px( 6) 0.154    Si(0)  py( 3)-0.140  
  MO   8 : occ=1.00 : energy=  -0.24003312 : center=(1.44,-0.00,-0.00) : radius=2.47
           Si(0)  px( 6)-0.499    Si(0)   s( 5)-0.452    Si(0)  px(10)-0.368    Si(0)   s( 9)-0.307    Si(0)   s( 1) 0.192    Si(0)  px( 2) 0.186  
Analysis of beta MO vectors
timer:      Analyze vectors     0.27s     0.27s
timer: Compute eigen gesv a     0.00s     0.00s
  MO   0 : occ=1.00 : energy= -65.12327004 : center=(0.15,-0.00,0.00) : radius=0.13
           Si(0)   s( 0) 0.997  
  MO   1 : occ=1.00 : energy=  -5.02532356 : center=(0.15,-0.00,-0.00) : radius=0.63
           Si(0)   s( 1)-1.025    Si(0)   s( 0) 0.270  
  MO   2 : occ=1.00 : energy=  -3.46360611 : center=(0.15,0.00,-0.00) : radius=0.61
           Si(0)  pz( 4) 0.695    Si(0)  py( 3)-0.658    Si(0)  px( 2)-0.255  
  MO   3 : occ=1.00 : energy=  -3.46360909 : center=(0.15,0.00,0.00) : radius=0.61
           Si(0)  pz( 4) 0.705    Si(0)  py( 3) 0.636    Si(0)  px( 2) 0.281  
  MO   4 : occ=1.00 : energy=  -3.46379575 : center=(0.16,-0.00,-0.00) : radius=0.61
           Si(0)  px( 2) 0.915    Si(0)  py( 3)-0.378  
  MO   5 : occ=1.00 : energy=  -0.36967531 : center=(-0.41,1.00,-1.73) : radius=1.90
            H(2)   s(16)-0.336    Si(0)   s( 5)-0.327     H(2)   s(15)-0.323    Si(0)  pz( 8) 0.275    Si(0)   s( 1) 0.159    Si(0)  py( 7)-0.159  
  MO   6 : occ=1.00 : energy=  -0.36967542 : center=(-0.41,1.00,1.73) : radius=1.90
            H(3)   s(18) 0.336    Si(0)   s( 5) 0.327     H(3)   s(17) 0.323    Si(0)  pz( 8) 0.275    Si(0)   s( 1)-0.159    Si(0)  py( 7) 0.159  
  MO   7 : occ=1.00 : energy=  -0.36967469 : center=(-0.41,-2.00,-0.00) : radius=1.90
            H(1)   s(14)-0.336    Si(0)   s( 5)-0.327     H(1)   s(13)-0.323    Si(0)  py( 7) 0.318    Si(0)   s( 1) 0.159  
timer:             plotting     0.00s     0.00s

    Parallel environment
    --------------------
                  #nodes    1
       #threads per node    27+main = 28
          #total threads    28

  RMI message statistics (min / avg / max)
  ----------------------
   #messages in server q    0.00e+00 / 0.00e+00 / 0.00e+00
 #messages sent per node    0.00e+00 / 0.00e+00 / 0.00e+00
    #bytes sent per node    0.00e+00 / 0.00e+00 / 0.00e+00
 #messages recv per node    0.00e+00 / 0.00e+00 / 0.00e+00
    #bytes recv per node    0.00e+00 / 0.00e+00 / 0.00e+00
        #msgs systemwide    0.00e+00
       #bytes systemwide    0.00e+00

  Thread pool statistics (min / avg / max)
  ----------------------
         #tasks per node    0.00e+00 / 0.00e+00 / 0.00e+00
     #max q len per node    0.00e+00 / 0.00e+00 / 0.00e+00
  #hi-pri tasks per node    0.00e+00 / 0.00e+00 / 0.00e+00

         Total wall time    53.4s
         Total  cpu time    53.4s

