MADNESS runtime initialized with 27 threads in the pool and affinity -1 -1 -1

--------------------------------------------
   MADNESS 0.10.1 multiresolution suite
--------------------------------------------

   number of processors ... 1
    processor frequency ... 1.995369e+09
            host system ... linux-gnu
          configured by ... egentles
          configured on ... sn093
          configured at ... Tue Jul 11 16:06:48 EDT 2017
                    CXX ... mpicxx
               CXXFLAGS ... -g -std=c++14 -O3 -Wall -Wno-strict-aliasing -Wno-deprecated -Wno-unused-local-typedefs  -ffast-math -march=native
             tuning for ... default
                    MPI ... multiple
 multi-threaded runtime ... Intel TBB
                   BLAS ... Intel MKL 11223 11223 MFLOP/s
               compiled ... 08:44:05  on  Jul 29 2017
input filename:  /gpfs/home/egentles/auto_test_mad/geometries_LDA_boys/spiropentane.mdns

Angstrom being used to read input coordinates (1 Bohr = 1.88972613 Angstrom)

XY degenerate

 The point group is C2

Construct XC Functional from LIBXC Library

input line was:  LDA
 1.000 lda_x 
 1.000 lda_c_vwn 

screening parameters
 rhotol, rhomin 1.000000e-07 0.000000e+00
         ggatol 1.000000e-04
polarized  false 


Solving NDIM= 3  with thresh 1.000000e-05     k 8    conv 1.000000e-04 




 MADNESS Hartree-Fock and Density Functional Theory Program
 ----------------------------------------------------------



 geometry
   eprec 1.0e-04
   units atomic
   C             0.00000000           0.00000000           0.00000000
   C             1.40068007           0.35215402           2.38953980
   C            -1.40068007          -0.35215402           2.38953980
   C            -0.35215402           1.40068007          -2.38953980
   C             0.35215402          -1.40068007          -2.38953980
   H             2.72575268          -1.09459701           2.95415784
   H             1.88397151           2.25355754           2.95415784
   H            -2.72575268           1.09459701           2.95415784
   H            -1.88397151          -2.25355754           2.95415784
   H            -2.25355754           1.88397151          -2.95415784
   H             1.09459701           2.72575268          -2.95415784
   H             2.25355754          -1.88397151          -2.95415784
   H            -1.09459701          -2.72575268          -2.95415784
 end


             restart  false
    restart from AOs  false
 number of processes  1
   no. of io servers  1
   vnuc load bal fac  12
      load bal parts  2
     simulation cube  -5.295416e+01 5.295416e+01
        total charge  0.000000e+00
            smearing  0.000000e+00
 number of electrons  19 19
  number of orbitals  19 19
     spin restricted  true
       xc functional   LDA
          xc library  libxc
 initial guess basis  6-31g
 max krylov subspace  5
    compute protocol  [1.000000e-04, 1.000000e-06]
  energy convergence  1.000000e-05
 density convergence  1.000000e-04
    maximum rotation  2.500000e-01
    polynomial order  -1
       truncate mode  1
  maximum iterations  20
 Convergence criteria are density delta & BSH residual.
        plot density  false
        plot coulomb  false
        plot orbital  0 -1
        plot npoints  101
        plot  volume  default
  localized orbitals  boys
 psp or all electron  all electron
timer:           initialize     1.13s     1.13s

Solving NDIM= 3  with thresh 1.000000e-04     k 6    conv 1.000000e-04 


Solving NDIM= 3  with thresh 1.000000e-04     k 6    conv 1.000000e-04 

timer:     Project vnuclear     0.69s     0.69s
timer:     project ao basis     0.46s     0.46s
guess dens trace 3.800011e+01
timer:        guess density     0.57s     0.57s
timer:   guess Coulomb potn     0.37s     0.37s
timer:       guess lda potn     0.21s     0.21s
timer:        guess overlap     0.02s     0.02s
timer:    KEmat reconstruct     0.02s     0.02s
timer:  KEmat differentiate     0.67s     0.67s
timer:       KEmat compress     0.10s     0.10s
timer: KEmat inner products     0.07s     0.07s
timer:     guess Kinet potn     0.87s     0.87s
timer:           guess fock     2.88s     2.88s
timer:      guess eigen sol     0.00s     0.00s
grouping alpha orbitals into sets
set  0    0  -  4
set  1    5  -  18
timer: guess orbital groupi     0.07s     0.07s
timer:     project ao basis     0.42s     0.42s

Iteration 0 at time 8.1s

timer:        Boys localize     0.30s     0.30s
timer:      Rotate subspace     0.14s     0.14s
timer:       Make densities     0.03s     0.03s
timer:       Load balancing     0.00s     0.00s
timer:       Nuclear energy     0.01s     0.01s
timer:              Coulomb     0.10s     0.10s
timer:        DFT potential     0.10s     0.10s
timer:                V*psi     0.26s     0.26s
timer:        Truncate Vpsi     0.33s     0.33s
timer:            PE matrix     0.02s     0.02s
timer:    KEmat reconstruct     0.01s     0.01s
timer:  KEmat differentiate     0.38s     0.38s
timer:       KEmat compress     0.04s     0.04s
timer: KEmat inner products     0.03s     0.03s
timer:            KE matrix     0.46s     0.46s
timer: Make fock matrix res     0.00s     0.00s

              kinetic     196.88755893
         nonlocal psp       0.00000000
   nuclear attraction    -802.06593164
              coulomb     269.85899008
                  PCM       0.00000000
 exchange-correlation     -28.82665525
    nuclear-repulsion     170.94145693
                total    -193.20458094

timer: Compute residual stu     0.10s     0.10s
entering apply
timer:            Apply BSH     0.99s     0.99s
timer:     Truncate new psi     0.12s     0.12s
residuals [9.864370e-03, 9.865765e-03, 9.864387e-03, 9.865185e-03, 9.312481e-03, 8.982946e-02, 8.983129e-02, 1.228991e-01, 1.229096e-01, 1.229469e-01, 1.229514e-01, 1.228997e-01, 1.229103e-01, 1.229437e-01, 1.145633e-01, 1.229472e-01, 8.983146e-02, 8.983241e-02, 1.145561e-01]
BSH residual: rms 9.730277e-02    max 1.229514e-01
timer:         BSH residual     0.07s     0.07s
timer: Update subspace stuf     0.07s     0.07s
Subspace solution [*]   1.00000000

timer:   Subspace transform     0.01s     0.01s
Norm of vector changes alpha : rms 9.730277e-02    max 1.229514e-01
ORTHOG2a: maxq trantol 9.684970e-03 5.263158e-07
timer:       Orthonormalize     0.12s     0.12s

Iteration 1 at time 11.7s

timer:        Boys localize     0.26s     0.26s
timer:      Rotate subspace     0.12s     0.12s
timer:       Make densities     0.04s     0.04s
timer:       Load balancing     0.00s     0.00s
delta rho 1.302271e-01 1.302271e-01 residuals 1.229514e-01 0.000000e+00
timer:       Nuclear energy     0.01s     0.01s
timer:              Coulomb     0.13s     0.13s
timer:        DFT potential     0.10s     0.10s
timer:                V*psi     0.28s     0.28s
timer:        Truncate Vpsi     0.36s     0.36s
timer:            PE matrix     0.02s     0.02s
timer:    KEmat reconstruct     0.01s     0.01s
timer:  KEmat differentiate     0.35s     0.35s
timer:       KEmat compress     0.04s     0.04s
timer: KEmat inner products     0.03s     0.03s
timer:            KE matrix     0.44s     0.44s
timer: Make fock matrix res     0.00s     0.00s

              kinetic     191.15433207
         nonlocal psp       0.00000000
   nuclear attraction    -788.35061026
              coulomb     260.75841337
                  PCM       0.00000000
 exchange-correlation     -27.98136354
    nuclear-repulsion     170.94145693
                total    -193.47777144

timer: Compute residual stu     0.08s     0.08s
entering apply
timer:            Apply BSH     1.01s     1.01s
timer:     Truncate new psi     0.12s     0.12s
residuals [9.744827e-04, 9.744096e-04, 9.746126e-04, 9.821615e-04, 1.218215e-03, 3.538303e-02, 3.538160e-02, 4.321297e-02, 4.321579e-02, 4.321883e-02, 4.322456e-02, 4.321248e-02, 4.321733e-02, 4.321777e-02, 4.341141e-02, 4.322385e-02, 3.538380e-02, 3.538158e-02, 4.340632e-02]
BSH residual: rms 3.533596e-02    max 4.341141e-02
timer:         BSH residual     0.07s     0.07s
timer: Update subspace stuf     0.13s     0.13s
Subspace solution [*]   0.24059798   0.75940202

timer:   Subspace transform     0.02s     0.02s
Norm of vector changes alpha : rms 2.562384e-02    max 3.214536e-02
ORTHOG2a: maxq trantol 1.873994e-03 5.263158e-07
timer:       Orthonormalize     0.10s     0.10s

Iteration 2 at time 15.5s

timer:        Boys localize     0.28s     0.28s
timer:      Rotate subspace     0.12s     0.12s
timer:       Make densities     0.04s     0.04s
delta rho 2.957626e-02 2.957626e-02 residuals 4.341141e-02 0.000000e+00
timer:       Nuclear energy     0.01s     0.01s
timer:              Coulomb     0.13s     0.13s
timer:        DFT potential     0.10s     0.10s
timer:                V*psi     0.26s     0.26s
timer:        Truncate Vpsi     0.34s     0.34s
timer:            PE matrix     0.02s     0.02s
timer:    KEmat reconstruct     0.01s     0.01s
timer:  KEmat differentiate     0.34s     0.34s
timer:       KEmat compress     0.04s     0.04s
timer: KEmat inner products     0.03s     0.03s
timer:            KE matrix     0.43s     0.43s
timer: Make fock matrix res     0.00s     0.00s

              kinetic     192.13409881
         nonlocal psp       0.00000000
   nuclear attraction    -791.67515095
              coulomb     263.27330944
                  PCM       0.00000000
 exchange-correlation     -28.19353745
    nuclear-repulsion     170.94145693
                total    -193.51982321

timer: Compute residual stu     0.08s     0.08s
entering apply
timer:            Apply BSH     1.04s     1.04s
timer:     Truncate new psi     0.12s     0.12s
residuals [6.155921e-04, 6.147502e-04, 6.156444e-04, 6.066215e-04, 7.116600e-04, 6.646112e-03, 6.645954e-03, 5.836559e-03, 5.836572e-03, 5.839257e-03, 5.840007e-03, 5.836850e-03, 5.836802e-03, 5.839445e-03, 6.499574e-03, 5.840222e-03, 6.646388e-03, 6.646068e-03, 6.499277e-03]
BSH residual: rms 5.310653e-03    max 6.646388e-03
timer:         BSH residual     0.07s     0.07s
timer: Update subspace stuf     0.18s     0.18s
Subspace solution [*]  -0.07057613  -0.25742278   1.32799891

timer:   Subspace transform     0.03s     0.03s
Norm of vector changes alpha : rms 6.859985e-03    max 8.640604e-03
ORTHOG2a: maxq trantol 8.930339e-04 5.263158e-07
timer:       Orthonormalize     0.10s     0.10s

Iteration 3 at time 19.3s

timer:        Boys localize     0.26s     0.26s
timer:      Rotate subspace     0.11s     0.11s
timer:       Make densities     0.04s     0.04s
delta rho 9.191368e-03 9.191368e-03 residuals 6.646388e-03 0.000000e+00
timer:       Nuclear energy     0.01s     0.01s
timer:              Coulomb     0.14s     0.14s
timer:        DFT potential     0.09s     0.09s
timer:                V*psi     0.27s     0.27s
timer:        Truncate Vpsi     0.34s     0.34s
timer:            PE matrix     0.02s     0.02s
timer:    KEmat reconstruct     0.01s     0.01s
timer:  KEmat differentiate     0.34s     0.34s
timer:       KEmat compress     0.04s     0.04s
timer: KEmat inner products     0.03s     0.03s
timer:            KE matrix     0.43s     0.43s
timer: Make fock matrix res     0.00s     0.00s

              kinetic     192.09924339
         nonlocal psp       0.00000000
   nuclear attraction    -791.76530716
              coulomb     263.41044702
                  PCM       0.00000000
 exchange-correlation     -28.21024673
    nuclear-repulsion     170.94145693
                total    -193.52440654

timer: Compute residual stu     0.11s     0.11s
entering apply
timer:            Apply BSH     1.01s     1.01s
timer:     Truncate new psi     0.12s     0.12s
residuals [1.305572e-04, 1.297647e-04, 1.313051e-04, 1.296247e-04, 1.187882e-04, 2.800595e-03, 2.800669e-03, 2.241074e-03, 2.241294e-03, 2.240297e-03, 2.240293e-03, 2.241360e-03, 2.241230e-03, 2.240459e-03, 2.143424e-03, 2.240364e-03, 2.800526e-03, 2.800562e-03, 2.142765e-03]
BSH residual: rms 2.062322e-03    max 2.800669e-03
timer:         BSH residual     0.07s     0.07s
timer: Update subspace stuf     0.25s     0.25s
Subspace solution [*]  -0.01928234  -0.01384335  -0.13865243   1.17177812

timer:   Subspace transform     0.04s     0.04s
Norm of vector changes alpha : rms 2.525031e-03    max 3.580957e-03
ORTHOG2a: maxq trantol 2.624639e-04 5.263158e-07
timer:       Orthonormalize     0.10s     0.10s

Iteration 4 at time 23.2s

timer:        Boys localize     0.27s     0.27s
timer:      Rotate subspace     0.11s     0.11s
timer:       Make densities     0.04s     0.04s
delta rho 2.795918e-03 2.795918e-03 residuals 2.800669e-03 0.000000e+00
timer:       Nuclear energy     0.01s     0.01s
timer:              Coulomb     0.14s     0.14s
timer:        DFT potential     0.10s     0.10s
timer:                V*psi     0.27s     0.27s
timer:        Truncate Vpsi     0.34s     0.34s
timer:            PE matrix     0.02s     0.02s
timer:    KEmat reconstruct     0.01s     0.01s
timer:  KEmat differentiate     0.37s     0.37s
timer:       KEmat compress     0.04s     0.04s
timer: KEmat inner products     0.03s     0.03s
timer:            KE matrix     0.46s     0.46s
timer: Make fock matrix res     0.00s     0.00s

              kinetic     192.04718063
         nonlocal psp       0.00000000
   nuclear attraction    -791.63232249
              coulomb     263.32325478
                  PCM       0.00000000
 exchange-correlation     -28.20453388
    nuclear-repulsion     170.94145693
                total    -193.52496402

timer: Compute residual stu     0.08s     0.08s
entering apply
timer:            Apply BSH     1.01s     1.01s
timer:     Truncate new psi     0.12s     0.12s
residuals [9.305870e-05, 9.262081e-05, 9.412215e-05, 9.320694e-05, 5.777446e-05, 1.717267e-03, 1.717107e-03, 9.782787e-04, 9.781373e-04, 9.874279e-04, 9.872436e-04, 9.781449e-04, 9.782000e-04, 9.873545e-04, 1.195213e-03, 9.873011e-04, 1.717127e-03, 1.716971e-03, 1.195181e-03]
BSH residual: rms 1.086176e-03    max 1.717267e-03
timer:         BSH residual     0.07s     0.07s
timer: Update subspace stuf     0.30s     0.30s
Subspace solution [*]   0.01449357   0.05501670  -0.24106637  -0.16578510   1.33734120

timer:   Subspace transform     0.04s     0.04s
Norm of vector changes alpha : rms 1.697690e-03    max 2.572033e-03
ORTHOG2a: maxq trantol 1.189547e-04 5.263158e-07
timer:       Orthonormalize     0.10s     0.10s

Iteration 5 at time 27.2s

timer:        Boys localize     0.27s     0.27s
timer:      Rotate subspace     0.11s     0.11s
timer:       Make densities     0.04s     0.04s
delta rho 1.341852e-03 1.341852e-03 residuals 1.717267e-03 0.000000e+00
timer:       Nuclear energy     0.01s     0.01s
timer:              Coulomb     0.14s     0.14s
timer:        DFT potential     0.10s     0.10s
timer:                V*psi     0.27s     0.27s
timer:        Truncate Vpsi     0.35s     0.35s
timer:            PE matrix     0.02s     0.02s
timer:    KEmat reconstruct     0.01s     0.01s
timer:  KEmat differentiate     0.35s     0.35s
timer:       KEmat compress     0.04s     0.04s
timer: KEmat inner products     0.03s     0.03s
timer:            KE matrix     0.44s     0.44s
timer: Make fock matrix res     0.00s     0.00s

              kinetic     192.03631715
         nonlocal psp       0.00000000
   nuclear attraction    -791.58142763
              coulomb     263.28064378
                  PCM       0.00000000
 exchange-correlation     -28.20216374
    nuclear-repulsion     170.94145693
                total    -193.52517351

timer: Compute residual stu     0.08s     0.08s
entering apply
timer:            Apply BSH     1.02s     1.02s
timer:     Truncate new psi     0.12s     0.12s
residuals [1.721581e-04, 1.727018e-04, 1.726634e-04, 1.727338e-04, 5.339492e-05, 1.111379e-03, 1.111400e-03, 5.508609e-04, 5.507146e-04, 5.545881e-04, 5.545506e-04, 5.507987e-04, 5.507681e-04, 5.546196e-04, 9.631251e-04, 5.545365e-04, 1.111270e-03, 1.111295e-03, 9.629262e-04]
BSH residual: rms 7.019048e-04    max 1.111400e-03
timer:         BSH residual     0.07s     0.07s
timer: Update subspace stuf     0.30s     0.30s
Subspace solution [*]  -0.02766069   0.12711515  -0.34425536  -0.19183761   1.43663851

timer:   Subspace transform     0.03s     0.03s
Norm of vector changes alpha : rms 1.186714e-03    max 1.977964e-03
ORTHOG2a: maxq trantol 9.293147e-05 5.263158e-07
timer:       Orthonormalize     0.10s     0.10s

Iteration 6 at time 31.2s

timer:        Boys localize     0.27s     0.27s
timer:      Rotate subspace     0.11s     0.11s
timer:       Make densities     0.04s     0.04s
delta rho 8.391028e-04 8.391028e-04 residuals 1.111400e-03 0.000000e+00
timer:       Nuclear energy     0.01s     0.01s
timer:              Coulomb     0.13s     0.13s
timer:        DFT potential     0.10s     0.10s
timer:                V*psi     0.27s     0.27s
timer:        Truncate Vpsi     0.35s     0.35s
timer:            PE matrix     0.02s     0.02s
timer:    KEmat reconstruct     0.01s     0.01s
timer:  KEmat differentiate     0.37s     0.37s
timer:       KEmat compress     0.04s     0.04s
timer: KEmat inner products     0.03s     0.03s
timer:            KE matrix     0.46s     0.46s
timer: Make fock matrix res     0.00s     0.00s

              kinetic     192.04987168
         nonlocal psp       0.00000000
   nuclear attraction    -791.60348181
              coulomb     263.29079415
                  PCM       0.00000000
 exchange-correlation     -28.20390312
    nuclear-repulsion     170.94145693
                total    -193.52526215

timer: Compute residual stu     0.08s     0.08s
entering apply
timer:            Apply BSH     1.02s     1.02s
timer:     Truncate new psi     0.12s     0.12s
residuals [1.762356e-04, 1.447060e-04, 1.760890e-04, 1.449341e-04, 5.071796e-05, 6.760186e-04, 6.762182e-04, 3.218937e-04, 3.213684e-04, 3.263735e-04, 3.258338e-04, 3.214452e-04, 3.213126e-04, 3.264251e-04, 5.107406e-04, 3.257264e-04, 6.762453e-04, 6.760799e-04, 5.103596e-04]
BSH residual: rms 4.164620e-04    max 6.762453e-04
timer:         BSH residual     0.07s     0.07s
timer: Update subspace stuf     0.30s     0.30s
Subspace solution [*]   0.02361554   0.04648678  -0.36780029  -0.03106613   1.32876410

timer:   Subspace transform     0.03s     0.03s
Norm of vector changes alpha : rms 7.588887e-04    max 1.332901e-03
ORTHOG2a: maxq trantol 6.752021e-05 5.263158e-07
timer:       Orthonormalize     0.10s     0.10s

Iteration 7 at time 35.2s

timer:        Boys localize     0.28s     0.28s
timer:      Rotate subspace     0.11s     0.11s
timer:       Make densities     0.04s     0.04s
delta rho 5.358159e-04 5.358159e-04 residuals 6.762453e-04 0.000000e+00
timer:       Nuclear energy     0.01s     0.01s
timer:              Coulomb     0.14s     0.14s
timer:        DFT potential     0.10s     0.10s
timer:                V*psi     0.27s     0.27s
timer:        Truncate Vpsi     0.34s     0.34s
timer:            PE matrix     0.02s     0.02s
timer:    KEmat reconstruct     0.01s     0.01s
timer:  KEmat differentiate     0.35s     0.35s
timer:       KEmat compress     0.04s     0.04s
timer: KEmat inner products     0.03s     0.03s
timer:            KE matrix     0.44s     0.44s
timer: Make fock matrix res     0.00s     0.00s

              kinetic     192.05169251
         nonlocal psp       0.00000000
   nuclear attraction    -791.60237900
              coulomb     263.28771445
                  PCM       0.00000000
 exchange-correlation     -28.20375017
    nuclear-repulsion     170.94145693
                total    -193.52526528

timer: Compute residual stu     0.08s     0.08s
entering apply
timer:            Apply BSH     1.01s     1.01s
timer:     Truncate new psi     0.12s     0.12s
residuals [1.054946e-04, 1.052167e-04, 1.063333e-04, 1.055922e-04, 5.482208e-05, 4.026090e-04, 4.025367e-04, 2.148495e-04, 2.147782e-04, 2.354706e-04, 2.356027e-04, 2.147645e-04, 2.148310e-04, 2.353879e-04, 3.528198e-04, 2.355028e-04, 4.024972e-04, 4.025277e-04, 3.527955e-04]
BSH residual: rms 2.666715e-04    max 4.026090e-04
timer:         BSH residual     0.07s     0.07s
timer: Update subspace stuf     0.30s     0.30s
Subspace solution [*]   0.03704135  -0.05722560  -0.18996292   0.18370964   1.02643753

timer:   Subspace transform     0.03s     0.03s
Norm of vector changes alpha : rms 3.495555e-04    max 5.822555e-04
ORTHOG2a: maxq trantol 8.873857e-05 5.263158e-07
timer:       Orthonormalize     0.10s     0.10s

Iteration 8 at time 39.2s

timer:        Boys localize     0.28s     0.28s
timer:      Rotate subspace     0.10s     0.10s
timer:       Make densities     0.04s     0.04s
delta rho 1.766721e-04 1.766721e-04 residuals 4.026090e-04 0.000000e+00
timer:       Nuclear energy     0.01s     0.01s
timer:              Coulomb     0.14s     0.14s
timer:        DFT potential     0.10s     0.10s
timer:                V*psi     0.27s     0.27s
timer:        Truncate Vpsi     0.34s     0.34s
timer:            PE matrix     0.02s     0.02s
timer:    KEmat reconstruct     0.01s     0.01s
timer:  KEmat differentiate     0.36s     0.36s
timer:       KEmat compress     0.05s     0.05s
timer: KEmat inner products     0.03s     0.03s
timer:            KE matrix     0.45s     0.45s
timer: Make fock matrix res     0.00s     0.00s

              kinetic     192.04923439
         nonlocal psp       0.00000000
   nuclear attraction    -791.59552502
              coulomb     263.28286623
                  PCM       0.00000000
 exchange-correlation     -28.20332555
    nuclear-repulsion     170.94145693
                total    -193.52529301


Converged!

timer:              Overlap     0.02s     0.02s
timer:      focka eigen sol     0.00s     0.00s
 
alpha eigenvalues
[*]  -9.79984920  -9.78309730  -9.78304535  -9.78292948  -9.78288224  -0.80539564  -0.72862798  -0.54008130  -0.54008116  -0.48492514  -0.44162855  -0.42692340  -0.42692325  -0.32876291  -0.31538513  -0.31492162  -0.25594806  -0.25594802  -0.24525746


 Dipole Moment (a.u.)
 -----------

     x:  5.674297e-07
     y:  -6.229520e-07
     z:  -1.230925e-06
 Total Dipole Moment:  1.491718e-06 

timer:               dipole     0.00s     0.00s
Orbitals are localized - energies are diagonal Fock matrix elements

Analysis of alpha MO vectors
timer:      Analyze vectors     0.45s     0.45s
timer: Compute eigen gesv a     0.00s     0.00s
  MO   0 : occ=1.00 : energy=  -9.78294087 : center=(0.35,-1.40,-2.39) : radius=0.32
            C( 4)   s( 36) 0.994  
  MO   1 : occ=1.00 : energy=  -9.78294052 : center=(-1.40,-0.35,2.39) : radius=0.32
            C( 2)   s( 18)-0.994  
  MO   2 : occ=1.00 : energy=  -9.78294048 : center=(-0.35,1.40,-2.39) : radius=0.32
            C( 3)   s( 27)-0.994  
  MO   3 : occ=1.00 : energy=  -9.78294062 : center=(1.40,0.35,2.39) : radius=0.32
            C( 1)   s(  9)-0.994  
  MO   4 : occ=1.00 : energy=  -9.79977717 : center=(-0.00,-0.00,0.00) : radius=0.32
            C( 0)   s(  0)-0.995  
  MO   5 : occ=1.00 : energy=  -0.44506514 : center=(0.26,-1.02,-1.00) : radius=1.73
            C( 4)  pz( 40) 0.381     C( 0)  py(  3)-0.310     C( 0)  pz(  4)-0.212     C( 4)  pz( 44) 0.197     C( 0)   s(  1) 0.192     C( 4)   s( 37) 0.175     C( 0)  py(  7)-0.165     C( 0)   s(  5) 0.163     C( 4)   s( 41) 0.152  
  MO   6 : occ=1.00 : energy=  -0.44506494 : center=(-1.02,-0.26,1.00) : radius=1.73
            C( 2)  pz( 22) 0.381     C( 0)  px(  2) 0.310     C( 0)  pz(  4)-0.212     C( 2)  pz( 26) 0.197     C( 0)   s(  1)-0.192     C( 2)   s( 19)-0.175     C( 0)  px(  6) 0.165     C( 0)   s(  5)-0.163     C( 2)   s( 23)-0.152  
  MO   7 : occ=1.00 : energy=  -0.43195763 : center=(2.27,-0.61,2.75) : radius=1.60
            H( 5)   s( 45) 0.307     C( 1)  py( 12)-0.273     C( 1)  px( 11) 0.251     H( 5)   s( 46) 0.228     C( 1)   s( 10) 0.206     C( 1)   s( 14) 0.201  
  MO   8 : occ=1.00 : energy=  -0.43195767 : center=(-0.61,-2.27,-2.75) : radius=1.60
            H(12)   s( 59)-0.307     C( 4)  px( 38) 0.273     C( 4)  py( 39) 0.251     H(12)   s( 60)-0.228     C( 4)   s( 37)-0.206     C( 4)   s( 41)-0.201  
  MO   9 : occ=1.00 : energy=  -0.43195912 : center=(1.71,1.61,2.75) : radius=1.60
            C( 1)  py( 12) 0.359     H( 6)   s( 47) 0.307     H( 6)   s( 48) 0.228     C( 1)   s( 10) 0.206     C( 1)   s( 14) 0.201     C( 1)  py( 16) 0.167  
  MO  10 : occ=1.00 : energy=  -0.43195947 : center=(-1.61,1.71,-2.75) : radius=1.60
            C( 3)  px( 29) 0.359     H( 9)   s( 53)-0.307     H( 9)   s( 54)-0.228     C( 3)   s( 28)-0.206     C( 3)   s( 32)-0.201     C( 3)  px( 33) 0.167  
  MO  11 : occ=1.00 : energy=  -0.43195775 : center=(-2.27,0.61,2.75) : radius=1.60
            H( 7)   s( 49) 0.307     C( 2)  py( 21) 0.273     C( 2)  px( 20)-0.251     H( 7)   s( 50) 0.228     C( 2)   s( 19) 0.206     C( 2)   s( 23) 0.201  
  MO  12 : occ=1.00 : energy=  -0.43195764 : center=(0.61,2.27,-2.75) : radius=1.60
            H(10)   s( 55)-0.307     C( 3)  px( 29)-0.273     C( 3)  py( 30)-0.251     H(10)   s( 56)-0.228     C( 3)   s( 28)-0.206     C( 3)   s( 32)-0.201  
  MO  13 : occ=1.00 : energy=  -0.43195920 : center=(-1.71,-1.61,2.75) : radius=1.60
            C( 2)  py( 21)-0.359     H( 8)   s( 51) 0.307     H( 8)   s( 52) 0.228     C( 2)   s( 19) 0.206     C( 2)   s( 23) 0.201     C( 2)  py( 25)-0.167  
  MO  14 : occ=1.00 : energy=  -0.43757389 : center=(-0.00,0.00,-2.70) : radius=1.78
            C( 3)  py( 30) 0.339     C( 4)  py( 39)-0.339     C( 3)   s( 28)-0.172     C( 4)   s( 37)-0.172     C( 3)  py( 34) 0.169     C( 4)  py( 43)-0.169     C( 4)  pz( 40) 0.152     C( 3)  pz( 31) 0.152     C( 0)   s(  5) 0.148  
  MO  15 : occ=1.00 : energy=  -0.43195949 : center=(1.61,-1.71,-2.75) : radius=1.60
            C( 4)  px( 38) 0.359     H(11)   s( 57) 0.307     H(11)   s( 58) 0.228     C( 4)   s( 37) 0.206     C( 4)   s( 41) 0.201     C( 4)  px( 42) 0.167  
  MO  16 : occ=1.00 : energy=  -0.44506477 : center=(-0.26,1.02,-1.00) : radius=1.73
            C( 3)  pz( 31) 0.381     C( 0)  py(  3) 0.310     C( 0)  pz(  4)-0.212     C( 3)  pz( 35) 0.197     C( 0)   s(  1) 0.192     C( 3)   s( 28) 0.175     C( 0)  py(  7) 0.165     C( 0)   s(  5) 0.163     C( 3)   s( 32) 0.152  
  MO  17 : occ=1.00 : energy=  -0.44506488 : center=(1.02,0.26,1.00) : radius=1.73
            C( 1)  pz( 13) 0.381     C( 0)  px(  2)-0.310     C( 0)  pz(  4)-0.212     C( 1)  pz( 17) 0.197     C( 0)   s(  1)-0.192     C( 1)   s( 10)-0.175     C( 0)  px(  6)-0.165     C( 0)   s(  5)-0.163     C( 1)   s( 14)-0.152  
  MO  18 : occ=1.00 : energy=  -0.43757335 : center=(0.00,0.00,2.70) : radius=1.78
            C( 1)  px( 11)-0.339     C( 2)  px( 20) 0.339     C( 2)   s( 19) 0.172     C( 1)   s( 10) 0.172     C( 1)  px( 15)-0.169     C( 2)  px( 24) 0.169     C( 2)  pz( 22) 0.152     C( 1)  pz( 13) 0.152     C( 0)   s(  5)-0.148  

Solving NDIM= 3  with thresh 1.000000e-06     k 8    conv 1.000000e-04 

timer:     Project vnuclear     1.25s     1.25s
timer:     project ao basis     0.76s     0.76s

Iteration 0 at time 44.3s

timer:        Boys localize     0.27s     0.27s
timer:      Rotate subspace     0.12s     0.12s
timer:       Make densities     0.04s     0.04s
timer:       Load balancing     0.00s     0.00s
timer:       Nuclear energy     0.04s     0.04s
timer:              Coulomb     0.42s     0.42s
timer:        DFT potential     0.12s     0.12s
timer:                V*psi     0.64s     0.64s
timer:        Truncate Vpsi     1.16s     1.16s
timer:            PE matrix     0.03s     0.03s
timer:    KEmat reconstruct     0.01s     0.01s
timer:  KEmat differentiate     0.35s     0.35s
timer:       KEmat compress     0.06s     0.06s
timer: KEmat inner products     0.04s     0.04s
timer:            KE matrix     0.47s     0.47s
timer: Make fock matrix res     0.00s     0.00s

              kinetic     192.05082629
         nonlocal psp       0.00000000
   nuclear attraction    -791.59556211
              coulomb     263.28231177
                  PCM       0.00000000
 exchange-correlation     -28.20332269
    nuclear-repulsion     170.94145693
                total    -193.52428980

timer: Compute residual stu     0.19s     0.19s
entering apply
timer:            Apply BSH     7.38s     7.38s
timer:     Truncate new psi     0.46s     0.46s
residuals [3.084180e-04, 3.074719e-04, 3.083784e-04, 3.074768e-04, 1.820130e-04, 4.616343e-04, 4.615718e-04, 5.005702e-04, 5.005714e-04, 4.770660e-04, 4.771048e-04, 5.005981e-04, 5.005554e-04, 4.770807e-04, 4.489130e-04, 4.771492e-04, 4.615472e-04, 4.616101e-04, 4.488867e-04]
BSH residual: rms 4.341059e-04    max 5.005981e-04
timer:         BSH residual     0.17s     0.17s
timer: Update subspace stuf     0.07s     0.07s
Subspace solution [*]   1.00000000

timer:   Subspace transform     0.03s     0.03s
Norm of vector changes alpha : rms 4.341059e-04    max 5.005981e-04
ORTHOG2a: maxq trantol 1.161532e-04 5.263158e-09
timer:       Orthonormalize     0.24s     0.24s

Iteration 1 at time 56.8s

timer:        Boys localize     0.59s     0.59s
timer:      Rotate subspace     0.25s     0.25s
timer:       Make densities     0.10s     0.10s
timer:       Load balancing     0.00s     0.00s
delta rho 7.393841e-04 7.393841e-04 residuals 5.005981e-04 0.000000e+00
timer:       Nuclear energy     0.04s     0.04s
timer:              Coulomb     0.84s     0.84s
timer:        DFT potential     0.30s     0.30s
timer:                V*psi     0.57s     0.57s
timer:        Truncate Vpsi     0.66s     0.66s
timer:            PE matrix     0.05s     0.05s
timer:    KEmat reconstruct     0.02s     0.02s
timer:  KEmat differentiate     0.84s     0.84s
timer:       KEmat compress     0.13s     0.13s
timer: KEmat inner products     0.07s     0.07s
timer:            KE matrix     1.06s     1.06s
timer: Make fock matrix res     0.00s     0.00s

              kinetic     192.05421996
         nonlocal psp       0.00000000
   nuclear attraction    -791.60622705
              coulomb     263.28483056
                  PCM       0.00000000
 exchange-correlation     -28.20382226
    nuclear-repulsion     170.94145693
                total    -193.52954185

timer: Compute residual stu     0.24s     0.24s
entering apply
timer:            Apply BSH     8.56s     8.56s
timer:     Truncate new psi     0.48s     0.48s
residuals [3.427516e-05, 3.413947e-05, 3.441774e-05, 3.420248e-05, 3.111344e-05, 1.598753e-04, 1.598280e-04, 1.517029e-04, 1.517191e-04, 1.506772e-04, 1.507908e-04, 1.517365e-04, 1.517367e-04, 1.506405e-04, 1.199282e-04, 1.507885e-04, 1.597823e-04, 1.598352e-04, 1.198979e-04]
BSH residual: rms 1.296870e-04    max 1.598753e-04
timer:         BSH residual     0.21s     0.21s
timer: Update subspace stuf     0.23s     0.23s
Subspace solution [*]  -0.04246293   1.04246293

timer:   Subspace transform     0.05s     0.05s
Norm of vector changes alpha : rms 1.374289e-04    max 1.689667e-04
ORTHOG2a: maxq trantol 3.216665e-05 5.263158e-09
timer:       Orthonormalize     0.22s     0.22s

Iteration 2 at time 72.3s

timer:        Boys localize     0.59s     0.59s
timer:      Rotate subspace     0.23s     0.23s
timer:       Make densities     0.10s     0.10s
delta rho 1.473063e-04 1.473063e-04 residuals 1.598753e-04 0.000000e+00
timer:       Nuclear energy     0.04s     0.04s
timer:              Coulomb     0.73s     0.73s
timer:        DFT potential     0.27s     0.27s
timer:                V*psi     0.59s     0.59s
timer:        Truncate Vpsi     0.64s     0.64s
timer:            PE matrix     0.05s     0.05s
timer:    KEmat reconstruct     0.02s     0.02s
timer:  KEmat differentiate     0.81s     0.81s
timer:       KEmat compress     0.14s     0.14s
timer: KEmat inner products     0.07s     0.07s
timer:            KE matrix     1.04s     1.04s
timer: Make fock matrix res     0.00s     0.00s

              kinetic     192.06068005
         nonlocal psp       0.00000000
   nuclear attraction    -791.61821142
              coulomb     263.29108183
                  PCM       0.00000000
 exchange-correlation     -28.20455603
    nuclear-repulsion     170.94145693
                total    -193.52954865


Converged!

timer:              Overlap     0.05s     0.05s
timer:      focka eigen sol     0.00s     0.00s
 
alpha eigenvalues
[*]  -9.79943175  -9.78271347  -9.78271279  -9.78257515  -9.78257502  -0.80552102  -0.72860730  -0.54005313  -0.54005310  -0.48527207  -0.44157490  -0.42689413  -0.42689409  -0.32872834  -0.31543860  -0.31489114  -0.25584655  -0.25584653  -0.24518489


 Dipole Moment (a.u.)
 -----------

     x:  2.800345e-07
     y:  -4.511417e-07
     z:  -9.495507e-07
 Total Dipole Moment:  1.087931e-06 

timer:               dipole     0.00s     0.00s
Orbitals are localized - energies are diagonal Fock matrix elements

Analysis of alpha MO vectors
timer:      Analyze vectors     1.03s     1.03s
timer: Compute eigen gesv a     0.00s     0.00s
  MO   0 : occ=1.00 : energy=  -9.78259713 : center=(0.35,-1.40,-2.39) : radius=0.32
            C( 4)   s( 36) 0.994  
  MO   1 : occ=1.00 : energy=  -9.78259709 : center=(-1.40,-0.35,2.39) : radius=0.32
            C( 2)   s( 18)-0.994  
  MO   2 : occ=1.00 : energy=  -9.78259710 : center=(-0.35,1.40,-2.39) : radius=0.32
            C( 3)   s( 27)-0.994  
  MO   3 : occ=1.00 : energy=  -9.78259725 : center=(1.40,0.35,2.39) : radius=0.32
            C( 1)   s(  9)-0.994  
  MO   4 : occ=1.00 : energy=  -9.79936052 : center=(-0.00,-0.00,0.00) : radius=0.32
            C( 0)   s(  0)-0.995  
  MO   5 : occ=1.00 : energy=  -0.44502511 : center=(0.26,-1.02,-1.00) : radius=1.73
            C( 4)  pz( 40) 0.381     C( 0)  py(  3)-0.310     C( 0)  pz(  4)-0.212     C( 4)  pz( 44) 0.197     C( 0)   s(  1) 0.192     C( 4)   s( 37) 0.175     C( 0)  py(  7)-0.165     C( 0)   s(  5) 0.163     C( 4)   s( 41) 0.152  
  MO   6 : occ=1.00 : energy=  -0.44502477 : center=(-1.02,-0.26,1.00) : radius=1.73
            C( 2)  pz( 22) 0.381     C( 0)  px(  2) 0.310     C( 0)  pz(  4)-0.212     C( 2)  pz( 26) 0.197     C( 0)   s(  1)-0.192     C( 2)   s( 19)-0.175     C( 0)  px(  6) 0.165     C( 0)   s(  5)-0.163     C( 2)   s( 23)-0.152  
  MO   7 : occ=1.00 : energy=  -0.43199550 : center=(2.27,-0.61,2.75) : radius=1.60
            H( 5)   s( 45) 0.307     C( 1)  py( 12)-0.273     C( 1)  px( 11) 0.251     H( 5)   s( 46) 0.228     C( 1)   s( 10) 0.206     C( 1)   s( 14) 0.201  
  MO   8 : occ=1.00 : energy=  -0.43199556 : center=(-0.61,-2.27,-2.75) : radius=1.60
            H(12)   s( 59)-0.307     C( 4)  px( 38) 0.273     C( 4)  py( 39) 0.251     H(12)   s( 60)-0.228     C( 4)   s( 37)-0.206     C( 4)   s( 41)-0.201  
  MO   9 : occ=1.00 : energy=  -0.43199570 : center=(1.71,1.61,2.75) : radius=1.60
            C( 1)  py( 12) 0.360     H( 6)   s( 47) 0.307     H( 6)   s( 48) 0.228     C( 1)   s( 10) 0.206     C( 1)   s( 14) 0.201     C( 1)  py( 16) 0.167  
  MO  10 : occ=1.00 : energy=  -0.43199583 : center=(-1.61,1.71,-2.75) : radius=1.60
            C( 3)  px( 29) 0.360     H( 9)   s( 53)-0.307     H( 9)   s( 54)-0.228     C( 3)   s( 28)-0.206     C( 3)   s( 32)-0.201     C( 3)  px( 33) 0.167  
  MO  11 : occ=1.00 : energy=  -0.43199562 : center=(-2.27,0.61,2.75) : radius=1.60
            H( 7)   s( 49) 0.307     C( 2)  py( 21) 0.273     C( 2)  px( 20)-0.251     H( 7)   s( 50) 0.228     C( 2)   s( 19) 0.206     C( 2)   s( 23) 0.201  
  MO  12 : occ=1.00 : energy=  -0.43199554 : center=(0.61,2.27,-2.75) : radius=1.60
            H(10)   s( 55)-0.307     C( 3)  px( 29)-0.273     C( 3)  py( 30)-0.251     H(10)   s( 56)-0.228     C( 3)   s( 28)-0.206     C( 3)   s( 32)-0.201  
  MO  13 : occ=1.00 : energy=  -0.43199581 : center=(-1.71,-1.61,2.75) : radius=1.60
            C( 2)  py( 21)-0.360     H( 8)   s( 51) 0.307     H( 8)   s( 52) 0.228     C( 2)   s( 19) 0.206     C( 2)   s( 23) 0.201     C( 2)  py( 25)-0.167  
  MO  14 : occ=1.00 : energy=  -0.43749953 : center=(-0.00,0.00,-2.70) : radius=1.78
            C( 3)  py( 30) 0.339     C( 4)  py( 39)-0.339     C( 3)   s( 28)-0.172     C( 4)   s( 37)-0.172     C( 3)  py( 34) 0.169     C( 4)  py( 43)-0.169     C( 4)  pz( 40) 0.152     C( 3)  pz( 31) 0.152     C( 0)   s(  5) 0.148  
  MO  15 : occ=1.00 : energy=  -0.43199604 : center=(1.61,-1.71,-2.75) : radius=1.60
            C( 4)  px( 38) 0.360     H(11)   s( 57) 0.307     H(11)   s( 58) 0.228     C( 4)   s( 37) 0.206     C( 4)   s( 41) 0.201     C( 4)  px( 42) 0.167  
  MO  16 : occ=1.00 : energy=  -0.44502498 : center=(-0.26,1.02,-1.00) : radius=1.73
            C( 3)  pz( 31) 0.381     C( 0)  py(  3) 0.310     C( 0)  pz(  4)-0.212     C( 3)  pz( 35) 0.197     C( 0)   s(  1) 0.192     C( 3)   s( 28) 0.175     C( 0)  py(  7) 0.165     C( 0)   s(  5) 0.163     C( 3)   s( 32) 0.152  
  MO  17 : occ=1.00 : energy=  -0.44502532 : center=(1.02,0.26,1.00) : radius=1.73
            C( 1)  pz( 13) 0.381     C( 0)  px(  2)-0.310     C( 0)  pz(  4)-0.212     C( 1)  pz( 17) 0.197     C( 0)   s(  1)-0.192     C( 1)   s( 10)-0.175     C( 0)  px(  6)-0.165     C( 0)   s(  5)-0.163     C( 1)   s( 14)-0.152  
  MO  18 : occ=1.00 : energy=  -0.43749959 : center=(-0.00,0.00,2.70) : radius=1.78
            C( 2)  px( 20) 0.339     C( 1)  px( 11)-0.339     C( 1)   s( 10) 0.172     C( 2)   s( 19) 0.172     C( 1)  px( 15)-0.169     C( 2)  px( 24) 0.169     C( 2)  pz( 22) 0.152     C( 1)  pz( 13) 0.152     C( 0)   s(  5)-0.148  
timer:             plotting     0.00s     0.00s

    Parallel environment
    --------------------
                  #nodes    1
       #threads per node    27+main = 28
          #total threads    28

  RMI message statistics (min / avg / max)
  ----------------------
   #messages in server q    0.00e+00 / 0.00e+00 / 0.00e+00
 #messages sent per node    0.00e+00 / 0.00e+00 / 0.00e+00
    #bytes sent per node    0.00e+00 / 0.00e+00 / 0.00e+00
 #messages recv per node    0.00e+00 / 0.00e+00 / 0.00e+00
    #bytes recv per node    0.00e+00 / 0.00e+00 / 0.00e+00
        #msgs systemwide    0.00e+00
       #bytes systemwide    0.00e+00

  Thread pool statistics (min / avg / max)
  ----------------------
         #tasks per node    0.00e+00 / 0.00e+00 / 0.00e+00
     #max q len per node    0.00e+00 / 0.00e+00 / 0.00e+00
  #hi-pri tasks per node    0.00e+00 / 0.00e+00 / 0.00e+00

         Total wall time    79.1s
         Total  cpu time    79.1s

