MADNESS runtime initialized with 27 threads in the pool and affinity -1 -1 -1

--------------------------------------------
   MADNESS 0.10.1 multiresolution suite
--------------------------------------------

   number of processors ... 1
    processor frequency ... 1.995407e+09
            host system ... linux-gnu
          configured by ... egentles
          configured on ... sn093
          configured at ... Tue Jul 11 16:06:48 EDT 2017
                    CXX ... mpicxx
               CXXFLAGS ... -g -std=c++14 -O3 -Wall -Wno-strict-aliasing -Wno-deprecated -Wno-unused-local-typedefs  -ffast-math -march=native
             tuning for ... default
                    MPI ... multiple
 multi-threaded runtime ... Intel TBB
                   BLAS ... Intel MKL 14271 14271 MFLOP/s
               compiled ... 08:44:05  on  Jul 29 2017
input filename:  /gpfs/home/egentles/auto_test_mad/geometries_LDA_boys/trifluoroacetate_anion.mdns

Angstrom being used to read input coordinates (1 Bohr = 1.88972613 Angstrom)

Abelian pointgroup

 The point group is Cs

Construct XC Functional from LIBXC Library

input line was:  LDA
 1.000 lda_x 
 1.000 lda_c_vwn 

screening parameters
 rhotol, rhomin 1.000000e-07 0.000000e+00
         ggatol 1.000000e-04
polarized  false 


Solving NDIM= 3  with thresh 1.000000e-05     k 8    conv 1.000000e-04 




 MADNESS Hartree-Fock and Density Functional Theory Program
 ----------------------------------------------------------



 geometry
   eprec 1.0e-04
   units atomic
   C            -0.97088465           0.02644979           0.00000000
   C             1.99231014           0.01890954           0.00000000
   F            -2.03020791           2.34455216           0.00000000
   F            -1.93571079          -1.18017850           2.04641655
   F            -1.93571079          -1.18017850          -2.04641655
   O             2.99530444           2.15237168           0.00000000
   O             2.87795962          -2.16861073           0.00000000
 end


             restart  false
    restart from AOs  false
 number of processes  1
   no. of io servers  1
   vnuc load bal fac  12
      load bal parts  2
     simulation cube  -5.299530e+01 5.299530e+01
        total charge  -1.000000e+00
            smearing  0.000000e+00
 number of electrons  28 28
  number of orbitals  28 28
     spin restricted  true
       xc functional   LDA
          xc library  libxc
 initial guess basis  6-31g
 max krylov subspace  5
    compute protocol  [1.000000e-04, 1.000000e-06]
  energy convergence  1.000000e-05
 density convergence  1.000000e-04
    maximum rotation  2.500000e-01
    polynomial order  -1
       truncate mode  1
  maximum iterations  20
 Convergence criteria are density delta & BSH residual.
        plot density  false
        plot coulomb  false
        plot orbital  0 -1
        plot npoints  101
        plot  volume  default
  localized orbitals  boys
 psp or all electron  all electron
timer:           initialize     0.39s     0.39s

Solving NDIM= 3  with thresh 1.000000e-04     k 6    conv 1.000000e-04 


Solving NDIM= 3  with thresh 1.000000e-04     k 6    conv 1.000000e-04 

timer:     Project vnuclear     0.61s     0.61s
timer:     project ao basis     0.47s     0.47s
guess dens trace 5.499998e+01
timer:        guess density     0.79s     0.79s
timer:   guess Coulomb potn     0.53s     0.53s
timer:       guess lda potn     0.31s     0.31s
timer:        guess overlap     0.03s     0.03s
timer:    KEmat reconstruct     0.02s     0.02s
timer:  KEmat differentiate     0.72s     0.72s
timer:       KEmat compress     0.11s     0.11s
timer: KEmat inner products     0.06s     0.06s
timer:     guess Kinet potn     0.93s     0.93s
timer:           guess fock     2.77s     2.77s
timer:      guess eigen sol     0.00s     0.00s
grouping alpha orbitals into sets
set  0    0  -  2
set  1    3  -  4
set  2    5  -  6
set  3    7  -  27
timer: guess orbital groupi     0.10s     0.10s
timer:     project ao basis     0.45s     0.45s

Iteration 0 at time 7.8s

warning: boys localization did not fully converge:  4005
timer:        Boys localize     0.43s     0.43s
timer:      Rotate subspace     0.28s     0.28s
timer:       Make densities     0.05s     0.05s
timer:       Load balancing     0.00s     0.00s
timer:       Nuclear energy     0.01s     0.01s
timer:              Coulomb     0.15s     0.15s
timer:        DFT potential     0.13s     0.13s
timer:                V*psi     0.58s     0.58s
timer:        Truncate Vpsi     0.57s     0.57s
timer:            PE matrix     0.03s     0.03s
timer:    KEmat reconstruct     0.01s     0.01s
timer:  KEmat differentiate     0.59s     0.59s
timer:       KEmat compress     0.10s     0.10s
timer: KEmat inner products     0.05s     0.05s
timer:            KE matrix     0.76s     0.76s
timer: Make fock matrix res     0.00s     0.00s

              kinetic     528.08315261
         nonlocal psp       0.00000000
   nuclear attraction   -1910.90723723
              coulomb     595.17964775
                  PCM       0.00000000
 exchange-correlation     -56.78303395
    nuclear-repulsion     322.19489893
                total    -522.23257190

timer: Compute residual stu     0.17s     0.17s
entering apply
timer:            Apply BSH     1.82s     1.82s
timer:     Truncate new psi     0.19s     0.19s
residuals [6.953728e-03, 7.005833e-03, 7.005771e-03, 8.117140e-03, 8.106366e-03, 9.322562e-03, 8.705874e-03, 5.188259e-02, 8.014935e-02, 8.257496e-02, 1.582059e-01, 1.582065e-01, 6.071730e-02, 8.015006e-02, 5.112628e-02, 5.188199e-02, 4.403817e-01, 4.803494e-01, 1.576401e-01, 8.263312e-02, 8.257760e-02, 8.017591e-02, 7.995663e-02, 8.263935e-02, 7.996248e-02, 1.576392e-01, 4.380171e-01, 4.872741e-01]
BSH residual: rms 1.913494e-01    max 4.872741e-01
timer:         BSH residual     0.13s     0.13s
timer: Update subspace stuf     0.10s     0.10s
Subspace solution [*]   1.00000000

timer:   Subspace transform     0.01s     0.01s
  restricting step for alpha orbitals: 16 17 26 27
Norm of vector changes alpha : rms 1.913494e-01    max 4.872741e-01
ORTHOG2a: maxq trantol 3.470948e-02 3.571429e-07
ORTHOG2a: maxq trantol 1.681809e-03 3.571429e-07
timer:       Orthonormalize     0.23s     0.23s

Iteration 1 at time 14.2s

timer:        Boys localize     0.40s     0.40s
timer:      Rotate subspace     0.24s     0.24s
timer:       Make densities     0.05s     0.05s
timer:       Load balancing     0.00s     0.00s
delta rho 2.651407e-01 2.651407e-01 residuals 4.872741e-01 0.000000e+00
timer:       Nuclear energy     0.01s     0.01s
timer:              Coulomb     0.16s     0.16s
timer:        DFT potential     0.16s     0.16s
timer:                V*psi     0.51s     0.51s
timer:        Truncate Vpsi     0.61s     0.61s
timer:            PE matrix     0.04s     0.04s
timer:    KEmat reconstruct     0.01s     0.01s
timer:  KEmat differentiate     0.60s     0.60s
timer:       KEmat compress     0.07s     0.07s
timer: KEmat inner products     0.06s     0.06s
timer:            KE matrix     0.75s     0.75s
timer: Make fock matrix res     0.00s     0.00s

              kinetic     515.47160965
         nonlocal psp       0.00000000
   nuclear attraction   -1888.06259513
              coulomb     582.80708309
                  PCM       0.00000000
 exchange-correlation     -55.14108814
    nuclear-repulsion     322.19489893
                total    -522.73009160

timer: Compute residual stu     0.15s     0.15s
entering apply
timer:            Apply BSH     1.86s     1.86s
timer:     Truncate new psi     0.20s     0.20s
residuals [8.833314e-04, 8.899253e-04, 8.899283e-04, 8.105287e-04, 8.250332e-04, 1.669058e-03, 1.830724e-03, 2.619013e-02, 4.999361e-02, 4.977423e-02, 9.710969e-02, 9.711044e-02, 3.170651e-02, 4.999422e-02, 2.575431e-02, 2.618658e-02, 2.090805e-01, 2.143142e-01, 9.654627e-02, 5.100704e-02, 4.977971e-02, 4.874124e-02, 5.090219e-02, 5.101386e-02, 5.091031e-02, 9.654560e-02, 2.107530e-01, 2.133419e-01]
BSH residual: rms 9.312949e-02    max 2.143142e-01
timer:         BSH residual     0.11s     0.11s
timer: Update subspace stuf     0.19s     0.19s
Subspace solution [*]   0.31195349   0.68804651

timer:   Subspace transform     0.04s     0.04s
Norm of vector changes alpha : rms 4.856836e-02    max 9.380042e-02
ORTHOG2a: maxq trantol 9.297297e-03 3.571429e-07
timer:       Orthonormalize     0.16s     0.16s

Iteration 2 at time 20.5s

timer:        Boys localize     0.40s     0.40s
timer:      Rotate subspace     0.25s     0.25s
timer:       Make densities     0.06s     0.06s
delta rho 8.670069e-02 8.670069e-02 residuals 2.143142e-01 0.000000e+00
timer:       Nuclear energy     0.01s     0.01s
timer:              Coulomb     0.19s     0.19s
timer:        DFT potential     0.15s     0.15s
timer:                V*psi     0.50s     0.50s
timer:        Truncate Vpsi     0.64s     0.64s
timer:            PE matrix     0.03s     0.03s
timer:    KEmat reconstruct     0.01s     0.01s
timer:  KEmat differentiate     0.60s     0.60s
timer:       KEmat compress     0.07s     0.07s
timer: KEmat inner products     0.04s     0.04s
timer:            KE matrix     0.74s     0.74s
timer: Make fock matrix res     0.00s     0.00s

              kinetic     519.82509558
         nonlocal psp       0.00000000
   nuclear attraction   -1898.19508223
              coulomb     589.03010019
                  PCM       0.00000000
 exchange-correlation     -55.76697188
    nuclear-repulsion     322.19489893
                total    -522.91195940

timer: Compute residual stu     0.17s     0.17s
entering apply
timer:            Apply BSH     1.87s     1.87s
timer:     Truncate new psi     0.20s     0.20s
residuals [6.357853e-04, 6.394500e-04, 6.394400e-04, 6.369179e-04, 6.343379e-04, 1.125457e-03, 9.610486e-04, 9.233514e-03, 1.334532e-02, 1.608814e-02, 2.794919e-02, 2.794944e-02, 2.683088e-02, 1.334477e-02, 9.024929e-03, 9.232636e-03, 6.130510e-02, 6.895353e-02, 2.787535e-02, 1.415635e-02, 1.608987e-02, 1.592484e-02, 1.378931e-02, 1.415772e-02, 1.379007e-02, 2.787538e-02, 5.992465e-02, 7.202962e-02]
BSH residual: rms 2.884271e-02    max 7.202962e-02
timer:         BSH residual     0.11s     0.11s
timer: Update subspace stuf     0.27s     0.27s
Subspace solution [*]   0.08141406   0.01413183   0.90445411

timer:   Subspace transform     0.04s     0.04s
Norm of vector changes alpha : rms 2.014573e-02    max 3.933674e-02
ORTHOG2a: maxq trantol 7.527090e-03 3.571429e-07
timer:       Orthonormalize     0.17s     0.17s

Iteration 3 at time 27.1s

timer:        Boys localize     0.41s     0.41s
timer:      Rotate subspace     0.25s     0.25s
timer:       Make densities     0.06s     0.06s
delta rho 2.887796e-02 2.887796e-02 residuals 7.202962e-02 0.000000e+00
timer:       Nuclear energy     0.01s     0.01s
timer:              Coulomb     0.18s     0.18s
timer:        DFT potential     0.15s     0.15s
timer:                V*psi     0.52s     0.52s
timer:        Truncate Vpsi     0.62s     0.62s
timer:            PE matrix     0.03s     0.03s
timer:    KEmat reconstruct     0.01s     0.01s
timer:  KEmat differentiate     0.59s     0.59s
timer:       KEmat compress     0.08s     0.08s
timer: KEmat inner products     0.05s     0.05s
timer:            KE matrix     0.73s     0.73s
timer: Make fock matrix res     0.00s     0.00s

              kinetic     519.92190534
         nonlocal psp       0.00000000
   nuclear attraction   -1898.79858805
              coulomb     589.54760823
                  PCM       0.00000000
 exchange-correlation     -55.79905586
    nuclear-repulsion     322.19489893
                total    -522.93323141

timer: Compute residual stu     0.17s     0.17s
entering apply
timer:            Apply BSH     1.88s     1.88s
timer:     Truncate new psi     0.20s     0.20s
residuals [2.650670e-04, 2.887707e-04, 2.887978e-04, 4.183042e-04, 4.254869e-04, 5.367686e-04, 4.982252e-04, 1.146823e-02, 1.533415e-02, 1.478312e-02, 1.755961e-02, 1.755962e-02, 1.616843e-02, 1.533417e-02, 1.115696e-02, 1.146738e-02, 2.319851e-02, 2.604201e-02, 1.720326e-02, 1.586570e-02, 1.478473e-02, 1.440149e-02, 1.576061e-02, 1.586761e-02, 1.576245e-02, 1.720326e-02, 2.417248e-02, 2.432106e-02]
BSH residual: rms 1.507833e-02    max 2.604201e-02
timer:         BSH residual     0.11s     0.11s
timer: Update subspace stuf     0.37s     0.37s
Subspace solution [*]  -0.02852140  -0.16403723   0.26525685   0.92730179

timer:   Subspace transform     0.05s     0.05s
Norm of vector changes alpha : rms 1.241091e-02    max 2.464278e-02
ORTHOG2a: maxq trantol 4.875366e-03 3.571429e-07
timer:       Orthonormalize     0.16s     0.16s

Iteration 4 at time 33.8s

timer:        Boys localize     0.40s     0.40s
timer:      Rotate subspace     0.25s     0.25s
timer:       Make densities     0.06s     0.06s
delta rho 1.312592e-02 1.312592e-02 residuals 2.604201e-02 0.000000e+00
timer:       Nuclear energy     0.01s     0.01s
timer:              Coulomb     0.17s     0.17s
timer:        DFT potential     0.14s     0.14s
timer:                V*psi     0.50s     0.50s
timer:        Truncate Vpsi     0.61s     0.61s
timer:            PE matrix     0.03s     0.03s
timer:    KEmat reconstruct     0.01s     0.01s
timer:  KEmat differentiate     0.60s     0.60s
timer:       KEmat compress     0.07s     0.07s
timer: KEmat inner products     0.04s     0.04s
timer:            KE matrix     0.74s     0.74s
timer: Make fock matrix res     0.00s     0.00s

              kinetic     520.28378861
         nonlocal psp       0.00000000
   nuclear attraction   -1899.66617601
              coulomb     590.09177788
                  PCM       0.00000000
 exchange-correlation     -55.84517049
    nuclear-repulsion     322.19489893
                total    -522.94088108

timer: Compute residual stu     0.16s     0.16s
entering apply
timer:            Apply BSH     1.85s     1.85s
timer:     Truncate new psi     0.19s     0.19s
residuals [1.263442e-04, 1.678871e-04, 1.679366e-04, 3.017008e-04, 2.906850e-04, 2.514991e-04, 2.074856e-04, 4.672480e-03, 6.590913e-03, 7.157140e-03, 1.505933e-02, 1.505939e-02, 7.011103e-03, 6.590803e-03, 4.537180e-03, 4.672282e-03, 2.360014e-02, 2.310897e-02, 1.466919e-02, 6.677810e-03, 7.157637e-03, 6.841957e-03, 6.821209e-03, 6.678214e-03, 6.821613e-03, 1.466917e-02, 2.441364e-02, 2.161195e-02]
BSH residual: rms 1.129189e-02    max 2.441364e-02
timer:         BSH residual     0.11s     0.11s
timer: Update subspace stuf     0.46s     0.46s
Subspace solution [*]  -0.00694359   0.00095830  -0.04195519   0.37167561   0.67626486

timer:   Subspace transform     0.06s     0.06s
Norm of vector changes alpha : rms 6.348793e-03    max 1.433456e-02
ORTHOG2a: maxq trantol 1.210244e-03 3.571429e-07
timer:       Orthonormalize     0.16s     0.16s

Iteration 5 at time 40.5s

timer:        Boys localize     0.39s     0.39s
timer:      Rotate subspace     0.24s     0.24s
timer:       Make densities     0.06s     0.06s
delta rho 2.511300e-03 2.511300e-03 residuals 2.441364e-02 0.000000e+00
timer:       Nuclear energy     0.01s     0.01s
timer:              Coulomb     0.17s     0.17s
timer:        DFT potential     0.15s     0.15s
timer:                V*psi     0.51s     0.51s
timer:        Truncate Vpsi     0.60s     0.60s
timer:            PE matrix     0.03s     0.03s
timer:    KEmat reconstruct     0.01s     0.01s
timer:  KEmat differentiate     0.59s     0.59s
timer:       KEmat compress     0.07s     0.07s
timer: KEmat inner products     0.05s     0.05s
timer:            KE matrix     0.73s     0.73s
timer: Make fock matrix res     0.00s     0.00s

              kinetic     520.31700894
         nonlocal psp       0.00000000
   nuclear attraction   -1899.77852719
              coulomb     590.17453727
                  PCM       0.00000000
 exchange-correlation     -55.85063075
    nuclear-repulsion     322.19489893
                total    -522.94271280

timer: Compute residual stu     0.15s     0.15s
entering apply
timer:            Apply BSH     1.86s     1.86s
timer:     Truncate new psi     0.20s     0.20s
residuals [1.878949e-04, 1.212031e-04, 1.212188e-04, 1.534681e-04, 1.488714e-04, 1.249806e-04, 1.479044e-04, 1.813828e-03, 3.261590e-03, 3.658791e-03, 7.688107e-03, 7.688125e-03, 4.826639e-03, 3.261464e-03, 1.735967e-03, 1.813716e-03, 9.956319e-03, 1.136749e-02, 7.576109e-03, 3.292168e-03, 3.659190e-03, 3.517864e-03, 3.341030e-03, 3.292571e-03, 3.341503e-03, 7.576134e-03, 1.023710e-02, 1.088766e-02]
BSH residual: rms 5.418779e-03    max 1.136749e-02
timer:         BSH residual     0.12s     0.12s
timer: Update subspace stuf     0.47s     0.47s
Subspace solution [*]   0.03102286  -0.10706140  -0.04303214   0.31838458   0.80068610

timer:   Subspace transform     0.06s     0.06s
Norm of vector changes alpha : rms 3.841559e-03    max 8.066921e-03
ORTHOG2a: maxq trantol 1.247973e-03 3.571429e-07
timer:       Orthonormalize     0.16s     0.16s

Iteration 6 at time 47.2s

timer:        Boys localize     0.38s     0.38s
timer:      Rotate subspace     0.22s     0.22s
timer:       Make densities     0.06s     0.06s
delta rho 4.031612e-03 4.031612e-03 residuals 1.136749e-02 0.000000e+00
timer:       Nuclear energy     0.01s     0.01s
timer:              Coulomb     0.14s     0.14s
timer:        DFT potential     0.15s     0.15s
timer:                V*psi     0.50s     0.50s
timer:        Truncate Vpsi     0.60s     0.60s
timer:            PE matrix     0.03s     0.03s
timer:    KEmat reconstruct     0.01s     0.01s
timer:  KEmat differentiate     0.59s     0.59s
timer:       KEmat compress     0.07s     0.07s
timer: KEmat inner products     0.05s     0.05s
timer:            KE matrix     0.73s     0.73s
timer: Make fock matrix res     0.00s     0.00s

              kinetic     520.19480486
         nonlocal psp       0.00000000
   nuclear attraction   -1899.56590094
              coulomb     590.06732989
                  PCM       0.00000000
 exchange-correlation     -55.83508820
    nuclear-repulsion     322.19489893
                total    -522.94395546

timer: Compute residual stu     0.16s     0.16s
entering apply
timer:            Apply BSH     1.86s     1.86s
timer:     Truncate new psi     0.20s     0.20s
residuals [1.025006e-04, 1.560714e-04, 1.561270e-04, 1.240299e-04, 1.163636e-04, 1.165029e-04, 1.147810e-04, 1.807013e-03, 1.867858e-03, 2.217229e-03, 4.609842e-03, 4.609882e-03, 3.277224e-03, 1.867916e-03, 1.725096e-03, 1.806913e-03, 5.245584e-03, 5.512980e-03, 4.541258e-03, 1.984683e-03, 2.217383e-03, 2.140651e-03, 1.910573e-03, 1.984939e-03, 1.910855e-03, 4.541266e-03, 5.161420e-03, 5.440942e-03]
BSH residual: rms 3.016835e-03    max 5.512980e-03
timer:         BSH residual     0.11s     0.11s
timer: Update subspace stuf     0.48s     0.48s
Subspace solution [*]  -0.03371078  -0.17974064  -0.18662975   0.32967199   1.07040918

timer:   Subspace transform     0.06s     0.06s
Norm of vector changes alpha : rms 3.360016e-03    max 6.368706e-03
ORTHOG2a: maxq trantol 4.430589e-04 3.571429e-07
timer:       Orthonormalize     0.16s     0.16s

Iteration 7 at time 53.8s

timer:        Boys localize     0.43s     0.43s
timer:      Rotate subspace     0.26s     0.26s
timer:       Make densities     0.06s     0.06s
delta rho 3.105471e-03 3.105471e-03 residuals 5.512980e-03 0.000000e+00
timer:       Nuclear energy     0.02s     0.02s
timer:              Coulomb     0.18s     0.18s
timer:        DFT potential     0.16s     0.16s
timer:                V*psi     0.51s     0.51s
timer:        Truncate Vpsi     0.61s     0.61s
timer:            PE matrix     0.03s     0.03s
timer:    KEmat reconstruct     0.01s     0.01s
timer:  KEmat differentiate     0.59s     0.59s
timer:       KEmat compress     0.07s     0.07s
timer: KEmat inner products     0.05s     0.05s
timer:            KE matrix     0.73s     0.73s
timer: Make fock matrix res     0.00s     0.00s

              kinetic     520.22691163
         nonlocal psp       0.00000000
   nuclear attraction   -1899.66848210
              coulomb     590.14069162
                  PCM       0.00000000
 exchange-correlation     -55.83895742
    nuclear-repulsion     322.19489893
                total    -522.94493735

timer: Compute residual stu     0.16s     0.16s
entering apply
timer:            Apply BSH     1.86s     1.86s
timer:     Truncate new psi     0.20s     0.20s
residuals [1.126247e-04, 1.136063e-04, 1.136389e-04, 1.221497e-04, 1.102163e-04, 1.061412e-04, 1.803761e-04, 1.137443e-03, 1.136852e-03, 1.463745e-03, 3.206696e-03, 3.206709e-03, 1.808957e-03, 1.136873e-03, 1.094354e-03, 1.137425e-03, 3.584243e-03, 3.690224e-03, 3.230061e-03, 1.160122e-03, 1.463735e-03, 1.387152e-03, 1.163869e-03, 1.160152e-03, 1.163922e-03, 3.230058e-03, 3.456675e-03, 3.686317e-03]
BSH residual: rms 2.024816e-03    max 3.690224e-03
timer:         BSH residual     0.11s     0.11s
timer: Update subspace stuf     0.53s     0.53s
Subspace solution [*]  -0.08095358  -0.15872884  -0.12257890   0.41577032   0.94649099

timer:   Subspace transform     0.06s     0.06s
Norm of vector changes alpha : rms 2.486294e-03    max 4.617598e-03
ORTHOG2a: maxq trantol 4.398338e-04 3.571429e-07
timer:       Orthonormalize     0.17s     0.17s

Iteration 8 at time 60.7s

timer:        Boys localize     0.42s     0.42s
timer:      Rotate subspace     0.24s     0.24s
timer:       Make densities     0.06s     0.06s
delta rho 2.158405e-03 2.158405e-03 residuals 3.690224e-03 0.000000e+00
timer:       Nuclear energy     0.02s     0.02s
timer:              Coulomb     0.18s     0.18s
timer:        DFT potential     0.15s     0.15s
timer:                V*psi     0.50s     0.50s
timer:        Truncate Vpsi     0.61s     0.61s
timer:            PE matrix     0.04s     0.04s
timer:    KEmat reconstruct     0.01s     0.01s
timer:  KEmat differentiate     0.59s     0.59s
timer:       KEmat compress     0.07s     0.07s
timer: KEmat inner products     0.05s     0.05s
timer:            KE matrix     0.73s     0.73s
timer: Make fock matrix res     0.00s     0.00s

              kinetic     520.30068683
         nonlocal psp       0.00000000
   nuclear attraction   -1899.84368827
              coulomb     590.25112743
                  PCM       0.00000000
 exchange-correlation     -55.84841920
    nuclear-repulsion     322.19489893
                total    -522.94539429

timer: Compute residual stu     0.16s     0.16s
entering apply
timer:            Apply BSH     1.87s     1.87s
timer:     Truncate new psi     0.19s     0.19s
residuals [1.182019e-04, 1.077949e-04, 1.078112e-04, 1.219208e-04, 1.073473e-04, 9.956229e-05, 1.859749e-04, 7.477733e-04, 1.083676e-03, 1.137044e-03, 2.419881e-03, 2.419892e-03, 1.116671e-03, 1.083691e-03, 7.338772e-04, 7.477555e-04, 3.079210e-03, 3.376458e-03, 2.465460e-03, 1.090490e-03, 1.137142e-03, 1.102132e-03, 1.103899e-03, 1.090568e-03, 1.104022e-03, 2.465454e-03, 2.902375e-03, 3.513316e-03]
BSH residual: rms 1.684966e-03    max 3.513316e-03
timer:         BSH residual     0.11s     0.11s
timer: Update subspace stuf     0.47s     0.47s
Subspace solution [*]  -0.04625325  -0.16014699  -0.12474813   0.47994061   0.85120775

timer:   Subspace transform     0.06s     0.06s
Norm of vector changes alpha : rms 1.970116e-03    max 3.632972e-03
ORTHOG2a: maxq trantol 5.135948e-04 3.571429e-07
timer:       Orthonormalize     0.16s     0.16s

Iteration 9 at time 67.5s

timer:        Boys localize     0.39s     0.39s
timer:      Rotate subspace     0.23s     0.23s
timer:       Make densities     0.06s     0.06s
delta rho 1.769214e-03 1.769214e-03 residuals 3.513316e-03 0.000000e+00
timer:       Nuclear energy     0.01s     0.01s
timer:              Coulomb     0.18s     0.18s
timer:        DFT potential     0.15s     0.15s
timer:                V*psi     0.52s     0.52s
timer:        Truncate Vpsi     0.62s     0.62s
timer:            PE matrix     0.03s     0.03s
timer:    KEmat reconstruct     0.01s     0.01s
timer:  KEmat differentiate     0.60s     0.60s
timer:       KEmat compress     0.07s     0.07s
timer: KEmat inner products     0.04s     0.04s
timer:            KE matrix     0.73s     0.73s
timer: Make fock matrix res     0.00s     0.00s

              kinetic     520.25588512
         nonlocal psp       0.00000000
   nuclear attraction   -1899.76090324
              coulomb     590.20638987
                  PCM       0.00000000
 exchange-correlation     -55.84193861
    nuclear-repulsion     322.19489893
                total    -522.94566793

timer: Compute residual stu     0.16s     0.16s
entering apply
timer:            Apply BSH     1.85s     1.85s
timer:     Truncate new psi     0.20s     0.20s
residuals [2.022634e-04, 1.688812e-04, 1.688909e-04, 1.218605e-04, 1.089475e-04, 9.762727e-05, 1.055935e-04, 3.719869e-04, 3.751908e-04, 5.227128e-04, 1.467789e-03, 1.467806e-03, 9.662464e-04, 3.753130e-04, 3.766834e-04, 3.720086e-04, 2.016240e-03, 1.833598e-03, 1.498224e-03, 3.702379e-04, 5.227357e-04, 4.968036e-04, 3.819093e-04, 3.702329e-04, 3.819901e-04, 1.498208e-03, 1.847678e-03, 1.980887e-03]
BSH residual: rms 9.765424e-04    max 2.016240e-03
timer:         BSH residual     0.12s     0.12s
timer: Update subspace stuf     0.47s     0.47s
Subspace solution [*]   0.00339602  -0.17992788  -0.28985105   0.27895532   1.18742758

timer:   Subspace transform     0.06s     0.06s
Norm of vector changes alpha : rms 2.335390e-03    max 4.509152e-03
ORTHOG2a: maxq trantol 2.106961e-04 3.571429e-07
timer:       Orthonormalize     0.16s     0.16s

Iteration 10 at time 74.2s

timer:        Boys localize     0.38s     0.38s
timer:      Rotate subspace     0.22s     0.22s
timer:       Make densities     0.05s     0.05s
timer:       Load balancing     0.00s     0.00s
delta rho 1.727281e-03 1.727281e-03 residuals 2.016240e-03 0.000000e+00
timer:       Nuclear energy     0.01s     0.01s
timer:              Coulomb     0.16s     0.16s
timer:        DFT potential     0.16s     0.16s
timer:                V*psi     0.50s     0.50s
timer:        Truncate Vpsi     0.59s     0.59s
timer:            PE matrix     0.04s     0.04s
timer:    KEmat reconstruct     0.01s     0.01s
timer:  KEmat differentiate     0.61s     0.61s
timer:       KEmat compress     0.08s     0.08s
timer: KEmat inner products     0.05s     0.05s
timer:            KE matrix     0.76s     0.76s
timer: Make fock matrix res     0.00s     0.00s

              kinetic     520.26329764
         nonlocal psp       0.00000000
   nuclear attraction   -1899.79420750
              coulomb     590.23324666
                  PCM       0.00000000
 exchange-correlation     -55.84307542
    nuclear-repulsion     322.19489893
                total    -522.94583970

timer: Compute residual stu     0.17s     0.17s
entering apply
timer:            Apply BSH     1.86s     1.86s
timer:     Truncate new psi     0.20s     0.20s
residuals [1.821983e-04, 1.176002e-04, 1.176285e-04, 1.233138e-04, 1.154689e-04, 9.399181e-05, 1.023942e-04, 4.646400e-04, 5.706597e-04, 6.462833e-04, 1.070076e-03, 1.070054e-03, 6.699901e-04, 5.707374e-04, 4.600295e-04, 4.646409e-04, 1.629493e-03, 1.810067e-03, 1.125417e-03, 5.818283e-04, 6.463568e-04, 6.377033e-04, 5.832604e-04, 5.818985e-04, 5.833298e-04, 1.125422e-03, 1.499423e-03, 1.913350e-03]
BSH residual: rms 8.684164e-04    max 1.913350e-03
timer:         BSH residual     0.11s     0.11s
timer: Update subspace stuf     0.47s     0.47s
Subspace solution [*]   0.01386996  -0.18200201  -0.11823367   0.49333106   0.79303467

timer:   Subspace transform     0.06s     0.06s
Norm of vector changes alpha : rms 7.956237e-04    max 1.580096e-03
ORTHOG2a: maxq trantol 1.248369e-04 3.571429e-07
timer:       Orthonormalize     0.16s     0.16s

Iteration 11 at time 80.9s

timer:        Boys localize     0.40s     0.40s
timer:      Rotate subspace     0.24s     0.24s
timer:       Make densities     0.06s     0.06s
delta rho 8.585965e-04 8.585965e-04 residuals 1.913350e-03 0.000000e+00
timer:       Nuclear energy     0.01s     0.01s
timer:              Coulomb     0.16s     0.16s
timer:        DFT potential     0.15s     0.15s
timer:                V*psi     0.50s     0.50s
timer:        Truncate Vpsi     0.60s     0.60s
timer:            PE matrix     0.03s     0.03s
timer:    KEmat reconstruct     0.01s     0.01s
timer:  KEmat differentiate     0.60s     0.60s
timer:       KEmat compress     0.07s     0.07s
timer: KEmat inner products     0.04s     0.04s
timer:            KE matrix     0.73s     0.73s
timer: Make fock matrix res     0.00s     0.00s

              kinetic     520.27922635
         nonlocal psp       0.00000000
   nuclear attraction   -1899.82562338
              coulomb     590.25046235
                  PCM       0.00000000
 exchange-correlation     -55.84485067
    nuclear-repulsion     322.19489893
                total    -522.94588643

timer: Compute residual stu     0.16s     0.16s
entering apply
timer:            Apply BSH     1.86s     1.86s
timer:     Truncate new psi     0.20s     0.20s
residuals [9.849019e-05, 1.114309e-04, 1.114444e-04, 1.241413e-04, 1.157233e-04, 9.215453e-05, 9.729629e-05, 3.620581e-04, 4.968975e-04, 5.033449e-04, 8.506850e-04, 8.506765e-04, 6.710594e-04, 4.970100e-04, 3.616747e-04, 3.620307e-04, 1.068640e-03, 9.802534e-04, 8.963016e-04, 5.106056e-04, 5.034389e-04, 4.935435e-04, 5.072341e-04, 5.106738e-04, 5.073165e-04, 8.962767e-04, 9.576831e-04, 1.039427e-03]
BSH residual: rms 6.082615e-04    max 1.068640e-03
timer:         BSH residual     0.11s     0.11s
timer: Update subspace stuf     0.47s     0.47s
Subspace solution [*]  -0.04484311  -0.08630927   0.01122425   0.35663139   0.76329674

timer:   Subspace transform     0.06s     0.06s
Norm of vector changes alpha : rms 6.842932e-04    max 1.269050e-03
ORTHOG2a: maxq trantol 8.922661e-05 3.571429e-07
timer:       Orthonormalize     0.15s     0.15s

Iteration 12 at time 87.6s

timer:        Boys localize     0.38s     0.38s
timer:      Rotate subspace     0.22s     0.22s
timer:       Make densities     0.06s     0.06s
delta rho 5.204827e-04 5.204827e-04 residuals 1.068640e-03 0.000000e+00
timer:       Nuclear energy     0.02s     0.02s
timer:              Coulomb     0.16s     0.16s
timer:        DFT potential     0.13s     0.13s
timer:                V*psi     0.47s     0.47s
timer:        Truncate Vpsi     0.58s     0.58s
timer:            PE matrix     0.03s     0.03s
timer:    KEmat reconstruct     0.01s     0.01s
timer:  KEmat differentiate     0.60s     0.60s
timer:       KEmat compress     0.07s     0.07s
timer: KEmat inner products     0.04s     0.04s
timer:            KE matrix     0.73s     0.73s
timer: Make fock matrix res     0.00s     0.00s

              kinetic     520.26478101
         nonlocal psp       0.00000000
   nuclear attraction   -1899.79886174
              coulomb     590.23627835
                  PCM       0.00000000
 exchange-correlation     -55.84301213
    nuclear-repulsion     322.19489893
                total    -522.94591559

timer: Compute residual stu     0.17s     0.17s
entering apply
timer:            Apply BSH     1.90s     1.90s
timer:     Truncate new psi     0.20s     0.20s
residuals [8.667069e-05, 1.023121e-04, 1.023260e-04, 1.241438e-04, 1.169706e-04, 9.100776e-05, 9.507616e-05, 2.219339e-04, 2.312037e-04, 2.679360e-04, 7.423022e-04, 7.422755e-04, 6.478167e-04, 2.315132e-04, 2.241931e-04, 2.219367e-04, 9.387451e-04, 9.670396e-04, 7.686160e-04, 2.306263e-04, 2.679906e-04, 2.477931e-04, 2.362434e-04, 2.306449e-04, 2.362715e-04, 7.686260e-04, 8.856580e-04, 9.764559e-04]
BSH residual: rms 5.003997e-04    max 9.764559e-04
timer:         BSH residual     0.11s     0.11s
timer: Update subspace stuf     0.47s     0.47s
Subspace solution [*]  -0.02697855  -0.13119120  -0.08182308   0.45508753   0.78490530

timer:   Subspace transform     0.06s     0.06s
Norm of vector changes alpha : rms 5.234192e-04    max 9.806824e-04
ORTHOG2a: maxq trantol 7.596033e-05 3.571429e-07
timer:       Orthonormalize     0.15s     0.15s

Iteration 13 at time 94.2s

timer:        Boys localize     0.40s     0.40s
timer:      Rotate subspace     0.23s     0.23s
timer:       Make densities     0.06s     0.06s
delta rho 3.855420e-04 3.855420e-04 residuals 9.764559e-04 0.000000e+00
timer:       Nuclear energy     0.01s     0.01s
timer:              Coulomb     0.17s     0.17s
timer:        DFT potential     0.15s     0.15s
timer:                V*psi     0.50s     0.50s
timer:        Truncate Vpsi     0.61s     0.61s
timer:            PE matrix     0.06s     0.06s
timer:    KEmat reconstruct     0.01s     0.01s
timer:  KEmat differentiate     0.60s     0.60s
timer:       KEmat compress     0.07s     0.07s
timer: KEmat inner products     0.05s     0.05s
timer:            KE matrix     0.74s     0.74s
timer: Make fock matrix res     0.00s     0.00s

              kinetic     520.26446718
         nonlocal psp       0.00000000
   nuclear attraction   -1899.79998210
              coulomb     590.23770867
                  PCM       0.00000000
 exchange-correlation     -55.84302631
    nuclear-repulsion     322.19489893
                total    -522.94593365

timer: Compute residual stu     0.16s     0.16s
entering apply
timer:            Apply BSH     1.87s     1.87s
timer:     Truncate new psi     0.20s     0.20s
residuals [8.755361e-05, 9.383178e-05, 9.385243e-05, 1.238184e-04, 1.166001e-04, 8.944663e-05, 9.407924e-05, 2.009033e-04, 1.944343e-04, 2.206318e-04, 4.868421e-04, 4.868176e-04, 4.645097e-04, 1.949082e-04, 2.010242e-04, 2.008951e-04, 6.424548e-04, 6.624291e-04, 4.808963e-04, 1.958656e-04, 2.206748e-04, 2.030356e-04, 1.972010e-04, 1.959151e-04, 1.972186e-04, 4.809059e-04, 6.336194e-04, 6.345328e-04]
BSH residual: rms 3.468781e-04    max 6.624291e-04
timer:         BSH residual     0.12s     0.12s
timer: Update subspace stuf     0.48s     0.48s
Subspace solution [*]   0.03376051  -0.25523534  -0.19034145   0.35142617   1.06039011

timer:   Subspace transform     0.07s     0.07s
Norm of vector changes alpha : rms 4.024054e-04    max 6.969397e-04
ORTHOG2a: maxq trantol 7.685008e-05 3.571429e-07
timer:       Orthonormalize     0.16s     0.16s

Iteration 14 at time 101.0s

timer:        Boys localize     0.39s     0.39s
timer:      Rotate subspace     0.23s     0.23s
timer:       Make densities     0.06s     0.06s
delta rho 3.635975e-04 3.635975e-04 residuals 6.624291e-04 0.000000e+00
timer:       Nuclear energy     0.01s     0.01s
timer:              Coulomb     0.16s     0.16s
timer:        DFT potential     0.15s     0.15s
timer:                V*psi     0.50s     0.50s
timer:        Truncate Vpsi     0.60s     0.60s
timer:            PE matrix     0.03s     0.03s
timer:    KEmat reconstruct     0.01s     0.01s
timer:  KEmat differentiate     0.63s     0.63s
timer:       KEmat compress     0.07s     0.07s
timer: KEmat inner products     0.05s     0.05s
timer:            KE matrix     0.77s     0.77s
timer: Make fock matrix res     0.00s     0.00s

              kinetic     520.27024389
         nonlocal psp       0.00000000
   nuclear attraction   -1899.81196707
              coulomb     590.24469386
                  PCM       0.00000000
 exchange-correlation     -55.84381743
    nuclear-repulsion     322.19489893
                total    -522.94594783

timer: Compute residual stu     0.16s     0.16s
entering apply
timer:            Apply BSH     1.87s     1.87s
timer:     Truncate new psi     0.20s     0.20s
residuals [8.661902e-05, 8.825848e-05, 8.827638e-05, 1.220671e-04, 1.148830e-04, 8.931796e-05, 9.304318e-05, 2.029851e-04, 2.161580e-04, 2.449095e-04, 4.131434e-04, 4.131365e-04, 3.417354e-04, 2.163599e-04, 2.011401e-04, 2.029710e-04, 5.964890e-04, 6.306591e-04, 4.184346e-04, 2.215755e-04, 2.449239e-04, 2.302343e-04, 2.199913e-04, 2.215666e-04, 2.199997e-04, 4.184522e-04, 5.822700e-04, 6.114056e-04]
BSH residual: rms 3.233142e-04    max 6.306591e-04
timer:         BSH residual     0.12s     0.12s
timer: Update subspace stuf     0.47s     0.47s
Subspace solution [*]  -0.12202948  -0.15212869  -0.04362838   0.49154573   0.82624082

timer:   Subspace transform     0.07s     0.07s
Norm of vector changes alpha : rms 3.614619e-04    max 6.154547e-04
ORTHOG2a: maxq trantol 7.738577e-05 3.571429e-07
timer:       Orthonormalize     0.16s     0.16s

Iteration 15 at time 107.8s

timer:        Boys localize     0.40s     0.40s
timer:      Rotate subspace     0.24s     0.24s
timer:       Make densities     0.06s     0.06s
delta rho 2.751398e-04 2.751398e-04 residuals 6.306591e-04 0.000000e+00
timer:       Nuclear energy     0.01s     0.01s
timer:              Coulomb     0.16s     0.16s
timer:        DFT potential     0.13s     0.13s
timer:                V*psi     0.51s     0.51s
timer:        Truncate Vpsi     0.61s     0.61s
timer:            PE matrix     0.03s     0.03s
timer:    KEmat reconstruct     0.01s     0.01s
timer:  KEmat differentiate     0.64s     0.64s
timer:       KEmat compress     0.08s     0.08s
timer: KEmat inner products     0.05s     0.05s
timer:            KE matrix     0.79s     0.79s
timer: Make fock matrix res     0.00s     0.00s

              kinetic     520.26274615
         nonlocal psp       0.00000000
   nuclear attraction   -1899.79640944
              coulomb     590.23558955
                  PCM       0.00000000
 exchange-correlation     -55.84278003
    nuclear-repulsion     322.19489893
                total    -522.94595484

timer: Compute residual stu     0.19s     0.19s
entering apply
timer:            Apply BSH     1.92s     1.92s
timer:     Truncate new psi     0.21s     0.21s
residuals [8.747075e-05, 8.446970e-05, 8.451470e-05, 1.217335e-04, 1.138411e-04, 8.928413e-05, 9.239857e-05, 1.543989e-04, 1.532151e-04, 1.802230e-04, 3.241449e-04, 3.241275e-04, 2.643503e-04, 1.533795e-04, 1.546301e-04, 1.543889e-04, 4.149825e-04, 4.349032e-04, 3.126427e-04, 1.569543e-04, 1.802621e-04, 1.632257e-04, 1.554845e-04, 1.569517e-04, 1.555070e-04, 3.126540e-04, 4.006086e-04, 4.266690e-04]
BSH residual: rms 2.355418e-04    max 4.349032e-04
timer:         BSH residual     0.13s     0.13s
timer: Update subspace stuf     0.48s     0.48s
Subspace solution [*]   0.01740583  -0.20129155  -0.30927480   0.48109344   1.01206708

timer:   Subspace transform     0.07s     0.07s
Norm of vector changes alpha : rms 3.537825e-04    max 7.078775e-04
ORTHOG2a: maxq trantol 7.744578e-05 3.571429e-07
timer:       Orthonormalize     0.17s     0.17s

Iteration 16 at time 114.7s

timer:        Boys localize     0.40s     0.40s
timer:      Rotate subspace     0.25s     0.25s
timer:       Make densities     0.06s     0.06s
delta rho 2.203143e-04 2.203143e-04 residuals 4.349032e-04 0.000000e+00
timer:       Nuclear energy     0.02s     0.02s
timer:              Coulomb     0.18s     0.18s
timer:        DFT potential     0.15s     0.15s
timer:                V*psi     0.52s     0.52s
timer:        Truncate Vpsi     0.60s     0.60s
timer:            PE matrix     0.04s     0.04s
timer:    KEmat reconstruct     0.01s     0.01s
timer:  KEmat differentiate     0.62s     0.62s
timer:       KEmat compress     0.07s     0.07s
timer: KEmat inner products     0.05s     0.05s
timer:            KE matrix     0.77s     0.77s
timer: Make fock matrix res     0.00s     0.00s

              kinetic     520.26389449
         nonlocal psp       0.00000000
   nuclear attraction   -1899.79892105
              coulomb     590.23714201
                  PCM       0.00000000
 exchange-correlation     -55.84298509
    nuclear-repulsion     322.19489893
                total    -522.94597072


Converged!

timer:              Overlap     0.04s     0.04s
timer:      focka eigen sol     0.00s     0.00s
 
alpha eigenvalues
[*] -23.96256813 -23.96253626 -23.96159437 -18.38791306 -18.38669359  -9.84379026  -9.70079872  -1.04053244  -0.95201718  -0.95189653  -0.76756270  -0.69102241  -0.48656949  -0.38955625  -0.37773233  -0.37507418  -0.25650460  -0.25623937  -0.24595434  -0.22287701  -0.21529096  -0.19895671  -0.19542842  -0.18881961  -0.18042164  -0.05832228  -0.03967066  -0.03532991


 Dipole Moment (a.u.)
 -----------

     x:  -1.851507e+00
     y:  3.798735e-02
     z:  -1.385866e-07
 Total Dipole Moment:  1.851897e+00 

timer:               dipole     0.00s     0.00s
Orbitals are localized - energies are diagonal Fock matrix elements

Analysis of alpha MO vectors
timer:      Analyze vectors     0.70s     0.70s
timer: Compute eigen gesv a     0.00s     0.00s
  MO   0 : occ=1.00 : energy= -23.96148295 : center=(-2.03,2.34,-0.00) : radius=0.21
            F(2)   s(18) 0.995  
  MO   1 : occ=1.00 : energy= -23.96244506 : center=(-1.94,-1.18,-2.05) : radius=0.21
            F(4)   s(36) 0.995  
  MO   2 : occ=1.00 : energy= -23.96244515 : center=(-1.94,-1.18,2.05) : radius=0.21
            F(3)   s(27) 0.995  
  MO   3 : occ=1.00 : energy= -18.38631468 : center=(3.00,2.15,-0.00) : radius=0.23
            O(5)   s(45)-0.996  
  MO   4 : occ=1.00 : energy= -18.38517241 : center=(2.88,-2.17,-0.00) : radius=0.23
            O(6)   s(54) 0.996  
  MO   5 : occ=1.00 : energy=  -9.69938096 : center=(1.99,0.02,-0.00) : radius=0.32
            C(1)   s( 9)-0.995  
  MO   6 : occ=1.00 : energy=  -9.84261415 : center=(-0.97,0.03,-0.00) : radius=0.32
            C(0)   s( 0)-0.996  
  MO   7 : occ=1.00 : energy=  -0.63004202 : center=(-1.60,-0.77,-1.36) : radius=1.23
            F(4)  pz(40) 0.390     F(4)  pz(44) 0.256     C(0)  pz( 4)-0.251     F(4)  py(39) 0.229     F(4)   s(41) 0.207     F(4)   s(37) 0.199     F(4)  px(38) 0.196     C(0)   s( 1) 0.196  
  MO   8 : occ=1.00 : energy=  -0.40420559 : center=(-1.85,2.53,-0.43) : radius=1.21
            F(2)  pz(22)-0.458     F(2)   s(23) 0.319     F(2)  pz(26)-0.316     F(2)   s(19) 0.271     F(2)  py(21) 0.258     F(2)  py(25) 0.176     F(2)  px(20) 0.170  
  MO   9 : occ=1.00 : energy=  -0.40690111 : center=(-2.43,-1.11,1.95) : radius=1.22
            F(3)  px(29) 0.550     F(3)  px(33) 0.382     F(3)   s(32)-0.294     F(3)   s(28)-0.270  
  MO  10 : occ=1.00 : energy=  -0.35598431 : center=(2.64,1.45,-0.46) : radius=1.52
            O(5)  pz(49) 0.382     O(5)  pz(53) 0.278     O(5)  py(48) 0.257     C(1)  py(12)-0.220     C(1)  pz(13) 0.199     O(5)   s(46)-0.193     C(1)   s(10)-0.176     O(5)   s(50)-0.155  
  MO  11 : occ=1.00 : energy=  -0.35598490 : center=(2.64,1.45,0.46) : radius=1.52
            O(5)  pz(49) 0.382     O(5)  pz(53) 0.278     O(5)  py(48)-0.257     C(1)  py(12) 0.220     C(1)  pz(13) 0.199     O(5)   s(46) 0.193     C(1)   s(10) 0.176     O(5)   s(50) 0.155  
  MO  12 : occ=1.00 : energy=  -0.33599051 : center=(0.40,0.05,0.00) : radius=1.52
            C(0)  px( 2) 0.415     C(0)   s( 5) 0.361     C(1)  px(11)-0.348     C(0)   s( 1) 0.272     C(1)   s(10) 0.201     C(1)   s(14) 0.188  
  MO  13 : occ=1.00 : energy=  -0.40420510 : center=(-1.85,2.53,0.43) : radius=1.21
            F(2)  pz(22)-0.458     F(2)   s(23)-0.319     F(2)  pz(26)-0.316     F(2)   s(19)-0.271     F(2)  py(21)-0.258     F(2)  py(25)-0.176     F(2)  px(20)-0.170  
  MO  14 : occ=1.00 : energy=  -0.63375788 : center=(-1.67,1.56,-0.00) : radius=1.23
            F(2)  py(21)-0.445     F(2)  py(25)-0.291     C(0)  py( 3) 0.289     F(2)   s(23) 0.220     F(2)  px(20) 0.214     C(0)   s( 1) 0.198     F(2)   s(19) 0.195  
  MO  15 : occ=1.00 : energy=  -0.63004215 : center=(-1.60,-0.77,1.36) : radius=1.23
            F(3)  pz(31) 0.390     F(3)  pz(35) 0.256     C(0)  pz( 4)-0.251     F(3)  py(30)-0.229     F(3)   s(32)-0.207     F(3)   s(28)-0.199     F(3)  px(29)-0.196     C(0)   s( 1)-0.196  
  MO  16 : occ=1.00 : energy=  -0.20619878 : center=(2.42,-2.55,-0.00) : radius=1.47
            O(6)  py(57) 0.380     O(6)   s(59)-0.347     O(6)  px(56) 0.320     O(6)   s(55)-0.287     O(6)  py(61) 0.274     O(6)  px(60) 0.225     O(5)   s(50)-0.203  
  MO  17 : occ=1.00 : energy=  -0.20834498 : center=(3.57,2.09,0.00) : radius=1.49
            O(5)  px(47)-0.492     O(5)   s(50)-0.359     O(5)  px(51)-0.348     O(5)   s(46)-0.296     C(0)   s( 5)-0.240     C(1)  px(15)-0.196  
  MO  18 : occ=1.00 : energy=  -0.35390043 : center=(2.58,-1.45,-0.46) : radius=1.51
            O(6)  pz(58)-0.384     O(6)  pz(62)-0.278     O(6)  py(57) 0.267     C(1)  py(12)-0.224     C(1)  pz(13)-0.200     O(6)   s(55) 0.192     C(1)   s(10) 0.174     O(6)   s(59) 0.154  
  MO  19 : occ=1.00 : energy=  -0.40545538 : center=(-1.73,-0.91,2.42) : radius=1.21
            F(3)  pz(31)-0.449     F(3)   s(32)-0.328     F(3)  pz(35)-0.305     F(3)   s(28)-0.265     F(3)  py(30)-0.261     F(3)  px(29)-0.192     F(3)  py(34)-0.178  
  MO  20 : occ=1.00 : energy=  -0.40690086 : center=(-2.43,-1.11,-1.95) : radius=1.22
            F(4)  px(38) 0.550     F(4)  px(42) 0.382     F(4)   s(41)-0.294     F(4)   s(37)-0.270  
  MO  21 : occ=1.00 : energy=  -0.40525254 : center=(-2.52,2.20,0.00) : radius=1.22
            F(2)  px(20)-0.550     F(2)  px(24)-0.377     F(2)   s(23) 0.282     F(2)   s(19) 0.270  
  MO  22 : occ=1.00 : energy=  -0.40473146 : center=(-1.76,-1.64,1.98) : radius=1.20
            F(3)  py(30) 0.526     F(3)  py(34) 0.362     F(3)   s(32)-0.312     F(3)   s(28)-0.272     F(3)  px(29)-0.168  
  MO  23 : occ=1.00 : energy=  -0.40545531 : center=(-1.73,-0.91,-2.42) : radius=1.21
            F(4)  pz(40)-0.449     F(4)   s(41) 0.328     F(4)  pz(44)-0.305     F(4)   s(37) 0.265     F(4)  py(39) 0.261     F(4)  px(38) 0.192     F(4)  py(43) 0.178  
  MO  24 : occ=1.00 : energy=  -0.40473152 : center=(-1.76,-1.64,-1.98) : radius=1.20
            F(4)  py(39) 0.526     F(4)  py(43) 0.362     F(4)   s(41)-0.312     F(4)   s(37)-0.272     F(4)  px(38)-0.168  
  MO  25 : occ=1.00 : energy=  -0.35390053 : center=(2.58,-1.45,0.46) : radius=1.51
            O(6)  pz(58)-0.384     O(6)  pz(62)-0.278     O(6)  py(57)-0.267     C(1)  py(12) 0.224     C(1)  pz(13)-0.200     O(6)   s(55)-0.192     C(1)   s(10)-0.174     O(6)   s(59)-0.154  
  MO  26 : occ=1.00 : energy=  -0.20876088 : center=(2.59,2.58,-0.00) : radius=1.46
            O(5)  py(48)-0.405     O(5)   s(50)-0.339     O(5)  py(52)-0.294     O(5)   s(46)-0.294     O(5)  px(47) 0.283     O(6)   s(59)-0.205     O(5)  px(51) 0.194  
  MO  27 : occ=1.00 : energy=  -0.21107392 : center=(3.45,-2.16,-0.00) : radius=1.50
            O(6)  px(56)-0.482     O(6)   s(59)-0.358     O(6)  px(60)-0.343     O(6)   s(55)-0.303     C(0)   s( 5)-0.213     C(1)  px(15)-0.185  

Solving NDIM= 3  with thresh 1.000000e-06     k 8    conv 1.000000e-04 

timer:     Project vnuclear     1.07s     1.07s
timer:     project ao basis     0.89s     0.89s

Iteration 0 at time 121.9s

timer:        Boys localize     0.43s     0.43s
timer:      Rotate subspace     0.15s     0.15s
timer:       Make densities     0.06s     0.06s
timer:       Load balancing     0.00s     0.00s
timer:       Nuclear energy     0.07s     0.07s
timer:              Coulomb     0.56s     0.56s
timer:        DFT potential     0.19s     0.19s
timer:                V*psi     3.00s     3.00s
timer:        Truncate Vpsi     2.71s     2.71s
timer:            PE matrix     0.06s     0.06s
timer:    KEmat reconstruct     0.02s     0.02s
timer:  KEmat differentiate     0.60s     0.60s
timer:       KEmat compress     0.11s     0.11s
timer: KEmat inner products     0.07s     0.07s
timer:            KE matrix     0.81s     0.81s
timer: Make fock matrix res     0.00s     0.00s

              kinetic     520.26685887
         nonlocal psp       0.00000000
   nuclear attraction   -1899.79891809
              coulomb     590.23583389
                  PCM       0.00000000
 exchange-correlation     -55.84298148
    nuclear-repulsion     322.19489893
                total    -522.94430789

timer: Compute residual stu     0.46s     0.46s
entering apply
timer:            Apply BSH    13.87s    13.87s
timer:     Truncate new psi     0.76s     0.76s
residuals [2.845296e-04, 2.824740e-04, 2.824994e-04, 3.346052e-04, 3.592328e-04, 2.841561e-04, 3.267424e-04, 3.614203e-04, 4.006673e-04, 4.162638e-04, 4.647046e-04, 4.647446e-04, 3.723672e-04, 4.006351e-04, 3.766577e-04, 3.614145e-04, 6.202154e-04, 6.358924e-04, 5.234198e-04, 4.249928e-04, 4.162746e-04, 4.391527e-04, 4.053213e-04, 4.250083e-04, 4.053296e-04, 5.234080e-04, 6.017575e-04, 5.534681e-04]
BSH residual: rms 4.308818e-04    max 6.358924e-04
timer:         BSH residual     0.29s     0.29s
timer: Update subspace stuf     0.11s     0.11s
Subspace solution [*]   1.00000000

timer:   Subspace transform     0.05s     0.05s
Norm of vector changes alpha : rms 4.308818e-04    max 6.358924e-04
ORTHOG2a: maxq trantol 6.928669e-05 3.571429e-09
timer:       Orthonormalize     0.39s     0.39s

Iteration 1 at time 147.0s

timer:        Boys localize     0.97s     0.97s
timer:      Rotate subspace     0.54s     0.54s
timer:       Make densities     0.17s     0.17s
timer:       Load balancing     0.00s     0.00s
delta rho 1.053767e-03 1.053767e-03 residuals 6.358924e-04 0.000000e+00
timer:       Nuclear energy     0.06s     0.06s
timer:              Coulomb     1.03s     1.03s
timer:        DFT potential     0.40s     0.40s
timer:                V*psi     1.13s     1.13s
timer:        Truncate Vpsi     1.49s     1.49s
timer:            PE matrix     0.08s     0.08s
timer:    KEmat reconstruct     0.04s     0.04s
timer:  KEmat differentiate     1.30s     1.30s
timer:       KEmat compress     0.24s     0.24s
timer: KEmat inner products     0.12s     0.12s
timer:            KE matrix     1.70s     1.70s
timer: Make fock matrix res     0.00s     0.00s

              kinetic     520.27011257
         nonlocal psp       0.00000000
   nuclear attraction   -1899.80606378
              coulomb     590.23186462
                  PCM       0.00000000
 exchange-correlation     -55.84302038
    nuclear-repulsion     322.19489893
                total    -522.95220804

timer: Compute residual stu     0.53s     0.53s
entering apply
timer:            Apply BSH    16.89s    16.89s
timer:     Truncate new psi     0.83s     0.83s
residuals [4.147461e-05, 3.061073e-05, 3.061182e-05, 3.961775e-05, 4.145433e-05, 5.374051e-05, 6.368290e-05, 9.177160e-05, 1.125584e-04, 1.352533e-04, 3.861481e-04, 3.861452e-04, 1.784855e-04, 1.125653e-04, 9.081400e-05, 9.175353e-05, 5.472434e-04, 6.527855e-04, 4.011434e-04, 1.223606e-04, 1.353011e-04, 1.276440e-04, 1.088099e-04, 1.223872e-04, 1.088646e-04, 4.011534e-04, 5.561042e-04, 5.582878e-04]
BSH residual: rms 2.783398e-04    max 6.527855e-04
timer:         BSH residual     0.35s     0.35s
timer: Update subspace stuf     0.37s     0.37s
Subspace solution [*]   0.14727927   0.85272073

timer:   Subspace transform     0.08s     0.08s
Norm of vector changes alpha : rms 2.356188e-04    max 5.479316e-04
ORTHOG2a: maxq trantol 4.872307e-05 3.571429e-09
timer:       Orthonormalize     0.38s     0.38s

Iteration 2 at time 175.7s

timer:        Boys localize     0.91s     0.91s
timer:      Rotate subspace     0.49s     0.49s
timer:       Make densities     0.16s     0.16s
delta rho 3.327541e-04 3.327541e-04 residuals 6.527855e-04 0.000000e+00
timer:       Nuclear energy     0.05s     0.05s
timer:              Coulomb     0.93s     0.93s
timer:        DFT potential     0.33s     0.33s
timer:                V*psi     1.03s     1.03s
timer:        Truncate Vpsi     1.24s     1.24s
timer:            PE matrix     0.09s     0.09s
timer:    KEmat reconstruct     0.04s     0.04s
timer:  KEmat differentiate     1.24s     1.24s
timer:       KEmat compress     0.23s     0.23s
timer: KEmat inner products     0.12s     0.12s
timer:            KE matrix     1.64s     1.64s
timer: Make fock matrix res     0.00s     0.00s

              kinetic     520.28905805
         nonlocal psp       0.00000000
   nuclear attraction   -1899.83971066
              coulomb     590.24852973
                  PCM       0.00000000
 exchange-correlation     -55.84499741
    nuclear-repulsion     322.19489893
                total    -522.95222137

timer: Compute residual stu     0.54s     0.54s
entering apply
timer:            Apply BSH    15.84s    15.84s
timer:     Truncate new psi     0.79s     0.79s
residuals [1.702613e-05, 1.180719e-05, 1.180794e-05, 1.812516e-05, 1.817132e-05, 2.598713e-05, 3.198975e-05, 6.142046e-05, 5.906414e-05, 7.826617e-05, 4.448694e-04, 4.448902e-04, 1.436001e-04, 5.906738e-05, 5.690712e-05, 6.139488e-05, 6.348671e-04, 6.641113e-04, 4.408543e-04, 6.839432e-05, 7.829820e-05, 7.416036e-05, 6.477154e-05, 6.845358e-05, 6.483116e-05, 4.408440e-04, 6.368417e-04, 6.463273e-04]
BSH residual: rms 3.005211e-04    max 6.641113e-04
timer:         BSH residual     0.35s     0.35s
timer: Update subspace stuf     0.56s     0.56s
Subspace solution [*]  -0.07356048   0.50981922   0.56374125

timer:   Subspace transform     0.12s     0.12s
Norm of vector changes alpha : rms 1.486054e-04    max 3.193062e-04
ORTHOG2a: maxq trantol 3.522703e-05 3.571429e-09
timer:       Orthonormalize     0.37s     0.37s

Iteration 3 at time 202.8s

timer:        Boys localize     0.89s     0.89s
timer:      Rotate subspace     0.48s     0.48s
timer:       Make densities     0.16s     0.16s
delta rho 1.138342e-04 1.138342e-04 residuals 6.641113e-04 0.000000e+00
timer:       Nuclear energy     0.05s     0.05s
timer:              Coulomb     0.87s     0.87s
timer:        DFT potential     0.35s     0.35s
timer:                V*psi     1.02s     1.02s
timer:        Truncate Vpsi     1.20s     1.20s
timer:            PE matrix     0.08s     0.08s
timer:    KEmat reconstruct     0.04s     0.04s
timer:  KEmat differentiate     1.26s     1.26s
timer:       KEmat compress     0.23s     0.23s
timer: KEmat inner products     0.12s     0.12s
timer:            KE matrix     1.65s     1.65s
timer: Make fock matrix res     0.00s     0.00s

              kinetic     520.28808867
         nonlocal psp       0.00000000
   nuclear attraction   -1899.83411861
              coulomb     590.24347031
                  PCM       0.00000000
 exchange-correlation     -55.84456370
    nuclear-repulsion     322.19489893
                total    -522.95222440

timer: Compute residual stu     0.48s     0.48s
entering apply
timer:            Apply BSH    15.62s    15.62s
timer:     Truncate new psi     0.78s     0.78s
residuals [7.340500e-06, 5.375243e-06, 5.375258e-06, 8.117622e-06, 7.800624e-06, 1.362996e-05, 1.732149e-05, 3.905026e-05, 2.660638e-05, 4.448241e-05, 1.104191e-04, 1.104244e-04, 9.639801e-05, 2.661744e-05, 3.552443e-05, 3.905304e-05, 1.557750e-04, 1.491264e-04, 1.135598e-04, 3.245049e-05, 4.447366e-05, 4.516840e-05, 2.593939e-05, 3.246132e-05, 2.594659e-05, 1.135653e-04, 1.482943e-04, 1.533395e-04]
BSH residual: rms 7.731717e-05    max 1.557750e-04
timer:         BSH residual     0.35s     0.35s
timer: Update subspace stuf     0.78s     0.78s
Subspace solution [*]  -0.02069233  -0.43160003  -0.18993727   1.64222963

timer:   Subspace transform     0.16s     0.16s
Norm of vector changes alpha : rms 1.479030e-04    max 3.073572e-04
ORTHOG2a: maxq trantol 1.970512e-05 3.571429e-09
timer:       Orthonormalize     0.35s     0.35s

Iteration 4 at time 229.6s

timer:        Boys localize     0.92s     0.92s
timer:      Rotate subspace     0.48s     0.48s
timer:       Make densities     0.16s     0.16s
delta rho 1.205494e-04 1.205494e-04 residuals 1.557750e-04 0.000000e+00
timer:       Nuclear energy     0.06s     0.06s
timer:              Coulomb     1.09s     1.09s
timer:        DFT potential     0.41s     0.41s
timer:                V*psi     1.07s     1.07s
timer:        Truncate Vpsi     1.28s     1.28s
timer:            PE matrix     0.09s     0.09s
timer:    KEmat reconstruct     0.04s     0.04s
timer:  KEmat differentiate     1.32s     1.32s
timer:       KEmat compress     0.23s     0.23s
timer: KEmat inner products     0.13s     0.13s
timer:            KE matrix     1.72s     1.72s
timer: Make fock matrix res     0.00s     0.00s

              kinetic     520.28623826
         nonlocal psp       0.00000000
   nuclear attraction   -1899.82666369
              coulomb     590.23736946
                  PCM       0.00000000
 exchange-correlation     -55.84406370
    nuclear-repulsion     322.19489893
                total    -522.95222074


Converged!

timer:              Overlap     0.08s     0.08s
timer:      focka eigen sol     0.00s     0.00s
 
alpha eigenvalues
[*] -23.96235207 -23.96235041 -23.96135092 -18.38791554 -18.38674081  -9.84392821  -9.70084911  -1.04092306  -0.95223842  -0.95206327  -0.76777223  -0.69115855  -0.48683417  -0.38982402  -0.37788412  -0.37522856  -0.25665781  -0.25639828  -0.24615213  -0.22305807  -0.21548351  -0.19912584  -0.19556484  -0.18887963  -0.18054835  -0.05833669  -0.03979045  -0.03543130


 Dipole Moment (a.u.)
 -----------

     x:  -1.854513e+00
     y:  3.815520e-02
     z:  9.733436e-08
 Total Dipole Moment:  1.854905e+00 

timer:               dipole     0.01s     0.01s
Orbitals are localized - energies are diagonal Fock matrix elements

Analysis of alpha MO vectors
timer:      Analyze vectors     1.68s     1.68s
timer: Compute eigen gesv a     0.00s     0.00s
  MO   0 : occ=1.00 : energy= -23.96121160 : center=(-2.03,2.34,-0.00) : radius=0.21
            F(2)   s(18) 0.995  
  MO   1 : occ=1.00 : energy= -23.96225298 : center=(-1.94,-1.18,-2.05) : radius=0.21
            F(4)   s(36) 0.995  
  MO   2 : occ=1.00 : energy= -23.96225293 : center=(-1.94,-1.18,2.05) : radius=0.21
            F(3)   s(27) 0.995  
  MO   3 : occ=1.00 : energy= -18.38632719 : center=(2.99,2.15,-0.00) : radius=0.23
            O(5)   s(45)-0.996  
  MO   4 : occ=1.00 : energy= -18.38519251 : center=(2.88,-2.17,-0.00) : radius=0.23
            O(6)   s(54) 0.996  
  MO   5 : occ=1.00 : energy=  -9.69943634 : center=(1.99,0.02,-0.00) : radius=0.32
            C(1)   s( 9)-0.995  
  MO   6 : occ=1.00 : energy=  -9.84276551 : center=(-0.97,0.03,-0.00) : radius=0.32
            C(0)   s( 0)-0.996  
  MO   7 : occ=1.00 : energy=  -0.63030958 : center=(-1.60,-0.77,-1.36) : radius=1.23
            F(4)  pz(40) 0.390     F(4)  pz(44) 0.256     C(0)  pz( 4)-0.251     F(4)  py(39) 0.229     F(4)   s(41) 0.207     F(4)   s(37) 0.199     C(0)   s( 1) 0.196     F(4)  px(38) 0.196  
  MO   8 : occ=1.00 : energy=  -0.40438160 : center=(-1.85,2.53,-0.43) : radius=1.21
            F(2)  pz(22)-0.458     F(2)   s(23) 0.319     F(2)  pz(26)-0.316     F(2)   s(19) 0.271     F(2)  py(21) 0.259     F(2)  py(25) 0.176     F(2)  px(20) 0.170  
  MO   9 : occ=1.00 : energy=  -0.40709758 : center=(-2.43,-1.11,1.95) : radius=1.22
            F(3)  px(29) 0.551     F(3)  px(33) 0.382     F(3)   s(32)-0.294     F(3)   s(28)-0.270  
  MO  10 : occ=1.00 : energy=  -0.35610970 : center=(2.64,1.45,-0.46) : radius=1.52
            O(5)  pz(49) 0.382     O(5)  pz(53) 0.278     O(5)  py(48) 0.257     C(1)  py(12)-0.220     C(1)  pz(13) 0.199     O(5)   s(46)-0.193     C(1)   s(10)-0.176     O(5)   s(50)-0.155  
  MO  11 : occ=1.00 : energy=  -0.35610966 : center=(2.64,1.45,0.46) : radius=1.52
            O(5)  pz(49) 0.382     O(5)  pz(53) 0.278     O(5)  py(48)-0.257     C(1)  py(12) 0.220     C(1)  pz(13) 0.199     O(5)   s(46) 0.193     C(1)   s(10) 0.176     O(5)   s(50) 0.155  
  MO  12 : occ=1.00 : energy=  -0.33629763 : center=(0.40,0.05,-0.00) : radius=1.52
            C(0)  px( 2) 0.414     C(0)   s( 5) 0.360     C(1)  px(11)-0.349     C(0)   s( 1) 0.272     C(1)   s(10) 0.201     C(1)   s(14) 0.188  
  MO  13 : occ=1.00 : energy=  -0.40438154 : center=(-1.85,2.53,0.43) : radius=1.21
            F(2)  pz(22)-0.458     F(2)   s(23)-0.319     F(2)  pz(26)-0.316     F(2)   s(19)-0.271     F(2)  py(21)-0.259     F(2)  py(25)-0.176     F(2)  px(20)-0.170  
  MO  14 : occ=1.00 : energy=  -0.63400570 : center=(-1.67,1.56,-0.00) : radius=1.23
            F(2)  py(21)-0.445     F(2)  py(25)-0.291     C(0)  py( 3) 0.289     F(2)   s(23) 0.220     F(2)  px(20) 0.214     C(0)   s( 1) 0.199     F(2)   s(19) 0.195  
  MO  15 : occ=1.00 : energy=  -0.63030971 : center=(-1.60,-0.77,1.36) : radius=1.23
            F(3)  pz(31) 0.390     F(3)  pz(35) 0.256     C(0)  pz( 4)-0.251     F(3)  py(30)-0.229     F(3)   s(32)-0.207     F(3)   s(28)-0.199     C(0)   s( 1)-0.196     F(3)  px(29)-0.196  
  MO  16 : occ=1.00 : energy=  -0.20617618 : center=(2.42,-2.55,0.00) : radius=1.47
            O(6)  py(57) 0.379     O(6)   s(59)-0.346     O(6)  px(56) 0.321     O(6)   s(55)-0.287     O(6)  py(61) 0.274     O(6)  px(60) 0.226     O(5)   s(50)-0.203  
  MO  17 : occ=1.00 : energy=  -0.20849912 : center=(3.57,2.09,0.00) : radius=1.49
            O(5)  px(47)-0.492     O(5)   s(50)-0.359     O(5)  px(51)-0.348     O(5)   s(46)-0.296     C(0)   s( 5)-0.240     C(1)  px(15)-0.196  
  MO  18 : occ=1.00 : energy=  -0.35404677 : center=(2.58,-1.45,-0.46) : radius=1.51
            O(6)  pz(58)-0.384     O(6)  pz(62)-0.279     O(6)  py(57) 0.267     C(1)  py(12)-0.224     C(1)  pz(13)-0.200     O(6)   s(55) 0.192     C(1)   s(10) 0.174     O(6)   s(59) 0.154  
  MO  19 : occ=1.00 : energy=  -0.40565365 : center=(-1.73,-0.91,2.42) : radius=1.21
            F(3)  pz(31)-0.449     F(3)   s(32)-0.328     F(3)  pz(35)-0.305     F(3)   s(28)-0.265     F(3)  py(30)-0.261     F(3)  px(29)-0.192     F(3)  py(34)-0.178  
  MO  20 : occ=1.00 : energy=  -0.40709728 : center=(-2.43,-1.11,-1.95) : radius=1.22
            F(4)  px(38) 0.551     F(4)  px(42) 0.382     F(4)   s(41)-0.294     F(4)   s(37)-0.270  
  MO  21 : occ=1.00 : energy=  -0.40543382 : center=(-2.52,2.20,0.00) : radius=1.22
            F(2)  px(20)-0.550     F(2)  px(24)-0.377     F(2)   s(23) 0.282     F(2)   s(19) 0.270  
  MO  22 : occ=1.00 : energy=  -0.40491268 : center=(-1.76,-1.64,1.98) : radius=1.20
            F(3)  py(30) 0.526     F(3)  py(34) 0.362     F(3)   s(32)-0.312     F(3)   s(28)-0.272     F(3)  px(29)-0.168  
  MO  23 : occ=1.00 : energy=  -0.40565394 : center=(-1.73,-0.91,-2.42) : radius=1.21
            F(4)  pz(40)-0.449     F(4)   s(41) 0.328     F(4)  pz(44)-0.305     F(4)   s(37) 0.265     F(4)  py(39) 0.261     F(4)  px(38) 0.192     F(4)  py(43) 0.178  
  MO  24 : occ=1.00 : energy=  -0.40491265 : center=(-1.76,-1.64,-1.98) : radius=1.20
            F(4)  py(39) 0.526     F(4)  py(43) 0.362     F(4)   s(41)-0.312     F(4)   s(37)-0.272     F(4)  px(38)-0.168  
  MO  25 : occ=1.00 : energy=  -0.35404684 : center=(2.58,-1.45,0.46) : radius=1.51
            O(6)  pz(58)-0.384     O(6)  pz(62)-0.279     O(6)  py(57)-0.267     C(1)  py(12) 0.224     C(1)  pz(13)-0.200     O(6)   s(55)-0.192     C(1)   s(10)-0.174     O(6)   s(59)-0.154  
  MO  26 : occ=1.00 : energy=  -0.20877806 : center=(2.59,2.58,-0.00) : radius=1.46
            O(5)  py(48)-0.404     O(5)   s(50)-0.339     O(5)  py(52)-0.294     O(5)   s(46)-0.294     O(5)  px(47) 0.283     O(6)   s(59)-0.206     O(5)  px(51) 0.194  
  MO  27 : occ=1.00 : energy=  -0.21118760 : center=(3.45,-2.16,0.00) : radius=1.50
            O(6)  px(56)-0.482     O(6)   s(59)-0.358     O(6)  px(60)-0.343     O(6)   s(55)-0.303     C(0)   s( 5)-0.213     C(1)  px(15)-0.185  
timer:             plotting     0.00s     0.00s

    Parallel environment
    --------------------
                  #nodes    1
       #threads per node    27+main = 28
          #total threads    28

  RMI message statistics (min / avg / max)
  ----------------------
   #messages in server q    0.00e+00 / 0.00e+00 / 0.00e+00
 #messages sent per node    0.00e+00 / 0.00e+00 / 0.00e+00
    #bytes sent per node    0.00e+00 / 0.00e+00 / 0.00e+00
 #messages recv per node    0.00e+00 / 0.00e+00 / 0.00e+00
    #bytes recv per node    0.00e+00 / 0.00e+00 / 0.00e+00
        #msgs systemwide    0.00e+00
       #bytes systemwide    0.00e+00

  Thread pool statistics (min / avg / max)
  ----------------------
         #tasks per node    0.00e+00 / 0.00e+00 / 0.00e+00
     #max q len per node    0.00e+00 / 0.00e+00 / 0.00e+00
  #hi-pri tasks per node    0.00e+00 / 0.00e+00 / 0.00e+00

         Total wall time    241.1s
         Total  cpu time    241.1s

