#MADNESS is slower for these molecules
bicyclo[3.1.0]hexane    109.900000
phosphine               28.600000
beryllium_sulfide       41.000000
lithium_oxide           27.000000
carbon_monoxide         20.500000
magnesium_oxide         31.800000
aluminum_nitride        60.800000
imidogen                21.300000
methyl_formate          48.700000
hypochlorite            122.000000
methanol                23.200000
vinyl_fluoride          42.600000
formaldehyde            24.900000
sulfur_diatomic         144.400000
acetaldehyde            37.000000
boron_monosulfide       75.700000
beryllium_monofluoride  33.700000
phosphorus_tribromide   984.200000
sulfur_dioxide          61.800000
methanethiol_radical    76.600000
hydroxyl_radical        22.900000
lithium_monosulfide     62.100000
phosphorus_dioxide      123.200000
formaldoxime_zwitterion 45.500000
tetrafluoroethylene     94.800000
boron_dioxide           61.100000
cyano_radical           39.700000
boron_nitride           43.700000
acetyl_chloride         79.300000
magnesium_diatomic      42.600000
methyl_chloride         41.000000
dimethyl_ether          49.200000
methyl_ketene           42.800000
tetrafluorosilane       164.600000
silicon_monosulfide     53.900000
sulfur_monochloride     123.800000
neon_dimer              29.400000
formaldoxime            33.300000
lithium_chloride        31.600000
isopropyl_radical       71.900000
cyanogen                44.800000
boron_monohydride       8.000000
thiirane                56.900000
sodium_chloride         50.200000
magnesium_sulfide       50.700000
methyl_silane           33.300000
aluminum_trichloride    145.300000
methanethiol            44.700000
hypochlorous_acid       47.400000
lithium_hydride         6.800000
monosulfur_monofluoride 94.300000
ammonia                 12.900000
boron_monofluoride      19.700000
carbon_tetrafluoride    92.800000
silicon_diatomic        108.600000
acetylene               25.800000
phosphorus_trichloride  170.500000
magnesium_monochloride  100.400000
carbon_disulfide        90.700000
magnesium_monofluoride  52.900000
methyl_radical          17.300000
ethylene                21.500000
trifluoroacetate_anion  229.400000
bromoform               760.500000
nitrogen_trifluoride    71.700000
phosphorus_tetramer     129.300000
phosphorus_monochloride 119.400000
mercapto_radical        59.300000
pentane                 89.200000
isopropyl_alcohol       55.000000
glyoxal_trans           60.600000
ethanol                 37.600000
nitrogen_monofluoride   48.100000
vinyl_chloride          60.500000
ammonia_oxide           24.500000
methylenecyclopropane   46.900000
oxygen_monofluoride     65.800000
methylamine             24.600000
hydrogen_chloride       35.400000
ethanethiol             60.200000
acetamide               63.900000
nitromethane            62.500000
hydrogen_sulfide        29.100000
monosodium_sulfide      89.500000
silicon_nitride         80.200000
hydrogen_cyanide        21.400000
carbonyl_sulfide        57.200000
chlorine_trifluoride    107.200000
ethanol_radical         71.500000
phosphorus_trifluoride  81.000000
nitrogen_diatomic       20.700000
acetone                 67.800000
glycine_zwitterion      91.600000
hexane                  116.500000
pyridine                89.000000
silane                  26.300000
isobutylene             64.900000
fluorine_diatomic       27.900000
ethylamine              37.800000
aluminum_diatomic       108.800000
methyl_nitrite          54.000000
isobutane               56.500000
boron_trifluoride       51.400000
nitrosyl_chloride       75.500000
silicon_monophosphide   85.200000
pyrrole                 58.500000
aluminum_monoxide       72.200000
trifluoromethane        61.800000
silicon_monofluoride    88.700000
ethyl_chloride          62.700000
bicyclo[1.1.0]butane    61.000000
silyl_radical           45.800000
cyclopentane            87.400000
dimethyl_sulfoxide      92.600000
trifluoroacetic_acid    125.300000
nitric_oxide            45.000000
hydrazine               32.100000
aluminum_carbide        67.100000
sulfur_monoxide         107.300000
hydroxymethyl_radical   50.100000
dimethyl_sulfide        64.200000
beryllium_monochloride  72.200000
n_propyl_chloride       78.100000
chloroform              119.500000
phosphorus_monosulfide  166.900000
cyclopropane            42.500000
formyl_radical          44.100000
spiropentane            66.100000
acetonitrile            30.700000
disilane                65.600000
methylene_chloride      188.600000
methlidyne_radical      17.800000
trifluoro_acetonitrile  100.100000
acetyl_radical          57.900000
silylene_t              40.500000
oxygen_water            26.800000
chlorine_monofluoride   52.900000
sodium_hydride          17.900000
nitrogen_tribromide     746.400000
phosphorus_pentafluoride189.000000
aminyl_radical          22.700000
allene                  28.400000
methane                 12.700000
carbon_monosulfide      41.400000
sulfur_hexafluoride     165.800000
nonane                  193.200000
furan                   57.900000
methanol_radical        47.600000
sodium_lithium          19.700000
ethylene_oxide          34.000000
chlorine_diatomic       84.900000
aziridine               37.100000
methoxyethane           51.400000
ethane                  24.700000
carbon_tetrabromide     1360.000000
beryllium_diatomic      11.500000
tetrachloroethylene     454.700000
silicon_monoxide        35.800000
trimethylamine          67.000000
carbonyl_fluoride       63.400000
phosphorus_mononitride  37.400000
carbon_tetrachloride    164.200000
acrylonitrile           38.600000
sodium_hydroxide        30.000000
methylene_t             16.000000
carbon_monophosphide    74.500000
formic_acid             44.000000
aluminum_trifluoride    73.800000
vinyl_radical           38.800000
nitrous_oxide           36.500000
2_butyne                55.100000
hydrogen_diatomic       4.000000
beryllium_dihydride     7.400000
beryllium_monohydride   10.200000
sodium_monoxide         49.100000
phosphino_radical       46.800000
boron_monochloride      45.800000
ozone                   50.800000
water                   12.700000
acetate_anion           96.200000
tetrachlorosilane       267.000000
oxygen_diatomic         42.900000
heptane                 140.100000
methylene_s             9.900000
octane                  158.000000
beryllium_difluoride    38.100000
dilithium_oxide         21.800000
thiophene               92.800000
ketene                  31.900000
phosphorus_monofluoride 70.200000
boron_diatomic          24.900000
nitrogen_dioxide        79.000000
argon_dimer             72.000000
sodium_diatomic         39.100000
dimethylamine           43.300000
cyclobutene             46.300000
acetic_acid             50.200000
hydrogen_fluoride       14.300000
phosphorus_diatomic     56.600000
sodium_fluoride         28.400000
lithium_diatomic        8.500000
difluoromethane         41.700000
propene                 42.000000
difluorine_monoxide     49.700000
phosphorus_monoxide     77.600000
tert_butyl_radical      94.300000
lithium_fluoride        17.700000
acetyl_fluoride         59.400000
lithium_hydroxide       20.500000
propyne                 27.600000
aluminum_monosulfide    111.600000
boron_monocarbide       33.100000
boron_trichloride       108.600000
ethyl_radical           35.400000
magnesium_hydroxide     285.700000
hydrogen_peroxide       37.300000
propane                 36.800000
butane                  53.400000
carbon_dioxide          54.700000
magnesium_monohydride   34.800000
cyclopropene            29.900000
cyclobutane             72.400000
silylene_s              23.300000
aluminum_monohydride    21.300000
beryllium_oxide         21.300000

#MADNESS is faster for these molecules
