#MADNESS is slower for these molecules
phosphine               15.900000
beryllium_sulfide       15.500000
lithium_oxide           10.400000
carbon_monoxide         14.300000
aluminum_nitride        39.000000
imidogen                19.200000
hypochlorite            105.600000
formaldehyde            3.100000
sulfur_diatomic         132.500000
boron_monosulfide       62.800000
beryllium_monofluoride  27.800000
phosphorus_tribromide   511.600000
sulfur_dioxide          31.000000
methanethiol_radical    9.600000
hydroxyl_radical        20.200000
lithium_monosulfide     44.100000
phosphorus_dioxide      91.500000
boron_dioxide           35.100000
cyano_radical           32.200000
boron_nitride           26.100000
magnesium_diatomic      33.700000
tetrafluorosilane       48.400000
silicon_monosulfide     35.300000
sulfur_monochloride     102.900000
neon_dimer              28.100000
lithium_chloride        21.300000
boron_monohydride       6.400000
sodium_chloride         27.900000
magnesium_sulfide       11.400000
aluminum_trichloride    38.500000
hypochlorous_acid       29.900000
lithium_hydride         5.100000
monosulfur_monofluoride 78.500000
ammonia                 3.600000
boron_monofluoride      13.800000
silicon_diatomic        89.500000
acetylene               8.600000
phosphorus_trichloride  32.000000
magnesium_monochloride  81.900000
carbon_disulfide        47.200000
magnesium_monofluoride  42.100000
methyl_radical          8.900000
bromoform               110.800000
nitrogen_trifluoride    18.800000
phosphorus_tetramer     16.700000
phosphorus_monochloride 103.600000
mercapto_radical        53.800000
nitrogen_monofluoride   42.100000
oxygen_monofluoride     57.100000
hydrogen_chloride       31.300000
hydrogen_sulfide        21.900000
monosodium_sulfide      45.300000
silicon_nitride         65.500000
hydrogen_cyanide        8.700000
carbonyl_sulfide        15.200000
chlorine_trifluoride    43.100000
phosphorus_trifluoride  23.500000
nitrogen_diatomic       15.600000
silane                  2.200000
fluorine_diatomic       23.300000
aluminum_diatomic       90.800000
boron_trifluoride       5.400000
silicon_monophosphide   62.400000
aluminum_monoxide       58.300000
silicon_monofluoride    72.600000
silyl_radical           32.100000
nitric_oxide            36.200000
aluminum_carbide        55.700000
sulfur_monoxide         94.600000
hydroxymethyl_radical   7.400000
beryllium_monochloride  61.900000
phosphorus_monosulfide  139.700000
formyl_radical          27.900000
methylene_chloride      104.100000
methlidyne_radical      15.100000
silylene_t              32.600000
chlorine_monofluoride   43.200000
sodium_hydride          11.700000
nitrogen_tribromide     295.100000
aminyl_radical          18.700000
carbon_monosulfide      29.000000
sodium_lithium          6.300000
chlorine_diatomic       74.000000
carbon_tetrabromide     186.700000
beryllium_diatomic      7.800000
silicon_monoxide        23.500000
phosphorus_mononitride  24.400000
methylene_t             11.400000
carbon_monophosphide    60.300000
aluminum_trifluoride    23.200000
nitrous_oxide           10.500000
hydrogen_diatomic       3.600000
beryllium_dihydride     4.500000
beryllium_monohydride   8.600000
sodium_monoxide         12.900000
phosphino_radical       38.900000
boron_monochloride      35.000000
ozone                   21.500000
water                   8.400000
tetrachlorosilane       32.100000
oxygen_diatomic         37.900000
methylene_s             6.200000
beryllium_difluoride    21.900000
phosphorus_monofluoride 59.800000
boron_diatomic          20.100000
nitrogen_dioxide        57.200000
argon_dimer             67.100000
sodium_diatomic         23.800000
hydrogen_fluoride       12.400000
phosphorus_diatomic     44.800000
sodium_fluoride         1.800000
lithium_diatomic        4.000000
difluorine_monoxide     31.400000
phosphorus_monoxide     58.100000
lithium_fluoride        12.600000
aluminum_monosulfide    82.100000
boron_monocarbide       26.100000
boron_trichloride       2.000000
magnesium_hydroxide     176.400000
hydrogen_peroxide       18.400000
carbon_dioxide          35.600000
magnesium_monohydride   30.000000
silylene_s              15.800000
aluminum_monohydride    17.500000
beryllium_oxide         14.800000

#MADNESS is faster for these molecules
bicyclo[3.1.0]hexane    -7746.200000
magnesium_oxide         -16.200000
methyl_formate          -327.200000
methanol                -34.700000
vinyl_fluoride          -75.600000
acetaldehyde            -144.400000
formaldoxime_zwitterion -115.300000
tetrafluoroethylene     -189.000000
acetyl_chloride         -240.200000
methyl_chloride         -1.000000
dimethyl_ether          -250.800000
methyl_ketene           -350.200000
formaldoxime            -98.600000
isopropyl_radical       -353.900000
cyanogen                -16.500000
thiirane                -130.800000
methyl_silane           -136.800000
methanethiol            -27.900000
carbon_tetrafluoride    -13.300000
ethylene                -38.300000
trifluoroacetate_anion  -286.200000
pentane                 -2518.300000
isopropyl_alcohol       -1121.000000
glyoxal_trans           -62.400000
ethanol                 -287.700000
vinyl_chloride          -58.300000
ammonia_oxide           -117.100000
methylenecyclopropane   -495.100000
methylamine             -69.000000
ethanethiol             -288.200000
acetamide               -475.400000
nitromethane            -172.700000
ethanol_radical         -431.800000
acetone                 -471.400000
glycine_zwitterion      -2202.400000
hexane                  -12536.900000
pyridine                -1265.200000
isobutylene             -867.200000
ethylamine              -411.400000
methyl_nitrite          -185.400000
isobutane               -1450.100000
nitrosyl_chloride       -3.500000
pyrrole                 -791.900000
trifluoromethane        -22.200000
ethyl_chloride          -199.700000
bicyclo[1.1.0]butane    -477.100000
cyclopentane            -5801.000000
dimethyl_sulfoxide      -682.100000
trifluoroacetic_acid    -740.900000
hydrazine               -24.200000
dimethyl_sulfide        -224.600000
n_propyl_chloride       -702.600000
chloroform              -23.500000
cyclopropane            -248.100000
spiropentane            -3099.200000
acetonitrile            -101.700000
disilane                -120.200000
trifluoro_acetonitrile  -297.600000
acetyl_radical          -62.300000
oxygen_water            -11.400000
phosphorus_pentafluoride-39.300000
allene                  -102.300000
methane                 -3.200000
sulfur_hexafluoride     -239.000000
nonane                  -38175.900000
furan                   -633.500000
methanol_radical        -17.900000
ethylene_oxide          -139.400000
aziridine               -199.400000
methoxyethane           -849.100000
ethane                  -122.300000
tetrachloroethylene     -18.500000
trimethylamine          -1071.900000
carbonyl_fluoride       -4.000000
carbon_tetrachloride    -103.900000
acrylonitrile           -230.900000
sodium_hydroxide        -11.900000
formic_acid             -30.700000
vinyl_radical           -2.200000
2_butyne                -310.600000
acetate_anion           -167.900000
heptane                 -19442.900000
octane                  -27204.600000
dilithium_oxide         -126.700000
thiophene               -660.300000
ketene                  -53.200000
dimethylamine           -368.400000
cyclobutene             -480.100000
acetic_acid             -333.700000
difluoromethane         -14.000000
propene                 -253.700000
tert_butyl_radical      -1095.200000
acetyl_fluoride         -225.900000
lithium_hydroxide       -6.300000
propyne                 -117.600000
ethyl_radical           -69.000000
propane                 -450.300000
butane                  -1266.500000
cyclopropene            -132.800000
cyclobutane             -793.100000
