,Energy,Iterations,Dipole Moment,Eigens,Derivatives,Derivative Time,Wall Time
bicyclo[3.1.0]hexane,-234.626046628980,6,0.0671889684547,"[-10.16622, -0.8742126, -0.7548428, -0.7004919, -0.6146989, -0.5488116, -0.5381104, -0.5055544, -0.4578778, -0.4296141, -0.4022427, -0.3896005, -0.3473174, -0.3328197, -0.331097, -0.3233237, -0.2716022, -0.2598558]","[-0.00155, -0.002163, 0.0, -0.000648, 0.001665, -0.0, 0.000201, -0.00015, -0.001819, 0.000201, -0.00015, 0.001819, 0.000575, 0.001188, 0.000398, 0.000575, 0.001188, -0.000398, 0.001792, 0.004317, -0.0, 0.004288, -0.000721, 0.0, 0.003931, -0.001328, 0.0, -0.000639, -0.003836, -0.0, 0.001497, -0.001085, -0.003802, 0.001497, -0.001085, 0.003802, -0.00349, -0.001483, 0.001831, -0.00349, -0.001483, -0.001831, -0.002371, 0.002562, -0.002833, -0.002371, 0.002562, 0.002833]",0.28,2.0
phosphine,-343.137798969855,6,0.379498000132,"[-77.06012, -6.550227, -4.711184, -4.711184, -4.706863, -0.64933, -0.3883717, -0.3883701, -0.2756749]","[-0.0, 1.7e-05, -0.001849, -0.0, 0.001223, 0.000615, -0.001077, -0.00062, 0.000617, 0.001077, -0.00062, 0.000617]",0.01,0.4
beryllium_sulfide,-412.894460452155,9,2.021875,"[-88.81363, -7.88937, -5.851047, -5.848103, -5.848103, -4.108649, -0.6416931, -0.3039018, -0.2392835, -0.2392835]","[-0.0, 0.0, 0.004553, 0.0, -0.0, -0.004553]",0.03,1.0
lithium_oxide,-82.679831793592,7,2.354374,"[-19.07697, -1.99675, -0.8225358, -0.2861791, -0.2356971, -0.2211401]","[0.0, -0.0, 0.00219, -0.0, 0.0, -0.00219]",0.01,0.4
carbon_monoxide,-113.306706726749,6,0.037626,"[-19.25299, -10.29822, -1.16283, -0.5693061, -0.4702245, -0.4702245, -0.3699052]","[0.0, 0.0, 0.023354, -0.0, -0.0, -0.023354]",0.01,0.3
magnesium_oxide,-275.212887407279,13,2.501423,"[-46.83843, -19.06695, -3.132567, -1.875684, -1.875684, -1.874709, -0.7946725, -0.2471122, -0.2136899, -0.2136899]","[-0.0, 0.0, -0.0028, 0.0, -0.0, 0.0028]",0.03,0.6
aluminum_nitride,-297.042890471764,10,0.880646,"[-56.06331, -14.36035, -4.157538, -2.711332, -2.709179, -2.708212, -0.7623313, -0.3668228, -0.3102692, -0.2626547, -0.253062]","[0.0, 0.0, 0.006482, -0.0, -0.0, -0.006482]",0.03,0.9
imidogen,-55.217389733192,7,0.630817,"[-14.4008, -0.8413565, -0.3980828, -0.3292547, -0.3292547]","[0.0, -0.0, 0.008582, -0.0, 0.0, -0.008582]",0.0,0.3
methyl_formate,-229.058711715313,9,0.713580530902,"[-10.23794, -1.106719, -1.019319, -0.7398536, -0.5997126, -0.5309476, -0.4849182, -0.4715755, -0.4248308, -0.3963897, -0.3659895, -0.30948, -0.2828276]","[-0.004151, 0.009759, -0.0, 0.001525, -0.003028, 0.0, 0.00258, -0.012576, 0.0, 0.001445, 0.005589, 0.0, 0.001579, -0.000525, -0.0, -0.001772, -0.00107, -0.0, -0.000603, 0.000926, -0.001122, -0.000603, 0.000926, 0.001122]",0.06,0.9
hypochlorite,-535.286026040210,9,0.540961,"[-19.23824, -9.544331, -7.3087, -7.302039, -7.29429, -1.100248, -0.7900881, -0.4875889, -0.4811999, -0.4434824, -0.3227553, -0.282939]","[0.0, -0.0, 0.03101, -0.0, 0.0, -0.03101]",0.03,0.6
methanol,-115.711062957607,7,0.672371224239,"[-19.12805, -10.21715, -1.007298, -0.6794812, -0.4992777, -0.4352531, -0.4227655, -0.3257994, -0.2612192]","[-0.010378, 0.010602, -0.0, 0.022186, -0.004959, -0.0, -0.000967, 0.005539, 0.0, 0.000471, -0.005928, -0.001481, 0.000471, -0.005928, 0.001481, -0.011782, 0.000673, -0.0]",0.02,0.7
vinyl_fluoride,-177.816422389771,8,0.486777181357,"[-10.2643, -10.17906, -1.210396, -0.7644982, -0.6048333, -0.5209479, -0.4756006, -0.4465898, -0.4087058, -0.3657375, -0.2587761]","[-0.000675, 0.006775, 0.0, 0.008932, -0.001076, 0.0, 0.003212, 0.001862, -0.0, -0.005005, -0.0039, 0.0, -0.002498, -0.001724, 0.0, -0.003966, -0.001938, -0.0]",0.03,0.5
formaldehyde,-114.498187549298,7,0.855487,"[-19.16479, -10.28157, -1.060882, -0.6361167, -0.4961216, -0.4481714, -0.3989887, -0.2676843]","[-0.0, 0.0, -0.003277, 0.0, -0.0, 0.00103, 0.0, 0.001137, 0.001124, -0.0, -0.001137, 0.001124]",0.02,0.4
sulfur_diatomic,-796.356102462255,21,0.0,"[-5.951891, -5.951136, -5.951085, -5.951085, -5.951072, -5.951072, -0.8548025, -0.6353547, -0.4058993, -0.3849095, -0.384909, -0.2489205, -0.2489199]","[-0.0, -0.0, 0.014874, 0.0, 0.0, -0.014874]",0.03,1.4
acetaldehyde,-153.826930483245,9,1.05850034613,"[-10.27617, -10.18955, -1.038886, -0.7559768, -0.5826984, -0.4767638, -0.4459888, -0.4315197, -0.3980803, -0.360839, -0.2547734]","[0.017422, -0.001986, -0.0, -0.020168, 0.001219, -0.0, -0.001418, 0.000992, -0.0, 0.000785, -0.001958, 0.0, -6.4e-05, 0.001754, -0.0, 0.001722, -1.1e-05, -0.001379, 0.001722, -1.1e-05, 0.001379]",0.03,0.7
boron_monosulfide,-422.966418151222,11,0.416043,"[-88.86801, -7.947603, -6.84813, -5.909661, -5.905811, -5.905811, -0.7425837, -0.4312259, -0.3068801, -0.3068801, -0.3062358]","[0.0, -0.0, 0.010592, -0.0, 0.0, -0.010592]",0.03,0.6
beryllium_monofluoride,-114.608234643596,6,0.358668,"[-24.66782, -4.066585, -1.153253, -0.4604168, -0.4112024, -0.4112024, -0.2173106]","[0.0, 0.0, 0.008464, -0.0, -0.0, -0.008464]",0.01,0.3
phosphorus_tribromide,-8063.032015966844,7,0.231784000009,"[-2.64513, -0.8602875, -0.7998134, -0.7998134, -0.6116895, -0.4358712, -0.4358712, -0.3936803, -0.3404893, -0.3404893, -0.3119899, -0.3119897, -0.3022775, -0.2846271]","[-0.0, 0.0, -0.012645, 0.0, -0.014266, 0.004216, -0.012354, 0.007133, 0.004215, 0.012354, 0.007133, 0.004215]",0.74,3.3
sulfur_dioxide,-548.579529488354,6,0.661439,"[-6.081199, -6.075786, -1.15439, -1.058763, -0.6353336, -0.4980386, -0.4938194, -0.4917606, -0.3714197, -0.3575046, -0.3286871]","[-0.0, 0.0, 0.041933, 0.0, -0.035506, -0.020967, 0.0, 0.035506, -0.020967]",0.04,0.5
decane,-394.332132337210,6,0.0,"[-10.15865, -0.810727, -0.7946755, -0.7682151, -0.7324787, -0.6893991, -0.6422124, -0.597755, -0.5751053, -0.5694549, -0.5677804, -0.4838964, -0.4691887, -0.4459324, -0.4309826, -0.4237783, -0.4165816, -0.4113647, -0.3858021, -0.3848502, -0.3800775, -0.3555729, -0.355537, -0.3344337, -0.3333386, -0.3306758, -0.3221365, -0.3208978, -0.3178529, -0.3171183, -0.3167215, -0.2880978]","[0.001172, 0.000773, -0.0, -0.001172, -0.000773, -0.0, -0.001179, -0.000739, -0.0, 0.001179, 0.000739, -0.0, 0.00098, 0.000879, -0.0, -0.00098, -0.000879, -0.0, -0.00055, -0.001755, -0.0, 0.00055, 0.001755, -0.0, 0.001081, 0.000641, 0.0, -0.001081, -0.000641, 0.0, -0.002299, -0.001518, -0.002465, -0.002299, -0.001518, 0.002465, 0.002299, 0.001518, -0.002465, 0.002299, 0.001518, 0.002465, 0.002315, 0.001509, 0.002479, 0.002315, 0.001509, -0.002479, -0.002315, -0.001509, 0.002479, -0.002315, -0.001509, -0.002479, -0.002266, -0.00154, -0.002488, -0.002266, -0.00154, 0.002488, 0.002266, 0.00154, -0.002488, 0.002266, 0.00154, 0.002488, 0.002654, 0.001258, 0.002825, 0.002654, 0.001258, -0.002825, -0.002654, -0.001258, 0.002825, -0.002654, -0.001258, -0.002825, 0.003792, -0.002047, 0.0, -0.001826, -0.002299, -0.003204, -0.001826, -0.002299, 0.003204, -0.003792, 0.002047, 0.0, 0.001826, 0.002299, -0.003204, 0.001826, 0.002299, 0.003204]",0.93,5.3
methanethiol_radical,-438.055420644463,7,0.713004904009,"[-10.21173, -7.947343, -5.917467, -5.908332, -5.898896, -0.7870702, -0.6318571, -0.4474289, -0.440447, -0.3715387, -0.283809, -0.24111]","[0.002803, -0.0005, 0.008741, -0.010361, 0.00014, -0.003343, -9.1e-05, 0.000165, -0.005496, 0.003875, -0.001764, 5e-05, 0.003774, 0.001959, 4.9e-05]",0.04,0.6
hydroxyl_radical,-75.721382364831,7,0.691556,"[-19.20508, -1.009811, -0.4675229, -0.4033614, -0.3283305]","[0.0, -0.0, 0.012714, -0.0, 0.0, -0.012714]",0.0,0.3
lithium_monosulfide,-405.705171640521,6,2.659535,"[-88.79741, -7.87341, -5.845139, -5.829426, -5.828343, -2.034868, -0.6173872, -0.2486629, -0.2311371, -0.2058498]","[-0.0, -0.0, 0.004123, 0.0, 0.0, -0.004123]",0.03,0.5
phosphorus_dioxide,-491.763655023414,13,0.512332239127,"[-4.840217, -4.838533, -4.836688, -1.079009, -1.031899, -0.5672113, -0.4674734, -0.4487144, -0.4439949, -0.367673, -0.3663608, -0.3044436]","[-0.0, -3.7e-05, -0.024863, 0.0, -0.007828, 0.012431, -0.0, 0.007865, 0.012432]",0.04,0.9
formaldoxime_zwitterion,-169.789869234421,10,1.34037046591,"[-14.47776, -10.22298, -1.104185, -0.8566355, -0.6600393, -0.5469669, -0.4784405, -0.4455667, -0.4196443, -0.2501015, -0.2273316]","[0.002111, -0.002279, -0.000285, 0.00086, 0.001272, 0.001092, -0.003871, -0.001795, -0.000174, 0.000849, -0.002872, -0.000138, 0.00139, 0.001799, 0.00018, -0.001339, 0.003874, -0.000675]",0.06,0.6
tetrafluoroethylene,-475.494168453110,6,2e-06,"[-10.36391, -1.305676, -1.291315, -1.247226, -1.236457, -0.8085154, -0.6579991, -0.6151778, -0.6070492, -0.5620468, -0.5536201, -0.5082725, -0.481114, -0.4561331, -0.4513001, -0.44602, -0.4448186, -0.4274104, -0.2550164]","[0.0, -0.0, -0.017267, 0.0, -0.0, 0.017266, 0.0, -0.007138, -0.000738, -0.0, 0.007138, -0.000738, -0.0, 0.007138, 0.000738, 0.0, -0.007138, 0.000738]",0.09,0.8
boron_dioxide,-175.299518150517,7,5e-06,"[-19.22894, -19.22893, -6.833142, -1.052675, -1.050426, -0.4887777, -0.4706023, -0.4691668, -0.4359782, -0.4070894, -0.3647966]","[-0.0, 0.0, 0.0, 0.0, -0.0, 0.000352, 0.0, -0.0, -0.000352]",0.02,0.4
cyano_radical,-92.708796231267,11,0.496686,"[-14.40383, -10.30357, -0.9559769, -0.4982272, -0.4019464, -0.3844937, -0.3844937]","[-0.0, 0.0, 0.004532, 0.0, -0.0, -0.004532]",0.01,0.4
boron_nitride,-79.412089769718,11,0.745889,"[-14.38038, -6.836882, -0.8412186, -0.4030708, -0.359204, -0.3164754, -0.3154757]","[0.0, 0.0, 0.000301, -0.0, -0.0, -0.000301]",0.01,0.7
acetyl_chloride,-613.438807610433,9,1.09758092448,"[-7.214799, -1.098154, -0.8561676, -0.764809, -0.5662724, -0.4937981, -0.4793899, -0.4760979, -0.4200887, -0.4043985, -0.3263803, -0.3229974, -0.297909]","[-0.006394, -0.004297, -0.0, -0.01015, -0.006438, -0.0, 0.002545, -0.005133, 0.0, 0.00276, 0.010223, 0.0, 0.004777, 0.006654, 0.0, 0.003231, -0.000504, 0.006525, 0.003231, -0.000504, -0.006525]",0.14,1.0
magnesium_diatomic,-400.156467625775,5,0.0,"[-46.80889, -3.097666, -3.097657, -1.840977, -1.840977, -1.840963, -1.840963, -1.840701, -1.840669, -0.2157516, -0.1775216]","[-0.0, 0.0, 4e-05, 0.0, -0.0, -4e-05]",0.02,0.4
methyl_chloride,-500.103080363552,7,0.776540000109,"[-9.450458, -7.213892, -7.203557, -7.203557, -0.852612, -0.6749667, -0.4450438, -0.4450423, -0.4188336, -0.2971655, -0.2971653]","[-1.5e-05, 0.0, 0.027096, -1e-06, -0.0, -0.003338, 0.011293, -0.0, -0.007922, -0.005639, 0.009759, -0.007918, -0.005639, -0.009759, -0.007918]",0.04,0.5
dimethyl_ether,-155.021212215042,7,0.507317,"[-10.21558, -1.026109, -0.7170194, -0.6358106, -0.470382, -0.4689901, -0.4683924, -0.3955926, -0.3787123, -0.3108851, -0.2486727]","[-0.0, 0.0, -0.012144, 0.0, 0.007472, -0.002462, 0.0, -0.007472, -0.002462, -0.0, 0.00352, -0.001078, -0.0, -0.00352, -0.001078, -0.002003, -0.004493, 0.004806, 0.002003, -0.004493, 0.004806, 0.002003, 0.004493, 0.004806, -0.002003, 0.004493, 0.004806]",0.04,0.7
methyl_ketene,-191.909248649895,9,0.693900109882,"[-10.18901, -1.106315, -0.7979466, -0.6838145, -0.5261102, -0.4896991, -0.450507, -0.4449191, -0.4131731, -0.3982463, -0.3817206, -0.2220942]","[-0.01487, -0.004329, -2.2e-05, 0.006196, 0.001441, -6e-06, 0.002563, -0.000937, 1e-05, 0.014546, 0.00466, 1.4e-05, -0.001548, -0.004122, 5e-06, 0.000206, 0.004042, 1e-06, -0.00355, -0.000377, 0.003674, -0.003544, -0.000378, -0.003677]",0.07,1.0
tetrafluorosilane,-689.097902511642,6,0.0,"[-3.778833, -1.260255, -1.222481, -1.222481, -1.222481, -0.6115446, -0.5407727, -0.5407727, -0.5407727, -0.4831239, -0.4831239, -0.476603, -0.476603, -0.476603, -0.4385275, -0.4385275, -0.4385275]","[0.0, 0.0, 0.0, -0.013905, -0.013905, -0.013905, 0.013905, 0.013905, -0.013905, 0.013905, -0.013905, 0.013905, -0.013905, 0.013905, 0.013905]",0.09,0.8
silicon_monosulfide,-687.690102105129,7,0.686469,"[-5.892478, -5.892478, -5.323007, -3.681719, -3.681719, -3.676677, -0.7189662, -0.4404906, -0.2940866, -0.2940866, -0.2875043]","[-0.0, 0.0, 0.013539, 0.0, -0.0, -0.013539]",0.07,0.6
sulfur_monochloride,-858.330235392164,17,0.009598,"[-7.264705, -7.259511, -5.964773, -5.962904, -5.947581, -0.9128145, -0.6931856, -0.4423938, -0.4135634, -0.3929414, -0.2937553, -0.2589043]","[-0.0, 0.0, -0.045076, 0.0, -0.0, 0.045076]",0.07,1.3
neon_dimer,-257.788653499359,5,0.0,"[-30.95013, -30.95012, -1.417757, -1.417219, -0.5315126, -0.5292096, -0.5292096, -0.5287831, -0.5287831, -0.5265189]","[0.0, 0.0, -0.00027, -0.0, -0.0, 0.00027]",0.0,0.3
formaldoxime,-169.803831169232,9,0.0572405787008,"[-14.38944, -10.2121, -1.08023, -0.8605222, -0.6081174, -0.529925, -0.4588083, -0.4202613, -0.404663, -0.282442, -0.2636749]","[0.005014, -0.008371, 0.0, 0.000928, 0.005402, 0.0, -0.012393, 0.005324, 0.0, -0.003597, 0.003169, -0.0, -0.001628, 0.002876, 0.0, 0.011677, -0.008399, -0.0]",0.06,0.6
lithium_chloride,-467.792717371386,6,2.719747,"[-101.4272, -9.359866, -7.117257, -7.116127, -7.116127, -2.043305, -0.7129365, -0.2745439, -0.2502046, -0.2502046]","[0.0, -0.0, 0.006099, -0.0, 0.0, -0.006099]",0.03,0.5
isopropyl_radical,-118.475744388132,7,0.100352727088,"[-10.16591, -10.16587, -0.7771858, -0.6863986, -0.5664772, -0.4481746, -0.4264547, -0.4037938, -0.383384, -0.3491173, -0.344292, -0.1791903]","[0.00171, 0.000775, -0.0, -0.001968, -0.002534, 0.000951, -0.001968, -0.002534, -0.000951, -1.4e-05, -0.002298, -0.0, -4.8e-05, -0.000695, -0.002143, -4.8e-05, -0.000695, 0.002143, 0.002324, 0.001669, -0.001233, -0.001156, 0.002323, -0.000818, -0.001156, 0.002323, 0.000818, 0.002324, 0.001669, 0.001233]",0.03,0.9
cyanogen,-185.648358067536,6,1.4e-05,"[-10.30017, -10.2999, -0.9833892, -0.9648346, -0.7464715, -0.4515317, -0.4515317, -0.4299467, -0.4175168, -0.3726197, -0.3726197]","[0.0, 0.0, 0.038889, 0.0, 0.0, -0.038891, -0.0, -0.0, -0.032388, 0.0, 0.0, 0.032389]",0.03,0.5
boron_monohydride,-25.287304839585,6,0.519683,"[-6.82111, -0.4768977, -0.2229651]","[-0.0, -0.0, 0.004895, 0.0, 0.0, -0.004895]",0.0,0.3
thiirane,-476.778751848116,7,0.82246,"[-5.886749, -5.878699, -0.8665157, -0.6235785, -0.6165584, -0.4974007, -0.4522149, -0.3920697, -0.3239035, -0.3157346, -0.2250258]","[0.0, 0.0, -0.013223, 0.0, 0.000999, 0.002582, -0.0, -0.000999, 0.002582, 0.001314, -0.002411, 0.002015, -0.001314, -0.002411, 0.002015, -0.001314, 0.002411, 0.002015, 0.001314, 0.002411, 0.002015]",0.07,0.7
sodium_chloride,-622.556970199871,6,3.387317,"[-7.09515, -7.093489, -7.093489, -2.263117, -1.195105, -1.195105, -1.193513, -0.6842562, -0.2422865, -0.2243612, -0.2243612]","[0.0, 0.0, 0.001922, -0.0, -0.0, -0.001922]",0.07,0.6
magnesium_sulfide,-598.249805558706,9,2.801938,"[-5.834563, -5.826564, -5.826564, -3.163951, -1.907602, -1.906647, -1.906647, -0.6047575, -0.2654025, -0.2061446, -0.2061446]","[0.0, 0.0, 0.006061, -0.0, -0.0, -0.006061]",0.07,0.6
methyl_silane,-331.208174766600,6,0.316860006874,"[-5.26725, -3.62502, -3.62502, -3.624423, -0.7007614, -0.5188751, -0.4115019, -0.4114916, -0.334051, -0.3340446, -0.3247388]","[0.0, -3.9e-05, 0.00609, 0.0, -2.8e-05, -0.003482, 0.0, -0.000233, 0.000618, -0.000232, 0.000136, 0.000606, 0.000232, 0.000136, 0.000606, -0.0, -0.001978, -0.001472, 0.001737, 0.001003, -0.001483, -0.001737, 0.001003, -0.001483]",0.05,0.6
aluminum_trichloride,-1623.221262702766,6,1.3e-05,"[-2.782452, -0.851039, -0.8334286, -0.8334277, -0.4730558, -0.4095298, -0.4095294, -0.3752997, -0.357579, -0.357578, -0.3510108, -0.35101, -0.3329163]","[0.0, -4e-06, -0.0, -0.0, -0.010562, 0.0, -0.009151, 0.005283, 0.0, 0.009151, 0.005283, -0.0]",0.2,1.1
methanethiol,-438.692871580627,7,0.71098071078,"[-7.930027, -5.894377, -5.890429, -5.883322, -0.7824312, -0.6464597, -0.4510632, -0.4321834, -0.4031217, -0.3247377, -0.23402]","[0.003343, -0.010045, -0.003599, -0.007483, 0.023106, 0.008748, 0.000209, -0.012485, -0.005278, 0.005758, 0.005209, -0.002463, -0.006373, -0.006778, -0.003798, 0.004546, 0.000993, 0.00639]",0.04,0.6
hypochlorous_acid,-535.937828372940,7,0.682051576646,"[-9.499704, -7.267071, -7.25144, -7.251027, -1.073816, -0.7994485, -0.5333389, -0.4424461, -0.4074425, -0.3176811, -0.2794961]","[-0.008932, -0.013843, -0.0, 0.010289, -0.0047, 0.0, -0.001357, 0.018543, 0.0]",0.04,0.5
lithium_hydride,-8.081809641351,5,2.202264,"[-2.005573, -0.1961312]","[0.0, 0.0, 0.003132, -0.0, -0.0, -0.003132]",0.0,0.3
monosulfur_monofluoride,-497.944344768322,7,0.316803,"[-24.73562, -8.018509, -5.986168, -5.985079, -5.967877, -1.236873, -0.7245047, -0.4977844, -0.490093, -0.4709363, -0.3007761, -0.2593592]","[-0.0, 0.0, 0.018354, 0.0, -0.0, -0.018354]",0.03,0.5
ammonia,-56.546576818547,6,0.730632000302,"[-14.2944, -0.8458646, -0.4548548, -0.4548371, -0.2495389]","[0.0, -3.8e-05, -0.007057, -0.0, 0.004381, 0.002365, -0.003766, -0.002171, 0.002346, 0.003766, -0.002171, 0.002346]",0.0,0.3
boron_monofluoride,-124.656193993140,6,0.424542,"[-24.77135, -6.835487, -1.28482, -0.6054457, -0.5139265, -0.5139265, -0.2679824]","[0.0, -0.0, 0.007128, -0.0, 0.0, -0.007128]",0.01,0.3
carbon_tetrafluoride,-437.471467510415,6,0.0,"[-10.51868, -1.376763, -1.258211, -1.258211, -1.258211, -0.7249642, -0.635792, -0.635792, -0.635792, -0.4986313, -0.4986313, -0.4724737, -0.4724737, -0.4724737, -0.4272251, -0.4272251, -0.4272251]","[-0.0, -0.0, -0.0, -0.009632, -0.009632, -0.009632, 0.009632, 0.009632, -0.009632, 0.009632, -0.009632, 0.009632, -0.009632, 0.009632, 0.009632]",0.07,0.7
silicon_diatomic,-578.852436818051,30,8e-06,"[-5.295183, -5.295083, -3.655851, -3.655851, -3.655803, -3.655803, -3.647115, -3.64619, -0.5403815, -0.3751534, -0.2324642, -0.2324641, -0.2149016]","[0.0, -0.0, 0.01047, -0.0, 0.0, -0.01047]",0.03,1.7
acetylene,-77.323771247847,6,0.0,"[-10.18467, -10.18233, -0.7429166, -0.5662049, -0.4924246, -0.2822226, -0.2822226]","[0.0, -0.0, -0.002779, -0.0, -0.0, 0.002779, -0.0, 0.0, -0.002656, 0.0, 0.0, 0.002656]",0.01,0.4
phosphorus_trichloride,-1721.983895700072,7,0.330603005445,"[-4.839039, -0.9232005, -0.8543104, -0.8543046, -0.6227198, -0.4691061, -0.4691019, -0.426807, -0.3759195, -0.3759184, -0.3437933, -0.3437893, -0.3328287, -0.2979659]","[-0.0, 4e-06, -0.015956, -0.0, -0.017283, 0.005321, -0.014967, 0.008639, 0.005317, 0.014967, 0.008639, 0.005317]",0.2,1.2
magnesium_monochloride,-660.323788204996,14,1.322085,"[-7.165201, -7.161772, -7.161772, -3.152007, -1.895876, -1.895876, -1.893922, -0.7639817, -0.341633, -0.2937972, -0.2937972, -0.2045972]","[-0.0, 0.0, 0.005363, 0.0, -0.0, -0.005363]",0.08,1.1
carbon_disulfide,-834.482190761956,7,0.0,"[-5.933274, -5.933252, -5.933252, -0.8665865, -0.7767315, -0.5106966, -0.4334513, -0.3934633, -0.3934633, -0.2775263, -0.2775263]","[-0.0, -0.0, -0.0, 0.0, 0.0, -0.009584, 0.0, 0.0, 0.009584]",0.08,0.9
magnesium_monofluoride,-299.955172670363,7,1.09489,"[-46.82859, -24.58527, -3.123156, -1.867612, -1.867612, -1.864214, -1.050073, -0.3544439, -0.322145, -0.322145, -0.2001585]","[-0.0, -0.0, 7.4e-05, 0.0, 0.0, -7.4e-05]",0.03,0.5
methyl_radical,-39.837487220277,6,7e-06,"[-10.18206, -0.6821925, -0.4172462, -0.4172458, -0.2242589]","[-2.1e-05, 0.0, -0.0, -0.00275, 0.0, -0.0, 0.001385, 0.002407, 0.0, 0.001385, -0.002407, 0.0]",0.0,0.3
ethylene,-78.585686905545,6,0.0,"[-10.17759, -10.17686, -0.7533265, -0.5769507, -0.4662771, -0.4127959, -0.3557985, -0.265138]","[-0.0, -0.0, 0.011314, 0.0, -0.0, -0.011314, 0.0, 0.000245, -0.001818, -0.0, -0.000245, -0.001818, -0.0, 0.000245, 0.001818, 0.0, -0.000245, 0.001818]",0.01,0.4
trifluoroacetate_anion,-526.230091519253,10,1.89215905495,"[-10.07384, -1.116943, -1.028735, -1.028307, -0.82018, -0.7389125, -0.5221218, -0.4129351, -0.3961266, -0.393803, -0.2768239, -0.2766817, -0.2649558, -0.2398035, -0.2353161, -0.2167679, -0.2094962, -0.1957886, -0.1816922, -0.04488688, -0.03673335, -0.03370043]","[0.000783, 0.007107, -0.0, 0.001217, 0.00387, 0.0, 0.008381, -0.005956, 0.0, -0.004971, -0.002529, -0.006816, -0.004971, -0.002529, 0.006816, 0.000421, -0.000275, -0.0, -0.000859, 0.000311, -0.0]",0.18,1.5
bromoform,-7760.306889976441,7,0.410020003556,"[-2.643238, -0.8948, -0.7972746, -0.7972726, -0.6448952, -0.4885918, -0.4485638, -0.4485633, -0.3289128, -0.3289096, -0.3069587, -0.3037011, -0.3037004, -0.2863798]","[0.0, -8e-06, -0.023874, -0.0, -5e-06, 0.016371, -0.0, -0.012249, 0.002501, -0.010622, 0.006131, 0.002501, 0.010622, 0.006131, 0.002502]",0.67,3.3
nitrogen_trifluoride,-354.065774210269,7,0.0117160983267,"[-14.61805, -1.371242, -1.238782, -1.238749, -0.8156095, -0.6254296, -0.6254138, -0.5763325, -0.4819324, -0.4819311, -0.4370815, -0.4370625, -0.4221385, -0.3424796]","[0.0, 2.8e-05, -0.01894, -0.0, -0.011745, 0.00632, -0.010167, 0.005859, 0.00631, 0.010167, 0.005859, 0.00631]",0.04,0.5
phosphorus_tetramer,-1365.431270763539,6,0.000149773161815,"[-4.735626, -0.8190717, -0.5481396, -0.5481384, -0.5481297, -0.3514425, -0.3008931, -0.3008894, -0.3008839, -0.2727147, -0.2727117]","[4e-06, 0.0, -0.003686, -0.003466, 0.0, 0.001233, 0.001731, 0.002996, 0.001226, 0.001731, -0.002996, 0.001226]",0.18,1.1
phosphorus_monochloride,-801.505034279142,26,0.260864,"[-7.240297, -7.240296, -6.606533, -4.768571, -4.768571, -4.767154, -0.8734934, -0.6041621, -0.3959447, -0.381887, -0.3818856, -0.2410517, -0.2410506]","[0.0, -0.0, -0.02977, -0.0, 0.0, 0.02977]",0.08,1.6
mercapto_radical,-398.736931203390,7,0.420416,"[-88.89014, -7.968059, -5.938445, -5.928693, -5.91924, -0.7419719, -0.415985, -0.3215518, -0.2735392]","[0.0, 0.0, 0.007198, -0.0, -0.0, -0.007198]",0.0,0.5
pentane,-197.767550558291,6,0.021286,"[-10.15867, -0.7990145, -0.7473643, -0.6718476, -0.595079, -0.5717346, -0.473151, -0.4340655, -0.4289644, -0.3985348, -0.391076, -0.3736425, -0.349034, -0.3320669, -0.3226838, -0.3182848, -0.3097988]","[-0.0, 0.0, 0.001221, -0.0, -0.001081, -0.001452, 0.0, 0.001081, -0.001452, -0.0, 9.5e-05, 0.001135, -0.0, -9.5e-05, 0.001135, -0.003117, 0.0, -0.003031, 0.003117, 0.0, -0.003031, -0.003408, -0.000393, 0.003223, 0.003408, -0.000393, 0.003223, 0.003408, 0.000393, 0.003223, -0.003408, 0.000393, 0.003223, 0.0, -0.004231, 0.002472, 0.0, 0.004231, 0.002472, 0.003719, -0.000864, -0.00309, -0.003719, -0.000864, -0.00309, -0.003719, 0.000864, -0.00309, 0.003719, 0.000864, -0.00309]",0.15,1.5
isopropyl_alcohol,-194.349510901338,7,0.613493320779,"[-10.15975, -1.007289, -0.7682117, -0.6879392, -0.5798827, -0.5068561, -0.4490831, -0.4296748, -0.3879911, -0.3777761, -0.3610098, -0.3512918, -0.3176527, -0.2604569]","[-0.00305, -0.00149, -0.002184, 0.000225, -0.005047, -0.000212, 0.002232, 0.001555, -0.000124, -0.001652, 0.001037, 0.000265, 0.002045, 0.000427, 0.001152, 3.1e-05, -9.9e-05, -0.001551, 0.001059, 0.000543, 0.001835, -0.000987, 0.000767, 0.001813, 0.001772, -0.000482, -0.000176, -0.00185, -0.000257, -0.000281, 0.000743, 0.001399, -0.000236, -0.00057, 0.001646, -0.000302]",0.09,1.1
glyoxal_trans,-227.813158897593,7,0.0,"[-10.30327, -1.090612, -1.077017, -0.7118651, -0.598136, -0.4946281, -0.4914722, -0.4582043, -0.4493485, -0.3970571, -0.3310307, -0.2700121]","[-0.007307, -0.000875, -0.0, 0.007307, 0.000875, -0.0, 0.013565, -0.000925, 0.0, -0.013565, 0.000925, 0.0, -0.008669, 0.000491, 0.0, 0.008669, -0.000491, 0.0]",0.04,0.6
ethanol,-155.028480940862,7,0.642265136474,"[-10.16332, -1.00526, -0.7458172, -0.6043732, -0.5056188, -0.4652625, -0.397083, -0.3772788, -0.3640898, -0.324321, -0.2580368]","[0.0065, -0.012005, -0.0, 0.015342, 0.010619, -0.0, 0.003143, -0.000144, -0.0, 0.001583, 0.004331, -0.0, -0.002394, 0.007654, 0.0, -0.005609, 0.003246, -0.003008, -0.005609, 0.003246, 0.003008, -0.006478, -0.008474, -0.006697, -0.006478, -0.008474, 0.006697]",0.04,0.6
nitrogen_monofluoride,-154.432877019266,7,0.094556,"[-24.78267, -14.47707, -1.312454, -0.8023513, -0.5364619, -0.5364619, -0.5112607, -0.3022568, -0.3022568]","[0.0, 0.0, 0.005098, -0.0, -0.0, -0.005098]",0.01,0.4
vinyl_chloride,-538.179864306191,8,0.593434652519,"[-7.216476, -7.215915, -0.8766263, -0.7482732, -0.5852342, -0.489723, -0.4486163, -0.3890888, -0.3666748, -0.3128146, -0.2595548]","[0.0, 0.010386, 0.008641, -0.0, 0.000236, -0.009784, 0.0, -0.008102, -0.007921, 0.0, -0.003594, 0.001282, 0.0, -0.002284, 0.004352, -0.0, 0.003358, 0.00343]",0.06,0.7
ammonia_oxide,-131.656453734565,7,2.01521200003,"[-19.03282, -14.45842, -1.036402, -0.7892347, -0.564665, -0.5646642, -0.397232, -0.1788264, -0.1788259]","[-0.0, -1.6e-05, -0.022327, 0.0, 1e-06, -0.005934, -0.0, -0.009588, 0.009415, -0.008322, 0.004801, 0.009423, 0.008322, 0.004801, 0.009423]",0.02,0.4
methylenecyclopropane,-155.958442415160,8,0.14309,"[-10.17109, -0.8613387, -0.7068274, -0.6097759, -0.52952, -0.4740949, -0.4646932, -0.4220657, -0.3714994, -0.3067605, -0.2875641, -0.2482123]","[0.0, -0.0, 0.005814, -0.0, -0.0, -0.027072, -0.0, -0.004813, 0.001463, 0.0, 0.004813, 0.001463, -0.0, -0.002358, 0.003091, 0.0, 0.002358, 0.003091, 8.1e-05, 0.001913, 0.003038, -8.1e-05, 0.001913, 0.003038, -8.1e-05, -0.001913, 0.003038, 8.1e-05, -0.001913, 0.003038]",0.06,1.0
oxygen_monofluoride,-174.866537344674,10,0.034246,"[-24.79123, -19.30608, -1.316309, -0.9492895, -0.5610263, -0.5502318, -0.516133, -0.383504, -0.3298681]","[-0.0, -0.0, 0.000875, 0.0, 0.0, -0.000875]",0.01,0.4
methylamine,-95.851143147196,7,0.547677235651,"[-14.29757, -10.18822, -0.8669797, -0.6560401, -0.4847911, -0.4332737, -0.3978665, -0.3651521, -0.2240964]","[0.002088, 0.00534, -0.0, -0.008097, -0.000854, 0.0, 0.003562, -0.003033, -0.0, -0.001672, -0.000977, -0.002933, -0.001672, -0.000977, 0.002933, 0.002895, 0.00025, 0.002906, 0.002895, 0.00025, -0.002906]",0.02,0.5
hydrogen_chloride,-460.792168296745,6,0.574911,"[-101.5345, -9.468951, -7.232311, -7.221812, -7.221812, -0.8514492, -0.4778509, -0.3317167, -0.3317167]","[0.0, -0.0, 0.008489, -0.0, 0.0, -0.008489]",0.0,0.5
ethanethiol,-478.007748700913,7,0.692363004958,"[-5.88031, -0.803067, -0.7059208, -0.6027718, -0.4625774, -0.4619219, -0.3916088, -0.3660668, -0.3648017, -0.3257319, -0.2336583]","[-0.00121, -0.003368, -0.0, 0.007528, 0.001536, -0.0, -0.00043, 0.014629, 0.0, 0.001146, 0.001288, -0.0, 0.001367, 0.001154, -0.001721, 0.001367, 0.001154, 0.001721, 0.000355, -0.002193, -0.001702, 0.000355, -0.002193, 0.001702, -0.010476, -0.012006, 0.0]",0.08,0.8
acetamide,-209.206043439251,9,1.45870722098,"[-10.19131, -1.024635, -0.894522, -0.7313548, -0.5802831, -0.5301777, -0.461383, -0.441254, -0.3984028, -0.3906487, -0.3610859, -0.2637651, -0.2436798]","[0.014915, 0.005624, 0.001606, -0.004294, -0.000584, -0.000717, -0.001733, 0.005285, -0.001876, -0.001428, -0.00089, 0.000188, -0.013687, 0.016027, -0.00176, -0.000239, -0.009052, -0.014111, -0.000594, -0.007957, 0.01455, 0.009958, 0.002286, 0.000709, -0.002898, -0.01074, 0.00141]",0.1,1.0
nitromethane,-245.004403971619,10,1.3685189964,"[-10.24569, -1.23162, -1.058616, -0.8215941, -0.6238422, -0.5519542, -0.5389194, -0.5186687, -0.4530917, -0.4399142, -0.3137255, -0.307347, -0.2925066]","[-0.00056, 0.00525, -0.0, 0.00581, 0.00088, 0.0, -0.001878, -0.000258, -0.0, -0.002049, -0.002848, -0.000158, -0.002049, -0.002848, 0.000158, -0.000872, -0.005643, -0.0, 0.001598, 0.005467, -0.0]",0.09,0.8
hydrogen_sulfide,-399.382003317774,6,0.565052,"[-88.86137, -7.943798, -5.907558, -5.904314, -5.896916, -0.7531862, -0.4557137, -0.3693699, -0.2616917]","[-0.0, -0.0, 0.014644, 0.0, -0.009151, -0.007322, 0.0, 0.009151, -0.007322]",0.01,0.4
monosodium_sulfide,-560.472285869179,31,3.141753,"[-7.862179, -5.83383, -5.819066, -5.816721, -2.255864, -1.188295, -1.18757, -1.185983, -0.6003483, -0.2335741, -0.2103603, -0.1897656]","[-0.0, 0.0, 0.001866, 0.0, -0.0, -0.001866]",0.08,1.8
silicon_nitride,-344.114895062737,12,0.912818,"[-66.15816, -14.36643, -5.317998, -3.677215, -3.674574, -3.674574, -0.800573, -0.4386873, -0.3187665, -0.2975569, -0.2975569]","[0.0, -0.0, 0.0057, -0.0, 0.0, -0.0057]",0.03,0.7
hydrogen_cyanide,-93.419853813013,7,1.13892,"[-14.3592, -10.23946, -0.9197807, -0.6104859, -0.3796798, -0.3592567, -0.3592567]","[0.0, 0.0, 0.002571, 0.0, 0.0, -0.00489, -0.0, -0.0, 0.002319]",0.02,0.4
carbonyl_sulfide,-511.530388815029,9,0.175187,"[-5.939771, -5.932228, -5.932228, -1.1457, -0.8305232, -0.5506256, -0.4787046, -0.4787046, -0.4724776, -0.3049858, -0.3049858]","[0.0, 0.0, -0.001368, -0.0, -0.0, -0.012768, -0.0, -0.0, 0.014136]",0.08,0.6
chlorine_trifluoride,-759.456808253381,7,0.270033000002,"[-7.427634, -1.306196, -1.178902, -1.17741, -0.8823464, -0.6049474, -0.5964814, -0.550577, -0.4839975, -0.4392469, -0.4151673, -0.4110398, -0.3920327, -0.3704055, -0.3267501]","[-0.0, 0.0, -0.03202, 0.0, -0.0, 0.031179, 0.0, -0.015517, 0.000421, -0.0, 0.015517, 0.000421]",0.06,0.6
ethanol_radical,-154.361780627525,8,0.72926892201,"[-10.23484, -10.16724, -1.017171, -0.7408895, -0.6155608, -0.4986059, -0.4543531, -0.4085609, -0.3869588, -0.3809578, -0.3297989, -0.273192]","[-0.012022, -0.012526, 0.0, -0.004263, 0.04202, -0.0, 0.00921, -0.020605, 0.0, 0.006517, -0.00732, -0.00052, 0.006517, -0.00732, 0.00052, -0.006752, 0.003448, -0.0, 0.000396, 0.001151, -0.001445, 0.000396, 0.001151, 0.001445]",0.04,0.8
phosphorus_trifluoride,-640.941343936478,6,0.167939000762,"[-4.848457, -1.291079, -1.235712, -1.235711, -0.6711977, -0.5656917, -0.5656916, -0.5313022, -0.4897094, -0.4897086, -0.4515284, -0.4515283, -0.4346905, -0.2987324]","[0.0, 6e-06, -0.089952, -0.0, -0.041714, 0.029982, -0.036121, 0.020854, 0.029985, 0.036121, 0.020854, 0.029985]",0.06,0.6
nitrogen_diatomic,-109.520546200959,5,0.0,"[-14.44018, -14.43866, -1.127671, -0.5495147, -0.4639983, -0.4639983, -0.4257047]","[-0.0, 0.0, 0.023943, 0.0, -0.0, -0.023943]",0.0,0.3
acetone,-193.151832454392,9,1.128736,"[-10.18203, -1.028689, -0.770205, -0.7113162, -0.5310149, -0.4596818, -0.4571769, -0.4483192, -0.4058214, -0.3913002, -0.3780324, -0.3433622, -0.2435717]","[-0.0, -0.0, 0.01529, -0.0, -0.0, -0.018265, 0.0, -0.001684, -0.001518, -0.0, 0.001684, -0.001518, -0.0, -0.001626, -8.1e-05, -0.0, 0.001626, -8.1e-05, 0.001182, -0.00058, 0.001543, -0.001182, -0.00058, 0.001543, -0.001182, 0.00058, 0.001543, 0.001182, 0.00058, 0.001543]",0.07,1.0
glycine_zwitterion,-284.376034283044,10,3.97662758954,"[-10.23944, -1.038457, -0.9893038, -0.9136312, -0.7382599, -0.630761, -0.6101761, -0.5156458, -0.4801673, -0.4472079, -0.3959807, -0.3611874, -0.3461993, -0.2150844, -0.2149963, -0.199116]","[-0.001315, -0.001583, 0.0, -0.000503, -0.001227, 0.0, -0.006623, 0.00632, -0.0, 0.005479, -0.00635, -0.0, 0.003188, -0.0009, -0.0, 0.002082, 0.000994, -0.002585, 0.002082, 0.000994, 0.002585, -0.003296, -0.001956, -0.002531, -0.003296, -0.001956, 0.002531, 0.0022, 0.005663, -0.0]",0.13,1.3
hexane,-237.080449484944,6,0.0,"[-10.15854, -0.803535, -0.764824, -0.7050081, -0.6345278, -0.5782474, -0.5720296, -0.4772271, -0.4432681, -0.4317385, -0.417162, -0.3962083, -0.3763802, -0.3741036, -0.3514779, -0.3373611, -0.324312, -0.3210982, -0.3175717, -0.3030406]","[-0.000981, 0.000678, -0.0, 0.000981, -0.000678, 0.0, -0.000959, 0.00089, -0.0, 0.000959, -0.00089, -0.0, -0.000574, 0.001677, -0.0, 0.000574, -0.001677, -0.0, 0.004371, 0.002091, 0.0, -0.004371, -0.002091, 0.0, 0.002097, -0.002467, -0.003702, 0.002097, -0.002467, 0.003702, -0.002097, 0.002467, 0.003702, -0.002097, 0.002467, -0.003702, -0.00286, 0.001493, 0.003392, -0.00286, 0.001493, -0.003392, 0.00286, -0.001493, 0.003392, 0.00286, -0.001493, -0.003392, 0.002523, -0.00171, -0.003058, 0.002523, -0.00171, 0.003058, -0.002523, 0.00171, 0.003058, -0.002523, 0.00171, -0.003058]",0.24,2.0
pyridine,-248.279603517316,9,0.86473,"[-10.19374, -0.9358414, -0.8027483, -0.7595314, -0.6272361, -0.6270892, -0.5277373, -0.4762324, -0.4711334, -0.4284899, -0.4037015, -0.3937362, -0.3632261, -0.2855231, -0.2616011, -0.252937]","[-0.0, -0.0, 0.004661, -0.0, 0.0, 0.000725, -0.0, 0.004265, -0.003932, -0.0, -0.004265, -0.003932, -0.0, 0.002472, 0.001207, -0.0, -0.002472, 0.001207, 0.0, -0.0, -6.7e-05, 0.0, -0.00047, 3.5e-05, -0.0, 0.00047, 3.5e-05, 0.0, 0.000125, 3.1e-05, 0.0, -0.000125, 3.1e-05]",0.23,1.7
silane,-291.881912877508,5,0.0,"[-66.10827, -5.275835, -3.633197, -3.633197, -3.633197, -0.5487457, -0.3534834, -0.3534834, -0.3534834]","[-0.0, -0.0, -0.0, -0.001351, -0.001351, -0.001351, 0.001351, 0.001351, -0.001351, 0.001351, -0.001351, 0.001351, -0.001351, 0.001351, 0.001351]",0.01,0.5
isobutylene,-157.224100859594,7,0.202536,"[-10.15858, -0.8011799, -0.6900914, -0.6744285, -0.5199767, -0.4481435, -0.4401278, -0.429468, -0.3846616, -0.3680231, -0.3604164, -0.3352749, -0.2386245]","[0.0, -0.0, 0.003524, -0.0, -0.0, -0.00645, -0.0, -0.001217, -0.001193, 0.0, 0.001217, -0.001193, -0.0, -0.000815, -0.000736, 0.0, 0.000815, -0.000736, -0.0, -0.001394, -2.6e-05, -0.001217, -0.000697, 0.001709, 0.001217, -0.000697, 0.001709, 0.0, 0.001394, -2.6e-05, 0.001217, 0.000697, 0.001709, -0.001217, 0.000697, 0.001709]",0.07,1.0
fluorine_diatomic,-199.495428391220,6,0.0,"[-24.79149, -24.79145, -1.332444, -1.093082, -0.5860901, -0.5220293, -0.5220293, -0.3937544, -0.3937544]","[0.0, -0.0, -0.004506, -0.0, 0.0, 0.004506]",0.0,0.3
ethylamine,-135.168110217368,7,0.5635565945,"[-10.16448, -0.8744504, -0.7249379, -0.6059897, -0.4927694, -0.4331786, -0.4092165, -0.4019792, -0.3573286, -0.3371819, -0.2288086]","[-0.001289, 0.000228, -0.0, 0.0023, -0.000802, 0.0, 0.001945, -0.000249, -0.0, -0.001878, -0.000525, -0.0, -0.000686, 0.001502, -0.001458, -0.000686, 0.001502, 0.001458, -0.000299, -0.001468, 0.00118, -0.000299, -0.001468, -0.00118, 0.000445, 0.00064, -0.000255, 0.000445, 0.00064, 0.000255]",0.05,0.7
aluminum_diatomic,-484.781452294288,40,6e-06,"[-56.04747, -4.14076, -4.140751, -2.694327, -2.694316, -2.692788, -2.692774, -2.691867, -2.691461, -0.3839047, -0.2799139, -0.1624322, -0.1556671]","[-0.0, -0.0, 0.001675, 0.0, 0.0, -0.001675]",0.03,2.1
methyl_nitrite,-245.002436452464,9,0.883272574955,"[-10.24435, -1.207758, -1.055778, -0.7661449, -0.6310145, -0.5496494, -0.5122351, -0.5059134, -0.4382228, -0.4208729, -0.3755307, -0.3283193, -0.2803313]","[-0.001134, -0.003203, -0.0, -0.001255, 0.005399, 0.0, -0.008537, -0.025847, 0.0, 0.001813, -0.000836, -0.0, 0.000199, 0.00067, -0.00086, 0.000199, 0.00067, 0.00086, 0.008715, 0.023148, 0.0]",0.08,0.8
isobutane,-158.455770456763,6,0.0349100000143,"[-10.15909, -0.798821, -0.6772806, -0.6772806, -0.5547374, -0.4597098, -0.4265463, -0.4265453, -0.3792423, -0.3792418, -0.3588269, -0.3224879, -0.3224879, -0.3181395]","[0.0, 1.5e-05, -0.002417, 0.0, -0.00258, -7.4e-05, -0.002213, 0.001265, -5.8e-05, 0.002213, 0.001265, -5.8e-05, 0.0, 1e-06, -0.001619, -0.0, -0.001078, 0.001754, 0.001101, -0.001356, -0.00017, -0.001101, -0.001356, -0.00017, -0.000938, 0.000547, 0.001758, -0.001729, -0.000267, -0.000173, -0.000634, 0.001632, -0.000178, 0.000938, 0.000547, 0.001758, 0.000634, 0.001632, -0.000178, 0.001729, -0.000267, -0.000173]",0.09,1.1
boron_trifluoride,-324.548759865802,6,6e-06,"[-6.904655, -1.264589, -1.225256, -1.225255, -0.5971485, -0.5605627, -0.5605626, -0.5231708, -0.4556505, -0.4556504, -0.4453499, -0.4453496, -0.4130843]","[-0.0, -0.0, 0.0, 0.0, -0.012248, -0.0, -0.010613, 0.006124, 0.0, 0.010613, 0.006124, -0.0]",0.04,0.5
nitrosyl_chloride,-590.078761335318,11,0.76168777414,"[-7.207164, -7.205232, -1.312313, -0.829436, -0.7077819, -0.5691185, -0.5658354, -0.5432072, -0.3214149, -0.3149841, -0.3058393]","[0.002458, 0.004929, 0.0, 0.008434, -0.001633, -0.0, -0.010892, -0.003296, 0.0]",0.08,0.7
silicon_monophosphide,-630.746599685169,12,0.580095,"[-5.329286, -4.734428, -4.726685, -4.726685, -3.689141, -3.685838, -3.685838, -0.6207574, -0.4290449, -0.2872978, -0.247088, -0.247088]","[0.0, 0.0, -0.033477, -0.0, -0.0, 0.033477]",0.07,0.8
pyrrole,-210.161372577807,8,0.755152,"[-10.1523, -0.9671431, -0.7631961, -0.7094464, -0.5851439, -0.5554423, -0.5368026, -0.4224483, -0.4163988, -0.3951901, -0.3784696, -0.3655936, -0.2333788, -0.200002]","[0.0, -0.0, 0.006806, -0.0, 0.0, -0.01131, -0.0, -0.001419, 0.00589, -0.0, 0.001419, 0.00589, -0.0, -0.00479, -0.005202, -0.0, 0.00479, -0.005202, 0.0, -0.002755, -0.001863, 0.0, 0.002755, -0.001863, 0.0, -0.002382, 0.003428, 0.0, 0.002382, 0.003428]",0.14,1.2
aluminum_monoxide,-317.607658420182,11,1.402873,"[-56.05962, -19.1192, -4.158313, -2.710262, -2.710262, -2.709874, -0.8928291, -0.3782264, -0.2877861, -0.2877861, -0.2723306]","[0.0, 0.0, 0.015488, -0.0, -0.0, -0.015488]",0.03,0.6
trifluoromethane,-338.221400670112,7,0.481389008983,"[-10.42729, -1.311984, -1.226122, -1.226096, -0.7120384, -0.6001369, -0.5879174, -0.5879072, -0.4610613, -0.461061, -0.4290888, -0.4290759, -0.4058142, -0.3808238]","[0.0, 3.8e-05, -0.031507, -0.0, 1e-06, 0.001756, -0.0, -0.005405, 0.009925, -0.00466, 0.002683, 0.009913, 0.00466, 0.002683, 0.009913]",0.04,0.6
silicon_monofluoride,-389.300783787835,7,0.315011,"[-66.17, -24.69543, -5.324154, -3.684829, -3.681176, -3.680255, -1.190742, -0.5350232, -0.4458076, -0.4409461, -0.3590464, -0.1633722]","[0.0, 0.0, 0.017259, -0.0, -0.0, -0.017259]",0.03,0.5
ethyl_chloride,-539.420830813787,7,0.849360132119,"[-7.194788, -0.8581256, -0.7432688, -0.6213162, -0.4797409, -0.454698, -0.410009, -0.3782156, -0.373558, -0.292608, -0.2915865]","[0.012004, 0.004787, 0.000838, 0.000234, 0.0013, 9.4e-05, -0.004195, -0.003, -0.001368, -0.004437, -0.000811, -1.3e-05, -0.001356, 0.001927, 0.002685, -0.001317, 0.001981, -0.002666, 0.000217, -0.00281, 0.00318, -0.001151, -0.003373, -0.00275]",0.07,0.8
bicyclo[1.1.0]butane,-155.943570200890,7,0.315708,"[-10.18554, -0.9150463, -0.6805628, -0.5708425, -0.5694104, -0.5120795, -0.4235587, -0.4223632, -0.3683027, -0.3209703, -0.3061469, -0.2342874]","[0.004784, 0.0, 0.000154, -0.004784, 0.0, 0.000154, 0.0, 0.006101, 0.000918, 0.0, -0.006101, 0.000918, -0.0, 0.009486, -0.000807, -0.0, -0.009486, -0.000807, -0.0, -0.000784, -0.005831, -0.0, 0.000784, -0.005831, -0.004652, -0.0, 0.005565, 0.004652, -0.0, 0.005565]",0.07,2.1
silyl_radical,-291.230057145720,6,0.0187580000267,"[-66.11717, -5.284072, -3.645616, -3.63991, -3.63991, -0.5448801, -0.3621552, -0.3621552, -0.2228849]","[-0.0, -4e-06, -0.005573, -0.0, -0.007703, 0.001859, -0.006672, 0.003853, 0.001857, 0.006672, 0.003853, 0.001857]",0.01,0.5
cyclopentane,-196.552917416563,7,0.00240199458784,"[-10.16241, -0.827426, -0.7000083, -0.6995868, -0.5640361, -0.5548744, -0.4750366, -0.4716802, -0.4090509, -0.4074876, -0.3320201, -0.3313537, -0.3262095, -0.3220483, -0.3198764, -0.3095685]","[-0.000824, 0.001194, 0.001016, 0.000335, -0.000852, 0.000965, 0.000714, -0.00024, 0.000119, 0.000816, 0.000637, -0.001075, -0.001194, -0.000637, -0.001042, -0.00036, -0.002284, -0.00403, 0.000219, -0.004262, 0.002121, 0.003334, -0.001226, 0.003179, 0.003292, -0.00057, -0.003406, 0.000767, 0.001914, 0.004123, 0.002427, 0.003643, -0.001869, -0.002875, 0.003609, 0.001043, -0.000935, 0.000988, -0.004278, -0.001399, -0.000331, 0.004272, -0.004318, -0.001582, -0.001137]",0.17,1.6
dimethyl_sulfoxide,-553.176322839745,9,1.5395205115,"[-5.983604, -1.009028, -0.7964692, -0.7277847, -0.6016175, -0.480542, -0.458755, -0.4565197, -0.427967, -0.3986333, -0.3968864, -0.3506602, -0.2610279, -0.2201008]","[-0.0, 0.005224, -0.022831, -0.0, -0.02575, 0.013105, 0.018832, 0.02355, 0.007431, -0.018832, 0.02355, 0.007431, -0.02435, -0.015929, -0.001992, 0.02435, -0.015929, -0.001992, 0.002107, 0.003661, 0.001031, -0.005705, -0.001019, -0.001607, -0.002107, 0.003661, 0.001031, 0.005705, -0.001019, -0.001607]",0.17,1.8
trifluoroacetic_acid,-526.773695488818,10,0.664437132666,"[-10.35204, -1.337727, -1.247596, -1.245512, -1.142022, -1.054003, -0.7670791, -0.6715698, -0.6148406, -0.6125046, -0.5885238, -0.5082665, -0.488737, -0.482849, -0.4708831, -0.46304, -0.4428859, -0.4376983, -0.4212005, -0.4068624, -0.3502749, -0.3099951]","[0.011091, 0.019053, -0.0, -0.021137, 0.015317, 0.0, -0.010051, -0.02574, 0.0, 0.024752, -0.003986, -0.0, 0.007535, -0.00703, 0.0, -0.009225, -0.00567, -0.012149, -0.009225, -0.00567, 0.012149, 0.006261, 0.013728, -0.0]",0.21,1.6
nitric_oxide,-129.885046472636,8,0.038785,"[-19.28604, -14.47155, -1.247317, -0.6841146, -0.5332884, -0.5070568, -0.4809736, -0.2114182]","[0.0, -0.0, 0.016163, -0.0, 0.0, -0.016163]",0.01,0.4
hydrazine,-111.847090570905,6,1.188369,"[-14.33114, -14.33111, -0.9523574, -0.7491424, -0.5059081, -0.4802176, -0.4302648, -0.2825815, -0.2228605]","[0.007014, -0.004399, -0.002154, -0.007014, 0.004399, -0.002154, 0.00441, -0.010504, -0.005361, -0.00441, 0.010504, -0.005361, -0.004705, 8.1e-05, 0.007515, 0.004705, -8.1e-05, 0.007515]",0.01,0.4
aluminum_carbide,-280.332141637771,9,0.518982,"[-56.06014, -10.2314, -4.152972, -2.70601, -2.70601, -2.703336, -0.6055304, -0.330368, -0.2441685, -0.2441685, -0.2222209]","[0.0, 0.0, 0.004897, -0.0, -0.0, -0.004897]",0.03,0.8
sulfur_monoxide,-473.346888984448,8,0.587926,"[-88.95239, -19.22114, -8.023918, -5.98564, -5.985406, -5.985406, -1.097123, -0.682063, -0.4582638, -0.4582638, -0.4547703, -0.2578884, -0.2578884]","[-0.0, 0.0, 0.03908, 0.0, -0.0, -0.03908]",0.03,0.5
hydroxymethyl_radical,-115.049802915685,8,0.605386150382,"[-19.172, -10.21651, -1.049556, -0.6671796, -0.5222623, -0.4430833, -0.3933204, -0.3470083, -0.1723572]","[0.004497, 0.000866, -0.00043, -0.001984, -0.002197, 0.000994, 0.000184, 0.001318, -0.000325, -0.001091, -0.00235, -0.000187, -0.001606, 0.002363, -5.2e-05]",0.02,0.5
dimethyl_sulfide,-478.009125960876,7,0.671647,"[-5.877513, -0.7978565, -0.7047717, -0.5965806, -0.4418352, -0.4395896, -0.4244582, -0.4076968, -0.3632904, -0.3118823, -0.2164416]","[-0.0, -0.005474, 0.00278, 0.0, 0.005474, 0.00278, 0.0, -0.0, -0.009303, 0.0, -0.001339, -0.000701, -0.001466, -0.000302, 0.001286, 0.001466, -0.000302, 0.001286, 0.0, 0.001339, -0.000701, 0.001466, 0.000302, 0.001286, -0.001466, 0.000302, 0.001286]",0.07,0.8
beryllium_monochloride,-474.952511904860,7,0.385847,"[-101.5212, -9.454559, -7.213289, -7.21005, -7.21005, -4.094114, -0.8195115, -0.4061852, -0.3397818, -0.3397818, -0.2178678]","[0.0, 0.0, 0.006553, -0.0, -0.0, -0.006553]",0.03,0.5
n_propyl_chloride,-578.733110135068,7,0.884301071464,"[-7.19415, -0.8555054, -0.7744554, -0.6677711, -0.595717, -0.4844023, -0.4433647, -0.4265033, -0.4127039, -0.3661049, -0.3602357, -0.3468861, -0.2903557, -0.2901451]","[-0.00867, 0.001179, 0.0, 0.008499, -0.012187, -0.0, -0.005234, 0.009548, -0.0, 0.01377, -0.001829, -0.0, -0.000952, 0.006471, 0.010596, -0.000952, 0.006471, -0.010596, 0.001384, -0.005427, 0.008599, 0.001384, -0.005427, -0.008599, -0.001756, 0.005323, 0.008391, -0.001756, 0.005323, -0.008391, -0.005717, -0.009446, 0.0]",0.12,1.1
chloroform,-1419.265181922263,7,0.531860000135,"[-7.238053, -0.9599875, -0.8480311, -0.8480306, -0.6635706, -0.5241573, -0.4833488, -0.4833486, -0.3613396, -0.3613387, -0.3370064, -0.3279246, -0.3279243, -0.3106328]","[-0.0, -2e-06, 0.021271, -0.0, -2e-06, -0.009512, 0.0, -0.016039, -0.003922, -0.013895, 0.008022, -0.003919, 0.013895, 0.008022, -0.003919]",0.19,1.1
phosphorus_monosulfide,-739.511584010889,10,0.296346,"[-5.926406, -5.925794, -5.923693, -4.765863, -4.763042, -4.761111, -0.7816625, -0.5415677, -0.3502155, -0.3419728, -0.3328846, -0.1993038]","[-0.0, -0.0, 0.014264, 0.0, 0.0, -0.014264]",0.07,0.7
cyclopropane,-117.892969281945,6,1.7e-05,"[-10.17244, -10.17244, -0.8455663, -0.5920139, -0.5920068, -0.4903064, -0.4612928, -0.3598557, -0.3598478, -0.2880029, -0.287996]","[-0.0, -0.003532, -0.0, -0.00304, 0.001757, -0.0, 0.00304, 0.001757, -0.0, 0.0, -0.002248, -0.001595, -0.001944, 0.001129, -0.001602, 0.001944, 0.001129, -0.001602, 0.0, -0.002248, 0.001595, -0.001944, 0.001129, 0.001602, 0.001944, 0.001129, 0.001602]",0.03,0.6
formyl_radical,-113.845864073065,7,0.632970292229,"[-19.21328, -10.28538, -1.098511, -0.6270906, -0.4964922, -0.4294962, -0.4243887, -0.2230384]","[0.032516, -0.027482, 0.0, -0.027392, 0.006508, -0.0, -0.005124, 0.020974, -0.0]",0.02,0.4
spiropentane,-195.267548183336,6,0.0,"[-10.17326, -0.8753232, -0.7914452, -0.5984268, -0.5984268, -0.5355661, -0.4810387, -0.46725, -0.46725, -0.3704254, -0.3573036, -0.3411016, -0.280765, -0.280765, -0.2638614]","[0.0, -0.0, -0.0, 0.0, 0.0031, 0.000237, -0.0, -0.0031, 0.000237, -0.0031, 0.0, -0.000237, 0.0031, -0.0, -0.000237, -0.003491, -0.003648, -0.00221, 0.003491, -0.003648, -0.00221, 0.003491, 0.003647, -0.00221, -0.003491, 0.003648, -0.00221, 0.003647, 0.003491, 0.00221, 0.003647, -0.003491, 0.00221, -0.003647, -0.003491, 0.00221, -0.003647, 0.003491, 0.00221]",0.14,1.2
acetonitrile,-132.591133689680,9,1.75991401661,"[-14.33061, -10.24197, -10.22969, -0.9094875, -0.8593889, -0.5879247, -0.5047135, -0.3716331, -0.3563921, -0.3325814, -0.2776802]","[-0.009912, 0.005698, -0.015834, -0.009229, 0.005328, 0.021007, 0.004084, -0.002358, -0.013325, 0.055717, 0.007881, 0.017373, 0.021054, -0.052182, 0.017364, -0.061714, 0.035633, -0.026585]",0.03,0.5
disilane,-582.577870350664,6,0.0,"[-3.627479, -3.627456, -3.627456, -3.626976, -0.5722648, -0.5086232, -0.3689862, -0.3689782, -0.3437735, -0.3437648, -0.294296]","[-0.0, 2.2e-05, 0.004506, -0.0, -2.2e-05, -0.004506, -0.0, -0.006128, -0.00415, 0.005287, 0.003053, -0.00414, -0.005287, 0.003053, -0.00414, -0.0, 0.006128, 0.00415, 0.005287, -0.003053, 0.00414, -0.005287, -0.003053, 0.00414]",0.04,0.7
methylene_chloride,-959.687871946772,7,0.728647,"[-7.222849, -0.9124528, -0.8310669, -0.6746112, -0.5093779, -0.4690826, -0.4504062, -0.3341408, -0.3288565, -0.3115582, -0.3096858]","[0.0, -0.0, 0.011209, 0.011454, -0.0, -0.008792, -0.011454, -0.0, -0.008792, 0.0, -0.009617, 0.003188, 0.0, 0.009617, 0.003188]",0.1,0.7
methlidyne_radical,-38.477690983684,7,0.542853,"[-10.27617, -0.6408807, -0.3112433, -0.2459849]","[0.0, 0.0, -0.001653, -0.0, -0.0, 0.001653]",0.0,0.3
trifluoro_acetonitrile,-430.440349313104,10,0.630607000051,"[-10.26527, -1.359125, -1.268735, -1.268733, -0.9495725, -0.7838328, -0.6693759, -0.6343057, -0.6343053, -0.5021481, -0.5021477, -0.470308, -0.4703078, -0.4615038, -0.4431614, -0.3980815, -0.3810637, -0.3810636]","[-0.0, 1e-06, -0.020004, -0.0, 2e-06, 0.011037, -0.0, 0.0, -0.009977, -0.0, -0.006955, 0.006314, -0.006023, 0.003476, 0.006315, 0.006023, 0.003476, 0.006315]",0.13,1.1
acetyl_radical,-153.176691806027,8,0.964970084722,"[-19.18703, -10.27491, -10.20777, -1.078347, -0.7636003, -0.5446067, -0.4656942, -0.4570856, -0.4567868, -0.3853082, -0.3841252, -0.1941183]","[-0.001176, -0.001208, -0.0, -0.01427, 2.6e-05, 0.0, -0.000649, 0.002281, -0.0, 0.00177, 0.00011, -0.001404, 0.00177, 0.00011, 0.001404, 0.012554, -0.001318, -0.0]",0.03,0.6
silylene_t,-290.579171479601,7,0.002441,"[-66.13527, -5.29843, -3.658648, -3.658581, -3.652951, -0.5324281, -0.3775471, -0.2627178, -0.1964239]","[0.0, -0.0, 0.00463, 0.0, 0.00547, -0.002315, -0.0, -0.00547, -0.002315]",0.01,0.4
oxygen_water,-152.825930785791,7,1.0974721529,"[-19.16353, -19.08989, -1.034048, -0.9616546, -0.5547452, -0.4908527, -0.4066583, -0.3416166, -0.3179558, -0.2575522]","[-0.007175, 0.009823, 0.00264, -0.00132, -0.009985, -0.004706, 0.003096, -0.003246, -0.00721, 0.003242, -0.006115, 0.004794, 0.005519, 0.002625, 0.000816, -0.003362, 0.006898, 0.003666]",0.01,0.4
chlorine_monofluoride,-559.937568784457,7,0.3583,"[-9.535517, -7.304885, -7.286268, -7.286268, -1.230817, -0.8302145, -0.5285091, -0.4742986, -0.4742986, -0.3242521, -0.3242521]","[0.0, -0.0, 0.021175, -0.0, 0.0, -0.021175]",0.03,0.5
sodium_hydride,-162.852560940325,5,2.348613,"[-38.48767, -2.228015, -1.160141, -1.160141, -1.157262, -0.1857603]","[-0.0, 0.0, -0.000322, 0.0, -0.0, 0.000322]",0.0,0.4
nitrogen_tribromide,-7776.258505946684,9,0.300982000007,"[-2.657384, -0.9718041, -0.8066543, -0.8066539, -0.6890757, -0.4763901, -0.4763898, -0.4277803, -0.3395718, -0.3395718, -0.3063435, -0.3063431, -0.2912618, -0.27752]","[0.0, -6e-06, -0.006346, -0.0, -0.017809, 0.002115, -0.015426, 0.008908, 0.002116, 0.015426, 0.008908, 0.002116]",0.64,3.4
phosphorus_pentafluoride,-840.663780402441,7,1.8e-05,"[-4.976286, -1.339643, -1.275556, -1.275551, -1.231159, -1.200015, -0.711168, -0.6133816, -0.6133802, -0.5963883, -0.5350412, -0.5350385, -0.5190325, -0.5190296, -0.4899712, -0.4766241, -0.4546758, -0.4349174, -0.4349173, -0.411125, -0.4111242]","[-0.0, 9e-06, -0.0, 0.0, -0.032246, 0.0, -0.027901, 0.016111, 0.0, 0.027901, 0.016111, 0.0, 0.0, 8e-06, -0.020149, -0.0, 8e-06, 0.020149]",0.19,1.2
aminyl_radical,-55.870764482472,7,0.788987,"[-14.35167, -0.8537596, -0.4722932, -0.3176556, -0.3083757]","[0.0, -0.0, 0.010491, -0.0, -0.004957, -0.005245, -0.0, 0.004957, -0.005245]",0.0,0.3
allene,-116.654991762157,7,0.0,"[-10.20124, -10.18336, -10.18334, -0.7860007, -0.7002842, -0.5187868, -0.4474947, -0.4417012, -0.4417012, -0.2626942, -0.2626942]","[-0.0, -0.0, -0.0, 0.0, -0.0, 0.003922, -0.0, 0.0, -0.003922, -0.0, 0.000307, -0.001807, 0.0, -0.000307, -0.001807, 0.000307, 0.0, 0.001807, -0.000307, -0.0, 0.001807]",0.02,0.5
methane,-40.517555464270,5,0.0,"[-10.15539, -0.6921981, -0.3901704, -0.3901704, -0.3901704]","[-0.0, -0.0, -0.0, -0.002498, -0.002498, -0.002498, -0.002498, 0.002498, 0.002498, 0.002498, -0.002498, 0.002498, 0.002498, 0.002498, -0.002498]",0.0,0.3
carbon_monosulfide,-436.204870025509,8,0.619457,"[-88.90694, -10.28073, -7.989418, -5.948752, -5.94852, -5.94852, -0.8400271, -0.5210256, -0.3552641, -0.3552641, -0.3081983]","[0.0, -0.0, 0.013522, -0.0, 0.0, -0.013522]",0.03,0.5
sulfur_hexafluoride,-997.092626953572,6,0.0,"[-6.301695, -1.416565, -1.287887, -1.287887, -1.287887, -1.233919, -1.233919, -0.8147579, -0.669271, -0.669271, -0.669271, -0.5604534, -0.5604534, -0.5604534, -0.5267686, -0.5267686, -0.470828, -0.470828, -0.470828, -0.466347, -0.466347, -0.466347, -0.4244942, -0.4244942, -0.4244942]","[-0.0, -0.0, -0.0, 0.0, 0.0, -0.032936, 0.0, -0.032936, 0.0, -0.032936, 0.0, 0.0, 0.0, 0.032937, 0.0, 0.032937, 0.0, 0.0, 0.0, 0.0, 0.032937]",0.33,1.5
nonane,-355.019104500967,6,0.021297,"[-10.15839, -0.809851, -0.7904889, -0.7588024, -0.7165978, -0.6670079, -0.6158507, -0.5783267, -0.5726556, -0.5678074, -0.4829934, -0.4653558, -0.4379291, -0.4306871, -0.4251636, -0.4043667, -0.397387, -0.3958045, -0.3701463, -0.3653952, -0.3433585, -0.3417276, -0.335672, -0.3247106, -0.3240126, -0.3181418, -0.3171986, -0.3170797, -0.2909444]","[-0.0, 0.0, 0.00142, -0.0, 4e-05, -0.001412, 0.0, -4e-05, -0.001412, -0.0, 0.000217, 0.001317, -0.0, -0.000217, 0.001317, 0.0, -0.001035, -0.001448, 0.0, 0.001035, -0.001448, -0.0, 9.1e-05, 0.001124, -0.0, -9.1e-05, 0.001124, -0.003007, 0.0, -0.00304, 0.003007, 0.0, -0.00304, -0.003027, -1e-05, 0.003053, 0.003027, -1e-05, 0.003053, 0.003027, 1e-05, 0.003053, -0.003027, 1e-05, 0.003053, -0.003049, -3e-05, -0.00303, 0.003049, -3e-05, -0.00303, 0.003049, 3e-05, -0.00303, -0.003049, 3e-05, -0.00303, 0.003362, -0.000402, 0.003199, -0.003362, -0.000402, 0.003199, -0.003362, 0.000402, 0.003199, 0.003362, 0.000402, 0.003199, 0.0, -0.004204, 0.002459, 0.003696, -0.000864, -0.003077, -0.003696, -0.000864, -0.003077, 0.0, 0.004204, 0.002459, -0.003696, 0.000864, -0.003077, 0.003696, 0.000864, -0.003077]",0.64,4.2
furan,-230.016186568740,9,0.252818,"[-10.17648, -1.104843, -0.7930087, -0.7391906, -0.5929383, -0.5666836, -0.5381824, -0.4428133, -0.4426017, -0.4084081, -0.3918695, -0.3671858, -0.2736109, -0.2238728]","[-0.0, -0.0, 0.000463, 0.0, -0.002063, 0.002353, 0.0, 0.002063, 0.002353, 0.0, 0.00303, -0.002393, 0.0, -0.00303, -0.002393, -0.0, -0.001907, -0.001753, -0.0, 0.001907, -0.001753, 0.0, -0.003958, 0.001561, 0.0, 0.003958, 0.001561]",0.14,1.2
methanol_radical,-115.047899407780,8,0.783683649502,"[-19.18505, -10.23225, -1.016361, -0.6757236, -0.4821047, -0.4595323, -0.4268365, -0.3304283, -0.2817296]","[0.003424, -0.015283, -0.0, -0.00056, 0.007473, 0.0, -0.003639, 0.002312, -0.0, 0.000388, 0.002749, -0.003208, 0.000388, 0.002749, 0.003208]",0.02,0.5
sodium_lithium,-169.800319763893,6,0.011792,"[-38.4741, -2.212128, -2.003296, -1.143748, -1.143748, -1.143718, -0.1323466]","[0.0, -0.0, -0.000135, -0.0, 0.0, 0.000135]",0.03,0.5
ethylene_oxide,-153.782981591175,7,0.766298,"[-10.2299, -10.22964, -1.071348, -0.6746778, -0.6331629, -0.5144298, -0.4789963, -0.3908887, -0.388625, -0.3122285, -0.2657536]","[0.0, -0.0, -0.005012, 0.0, -0.002403, -0.001712, -0.0, 0.002403, -0.001712, 0.002227, -0.003938, 0.002109, -0.002227, -0.003938, 0.002109, -0.002227, 0.003938, 0.002109, 0.002227, 0.003938, 0.002109]",0.03,0.7
chlorine_diatomic,-920.341854384754,6,0.0,"[-7.263772, -7.263772, -7.263748, -7.263748, -0.9471591, -0.7715714, -0.4788454, -0.4129718, -0.4129718, -0.3091551, -0.3091551]","[-0.0, 0.0, 0.021214, 0.0, -0.0, -0.021214]",0.02,0.5
aziridine,-133.915113060760,7,0.707376775138,"[-10.20322, -10.20241, -0.948254, -0.6553559, -0.6124958, -0.5159737, -0.464789, -0.3772083, -0.3369914, -0.333532, -0.2398224]","[-0.001959, 0.003611, 0.012471, -0.00225, -0.003973, -0.00373, 0.002064, -0.004534, -0.006919, 0.001609, -0.001324, -0.00211, 0.001651, 0.008396, -0.002828, 0.004749, -0.005316, 0.003273, -0.00203, 0.001972, 0.001394, -0.003834, 0.001168, -0.001551]",0.04,0.6
methoxyethane,-194.340756200991,7,0.461759278266,"[-10.16384, -1.023944, -0.7577365, -0.6699271, -0.6025924, -0.4818189, -0.4772434, -0.4477074, -0.4177577, -0.3812909, -0.3580957, -0.3513934, -0.3138022, -0.2497572]","[-0.005672, -0.001428, 0.0, 0.000712, 0.004047, -0.0, 0.006005, 0.000224, 0.0, 0.00095, -0.002173, 0.0, -0.000949, -0.000775, -0.001109, -0.000949, -0.000775, 0.001109, -0.000849, 0.002055, -0.0, -0.001587, -0.000228, 0.001528, -0.001587, -0.000228, -0.001528, 0.00166, 0.000391, 0.001416, 0.00166, 0.000391, -0.001416, 0.000608, -0.001502, 0.0]",0.08,1.0
ethane,-79.828873785484,6,0.0,"[-10.16271, -10.16258, -0.7475764, -0.6127226, -0.4314077, -0.4314045, -0.3597769, -0.3417133, -0.3417104]","[2.5e-05, -0.0, 0.006935, -2.5e-05, 0.0, -0.006935, 0.002706, 0.0, -0.001999, -0.001364, -0.00237, -0.002002, -0.001364, 0.00237, -0.002002, -0.002706, -0.0, 0.001999, 0.001364, 0.00237, 0.002002, 0.001364, -0.00237, 0.002002]",0.01,0.5
carbon_tetrabromide,-10333.557788537111,7,0.0,"[-2.650835, -0.9174844, -0.8047534, -0.8047534, -0.8047534, -0.6169125, -0.4676094, -0.4676094, -0.4676094, -0.3455825, -0.3455825, -0.3232107, -0.3232107, -0.3232107, -0.2925953, -0.2925953, -0.2925953]","[0.0, 0.0, 0.0, -0.005513, -0.005513, -0.005513, 0.005513, 0.005513, -0.005513, 0.005513, -0.005513, 0.005513, -0.005513, 0.005513, 0.005513]",1.01,4.7
beryllium_diatomic,-29.343772608253,6,2.6e-05,"[-4.062558, -4.062534, -0.2874828, -0.1782327]","[0.0, 0.0, 0.001494, -0.0, -0.0, -0.001494]",0.0,0.3
tetrachloroethylene,-1916.933751705747,7,1e-06,"[-7.250341, -0.970257, -0.9176449, -0.8742409, -0.8510811, -0.7357932, -0.574297, -0.5181181, -0.5160968, -0.4566837, -0.4481295, -0.3901361, -0.3688182, -0.3588989, -0.3550434, -0.3504237, -0.3435174, -0.3151624, -0.2576141]","[0.0, -0.0, 0.010301, 0.0, -0.0, -0.010301, 0.0, -0.007662, -0.005291, 0.0, 0.007662, -0.005291, -0.0, 0.007662, 0.005291, -0.0, -0.007662, 0.005291]",0.27,1.7
silicon_monoxide,-364.716348968951,7,1.021186,"[-66.14989, -19.13442, -5.311991, -3.670887, -3.670887, -3.665303, -0.9426231, -0.4361246, -0.3315763, -0.3315763, -0.308924]","[0.0, -0.0, 0.017685, -0.0, 0.0, -0.017685]",0.03,0.5
trimethylamine,-174.469461776325,7,0.266576026184,"[-10.19022, -0.9164788, -0.6986663, -0.6986478, -0.585873, -0.4627484, -0.4604187, -0.4604105, -0.3900072, -0.3899987, -0.3628106, -0.3558755, -0.3558733, -0.2070296]","[-3.2e-05, 5e-05, 0.008226, 0.004779, 0.004853, 0.014693, -0.006541, 0.001754, 0.014692, 0.001771, -0.006665, 0.014702, 0.002627, 0.002625, -0.013344, -0.003581, 0.000958, -0.01336, 0.000961, -0.003585, -0.013365, -0.007615, 0.002631, -0.002031, 0.002639, -0.007649, -0.002044, 0.001533, -0.007921, -0.002031, 0.005294, 0.006095, -0.002039, 0.006118, 0.005318, -0.002053, -0.007954, 0.001535, -0.002046]",0.1,1.2
carbonyl_fluoride,-313.003570855906,8,0.468255,"[-10.44645, -1.335899, -1.263798, -1.110658, -0.6898279, -0.6206792, -0.5738586, -0.5418482, -0.4746902, -0.468941, -0.4547307, -0.39558, -0.3514762]","[0.0, 0.0, -0.016134, -0.0, -0.0, 0.003472, 0.0, -0.008693, 0.006331, -0.0, 0.008693, 0.006331]",0.06,0.6
phosphorus_mononitride,-396.057576489385,9,0.965334,"[-77.11018, -14.37041, -6.598809, -4.759585, -4.759585, -4.755959, -0.8550611, -0.4933761, -0.3343326, -0.3343326, -0.3251018]","[-0.0, 0.0, 0.005348, 0.0, -0.0, -0.005348]",0.03,0.5
carbon_tetrachloride,-1878.838923279797,7,0.0,"[-7.250623, -0.9950269, -0.8636331, -0.8636331, -0.8636331, -0.6365964, -0.5115313, -0.5115313, -0.5115313, -0.3817229, -0.3817229, -0.3574662, -0.3574662, -0.3574662, -0.3227278, -0.3227278, -0.3227278]","[-0.0, -0.0, -0.0, -0.007838, -0.007838, -0.007838, 0.007838, 0.007838, -0.007838, 0.007838, -0.007838, 0.007838, -0.007838, 0.007838, 0.007838]",0.27,1.5
acrylonitrile,-170.826449231585,10,1.53689119952,"[-10.22467, -0.9012665, -0.8161093, -0.6587805, -0.5405718, -0.4813889, -0.4197673, -0.3758923, -0.363285, -0.3310989, -0.2874935]","[-0.001827, -0.001617, 0.0, 0.00393, 0.000275, -0.0, 0.014402, -0.036764, -0.0, 0.000699, 0.000241, -0.0, -0.00024, 0.001131, -0.0, -0.000849, -0.000567, -0.0, -0.016115, 0.037301, 0.0]",0.06,0.8
sodium_hydroxide,-238.107138883985,37,2.147832,"[-38.47003, -18.98562, -2.212906, -1.145356, -1.145356, -1.142609, -0.8095031, -0.3238162, -0.1618604, -0.1618604]","[0.0, -0.0, -0.0292, -0.0, 0.0, 0.007808, -0.0, 0.0, 0.021392]",0.04,1.1
methylene_t,-39.149032063153,7,0.248789,"[-10.21434, -0.6724031, -0.4511245, -0.2691005, -0.2354492]","[-0.0, -0.0, -0.001169, -0.0, 0.003118, 0.000585, 0.0, -0.003118, 0.000585]",0.0,0.4
carbon_monophosphide,-379.289615681299,11,0.256708,"[-77.0961, -10.27478, -6.582268, -4.744857, -4.740782, -4.740782, -0.7375799, -0.4621832, -0.3324354, -0.3009287, -0.3009287]","[0.0, 0.0, 0.003171, -0.0, -0.0, -0.003171]",0.03,0.6
formic_acid,-189.742167276687,9,0.53090272236,"[-19.14183, -10.32132, -1.118801, -1.028696, -0.6607328, -0.5359605, -0.4877486, -0.4493773, -0.4020758, -0.3298152, -0.2806515]","[-0.023974, -0.009969, 0.0, 0.007939, -0.019234, -0.0, -0.0164, 0.023941, -0.0, 0.036216, 0.00178, 0.0, -0.003781, 0.003482, -0.0]",0.03,0.5
aluminum_trifluoride,-542.163291445428,6,1.7e-05,"[-2.747526, -1.1691, -1.156544, -1.156544, -0.499656, -0.4561373, -0.4561364, -0.43695, -0.4226815, -0.4226812, -0.413513, -0.4135124, -0.3968228]","[-0.0, -1.2e-05, -0.0, 0.0, -0.006852, 0.0, -0.005944, 0.003432, 0.0, 0.005944, 0.003432, 0.0]",0.06,0.6
vinyl_radical,-77.899297601494,11,0.248961981758,"[-10.20412, -10.18321, -0.7611256, -0.5754346, -0.4599099, -0.4276794, -0.2772488, -0.2338945]","[-0.001586, 0.007026, -0.0, -0.002888, -0.013015, 0.0, 0.001648, -0.001847, -0.0, 0.004922, 0.004763, -0.0, -0.002096, 0.003073, -0.0]",0.01,0.5
nitrous_oxide,-184.656028690082,7,0.005729,"[-19.25056, -14.56855, -14.43516, -1.248669, -1.090756, -0.602234, -0.5646564, -0.5646564, -0.4749538, -0.3416247, -0.3416247]","[0.0, 0.0, 0.016461, -0.0, -0.0, -0.001767, 0.0, 0.0, -0.014694]",0.02,0.4
2_butyne,-155.974139336457,6,1.60312195419e-05,"[-10.16415, -0.7719218, -0.7346916, -0.6561122, -0.47081, -0.4243474, -0.4233198, -0.4233187, -0.4117879, -0.4117867, -0.2398642, -0.2398639]","[-0.0, 1e-06, 0.005588, -0.0, 1e-06, -0.005588, 0.0, -1.1e-05, -0.003702, 0.0, -1.1e-05, 0.003702, 0.0, 0.011782, 0.002544, -0.010189, -0.005886, 0.002537, 0.010189, -0.005886, 0.002537, 0.0, 0.011782, -0.002544, 0.010189, -0.005886, -0.002537, -0.010189, -0.005886, -0.002537]",0.07,1.2
hydrogen_diatomic,-1.175481027765,4,0.0,"[-0.434236]","[0.0, -0.0, 0.000996, -0.0, 0.0, -0.000996]",0.0,0.2
beryllium_dihydride,-15.917107347360,5,0.0,"[-4.028909, -0.3494316, -0.313288]","[0.0, -0.0, -0.0, -0.0, -0.0, -0.001207, -0.0, 0.0, 0.001207]",0.0,0.3
beryllium_monohydride,-15.260700466888,7,0.111318,"[-4.059486, -0.3422078, -0.1946812]","[0.0, 0.0, 0.00057, -0.0, -0.0, -0.00057]",0.0,0.3
sodium_monoxide,-237.431025620696,10,2.687032,"[-38.48836, -19.05625, -2.229272, -1.162468, -1.161493, -1.158478, -0.7934929, -0.2597542, -0.2062357, -0.1924726]","[0.0, -0.0, -0.00172, -0.0, 0.0, 0.00172]",0.03,0.6
phosphino_radical,-342.501690255820,7,0.343684,"[-77.07672, -6.564212, -4.729847, -4.723781, -4.720667, -0.6403031, -0.3910156, -0.3109112, -0.2492966]","[-0.0, -0.0, 0.001048, 0.0, -0.000772, -0.000524, 0.0, 0.000772, -0.000524]",0.01,0.4
boron_monochloride,-484.974257384501,7,0.475864,"[-101.5682, -9.503973, -7.262405, -7.259162, -7.259162, -6.842759, -0.886215, -0.5071517, -0.3875929, -0.3875929, -0.2551946]","[0.0, -0.0, 0.01173, -0.0, 0.0, -0.01173]",0.03,0.6
ozone,-225.400713247556,7,0.24462000327,"[-19.2648, -19.2647, -1.353544, -1.086946, -0.7833843, -0.5920517, -0.5867652, -0.5845642, -0.3594996, -0.3424887, -0.3372568]","[-0.0, 3e-06, -0.019292, 0.0, 0.010974, 0.009645, -0.0, -0.010977, 0.009647]",0.01,0.4
water,-76.406808936067,6,0.815898,"[-19.12737, -1.000961, -0.5219729, -0.3700071, -0.2908118]","[-0.0, -0.0, -0.013345, 0.0, -0.008078, 0.006672, 0.0, 0.008078, 0.006672]",0.0,0.3
acetate_anion,-228.492421867268,9,1.3168339328,"[-9.97734, -0.768264, -0.684101, -0.5096535, -0.2722615, -0.2265486, -0.2183008, -0.1825865, -0.14621, -0.1235339, -0.004147911, 0.003000831, 0.01330228]","[-0.000613, 0.002361, -0.0, -5.2e-05, -0.024173, -0.0, 0.003446, 0.00039, 0.0, -0.001376, 0.000786, 0.002876, -0.001376, 0.000786, -0.002876, -0.014893, 0.00922, 0.0, 0.014865, 0.010631, 0.0]",0.05,0.8
tetrachlorosilane,-2130.457063043736,7,0.0,"[-3.783362, -0.908774, -0.8578734, -0.8578734, -0.8578734, -0.5625439, -0.4600423, -0.4600423, -0.4600423, -0.3830474, -0.3830474, -0.3737131, -0.3737131, -0.3737131, -0.3422892, -0.3422892, -0.3422892]","[0.0, 0.0, -0.0, -0.007221, -0.007221, -0.007221, 0.007221, 0.007221, -0.007221, 0.007221, -0.007221, 0.007221, -0.007221, 0.007221, 0.007221]",0.31,1.7
oxygen_diatomic,-150.316536885462,6,0.0,"[-19.304, -19.30399, -1.306815, -0.8346485, -0.5610769, -0.5610769, -0.5471114, -0.3049756, -0.3049756]","[0.0, 0.0, 0.01072, -0.0, -0.0, -0.01072]",0.0,0.3
heptane,-276.393955245714,6,0.021494,"[-10.16364, -0.8020132, -0.7722598, -0.7251621, -0.6658595, -0.6046458, -0.569188, -0.5681226, -0.4761764, -0.4498381, -0.426466, -0.4190147, -0.411399, -0.3944256, -0.3698459, -0.3635209, -0.3534329, -0.3366549, -0.3308642, -0.3196722, -0.3189814, -0.3167168, -0.2978859]","[0.0, -0.0, -0.001803, -0.0, 8.2e-05, 0.00182, 0.0, -8.2e-05, 0.00182, 0.0, -0.000931, -0.001522, -0.0, 0.000931, -0.001522, -0.0, -0.002298, 0.000416, 0.0, 0.002298, 0.000416, -0.003345, -0.0, 0.001697, 0.003345, -0.0, 0.001697, -0.00333, -7.8e-05, -0.001738, 0.00333, -7.8e-05, -0.001738, 0.00333, 7.8e-05, -0.001738, -0.00333, 7.8e-05, -0.001738, 0.003111, -0.000373, 0.001608, -0.003111, -0.000373, 0.001608, -0.003111, 0.000373, 0.001608, 0.003111, 0.000373, 0.001608, -0.0, 0.0027, 0.002273, 0.003093, -0.000473, -0.001761, -0.003093, -0.000473, -0.001761, 0.0, -0.0027, 0.002273, -0.003093, 0.000473, -0.001761, 0.003093, 0.000473, -0.001761]",0.36,2.6
methylene_s,-39.126827503308,6,0.747629,"[-10.24032, -0.6699288, -0.4090286, -0.2390112]","[0.0, -0.0, -0.011169, 0.0, -0.003565, 0.005585, -0.0, 0.003565, 0.005585]",0.0,0.3
octane,-315.706946650831,6,0.0,"[-10.16098, -0.8049797, -0.7820869, -0.7446543, -0.6956295, -0.6402554, -0.589838, -0.5705976, -0.567565, -0.4792558, -0.4583706, -0.4312553, -0.4266176, -0.4121996, -0.4088636, -0.3894515, -0.379067, -0.3545042, -0.3519167, -0.3465094, -0.3292831, -0.3243864, -0.3175585, -0.3157362, -0.3149813, -0.2997816]","[-0.003284, -0.002, -0.0, 0.003284, 0.002, 0.0, 0.002986, 0.002888, 0.0, -0.002986, -0.002888, 0.0, -0.004079, -0.000911, -0.0, 0.004079, 0.000911, -0.0, 0.001574, 0.00114, 0.0, -0.001574, -0.00114, 0.0, -0.001761, -0.001166, -0.00135, -0.001761, -0.001166, 0.00135, 0.001761, 0.001166, -0.00135, 0.001761, 0.001166, 0.00135, 0.001682, 0.001172, 0.001269, 0.001682, 0.001172, -0.001269, -0.001682, -0.001172, 0.001269, -0.001682, -0.001172, -0.001269, -0.001237, -0.001185, -0.00119, -0.001237, -0.001185, 0.00119, 0.001237, 0.001185, -0.00119, 0.001237, 0.001185, 0.00119, -0.001253, -0.001686, 0.0, 0.00132, 0.000798, 0.001936, 0.00132, 0.000798, -0.001936, 0.001253, 0.001686, 0.0, -0.00132, -0.000798, 0.001936, -0.00132, -0.000798, -0.001936]",0.49,3.2
beryllium_difluoride,-214.588851377188,6,0.0,"[-24.66768, -24.66763, -4.06579, -1.151858, -1.14584, -0.4609091, -0.4525479, -0.4204429, -0.4204429, -0.3951477, -0.3951477]","[0.0, 0.0, 0.0, -0.0, -0.0, 0.012307, 0.0, -0.0, -0.012307]",0.02,0.4
dilithium_oxide,-90.307536721896,64,7.27186358508e-05,"[-18.96586, -1.915301, -1.915169, -0.7198786, -0.1819071, -0.153436, -0.1534359]","[0.0, -0.0, 0.0, -0.0, 0.0, -0.007138, -0.0, 0.0, 0.007138]",0.02,1.2
thiophene,-552.996213446174,9,0.219876,"[-5.920307, -0.8773725, -0.732261, -0.7184594, -0.5601705, -0.5507717, -0.5118478, -0.4095461, -0.3899155, -0.3856829, -0.3756597, -0.3421717, -0.249132, -0.2309796]","[0.0, -0.0, -0.011115, -0.0, -0.006131, 0.008706, 0.0, 0.006131, 0.008706, 0.0, -0.007825, -0.003535, 0.0, 0.007825, -0.003535, -0.0, 0.000151, 0.000261, -0.0, -0.000151, 0.000261, 0.0, 0.000206, 0.000125, 0.0, -0.000206, 0.000125]",0.19,1.5
ketene,-152.595262494901,9,0.546559,"[-19.21346, -10.3096, -10.18624, -1.119398, -0.7738322, -0.5367661, -0.4860805, -0.4841845, -0.4484936, -0.406542, -0.2387678]","[0.0, -0.0, -0.003792, -0.0, -0.0, 0.021262, 0.0, 0.0, -0.023994, 0.0, -0.001039, 0.003262, -0.0, 0.001039, 0.003262]",0.03,0.5
phosphorus_monofluoride,-441.137509777113,8,0.316859,"[-77.13375, -24.71685, -6.611822, -4.774075, -4.774075, -4.773066, -1.221669, -0.6266621, -0.4705712, -0.4705712, -0.446445, -0.2311881, -0.2311881]","[-0.0, 0.0, 0.019602, 0.0, -0.0, -0.019602]",0.03,0.5
boron_diatomic,-49.407236567059,6,8.1e-05,"[-6.829376, -6.828754, -0.548367, -0.2912026, -0.2411094, -0.2411094]","[0.0, 0.0, 0.01209, -0.0, -0.0, -0.01209]",0.0,0.3
nitrogen_dioxide,-205.067975835934,7,0.128889000004,"[-19.25877, -19.25872, -14.58003, -1.288548, -1.141334, -0.6744792, -0.5780006, -0.5714225, -0.5687948, -0.3807852, -0.3770514, -0.2827725]","[-0.0, -0.0, 0.011639, 0.0, -0.015063, -0.005819, 0.0, 0.015063, -0.00582]",0.02,0.4
argon_dimer,-1055.026467650491,5,0.0,"[-8.686606, -8.686606, -8.686586, -0.9641464, -0.9628769, -0.4280528, -0.4224784, -0.4224784, -0.4207161, -0.4207161, -0.4151915]","[0.0, 0.0, 0.00037, -0.0, -0.0, -0.00037]",0.02,0.9
sodium_diatomic,-324.586860696752,5,0.0,"[-38.48055, -38.48055, -2.217847, -2.2177, -1.150468, -1.149499, -1.149499, -1.149265, -1.149265, -1.148493, -0.1310787]","[-0.0, 0.0, -0.000631, 0.0, -0.0, 0.000631]",0.02,0.4
dimethylamine,-135.159960811705,7,0.422124675907,"[-10.1875, -0.8896772, -0.6952154, -0.6235364, -0.4832985, -0.4372881, -0.4283381, -0.3827054, -0.3610531, -0.359536, -0.2148396]","[0.002523, 0.000739, -0.0, -0.005259, -0.001261, 0.011153, -0.005259, -0.001261, -0.011153, -0.0007, -0.000514, 0.0, 0.004968, -0.002858, -0.001368, 0.004968, -0.002858, 0.001368, 0.00024, 0.000629, -0.00249, 0.00024, 0.000629, 0.00249, -0.00086, 0.003377, -0.006011, -0.00086, 0.003377, 0.006011]",0.05,0.7
cyclobutene,-155.969879243853,6,0.040961,"[-10.17284, -0.8494331, -0.6500435, -0.6391316, -0.5104872, -0.4932278, -0.4567085, -0.3721148, -0.3612325, -0.3247544, -0.3106498, -0.2421939]","[-0.0, 0.005206, -0.000621, -0.0, -0.005206, -0.000621, -0.0, -0.00231, -0.004931, 0.0, 0.00231, -0.004931, 0.0, -0.002384, -0.001857, 0.0, 0.002384, -0.001857, 0.000391, -0.001463, 0.003704, -0.000391, 0.001463, 0.003704, -0.000391, -0.001463, 0.003704, 0.000391, 0.001463, 0.003704]",0.07,0.8
acetic_acid,-229.077438799574,9,0.630532080104,"[-10.19158, -1.101493, -1.010796, -0.7606482, -0.6076373, -0.4882546, -0.4737887, -0.4675725, -0.4127011, -0.3929255, -0.3915011, -0.3171815, -0.2746335]","[0.003156, -0.010411, 0.0, -0.002179, -0.000856, -0.0, 0.002282, 0.010932, -0.0, 0.000141, -0.005711, -0.0, -0.001129, 0.00255, 0.0, -0.001603, 0.000182, -0.0, -0.000333, 0.001656, -0.001273, -0.000333, 0.001656, 0.001273]",0.06,0.8
hydrogen_fluoride,-100.417916300446,6,0.725821,"[-24.65554, -1.171115, -0.521001, -0.3765446, -0.3765446]","[-0.0, -0.0, 0.017831, 0.0, 0.0, -0.017831]",0.0,0.3
phosphorus_diatomic,-682.683867326064,6,0.0,"[-4.736778, -4.736778, -4.736612, -4.736612, -4.734554, -4.732405, -0.6902037, -0.4658056, -0.2973607, -0.288449, -0.288449]","[-0.0, 0.0, 0.007867, 0.0, -0.0, -0.007867]",0.03,0.5
sodium_fluoride,-262.156189875132,43,2.774931,"[-38.48137, -24.4773, -2.222866, -1.155673, -1.155673, -1.153189, -0.9281105, -0.2206313, -0.2117899, -0.2117899]","[-0.0, -0.0, 0.007557, 0.0, 0.0, -0.007557]",0.02,1.8
lithium_diatomic,-15.013967000319,5,0.0,"[-1.992568, -1.992187, -0.1323176]","[0.0, -0.0, 0.001672, -0.0, 0.0, -0.001672]",0.0,0.3
difluoromethane,-238.969975465994,7,0.669698,"[-10.333, -1.245094, -1.186501, -0.7024098, -0.5454891, -0.539295, -0.5322206, -0.4093389, -0.4022577, -0.3891243, -0.3366416]","[0.0, -0.0, 0.003127, 0.006331, -0.0, -0.00555, -0.006331, -0.0, -0.00555, 0.0, -0.009078, 0.003987, 0.0, 0.009078, 0.003987]",0.03,0.5
propene,-117.905132996130,7,0.140265597225,"[-10.1712, -10.16568, -0.7800937, -0.6801636, -0.5507749, -0.4620255, -0.41561, -0.4101292, -0.3674992, -0.3434066, -0.2489623]","[0.004372, -0.002388, -0.0, -0.006334, 0.001399, 0.0, -0.00084, -2.7e-05, -0.0, -0.000515, 0.001334, 0.0, -0.001286, -0.000876, 0.0, 0.000463, -0.001066, 0.0, 0.000178, 0.001672, -0.0, 0.001981, -2.4e-05, -0.001452, 0.001981, -2.4e-05, 0.001452]",0.03,0.6
difluorine_monoxide,-274.645150525492,7,0.084981,"[-19.3621, -1.331966, -1.220534, -0.9378219, -0.6091369, -0.5641795, -0.5381679, -0.4482239, -0.4379634, -0.4297993, -0.3293224]","[0.0, -0.0, -0.001707, -0.0, -0.004423, 0.000854, 0.0, 0.004423, 0.000854]",0.02,0.4
phosphorus_monoxide,-416.526012623318,7,0.761392,"[-77.13481, -19.18178, -6.616304, -4.779998, -4.776487, -4.774699, -1.026984, -0.5553536, -0.4056544, -0.3901118, -0.388633, -0.1916933]","[-0.0, -0.0, 0.028206, 0.0, 0.0, -0.028206]",0.03,0.5
tert_butyl_radical,-157.794962519679,15,0.0973310006216,"[-10.16342, -0.798023, -0.6858326, -0.6858323, -0.5303872, -0.4416938, -0.4347159, -0.4347151, -0.3832744, -0.383274, -0.3632858, -0.3373174, -0.3373171, -0.1683115]","[-0.0, 6e-06, -0.011716, 0.0, -0.031923, 0.001904, -0.027654, 0.015958, 0.001929, 0.027654, 0.015958, 0.00193, 0.0, -0.001617, 0.002379, 0.001456, -0.001732, -0.000197, -0.001456, -0.001732, -0.000197, -0.001392, 0.000802, 0.002381, -0.002236, -0.000389, -0.000199, -0.000784, 0.002127, -0.000197, 0.001392, 0.000802, 0.002381, 0.000784, 0.002127, -0.000197, 0.002236, -0.000389, -0.000199]",0.07,2.4
lithium_fluoride,-107.416700418597,6,2.212196,"[-24.52457, -1.985363, -0.9829406, -0.2760742, -0.2622986, -0.2622986]","[-0.0, -0.0, -0.00431, 0.0, 0.0, 0.00431]",0.01,0.3
acetyl_fluoride,-253.087826316735,9,1.07166031844,"[-10.20544, -1.240701, -1.074027, -0.7739551, -0.6084065, -0.517343, -0.5045493, -0.4901231, -0.4335852, -0.4272286, -0.3902837, -0.3687962, -0.3051]","[-0.00775, 0.017738, -0.0, -0.000505, -0.004093, -0.0, -0.002001, -0.020034, 0.0, 0.009708, 0.002337, -0.0, -0.003744, -0.002799, -0.0, 0.002146, 0.003425, -0.006832, 0.002146, 0.003425, 0.006832]",0.08,0.8
lithium_hydroxide,-83.366759638914,20,1.427097,"[-19.02924, -1.971337, -0.8478163, -0.3731079, -0.2076647, -0.2076647]","[0.0, 0.0, -0.011515, -0.0, -0.0, 0.000961, 0.0, 0.0, 0.010554]",0.02,0.5
propyne,-116.649609441195,7,0.270227000185,"[-10.20167, -10.17736, -10.16248, -0.7740118, -0.6926306, -0.5233279, -0.4426148, -0.4324208, -0.4324065, -0.2581693, -0.2581679]","[-0.0, -2.1e-05, -0.00606, -0.0, 1e-06, -0.002705, 0.0, 0.0, 0.005031, 0.0, -0.0, -0.008007, -0.0, 0.00769, 0.003908, 0.006654, -0.003835, 0.003917, -0.006654, -0.003835, 0.003917]",0.02,0.5
aluminum_monosulfide,-640.613715548027,14,1.45268,"[-5.874903, -5.866546, -5.866546, -4.182437, -2.734326, -2.734312, -2.734312, -0.6725745, -0.3713125, -0.2610275, -0.2562969, -0.2562969]","[-0.0, -0.0, -0.030507, 0.0, 0.0, 0.030507]",0.08,1.1
boron_monocarbide,-62.664551407428,11,0.412979,"[-10.26525, -6.834972, -0.6950025, -0.3690364, -0.2957829, -0.2957829, -0.276096]","[-0.0, -0.0, 0.000709, 0.0, 0.0, -0.000709]",0.01,0.4
boron_trichloride,-1405.552174569259,7,6.1e-05,"[-6.901117, -0.9017327, -0.8519755, -0.851969, -0.5343652, -0.4616913, -0.461687, -0.4148705, -0.3559325, -0.3559286, -0.3499933, -0.349989, -0.3220836]","[-0.0, 2.6e-05, -0.0, 0.0, -0.005753, 0.0, -0.004979, 0.002864, 0.0, 0.004979, 0.002864, 0.0]",0.14,1.0
ethyl_radical,-79.156144609391,7,0.102820289617,"[-10.17626, -10.16916, -0.7529444, -0.6062218, -0.4484197, -0.4117997, -0.3861962, -0.3556988, -0.1955306]","[0.00071, -0.004669, -0.0, 0.00093, 0.002814, 0.0, -0.005025, 0.003189, 0.0, 0.002079, 0.002548, -0.004082, 0.002079, 0.002548, 0.004082, -0.000387, -0.003215, 0.004483, -0.000387, -0.003215, -0.004483]",0.01,1.5
magnesium_hydroxide,-275.904185452145,73,0.251023000129,"[-46.81377, -19.06917, -3.108518, -1.85268, -1.85268, -1.850071, -0.9037234, -0.4423308, -0.2557225, -0.2557213, -0.1878329]","[-2.7e-05, 1.3e-05, -0.015871, 4e-06, -2e-06, -0.002087, 2.3e-05, -1.1e-05, 0.017958]",0.04,4.4
hydrogen_peroxide,-151.527196114061,6,0.684818,"[-19.19547, -19.19544, -1.113986, -0.9024769, -0.5121197, -0.4978379, -0.4156816, -0.3247156, -0.272304]","[0.00858, 0.010559, 0.010939, -0.00858, -0.010559, 0.010939, -0.02008, -0.012303, -0.010939, 0.02008, 0.012303, -0.010939]",0.01,0.4
propane,-119.141789488209,6,0.0208280624639,"[-10.15926, -0.7761095, -0.6771577, -0.581389, -0.4533753, -0.4308766, -0.3952402, -0.3786526, -0.334339, -0.3301827, -0.3254232]","[3e-05, 0.002572, 4e-06, 0.004508, -0.006605, -2e-06, -0.004538, -0.006651, 2.5e-05, 0.0, -0.000865, -0.001329, -3.3e-05, -0.000817, 0.001295, 0.002412, -0.000413, -0.0, -0.002386, -0.000386, 4e-06, -0.000856, 0.003294, -0.004218, -0.000856, 0.003293, 0.004219, 0.000851, 0.003292, 0.004218, 0.000868, 0.003286, -0.004216]",0.04,0.7
butane,-158.455067253153,6,0.0,"[-10.1605, -0.7902619, -0.7194544, -0.6257284, -0.5717987, -0.4653356, -0.4220066, -0.4146803, -0.4073866, -0.3643601, -0.3470042, -0.3288208, -0.3194614, -0.3174275]","[-0.001071, -0.001132, -0.0, -0.001652, 7.5e-05, 0.0, 0.001652, -7.5e-05, 0.0, 0.001071, 0.001132, -0.0, -0.001379, -0.001087, 0.0, 0.001379, 0.001087, 0.0, 0.000829, -0.001414, -0.001347, 0.000829, -0.001414, 0.001347, -0.000829, 0.001414, -0.001347, -0.000829, 0.001414, 0.001347, -0.001286, 0.000607, 0.001097, -0.001286, 0.000607, -0.001097, 0.001286, -0.000607, 0.001097, 0.001286, -0.000607, -0.001097]",0.09,1.0
carbon_dioxide,-188.577337672462,6,0.0,"[-19.23148, -19.23144, -10.38067, -1.163667, -1.122506, -0.5600979, -0.5162247, -0.5148303, -0.5148303, -0.3696909, -0.3696909]","[-0.0, -0.0, -0.0, 0.0, 0.0, -0.016502, 0.0, 0.0, 0.016502]",0.02,0.4
magnesium_monohydride,-200.630758459215,7,0.463306,"[-46.82576, -3.117999, -1.862435, -1.862435, -1.858693, -0.2967737, -0.1739092]","[-0.0, -0.0, 0.004086, 0.0, 0.0, -0.004086]",0.0,0.4
cyclopropene,-116.616636165369,7,0.198848,"[-10.19232, -10.19123, -10.18623, -0.8628594, -0.5962122, -0.5632092, -0.5015633, -0.43237, -0.3416579, -0.2904324, -0.2477594]","[-0.0, -0.0, 0.00634, -0.0, 0.005506, -0.001728, -0.0, -0.005506, -0.001728, -0.0, -0.004934, 0.002709, 0.0, 0.004934, 0.002709, -0.002155, 0.0, -0.004151, 0.002155, 0.0, -0.004151]",0.02,0.5
cyclobutane,-157.210005212521,6,0.0,"[-10.16754, -0.8376374, -0.6486025, -0.6486025, -0.5439856, -0.4720166, -0.4714101, -0.3786344, -0.3786344, -0.3437123, -0.312335, -0.3003833, -0.3003833]","[-0.0, -0.005144, -0.000208, -0.0, 0.005144, -0.000208, 0.005144, -0.0, 0.000208, -0.005144, -0.0, 0.000208, 0.0, -0.001083, 0.000511, 0.0, -0.001045, -0.001125, 0.0, 0.001083, 0.000511, 0.0, 0.001045, -0.001125, 0.001083, -0.0, -0.000511, 0.001045, -0.0, 0.001125, -0.001083, -0.0, -0.000511, -0.001045, 0.0, 0.001125]",0.08,1.0
silylene_s,-290.611203987384,6,0.201615909375,"[-66.13622, -5.295731, -3.659465, -3.650794, -3.647964, -0.5115129, -0.3322953, -0.2405981]","[0.0, 0.005575, -0.00539, -0.0, -0.000682, 0.004878, -0.0, -0.004893, 0.000512]",0.01,0.4
aluminum_monohydride,-242.981305394275,6,0.108466,"[-56.0496, -4.142207, -2.696329, -2.696329, -2.688768, -0.3674379, -0.2056562]","[0.0, -0.0, 0.004886, -0.0, 0.0, -0.004886]",0.0,0.4
beryllium_oxide,-89.898438721271,10,2.196525,"[-19.07132, -4.066119, -0.8431414, -0.2907949, -0.2557588, -0.2557588]","[0.0, -0.0, -0.0028, -0.0, 0.0, 0.0028]",0.01,0.4
