,Energy,Iterations,Dipole Moment,Eigens,Derivatives,Derivative Time,Wall Time
bicyclo[3.1.0]hexane,-234.636995647249,6,0.070230298191,"[-10.1764, -0.8805261, -0.7597426, -0.7050857, -0.6184289, -0.551997, -0.5418351, -0.5086936, -0.4605724, -0.4331172, -0.4051732, -0.3920547, -0.3512931, -0.3355094, -0.3352418, -0.3267965, -0.2772675, -0.2653406]","[-0.004226, 0.002147, 0.0, -0.002062, 0.00109, -0.0, 0.0017, 0.000934, 0.002714, 0.0017, 0.000934, -0.002714, 0.001764, -0.001825, 0.000288, 0.001764, -0.001825, -0.000288, 0.001859, 0.008226, 0.0, 0.007233, -0.003582, -0.0, 0.00796, -0.00142, 0.0, -0.001928, -0.007437, 0.0, 0.003753, -0.001585, -0.006762, 0.003753, -0.001585, 0.006762, -0.007184, -0.002279, 0.002655, -0.007184, -0.002279, -0.002655, -0.004451, 0.005243, -0.004663, -0.004451, 0.005243, 0.004663]",0.73,4.0
phosphine,-343.159851422909,6,0.290434000084,"[-77.08482, -6.555947, -4.71763, -4.71763, -4.713412, -0.6460611, -0.3836812, -0.3836795, -0.2753719]","[-0.0, 5e-06, -0.009549, -0.0, 0.00481, 0.003179, -0.004174, -0.002407, 0.003185, 0.004174, -0.002407, 0.003185]",0.04,1.0
beryllium_sulfide,-412.917716490245,9,1.919212,"[-88.82921, -7.891637, -5.853416, -5.850321, -5.850321, -4.115412, -0.6435618, -0.3053691, -0.2399729, -0.2399729]","[-0.0, -0.0, 0.006408, 0.0, 0.0, -0.006408]",0.13,1.1
lithium_oxide,-82.690042056301,7,2.415705,"[-19.07474, -2.001736, -0.8267355, -0.2882665, -0.2363576, -0.2238536]","[-0.0, -0.0, 0.00412, 0.0, 0.0, -0.00412]",0.03,0.5
carbon_monoxide,-113.321279945819,6,0.079223,"[-19.24888, -10.30228, -1.166793, -0.5741517, -0.4731795, -0.4731795, -0.3729433]","[0.0, 0.0, 0.015131, -0.0, -0.0, -0.015131]",0.03,0.5
magnesium_oxide,-275.232760245427,13,2.472204,"[-46.84958, -19.06158, -3.135376, -1.878558, -1.878558, -1.877983, -0.7971213, -0.2472403, -0.2140737, -0.2140737]","[-0.0, -0.0, 0.000254, 0.0, 0.0, -0.000254]",0.12,1.2
aluminum_nitride,-297.062579565008,10,0.897219,"[-56.07937, -14.35598, -4.161905, -2.715929, -2.714309, -2.712773, -0.7637301, -0.3670689, -0.3102032, -0.2627079, -0.2526504]","[-0.0, -0.0, 0.012999, 0.0, 0.0, -0.012999]",0.12,1.5
imidogen,-55.223083248993,7,0.594569,"[-14.39408, -0.835791, -0.3923888, -0.3247502, -0.3247502]","[0.0, 0.0, 0.013641, -0.0, -0.0, -0.013641]",0.0,0.4
methyl_formate,-229.075170521677,9,0.69956159593,"[-10.24647, -1.108673, -1.021099, -0.7401863, -0.5991089, -0.530853, -0.484983, -0.4728523, -0.4241479, -0.3964671, -0.3658862, -0.3098063, -0.2825332]","[-0.007736, 0.01559, -0.0, 0.005447, -0.004602, -0.0, 0.001981, -0.015203, 0.0, 0.001508, 0.004822, 0.0, 0.006328, -0.003446, -0.0, -0.004376, -0.004716, -0.0, -0.001576, 0.003777, -0.004774, -0.001576, 0.003777, 0.004774]",0.12,1.3
hypochlorite,-535.316683314074,9,0.548393,"[-19.22877, -9.541333, -7.305044, -7.298225, -7.290401, -1.101126, -0.7886091, -0.4839733, -0.4795135, -0.4418986, -0.3206063, -0.2807624]","[0.0, -0.0, 0.038079, -0.0, 0.0, -0.038079]",0.11,1.1
methanol,-115.721452788934,7,0.619928849777,"[-19.12431, -10.22507, -1.006585, -0.6782316, -0.4968866, -0.4339775, -0.4213651, -0.324503, -0.2611363]","[-0.010722, 0.016552, 0.0, 0.021525, -0.00381, 0.0, 0.003415, 0.003275, -0.0, -0.001638, -0.007962, -0.005127, -0.001638, -0.007962, 0.005127, -0.010943, -9.2e-05, 0.0]",0.05,0.6
vinyl_fluoride,-177.831183662734,8,0.488722828627,"[-10.2715, -10.18986, -1.219253, -0.7705645, -0.6088161, -0.5250291, -0.4801205, -0.4532351, -0.4106251, -0.3707398, -0.2654946]","[-0.00059, 0.010276, -0.0, 0.009677, -0.001689, 0.0, 0.004094, 0.002519, 0.0, -0.00389, -0.009047, 0.0, -0.001744, 0.003142, -0.0, -0.007547, -0.005201, 0.0]",0.09,0.8
formaldehyde,-114.507522806976,7,0.820346,"[-19.15892, -10.28781, -1.062249, -0.634406, -0.4943869, -0.4490562, -0.3997806, -0.2665909]","[0.0, 0.0, -0.000628, -0.0, -0.0, -0.00725, -0.0, -0.003574, 0.003939, 0.0, 0.003574, 0.003939]",0.05,0.6
sulfur_diatomic,-796.404223524172,20,1.3e-05,"[-5.950621, -5.950008, -5.950008, -5.949947, -5.949947, -5.949802, -0.8478344, -0.6317676, -0.4006052, -0.3797072, -0.3797067, -0.2438378, -0.2438373]","[-0.0, -0.0, 0.129707, 0.0, 0.0, -0.129707]",0.1,2.6
acetaldehyde,-153.837590196439,9,1.02092897053,"[-10.28118, -10.19994, -1.041898, -0.757249, -0.5828434, -0.4778937, -0.446185, -0.4336792, -0.3980978, -0.3623481, -0.2558859]","[0.019769, -0.00188, -0.0, -0.024106, 0.006395, 0.0, -0.004549, -0.00215, -0.0, 0.003277, -0.006634, 0.0, -0.002495, 0.005478, -0.0, 0.004052, -0.000605, -0.004569, 0.004052, -0.000605, 0.004569]",0.1,1.0
boron_monosulfide,-422.992433822668,10,0.302925,"[-88.88657, -7.9517, -6.857104, -5.91394, -5.90991, -5.90991, -0.7445476, -0.4330729, -0.3084786, -0.30818, -0.30818]","[0.0, 0.0, 0.015392, -0.0, -0.0, -0.015392]",0.13,1.2
beryllium_monofluoride,-114.614362094467,6,0.422565,"[-24.68205, -4.092847, -1.169973, -0.4711193, -0.42369, -0.42369, -0.227242]","[-0.0, -0.0, 0.029215, 0.0, 0.0, -0.029215]",0.03,0.5
phosphorus_tribromide,-8063.900249665610,7,0.188741000042,"[-2.658389, -0.8535634, -0.793718, -0.7937178, -0.6056164, -0.4295562, -0.4295561, -0.3886548, -0.3357083, -0.3357082, -0.3059052, -0.3059052, -0.2966023, -0.2787466]","[0.0, -0.0, -0.017408, -0.0, -0.01602, 0.005803, -0.013874, 0.00801, 0.005803, 0.013874, 0.00801, 0.005803]",3.53,15.2
sulfur_dioxide,-548.597789009622,6,0.660659,"[-6.076751, -6.0715, -1.152646, -1.055735, -0.6308524, -0.4943425, -0.4897749, -0.485521, -0.3651365, -0.3497624, -0.3188372]","[0.0, -0.0, 0.06838, 0.0, -0.052375, -0.03419, -0.0, 0.052375, -0.03419]",0.16,1.0
decane,-394.343243268602,6,0.0,"[-10.17056, -0.8148289, -0.7987639, -0.7722645, -0.7364378, -0.6931926, -0.6457403, -0.6008488, -0.5774321, -0.5720041, -0.5701047, -0.4857809, -0.4710027, -0.4476426, -0.4341709, -0.4274743, -0.4181358, -0.4142448, -0.3898851, -0.3862314, -0.3827959, -0.3583867, -0.3567843, -0.3371567, -0.3349826, -0.3345791, -0.3250115, -0.3223069, -0.3208685, -0.3188203, -0.3183104, -0.2931527]","[0.006075, 0.003997, -0.0, -0.006075, -0.003997, -0.0, -0.006047, -0.004025, -0.0, 0.006047, 0.004025, -0.0, 0.005922, 0.004051, -0.0, -0.005922, -0.004051, -0.0, -0.005265, -0.005033, 0.0, 0.005265, 0.005033, 0.0, 0.001535, 0.005745, -0.0, -0.001535, -0.005745, -0.0, -0.004247, -0.002799, -0.005565, -0.004247, -0.002799, 0.005565, 0.004247, 0.002799, -0.005565, 0.004247, 0.002799, 0.005565, 0.004253, 0.002811, 0.005581, 0.004253, 0.002811, -0.005581, -0.004253, -0.002811, 0.005581, -0.004253, -0.002811, -0.005581, -0.004261, -0.002824, -0.005645, -0.004261, -0.002824, 0.005645, 0.004261, 0.002824, -0.005645, 0.004261, 0.002824, 0.005645, 0.004644, 0.002716, 0.006061, 0.004644, 0.002716, -0.006061, -0.004644, -0.002716, 0.006061, -0.004644, -0.002716, -0.006061, 0.007418, -0.003608, 0.0, -0.003865, -0.003813, -0.006518, -0.003865, -0.003813, 0.006518, -0.007418, 0.003608, 0.0, 0.003865, 0.003813, -0.006518, 0.003865, 0.003813, 0.006518]",2.47,15.2
methanethiol_radical,-438.077383134717,7,0.641845233915,"[-10.21934, -7.946205, -5.916565, -5.907319, -5.897702, -0.7852992, -0.6298388, -0.4444253, -0.4374448, -0.3691985, -0.2812155, -0.2384481]","[-0.000514, -0.000513, 0.008966, -0.010189, 0.000147, -0.003398, 0.000938, 0.000204, -0.009836, 0.004941, -0.005852, 0.00211, 0.004824, 0.006013, 0.002157]",0.18,1.2
hydroxyl_radical,-75.731926237412,7,0.656413,"[-19.19581, -1.003954, -0.4600836, -0.3981224, -0.3235499]","[-0.0, -0.0, 0.013123, 0.0, 0.0, -0.013123]",0.0,0.4
lithium_monosulfide,-405.730037763890,6,2.58416,"[-88.81488, -7.875492, -5.847509, -5.831567, -5.830565, -2.032061, -0.6168596, -0.2477881, -0.2298308, -0.2049417]","[-0.0, 0.0, 0.004368, 0.0, -0.0, -0.004368]",0.13,1.0
phosphorus_dioxide,-491.781711876741,13,0.494235187057,"[-4.842492, -4.841197, -4.840646, -1.078839, -1.032081, -0.565294, -0.4649026, -0.4469905, -0.4418538, -0.3637163, -0.3615226, -0.2960996]","[-0.0, -4.9e-05, -0.066621, 0.0, -0.045883, 0.033264, 0.0, 0.045932, 0.033357]",0.14,1.9
formaldoxime_zwitterion,-169.807567176245,10,1.28819765816,"[-14.47696, -10.22985, -1.107767, -0.8589993, -0.6597922, -0.5462528, -0.4791211, -0.4484942, -0.4187761, -0.2517569, -0.2298716]","[0.003201, -0.003654, -0.000257, 0.009833, 0.006634, 0.001034, -0.009835, -0.004758, -0.000164, 0.000895, 0.002434, -0.000208, -0.001885, -0.001799, 0.000207, -0.002209, 0.001143, -0.000613]",0.17,1.1
tetrafluoroethylene,-475.534368417321,7,1.41421356237e-06,"[-10.36544, -1.314152, -1.300081, -1.255991, -1.245107, -0.8148098, -0.6653145, -0.6221477, -0.6136685, -0.5682958, -0.5598022, -0.5145851, -0.4876995, -0.4627517, -0.4575211, -0.4518033, -0.450952, -0.4337461, -0.2608093]","[0.0, 0.0, -0.019628, 0.0, -0.0, 0.019628, 0.0, -0.005996, -0.001421, -0.0, 0.005996, -0.001421, -0.0, 0.005996, 0.001421, 0.0, -0.005995, 0.001421]",0.14,1.1
boron_dioxide,-175.315664101032,7,1e-06,"[-19.22451, -19.22451, -6.843817, -1.056895, -1.055232, -0.49216, -0.4752933, -0.472313, -0.4390105, -0.4092515, -0.3664826]","[0.0, 0.0, 0.0, -0.0, -0.0, 0.001589, -0.0, -0.0, -0.001589]",0.04,0.5
cyano_radical,-92.719437263241,11,0.456764,"[-14.40161, -10.30621, -0.9600412, -0.5008187, -0.4047734, -0.3872496, -0.3872496]","[-0.0, 0.0, 0.007327, 0.0, -0.0, -0.007327]",0.03,0.6
boron_nitride,-79.420887884398,11,0.6831,"[-14.38236, -6.850247, -0.8485391, -0.4087183, -0.3648526, -0.3224061, -0.3213131]","[-0.0, -0.0, 0.001768, 0.0, 0.0, -0.001768]",0.03,0.9
acetyl_chloride,-613.476754429635,9,1.05312514241,"[-7.214687, -1.099108, -0.854662, -0.7643308, -0.565593, -0.4931728, -0.4783878, -0.4769384, -0.418403, -0.4034122, -0.3252187, -0.321582, -0.2972346]","[-0.005292, -0.007593, 0.0, -0.00572, -0.006208, -0.0, 0.000277, -0.002697, -0.0, 0.002823, 0.011034, -0.0, 0.003831, 0.002786, -0.0, 0.00204, 0.001339, 0.003362, 0.00204, 0.001339, -0.003362]",0.46,2.3
magnesium_diatomic,-400.182837229493,5,0.0,"[-46.81907, -3.099533, -3.099488, -1.842947, -1.842947, -1.842946, -1.842946, -1.84267, -1.842653, -0.2161466, -0.1779723]","[0.0, -0.0, 8.3e-05, -0.0, 0.0, -8.3e-05]",0.09,1.0
methyl_chloride,-500.127595029553,6,0.721652000084,"[-9.449338, -7.212264, -7.201904, -7.201904, -0.8506267, -0.6729203, -0.4420004, -0.4419989, -0.4162909, -0.2951305, -0.2951302]","[-1.6e-05, -0.0, 0.023853, 0.0, -0.0, -0.004341, 0.007147, -0.0, -0.006507, -0.003566, 0.006169, -0.006503, -0.003566, -0.006169, -0.006503]",0.18,1.1
dimethyl_ether,-155.027826684297,7,0.461752,"[-10.22483, -1.029787, -0.7186133, -0.6361997, -0.4708162, -0.4694427, -0.4690699, -0.3948826, -0.37844, -0.3124582, -0.2504601]","[0.0, 0.0, -0.012678, -0.0, 0.010841, -0.00527, 0.0, -0.010841, -0.00527, -0.0, -0.000133, -0.003302, 0.0, 0.000133, -0.003302, -0.005559, -0.004532, 0.007455, 0.005559, -0.004532, 0.007455, 0.005559, 0.004532, 0.007455, -0.005559, 0.004532, 0.007455]",0.1,1.2
methyl_ketene,-191.925630433739,9,0.640401624998,"[-10.19459, -1.110054, -0.8011281, -0.6861888, -0.5289329, -0.4929019, -0.4534497, -0.4479541, -0.4140963, -0.3996251, -0.3821724, -0.2253251]","[-0.005213, -0.001249, -2.4e-05, 0.002311, 0.005035, -4e-06, 0.005981, -0.003213, 1e-05, 0.008676, 0.002551, 1.5e-05, -0.001432, -0.008915, 4e-06, 0.001457, 0.007914, 3e-06, -0.005894, -0.001063, 0.007038, -0.005886, -0.001061, -0.007042]",0.13,1.6
tetrafluorosilane,-689.104648195511,6,0.0,"[-3.812699, -1.275777, -1.236019, -1.236019, -1.236019, -0.6235601, -0.5503849, -0.5503849, -0.5503849, -0.4925204, -0.4925204, -0.4817807, -0.4817807, -0.4817807, -0.4461698, -0.4461698, -0.4461698]","[0.0, 0.0, 0.0, -0.030228, -0.030228, -0.030228, 0.030228, 0.030228, -0.030228, 0.030228, -0.030228, 0.030228, -0.030228, 0.030228, 0.030228]",0.18,1.7
silicon_monosulfide,-687.731603781888,7,0.624947,"[-5.891542, -5.8915, -5.323982, -3.683162, -3.683162, -3.678266, -0.7149948, -0.437844, -0.2906392, -0.2906392, -0.2839227]","[-0.0, 0.0, 0.019211, 0.0, -0.0, -0.019211]",0.38,1.5
sulfur_monochloride,-858.380984499759,16,0.008287,"[-7.262602, -7.257313, -5.964285, -5.962351, -5.946899, -0.9070768, -0.6895244, -0.4378184, -0.4094851, -0.3889203, -0.2891309, -0.2542176]","[0.0, -0.0, 0.026403, -0.0, 0.0, -0.026403]",0.31,2.7
neon_dimer,-257.818982704185,4,0.0,"[-30.95817, -30.95817, -1.423938, -1.423563, -0.5349779, -0.5324605, -0.5324605, -0.5319707, -0.5319707, -0.5294939]","[-0.0, -0.0, -0.000239, 0.0, 0.0, 0.000239]",0.01,0.3
formaldoxime,-169.822941897205,9,0.0343826435866,"[-14.38623, -10.21967, -1.08128, -0.8621624, -0.6075482, -0.5292036, -0.4592657, -0.4187132, -0.4063277, -0.2835156, -0.26557]","[0.007493, -0.009141, -0.0, 0.004875, 0.006234, 0.0, -0.014244, 0.003213, -0.0, -0.003313, 0.00848, -0.0, -0.005041, -0.000683, 0.0, 0.010231, -0.008103, -0.0]",0.17,1.0
lithium_chloride,-467.819553051562,6,2.666524,"[-101.4435, -9.36184, -7.118673, -7.117583, -7.117583, -2.041641, -0.7133628, -0.274017, -0.2501824, -0.2501824]","[-0.0, 0.0, 0.007206, 0.0, -0.0, -0.007206]",0.13,1.0
isopropyl_radical,-118.479587025431,7,0.104086703089,"[-10.17823, -10.1782, -0.7814712, -0.6897814, -0.5687891, -0.4503773, -0.4286731, -0.4064752, -0.3848621, -0.3521927, -0.3459742, -0.1836928]","[0.000912, 0.005845, -0.0, -0.002659, -0.005114, 0.004687, -0.002659, -0.005114, -0.004687, 0.001453, -0.007121, -0.0, -0.000654, -0.003124, -0.005245, -0.000654, -0.003124, 0.005245, 0.00602, 0.003409, -0.001677, -0.00389, 0.005467, -0.000746, -0.00389, 0.005467, 0.000746, 0.00602, 0.003409, 0.001677]",0.09,1.8
cyanogen,-185.667641704061,6,9e-06,"[-10.30204, -10.30171, -0.9860312, -0.9677254, -0.7480249, -0.4534107, -0.4534107, -0.4325136, -0.419762, -0.3742575, -0.3742575]","[0.0, 0.0, 0.037694, 0.0, 0.0, -0.037696, -0.0, -0.0, -0.033632, -0.0, -0.0, 0.033633]",0.07,0.6
boron_monohydride,-25.292217478128,6,0.596521,"[-6.846191, -0.4844427, -0.2340542]","[-0.0, -0.0, 0.008819, 0.0, 0.0, -0.008819]",0.0,0.3
thiirane,-476.802865003681,7,0.722631,"[-5.888452, -5.880256, -0.8666573, -0.6222051, -0.6163929, -0.4954151, -0.4512055, -0.3893295, -0.3246975, -0.3155377, -0.224994]","[0.0, 0.0, -0.015279, 0.0, 0.003846, 0.002347, -0.0, -0.003846, 0.002347, 0.005595, -0.004331, 0.002646, -0.005595, -0.004331, 0.002646, -0.005595, 0.004331, 0.002646, 0.005595, 0.004331, 0.002646]",0.25,1.8
sodium_chloride,-622.593441426711,6,3.364189,"[-7.095493, -7.093778, -7.093778, -2.253778, -1.185273, -1.185273, -1.18394, -0.6841585, -0.241674, -0.2236968, -0.2236968]","[-0.0, -0.0, 0.001873, 0.0, 0.0, -0.001873]",0.36,1.5
magnesium_sulfide,-598.285898516826,9,2.699663,"[-5.835735, -5.827602, -5.827602, -3.163704, -1.907448, -1.906526, -1.906526, -0.6040121, -0.2644546, -0.2049035, -0.2049035]","[0.0, 0.0, 0.005423, -0.0, -0.0, -0.005423]",0.37,1.7
methyl_silane,-331.223684724950,6,0.314377005167,"[-5.277377, -3.635665, -3.635665, -3.635312, -0.7034788, -0.5207264, -0.4122993, -0.4122891, -0.3334502, -0.3334439, -0.3272255]","[0.0, -4.1e-05, 0.004343, 0.0, -2.6e-05, -0.002834, -0.0, 0.003978, 0.001649, 0.003413, -0.001969, 0.001636, -0.003413, -0.001969, 0.001636, -0.0, -0.004858, -0.002137, 0.00423, 0.002442, -0.002146, -0.00423, 0.002442, -0.002146]",0.24,1.7
aluminum_trichloride,-1623.304816994638,6,1.3e-05,"[-2.789674, -0.8480143, -0.8305043, -0.8305033, -0.470913, -0.4067463, -0.4067459, -0.3720375, -0.3533497, -0.3533487, -0.3473461, -0.3473454, -0.3296222]","[0.0, -4e-06, -0.0, -0.0, -0.017894, 0.0, -0.015501, 0.008949, 0.0, 0.015501, 0.008949, 0.0]",0.64,3.4
methanethiol,-438.717013770809,7,0.614592343556,"[-7.930501, -5.895069, -5.891145, -5.884017, -0.7792448, -0.6425725, -0.4470605, -0.4288512, -0.3986566, -0.3221623, -0.2317143]","[0.001401, -0.0091, -0.003469, -0.006074, 0.026477, 0.010398, -0.00157, -0.016001, -0.007057, 0.005416, 0.001597, 2.6e-05, -0.004458, -0.003253, -0.001996, 0.005284, 0.000279, 0.002098]",0.2,1.4
hypochlorous_acid,-535.973058977383,7,0.646623133228,"[-9.496659, -7.263488, -7.247621, -7.247248, -1.071686, -0.7970101, -0.5295314, -0.4394286, -0.4056514, -0.3145124, -0.2774816]","[-0.009375, -0.018817, -0.0, 0.009747, -0.002818, 0.0, -0.000371, 0.021636, 0.0]",0.15,1.0
lithium_hydride,-8.083534224631,6,2.230433,"[-2.006252, -0.195249]","[0.0, 0.0, 0.000822, -0.0, -0.0, -0.000822]",0.0,0.3
monosulfur_monofluoride,-497.973622426882,7,0.363634,"[-24.73908, -8.018764, -5.986296, -5.985545, -5.967653, -1.243414, -0.7256163, -0.4971079, -0.4925212, -0.4736437, -0.3010166, -0.2592565]","[-0.0, -0.0, 0.031166, 0.0, 0.0, -0.031166]",0.11,1.0
ammonia,-56.553761015994,6,0.624642000259,"[-14.29701, -0.8419297, -0.4494975, -0.4494801, -0.2489673]","[-0.0, -3.8e-05, -0.014587, -0.0, 0.006712, 0.004875, -0.005785, -0.003337, 0.004856, 0.005785, -0.003337, 0.004856]",0.01,0.4
boron_monofluoride,-124.666238267466,6,0.431037,"[-24.78457, -6.863329, -1.301458, -0.6190146, -0.5264496, -0.5264496, -0.2809693]","[0.0, 0.0, 0.014665, -0.0, -0.0, -0.014665]",0.03,0.4
carbon_tetrafluoride,-437.505410377349,6,0.0,"[-10.51747, -1.385143, -1.266381, -1.266381, -1.266381, -0.7319968, -0.6422878, -0.6422878, -0.6422878, -0.5047251, -0.5047251, -0.4774226, -0.4774226, -0.4774226, -0.4322642, -0.4322642, -0.4322642]","[-0.0, -0.0, -0.0, -0.009396, -0.009396, -0.009396, 0.009396, 0.009396, -0.009396, 0.009396, -0.009396, 0.009396, -0.009396, 0.009396, 0.009396]",0.09,0.8
silicon_diatomic,-578.891818529639,28,1.1e-05,"[-5.297099, -5.29706, -3.658411, -3.658411, -3.658337, -3.658337, -3.649539, -3.648613, -0.5370029, -0.3730053, -0.2312644, -0.2312643, -0.2124413]","[-0.0, -0.0, 0.06488, 0.0, 0.0, -0.06488]",0.1,3.1
acetylene,-77.332993569670,6,4e-06,"[-10.19608, -10.19373, -0.752767, -0.5683458, -0.4963979, -0.2910067, -0.2910067]","[0.0, -0.0, -0.008108, -0.0, 0.0, 0.008109, -0.0, -0.0, -0.007363, -0.0, -0.0, 0.007363]",0.02,0.5
phosphorus_trichloride,-1722.085119425482,7,0.280904006196,"[-4.839334, -0.9153694, -0.8477391, -0.8477334, -0.6166603, -0.4625231, -0.4625191, -0.4215995, -0.3711567, -0.3711554, -0.3376879, -0.337684, -0.3271965, -0.2921293]","[-0.0, 5e-06, -0.025163, -0.0, -0.021043, 0.00839, -0.018224, 0.010519, 0.008386, 0.018224, 0.010519, 0.008386]",0.67,3.8
magnesium_monochloride,-660.362164570127,14,1.28194,"[-7.165045, -7.16151, -7.16151, -3.153218, -1.897205, -1.897205, -1.895268, -0.7627923, -0.3402812, -0.2921548, -0.2921548, -0.2039061]","[0.0, 0.0, -0.002248, -0.0, -0.0, 0.002248]",0.39,2.5
carbon_disulfide,-834.529950767388,7,0.0,"[-5.932772, -5.932768, -5.932768, -0.8642897, -0.7751298, -0.5083988, -0.4309274, -0.390953, -0.390953, -0.2753937, -0.2753937]","[-0.0, -0.0, -0.0, 0.0, 0.0, -0.016709, 0.0, 0.0, 0.016709]",0.31,1.6
magnesium_monofluoride,-299.975476905882,7,1.165581,"[-46.84456, -24.58991, -3.130683, -1.875039, -1.875039, -1.872423, -1.055806, -0.3563332, -0.3247515, -0.3247515, -0.2023432]","[0.0, -0.0, 0.007763, -0.0, 0.0, -0.007763]",0.11,1.0
methyl_radical,-39.838786561060,6,7e-06,"[-10.19557, -0.6850424, -0.41853, -0.4185296, -0.2296987]","[-2.2e-05, 0.0, -0.0, -0.008423, 0.0, 0.0, 0.004223, 0.00732, 0.0, 0.004223, -0.00732, 0.0]",0.01,0.4
ethylene,-78.590968918958,6,0.0,"[-10.1889, -10.18814, -0.759412, -0.5792732, -0.4684013, -0.4168673, -0.3568433, -0.2724738]","[-0.0, -0.0, 0.012802, -0.0, -0.0, -0.012802, 0.0, -0.004191, -0.003746, 0.0, 0.004191, -0.003746, 0.0, -0.004191, 0.003746, 0.0, 0.004191, 0.003746]",0.02,0.6
trifluoroacetate_anion,-526.275300869006,10,1.84988752189,"[-10.07634, -1.124579, -1.036253, -1.035729, -0.8225661, -0.7413525, -0.5272505, -0.4176562, -0.401117, -0.3989739, -0.2820496, -0.2816411, -0.2684087, -0.2442295, -0.2398901, -0.2215691, -0.2126026, -0.1982139, -0.1840846, -0.04566644, -0.03773824, -0.03459992]","[0.001959, 0.011851, 0.0, 0.00143, 0.005258, 0.0, 0.009173, -0.007927, -0.0, -0.00613, -0.004409, -0.007983, -0.00613, -0.004409, 0.007983, -0.000706, -0.000277, 0.0, 0.000404, -8.8e-05, -0.0]",0.27,2.2
bromoform,-7761.154880747455,7,0.360374003609,"[-2.655637, -0.8893979, -0.7921704, -0.7921686, -0.6386287, -0.4821614, -0.4433981, -0.4433974, -0.3246122, -0.3246094, -0.3013489, -0.2986921, -0.2986911, -0.2814766]","[0.0, -9e-06, -0.018892, -0.0, -5e-06, 0.011293, 0.0, -0.01222, 0.002531, -0.010599, 0.006117, 0.002534, 0.010599, 0.006117, 0.002534]",3.59,14.9
nitrogen_trifluoride,-354.095450098380,7,0.0446860302556,"[-14.60836, -1.381752, -1.248679, -1.248645, -0.8219874, -0.6315417, -0.6315255, -0.5829287, -0.4882042, -0.4882025, -0.4430484, -0.4430284, -0.4280121, -0.3481102]","[0.0, 3.3e-05, -0.017913, -0.0, -0.011502, 0.005979, -0.009952, 0.005735, 0.005967, 0.009952, 0.005735, 0.005967]",0.07,0.7
phosphorus_tetramer,-1365.523115844800,6,6.96419413859e-05,"[-4.738459, -0.8111016, -0.5427256, -0.5427249, -0.5427169, -0.34839, -0.2974575, -0.297454, -0.2974488, -0.2677007, -0.2676978]","[5e-06, -0.0, -0.014405, -0.013571, -0.0, 0.004807, 0.006783, 0.011745, 0.004799, 0.006783, -0.011745, 0.004799]",0.68,3.4
phosphorus_monochloride,-801.552845694342,25,0.229493,"[-7.238728, -7.238727, -6.606234, -4.768818, -4.768818, -4.767405, -0.8691227, -0.6007525, -0.3919971, -0.3787291, -0.378727, -0.2368529, -0.2368517]","[0.0, -0.0, 0.034278, -0.0, 0.0, -0.034278]",0.32,3.3
mercapto_radical,-398.762245677828,6,0.37394,"[-88.90706, -7.967266, -5.938241, -5.928055, -5.918775, -0.7354026, -0.4089776, -0.3171856, -0.2692055]","[0.0, -0.0, 0.011524, -0.0, 0.0, -0.011524]",0.02,0.9
pentane,-197.771661679423,6,0.025241,"[-10.17055, -0.8029396, -0.7511047, -0.675155, -0.5977535, -0.5739254, -0.4748791, -0.4366751, -0.4304373, -0.4023132, -0.3927602, -0.3748112, -0.3515616, -0.3332019, -0.3253492, -0.3197811, -0.3139173]","[-0.0, 0.0, 0.007121, -0.0, -0.001154, -0.007223, -0.0, 0.001154, -0.007223, 0.0, 0.004145, 0.004337, 0.0, -0.004145, 0.004337, -0.006336, -0.0, -0.005449, 0.006336, -0.0, -0.005449, -0.006649, -0.00029, 0.005695, 0.006649, -0.00029, 0.005695, 0.006649, 0.00029, 0.005695, -0.006649, 0.00029, 0.005695, 0.0, -0.007541, 0.00464, 0.0, 0.007541, 0.00464, 0.00704, -0.001017, -0.005628, -0.00704, -0.001017, -0.005628, -0.00704, 0.001017, -0.005628, 0.00704, 0.001017, -0.005628]",0.46,3.7
isopropyl_alcohol,-194.363323928666,7,0.57450102658,"[-10.17102, -1.009281, -0.7705645, -0.6900856, -0.5809997, -0.5072971, -0.4505707, -0.4311475, -0.3884599, -0.3783659, -0.3623297, -0.352471, -0.3194455, -0.2631726]","[-0.004072, -0.002302, -0.002142, -0.000206, -0.004872, 0.004193, -0.001909, 1e-06, -0.001957, 0.002115, -0.001246, -0.001394, 0.003479, 0.001382, 0.001491, 1.2e-05, -2e-06, -0.005885, 0.001059, 0.000564, 0.006073, -0.001018, 0.000802, 0.006093, 0.004766, -0.00288, -0.001421, -0.005016, -0.002, -0.001551, 0.001272, 0.005086, -0.001669, -0.000481, 0.005469, -0.001831]",0.22,2.2
glyoxal_trans,-227.834822607069,7,5.83095189485e-06,"[-10.30691, -1.092456, -1.079085, -0.7122613, -0.5971372, -0.4950975, -0.493547, -0.4594706, -0.4507891, -0.3982579, -0.3311978, -0.2698903]","[0.000398, -0.000741, 0.0, -0.000397, 0.000741, 0.0, 0.008674, -0.002025, -0.0, -0.008674, 0.002025, -0.0, -0.010594, 0.001903, -0.0, 0.010593, -0.001903, -0.0]",0.11,0.9
ethanol,-155.040377388083,7,0.603599663861,"[-10.1743, -1.00585, -0.7471849, -0.6047346, -0.5047595, -0.4652067, -0.3979689, -0.3780513, -0.364003, -0.3246405, -0.2592084]","[0.009057, -0.015126, -0.0, 0.015092, 0.015594, -0.0, 0.004264, -0.000265, 0.0, 1.8e-05, 0.005027, -0.0, -0.005592, 0.005217, -0.0, -0.00495, 0.00586, -0.006543, -0.00495, 0.00586, 0.006543, -0.00647, -0.011084, -0.010563, -0.00647, -0.011084, 0.010563]",0.11,1.1
nitrogen_monofluoride,-154.448227635680,7,0.047544,"[-24.78375, -14.46877, -1.316521, -0.8038961, -0.5374223, -0.5374223, -0.5111192, -0.3029859, -0.3029859]","[0.0, 0.0, 0.002415, -0.0, -0.0, -0.002415]",0.03,0.5
vinyl_chloride,-538.210409051214,8,0.531495989243,"[-7.217464, -7.216821, -0.877632, -0.7511071, -0.5850447, -0.4897782, -0.4498111, -0.3881211, -0.3683392, -0.3126658, -0.2624767]","[-0.0, 0.00713, 0.009223, 0.0, 0.000328, -0.010488, 0.0, -0.00914, -0.008489, -0.0, 0.000606, -0.001401, -0.0, -0.006778, 0.006036, -0.0, 0.007854, 0.005119]",0.23,1.8
ammonia_oxide,-131.670492365027,20,1.99164900003,"[-19.0218, -14.46053, -1.034954, -0.786106, -0.5605547, -0.5605539, -0.3939745, -0.1756483, -0.1756478]","[-0.0, -1.6e-05, -0.027705, 0.0, 1e-06, -0.00556, -0.0, -0.01051, 0.011084, -0.009122, 0.005263, 0.01109, 0.009122, 0.005263, 0.01109]",0.05,0.8
methylenecyclopropane,-155.967615879878,7,0.144005,"[-10.18174, -0.867722, -0.7128773, -0.6129837, -0.5325372, -0.4767495, -0.4685807, -0.4247111, -0.3727505, -0.3126833, -0.2923336, -0.2547283]","[-0.0, -0.0, 0.006342, 0.0, -0.0, -0.025464, -0.0, -0.003367, 0.001273, 0.0, 0.003367, 0.001273, -0.0, -0.006317, 0.001351, 0.0, 0.006317, 0.001351, -0.00366, 0.000333, 0.003468, 0.00366, 0.000333, 0.003468, 0.00366, -0.000333, 0.003468, -0.00366, -0.000333, 0.003468]",0.16,1.6
oxygen_monofluoride,-174.883663269099,10,0.004154,"[-24.79231, -19.29798, -1.322155, -0.9526044, -0.5614717, -0.5518592, -0.5177761, -0.3850556, -0.3310189]","[-0.0, 0.0, 1.3e-05, 0.0, -0.0, -1.3e-05]",0.02,0.5
methylamine,-95.857331795643,7,0.470583487872,"[-14.29911, -10.19733, -0.8660851, -0.6552873, -0.4818354, -0.4323554, -0.3971409, -0.3632181, -0.2247908]","[0.003169, 0.011839, -0.0, -0.012818, -0.003399, 0.0, 0.007282, -0.005327, -0.0, -0.00394, -0.003047, -0.006464, -0.00394, -0.003047, 0.006464, 0.005123, 0.001491, 0.004778, 0.005123, 0.001491, -0.004778]",0.06,0.7
hydrogen_chloride,-460.821921324854,6,0.519528,"[-101.5497, -9.467133, -7.229953, -7.219868, -7.219868, -0.8436221, -0.4697843, -0.3275533, -0.3275533]","[0.0, 0.0, 0.013135, -0.0, -0.0, -0.013135]",0.03,0.8
ethanethiol,-478.032670080537,7,0.608895102054,"[-5.881627, -0.8021787, -0.7042767, -0.6011078, -0.4610211, -0.4593176, -0.3910846, -0.3647465, -0.3630176, -0.3239662, -0.2319138]","[-0.004285, -0.007034, -0.0, 0.008792, 0.006437, -0.0, 0.000814, 0.0185, 0.0, 0.004972, -0.000599, -0.0, 0.000907, 0.003813, -0.005249, 0.000907, 0.003813, 0.005249, 0.000248, -0.004725, -0.005475, 0.000248, -0.004725, 0.005475, -0.012604, -0.015479, -0.0]",0.25,2.3
acetamide,-209.225380995002,9,1.43446998817,"[-10.20082, -1.027151, -0.8947847, -0.732178, -0.5799734, -0.5278501, -0.4625693, -0.4417674, -0.3992211, -0.3913839, -0.3619771, -0.2652384, -0.2449252]","[0.011968, 0.004012, 0.001628, -0.004461, -0.001299, -0.000876, 0.000103, 0.003736, -0.001259, -0.000943, 0.000986, 0.000245, -0.011471, 0.01296, -0.001542, -0.000199, -0.006842, -0.011208, -0.000487, -0.006059, 0.011459, 0.00734, 0.001254, 0.000463, -0.00185, -0.008748, 0.001091]",0.26,1.6
nitromethane,-245.026827539611,10,1.34188289676,"[-10.25469, -1.232365, -1.059045, -0.8215319, -0.6228044, -0.5515423, -0.5381572, -0.5173106, -0.4513018, -0.4379002, -0.3124968, -0.3064339, -0.2913608]","[0.002607, 0.005733, -0.0, 0.011946, 0.000739, -0.0, -0.002967, 0.00391, -0.0, -0.003156, -0.005094, -0.003763, -0.003156, -0.005094, 0.003763, -0.003796, 2.1e-05, 0.0, -0.001477, -0.000216, 0.0]",0.24,1.4
hydrogen_sulfide,-399.408888440733,6,0.482966,"[-88.88154, -7.944533, -5.908695, -5.905506, -5.898231, -0.7449752, -0.4457315, -0.3643169, -0.257835]","[0.0, -0.0, 0.02151, -0.0, -0.011884, -0.010755, -0.0, 0.011884, -0.010755]",0.03,0.9
monosodium_sulfide,-560.506384512724,30,3.074394,"[-7.863317, -5.835269, -5.820391, -5.817931, -2.244964, -1.176901, -1.176172, -1.174867, -0.599443, -0.2321381, -0.2089908, -0.1880771]","[0.0, 0.0, 0.002508, -0.0, -0.0, -0.002508]",0.31,3.8
silicon_nitride,-344.134851179411,11,0.927551,"[-66.17526, -14.36064, -5.32187, -3.682042, -3.678676, -3.678676, -0.8010954, -0.4387121, -0.3174728, -0.2963331, -0.2963331]","[-0.0, 0.0, 0.015419, 0.0, -0.0, -0.015419]",0.12,1.2
hydrogen_cyanide,-93.430043658345,7,1.093985,"[-14.35699, -10.24576, -0.9244313, -0.6089039, -0.3834206, -0.3625134, -0.3625134]","[0.0, 0.0, 0.005855, -0.0, -0.0, -0.010232, -0.0, -0.0, 0.004377]",0.04,0.5
carbonyl_sulfide,-511.566242920345,9,0.202692,"[-5.939873, -5.932433, -5.932433, -1.145001, -0.8281057, -0.551429, -0.4774105, -0.4774105, -0.4704499, -0.3031342, -0.3031342]","[-0.0, -0.0, -0.010475, 0.0, 0.0, -0.008458, -0.0, -0.0, 0.018933]",0.31,1.5
chlorine_trifluoride,-759.499091916172,7,0.320715000014,"[-7.427885, -1.31842, -1.18916, -1.187642, -0.8897818, -0.610932, -0.6029189, -0.5578704, -0.490957, -0.4458412, -0.4202732, -0.4180709, -0.3985204, -0.3750251, -0.3330762]","[0.0, 0.0, -0.042158, 0.0, -0.0, 0.041882, -0.0, -0.026085, 0.000138, -0.0, 0.026085, 0.000138]",0.18,1.3
ethanol_radical,-154.370086018195,8,0.698959998725,"[-10.24159, -10.17811, -1.019558, -0.7425986, -0.616066, -0.4984632, -0.4549028, -0.4099755, -0.3869264, -0.3809218, -0.3297878, -0.2740277]","[-0.009168, -0.015925, -0.0, -0.001849, 0.047548, 0.0, 0.008434, -0.020865, -0.0, 0.005633, -0.009854, -0.004127, 0.005633, -0.009854, 0.004127, -0.010639, 0.001689, 0.0, 0.000978, 0.003631, -0.005023, 0.000978, 0.003631, 0.005023]",0.11,1.3
phosphorus_trifluoride,-640.962220214004,6,0.217929000663,"[-4.856213, -1.300735, -1.243188, -1.243187, -0.6768526, -0.5686038, -0.5686036, -0.5362065, -0.4923497, -0.492349, -0.4532204, -0.4532204, -0.4374251, -0.3010393]","[-0.0, 8e-06, -0.124398, 0.0, -0.063122, 0.041464, -0.054661, 0.031557, 0.041467, 0.054661, 0.031557, 0.041467]",0.2,1.2
nitrogen_diatomic,-109.533239605143,5,0.0,"[-14.43018, -14.42857, -1.124786, -0.5463764, -0.4604897, -0.4604897, -0.4212796]","[0.0, -0.0, 0.021152, -0.0, 0.0, -0.021152]",0.01,0.4
acetone,-193.163760551292,8,1.096525,"[-10.19287, -1.032608, -0.7723531, -0.7130731, -0.5330193, -0.4605378, -0.4590226, -0.4499885, -0.4054111, -0.3932508, -0.3787279, -0.3456718, -0.2460718]","[-0.0, -0.0, 0.017463, -0.0, -0.0, -0.019015, 0.0, 0.001659, -0.004037, 0.0, -0.001659, -0.004037, 0.0, -0.004659, -0.002906, 0.0, 0.004659, -0.002906, 0.00436, -0.000304, 0.00386, -0.00436, -0.000304, 0.00386, -0.00436, 0.000304, 0.00386, 0.00436, 0.000304, 0.00386]",0.17,2.4
glycine_zwitterion,-284.402708349242,10,3.92802824468,"[-10.24594, -1.038349, -0.9924029, -0.9174606, -0.7383482, -0.6283286, -0.6072125, -0.5161331, -0.4810713, -0.4459901, -0.3992689, -0.3648114, -0.3488508, -0.2174719, -0.2172552, -0.2011074]","[-0.000205, -0.002798, -0.0, -0.006902, 0.000685, -0.0, -0.006126, 0.005526, 0.0, 0.003903, -0.004609, -0.0, 0.007436, -0.002667, -0.0, 0.004627, 0.00088, -0.006476, 0.004627, 0.00088, 0.006476, -0.004905, -0.002227, -0.003876, -0.004905, -0.002227, 0.003876, 0.00245, 0.006555, -0.0]",0.36,2.9
hexane,-237.085933105327,6,0.0,"[-10.17044, -0.8075098, -0.7687074, -0.7086284, -0.6376948, -0.5807799, -0.5742362, -0.4789965, -0.4448711, -0.4347446, -0.419858, -0.3975329, -0.3799014, -0.3765302, -0.3526081, -0.3397514, -0.3255834, -0.323994, -0.3191343, -0.3074543]","[-0.001369, 0.005832, -0.0, 0.001369, -0.005832, -0.0, -0.005862, 0.004222, 0.0, 0.005862, -0.004222, -0.0, -0.005312, 0.005002, 0.0, 0.005312, -0.005002, 0.0, 0.00803, 0.003624, -0.0, -0.00803, -0.003624, -0.0, 0.004124, -0.004014, -0.007028, 0.004124, -0.004014, 0.007028, -0.004124, 0.004014, 0.007028, -0.004124, 0.004014, -0.007028, -0.004852, 0.002976, 0.006646, -0.004852, 0.002976, -0.006646, 0.004852, -0.002976, 0.006646, 0.004852, -0.002976, -0.006646, 0.004507, -0.003043, -0.006231, 0.004507, -0.003043, 0.006231, -0.004507, 0.003043, 0.006231, -0.004507, 0.003043, -0.006231]",0.71,4.2
pyridine,-248.299316938512,9,0.807347,"[-10.20091, -0.9407376, -0.8075127, -0.763761, -0.6306661, -0.6306413, -0.5293787, -0.4810482, -0.4718949, -0.4304234, -0.4060422, -0.3986131, -0.3650804, -0.29033, -0.2667983, -0.25647]","[-0.0, -0.0, 0.00232, -0.0, 0.0, -0.001353, 0.0, 0.007356, -0.002418, 0.0, -0.007356, -0.002418, 0.0, 0.000276, 0.000169, 0.0, -0.000276, 0.000169, -0.0, 0.0, 0.003977, -0.0, -0.004173, -0.002278, 0.0, 0.004173, -0.002278, -0.0, 0.003716, 0.002055, 0.0, -0.003716, 0.002055]",0.43,3.1
silane,-291.897600993693,5,0.0,"[-66.13621, -5.286073, -3.644161, -3.644161, -3.644161, -0.5499513, -0.3526121, -0.3526121, -0.3526121]","[-0.0, -0.0, -0.0, -0.003069, -0.003069, -0.003069, 0.003069, 0.003069, -0.003069, 0.003069, -0.003069, 0.003069, -0.003069, 0.003069, 0.003069]",0.04,0.8
isobutylene,-157.230982685546,7,0.228385,"[-10.16791, -0.8060703, -0.6933411, -0.67823, -0.5224535, -0.4502559, -0.4423503, -0.4315553, -0.3857811, -0.3690229, -0.3634274, -0.3381823, -0.2440988]","[-0.0, -0.0, 0.00377, 0.0, -0.0, -0.002943, -0.0, 0.00192, -0.003665, 0.0, -0.00192, -0.003665, 0.0, -0.00493, -0.002365, 0.0, 0.00493, -0.002365, 0.0, -0.004377, -0.002394, -0.00432, -0.000536, 0.004005, 0.00432, -0.000536, 0.004005, -0.0, 0.004377, -0.002394, 0.00432, 0.000536, 0.004005, -0.00432, 0.000536, 0.004005]",0.2,2.8
fluorine_diatomic,-199.513328256769,6,0.0,"[-24.79816, -24.79815, -1.34279, -1.101307, -0.5908857, -0.5277446, -0.5277446, -0.3995301, -0.3995301]","[0.0, -0.0, -0.001631, -0.0, 0.0, 0.001631]",0.01,0.4
ethylamine,-135.176464729052,7,0.468492906633,"[-10.17446, -0.8747762, -0.7258707, -0.6062305, -0.4911856, -0.4333036, -0.4078384, -0.4033626, -0.3573131, -0.3364555, -0.2312231]","[0.002644, -0.00301, -0.0, 0.003609, 0.005801, 0.0, 0.001224, -0.005519, -0.0, -0.005521, -0.00269, 0.0, -0.000602, 0.003992, -0.004855, -0.000602, 0.003992, 0.004855, -0.000732, -0.004307, 0.004658, -0.000732, -0.004307, -0.004658, 0.000356, 0.003024, -0.00189, 0.000356, 0.003024, 0.00189]",0.12,1.3
aluminum_diatomic,-484.807287689567,39,0.000197,"[-56.07802, -4.157347, -4.157273, -2.710517, -2.710132, -2.709683, -2.709683, -2.709658, -2.709657, -0.3851134, -0.2815921, -0.1581285, -0.1581273]","[0.0, 0.0, -0.010888, -0.0, -0.0, 0.010888]",0.1,4.0
methyl_nitrite,-245.024437580484,9,0.847429724809,"[-10.25247, -1.209364, -1.057343, -0.7664771, -0.6308304, -0.5490712, -0.5119406, -0.5050959, -0.4370368, -0.4195955, -0.3746234, -0.3278038, -0.2799213]","[-0.004706, -0.005088, -0.0, -0.001922, 0.005429, 0.0, -0.010477, -0.032157, -0.0, 0.004607, -0.004474, -0.0, 0.000936, 0.003532, -0.004541, 0.000936, 0.003532, 0.004541, 0.010627, 0.029227, 0.0]",0.23,1.4
isobutane,-158.458847840924,6,0.043189,"[-10.17084, -0.8030387, -0.6804721, -0.6804719, -0.5572065, -0.4619641, -0.4288631, -0.4288627, -0.3805272, -0.3805271, -0.3602008, -0.3259541, -0.3259541, -0.3201377]","[-0.0, 1.5e-05, 0.00211, -0.0, 0.001825, -0.00179, 0.001601, -0.000935, -0.001777, -0.001601, -0.000935, -0.001777, 0.0, 2e-06, -0.00565, -0.0, -0.001189, 0.005884, 0.004262, -0.003279, -0.001459, -0.004262, -0.003279, -0.001459, -0.001029, 0.000601, 0.005886, -0.004974, -0.002044, -0.001461, -0.000718, 0.005331, -0.001465, 0.001029, 0.000601, 0.005886, 0.000718, 0.005331, -0.001465, 0.004974, -0.002044, -0.001461]",0.27,2.8
boron_trifluoride,-324.568787978970,6,5e-06,"[-6.923959, -1.276937, -1.237476, -1.237476, -0.6077588, -0.57112, -0.5711199, -0.532375, -0.4640053, -0.4640053, -0.4539332, -0.4539331, -0.4216366]","[0.0, 0.0, 0.0, -0.0, -0.016944, -0.0, -0.014678, 0.008472, 0.0, 0.014678, 0.008472, -0.0]",0.07,0.6
nitrosyl_chloride,-590.121226229253,11,0.739481515768,"[-7.204485, -7.202515, -1.309234, -0.8261531, -0.7051741, -0.5657019, -0.5624458, -0.5394326, -0.3178154, -0.3114155, -0.3020093]","[0.003008, 0.006364, 0.0, -0.002987, -0.004284, 0.0, -2.1e-05, -0.00208, -0.0]",0.27,1.5
silicon_monophosphide,-630.787245150677,12,0.542771,"[-5.329832, -4.733875, -4.72602, -4.72602, -3.690432, -3.686876, -3.686876, -0.6158934, -0.4268559, -0.2843353, -0.2433723, -0.2433723]","[0.0, -0.0, -0.030899, -0.0, 0.0, 0.030899]",0.37,2.0
pyrrole,-210.182341998270,8,0.780336,"[-10.16156, -0.9732305, -0.7688412, -0.7149631, -0.5880954, -0.5599763, -0.5395114, -0.4258966, -0.4191883, -0.4017021, -0.3819592, -0.370223, -0.2400172, -0.2073331]","[-0.0, 0.0, 0.009114, -0.0, 0.0, -0.013344, -0.0, 0.001634, 0.004117, 0.0, -0.001634, 0.004117, -0.0, -0.003247, -0.005313, -0.0, 0.003247, -0.005313, 0.0, -0.006913, -0.003494, 0.0, 0.006913, -0.003494, 0.0, -0.005003, 0.006804, 0.0, 0.005003, 0.006804]",0.28,3.1
aluminum_monoxide,-317.626864204243,11,1.462534,"[-56.07982, -19.11669, -4.16672, -2.719595, -2.718686, -2.718686, -0.8992367, -0.381217, -0.2906081, -0.2906081, -0.2737601]","[-0.0, 0.0, 0.029524, 0.0, -0.0, -0.029524]",0.12,1.2
trifluoromethane,-338.248260980386,7,0.504226009139,"[-10.42928, -1.319628, -1.23359, -1.233565, -0.7171445, -0.6040716, -0.593088, -0.5930777, -0.4662765, -0.4662764, -0.4336613, -0.4336484, -0.4104261, -0.3839099]","[-0.0, 4.1e-05, -0.027485, -0.0, 1e-06, -0.003815, 0.0, -0.006017, 0.010444, -0.005186, 0.002987, 0.010428, 0.005186, 0.002987, 0.010428]",0.1,0.8
silicon_monofluoride,-389.322163276767,7,0.362016,"[-66.1914, -24.7026, -5.332695, -3.693439, -3.689814, -3.689687, -1.200454, -0.5391694, -0.4512014, -0.4465365, -0.3599016, -0.165583]","[-0.0, -0.0, 0.042469, 0.0, 0.0, -0.042469]",0.11,1.0
ethyl_chloride,-539.446130435190,7,0.791549325294,"[-7.193733, -0.8571814, -0.7434263, -0.6203153, -0.477911, -0.4535941, -0.4100386, -0.3767876, -0.3720642, -0.2915455, -0.2901299]","[0.012741, 0.004842, 0.000788, 0.00368, -0.002115, 8.5e-05, -0.006193, 0.00235, -0.001276, -0.008186, -0.002868, -1.2e-05, -0.001002, 0.004498, 0.006241, -0.000965, 0.004557, -0.006218, 0.000575, -0.005407, 0.007031, -0.00065, -0.005857, -0.006639]",0.27,1.8
bicyclo[1.1.0]butane,-155.952333372773,7,0.298433,"[-10.19585, -0.9219041, -0.6852943, -0.5737859, -0.5731733, -0.5148219, -0.4258653, -0.4256466, -0.3708866, -0.3255868, -0.3128027, -0.2402205]","[0.003788, -0.0, -0.001969, -0.003788, -0.0, -0.001969, 0.0, 0.005656, 0.000543, 0.0, -0.005656, 0.000543, 0.0, 0.008333, -0.004671, 0.0, -0.008333, -0.004671, -0.0, 0.002185, -0.003098, 0.0, -0.002185, -0.003098, -0.007422, 0.0, 0.009196, 0.007422, 0.0, 0.009196]",0.18,2.1
silyl_radical,-291.247076602079,6,0.035003,"[-66.14278, -5.292642, -3.65487, -3.649202, -3.649201, -0.5456577, -0.3609114, -0.3609114, -0.2236825]","[-0.0, 0.0, -0.007116, -0.0, -0.010466, 0.002374, -0.009065, 0.005233, 0.002371, 0.009065, 0.005233, 0.002371]",0.04,1.0
cyclopentane,-196.559957886482,6,0.00452386681944,"[-10.17246, -0.8325839, -0.7042633, -0.7038465, -0.5671534, -0.5579688, -0.4776939, -0.4751264, -0.4115948, -0.4100443, -0.3357139, -0.3349971, -0.3307698, -0.3268412, -0.3222939, -0.3115254]","[0.001831, -0.001841, 0.003832, 0.000522, 0.003986, 0.002445, -0.004076, 0.001043, 0.000302, -0.001458, -0.003534, -0.002831, 0.002802, 0.000535, -0.003699, -0.000833, -0.00335, -0.007845, 0.000498, -0.007362, 0.004415, 0.005609, -0.002162, 0.00635, 0.00548, -0.000832, -0.006777, 0.000761, 0.002873, 0.007991, 0.004317, 0.006255, -0.003954, -0.005078, 0.006428, 0.002447, -0.001134, 0.000833, -0.008365, -0.001624, -2.9e-05, 0.008315, -0.007616, -0.002841, -0.002625]",0.47,3.5
dimethyl_sulfoxide,-553.194794001669,9,1.48625373452,"[-5.985065, -1.01105, -0.7969137, -0.7281542, -0.6017187, -0.4798568, -0.4588112, -0.455649, -0.4265462, -0.3978173, -0.3952129, -0.3491096, -0.2586027, -0.2178622]","[-0.0, 0.018129, -0.036647, -0.0, -0.039327, 0.02425, 0.018851, 0.02349, 0.009161, -0.018851, 0.02349, 0.009161, -0.028002, -0.018434, -0.004197, 0.028002, -0.018434, -0.004197, 0.002435, 0.007153, -0.001188, -0.003963, -0.00161, 0.002422, -0.002435, 0.007153, -0.001188, 0.003963, -0.00161, 0.002422]",0.61,3.3
trifluoroacetic_acid,-526.821359195096,10,0.684595205506,"[-10.35319, -1.344936, -1.254768, -1.252518, -1.143153, -1.055348, -0.7703914, -0.6752063, -0.6191651, -0.6173767, -0.5907875, -0.5103244, -0.4927477, -0.4873533, -0.4742817, -0.4658829, -0.4468199, -0.4412551, -0.4253873, -0.4087839, -0.3512319, -0.3106996]","[0.012003, 0.021476, 0.0, -0.017995, 0.01842, 0.0, -0.009846, -0.025601, 0.0, 0.02157, -0.005551, -0.0, 0.006958, -0.007854, -0.0, -0.009534, -0.006872, -0.012043, -0.009534, -0.006872, 0.012043, 0.006378, 0.012855, -0.0]",0.41,2.6
nitric_oxide,-129.900930879267,10,0.031992,"[-19.27436, -14.46065, -1.244736, -0.6817815, -0.5303187, -0.5038947, -0.4766195, -0.2079324]","[-0.0, -0.0, 0.006676, 0.0, 0.0, -0.006676]",0.03,0.6
hydrazine,-111.861202834551,6,1.059345,"[-14.32911, -14.32904, -0.947468, -0.7434894, -0.4996546, -0.475458, -0.4246364, -0.2802903, -0.2207735]","[0.00945, -0.001006, 0.00302, -0.00945, 0.001006, 0.00302, 0.004357, -0.010853, -0.008096, -0.004357, 0.010853, -0.008096, -0.0073, -0.001005, 0.005076, 0.0073, 0.001005, 0.005076]",0.02,0.6
aluminum_carbide,-280.353522979785,8,0.653607,"[-56.07848, -10.23261, -4.159508, -2.712833, -2.712833, -2.710461, -0.6076533, -0.3327267, -0.246977, -0.246977, -0.2243194]","[-0.0, -0.0, 0.009272, 0.0, 0.0, -0.009272]",0.12,1.3
sulfur_monoxide,-473.373094014996,8,0.588412,"[-88.96248, -19.2123, -8.022371, -5.984205, -5.983551, -5.983551, -1.098076, -0.6798505, -0.4564534, -0.4564534, -0.4505513, -0.2550198, -0.2550198]","[-0.0, 0.0, 0.051583, 0.0, -0.0, -0.051583]",0.12,1.1
hydroxymethyl_radical,-115.063884846362,8,0.568396362756,"[-19.17091, -10.22371, -1.05147, -0.6671992, -0.521488, -0.4435739, -0.3961259, -0.347334, -0.1755787]","[0.010877, 0.000166, 0.000327, -0.001877, -0.002144, 0.002033, -0.000936, 0.001774, -0.000759, -0.003452, -0.007368, -0.000876, -0.004613, 0.007573, -0.000725]",0.05,0.6
dimethyl_sulfide,-478.030166588736,7,0.578127,"[-5.878143, -0.7977798, -0.7043496, -0.5960204, -0.4402811, -0.438046, -0.4231998, -0.4057014, -0.3620293, -0.3114601, -0.2158296]","[-0.0, -0.002938, 0.000837, 0.0, 0.002938, 0.000837, -0.0, 0.0, -0.009718, 0.0, -0.004782, -0.00338, -0.00528, 0.000144, 0.003701, 0.00528, 0.000144, 0.003701, 0.0, 0.004782, -0.00338, 0.00528, -0.000144, 0.003701, -0.00528, -0.000144, 0.003701]",0.24,2.2
beryllium_monochloride,-474.978600817814,7,0.274006,"[-101.5363, -9.457031, -7.215214, -7.211826, -7.211826, -4.104503, -0.8218473, -0.4087429, -0.3412709, -0.3412709, -0.2210844]","[-0.0, 0.0, 0.008058, 0.0, -0.0, -0.008058]",0.13,1.0
n_propyl_chloride,-578.760902955327,7,0.821278682607,"[-7.193509, -0.8550887, -0.7756848, -0.6682003, -0.5954349, -0.4834159, -0.4434056, -0.4266395, -0.4117481, -0.3662628, -0.3605322, -0.3463703, -0.2894573, -0.2892037]","[-0.009411, 0.001164, 0.0, 0.008906, -0.007147, -0.0, -0.003159, 0.004696, -0.0, 0.009292, -0.000333, -0.0, -0.000735, 0.004135, 0.007065, -0.000735, 0.004135, -0.007065, 0.000427, -0.003291, 0.005428, 0.000427, -0.003291, -0.005428, -0.000791, 0.003181, 0.005235, -0.000791, 0.003181, -0.005235, -0.003431, -0.00643, -0.0]",0.35,2.8
chloroform,-1419.343663317707,7,0.476014000151,"[-7.234855, -0.9549721, -0.8441785, -0.8441783, -0.6584293, -0.5182839, -0.4788209, -0.4788205, -0.3584362, -0.3584356, -0.3328147, -0.3242252, -0.324225, -0.3069082]","[0.0, -4e-06, 0.023916, -0.0, -2e-06, -0.014757, -0.0, -0.016975, -0.003054, -0.014705, 0.00849, -0.003052, 0.014705, 0.00849, -0.003052]",0.66,3.2
phosphorus_monosulfide,-739.557029265878,10,0.266403,"[-5.924799, -5.923927, -5.922037, -4.764846, -4.761967, -4.760007, -0.775425, -0.5378098, -0.345334, -0.3370583, -0.3283543, -0.1942379]","[-0.0, 0.0, 0.019268, 0.0, -0.0, -0.019268]",0.37,1.8
cyclopropane,-117.897337697824,6,1.5e-05,"[-10.18386, -10.18386, -0.8518416, -0.5953458, -0.5953386, -0.4929084, -0.4643214, -0.3614008, -0.3613928, -0.2941521, -0.2941454]","[-0.0, -0.001385, -0.0, -0.001178, 0.000684, -0.0, 0.001178, 0.000684, -0.0, 0.0, -0.004103, -0.005483, -0.003555, 0.002056, -0.00549, 0.003555, 0.002056, -0.00549, -0.0, -0.004103, 0.005483, -0.003555, 0.002056, 0.00549, 0.003555, 0.002056, 0.00549]",0.09,1.0
formyl_radical,-113.857999100506,7,0.608822032091,"[-19.20937, -10.28951, -1.101973, -0.6268438, -0.4988721, -0.4317042, -0.4266412, -0.2241669]","[0.040088, -0.029835, -0.0, -0.033557, 0.006463, 0.0, -0.006531, 0.023372, 0.0]",0.04,0.6
spiropentane,-195.276200846796,6,0.0,"[-10.18479, -0.8821754, -0.797831, -0.6020582, -0.6020582, -0.53926, -0.4845556, -0.4702161, -0.4702161, -0.3720392, -0.3590429, -0.3470329, -0.2863909, -0.2863909, -0.2706044]","[-0.0, 0.0, -0.0, -0.0, 0.004153, 0.001038, 0.0, -0.004153, 0.001038, -0.004153, 0.0, -0.001038, 0.004153, -0.0, -0.001038, -0.00741, -0.005013, -0.002948, 0.00741, -0.005013, -0.002948, 0.00741, 0.005013, -0.002948, -0.00741, 0.005013, -0.002948, 0.005013, 0.00741, 0.002948, 0.005013, -0.00741, 0.002948, -0.005013, -0.00741, 0.002948, -0.005013, 0.00741, 0.002948]",0.36,2.5
acetonitrile,-132.613718786084,9,1.72625149166,"[-14.32755, -10.25111, -10.23258, -0.9110833, -0.8551052, -0.5867665, -0.5024077, -0.3742302, -0.3592193, -0.334378, -0.2800235]","[0.006669, -0.003877, -0.020319, -0.011391, 0.006576, 0.023368, 0.004634, -0.002675, -0.015558, 0.05302, 0.016064, 0.017527, 0.01262, -0.053938, 0.017517, -0.065552, 0.037849, -0.022534]",0.08,0.8
disilane,-582.609459867310,6,0.0,"[-3.638839, -3.638787, -3.638787, -3.6385, -0.5745739, -0.5099575, -0.3688155, -0.3688075, -0.3428926, -0.342884, -0.295634]","[0.0, 2.5e-05, 0.00398, 0.0, -2.5e-05, -0.00398, 0.0, -0.00885, -0.004631, 0.007644, 0.004412, -0.00462, -0.007644, 0.004412, -0.00462, 0.0, 0.00885, 0.004631, 0.007644, -0.004412, 0.00462, -0.007644, -0.004412, 0.00462]",0.22,1.9
methylene_chloride,-959.738260856907,6,0.668954,"[-7.220229, -0.9086933, -0.8279843, -0.6706839, -0.5039158, -0.4649952, -0.4466642, -0.3313221, -0.3263865, -0.3085306, -0.3060925]","[0.0, 0.0, 0.014522, 0.016111, -0.0, -0.011012, -0.016111, -0.0, -0.011012, 0.0, -0.010337, 0.003751, 0.0, 0.010337, 0.003751]",0.37,1.7
methlidyne_radical,-38.484659252230,7,0.55892,"[-10.28592, -0.6434211, -0.3164553, -0.2522774]","[0.0, -0.0, 0.00307, -0.0, 0.0, -0.00307]",0.0,0.4
trifluoro_acetonitrile,-430.475821923792,10,0.570777000043,"[-10.26955, -1.366499, -1.276004, -1.276003, -0.9547183, -0.7887648, -0.674783, -0.6393965, -0.6393962, -0.5071709, -0.5071705, -0.4745805, -0.4745804, -0.4657764, -0.4474026, -0.4024507, -0.3849512, -0.3849511]","[-0.0, -3e-06, -0.021964, -0.0, 1e-06, 0.012366, 0.0, 0.0, -0.012225, 0.0, -0.006703, 0.007273, -0.005804, 0.003353, 0.007275, 0.005804, 0.003353, 0.007275]",0.26,1.7
acetyl_radical,-153.189873784905,8,0.926678461617,"[-19.18468, -10.27882, -10.21894, -1.083482, -0.7656286, -0.5477968, -0.4678252, -0.4601461, -0.4577922, -0.3878816, -0.3863159, -0.197329]","[-0.003601, -0.004, -0.0, -0.017637, 0.001491, 0.0, -0.003403, 0.005763, -0.0, 0.004098, -0.000752, -0.004697, 0.004098, -0.000752, 0.004697, 0.016445, -0.001751, -0.0]",0.09,1.1
silylene_t,-290.597853482289,7,0.021863,"[-66.1581, -5.304734, -3.665695, -3.665508, -3.659985, -0.5322758, -0.3756538, -0.2623422, -0.1965484]","[-0.0, -0.0, 0.002633, 0.0, 0.002919, -0.001317, 0.0, -0.002919, -0.001317]",0.03,1.0
oxygen_water,-152.853756342587,7,1.03646455703,"[-19.16033, -19.08619, -1.029603, -0.9577983, -0.5476496, -0.4848965, -0.402681, -0.3386881, -0.3158825, -0.2564474]","[-0.008733, 0.010809, 0.002832, -0.00151, -0.011347, -0.005454, 0.003974, -0.004039, -0.006095, 0.00399, -0.006347, 0.00345, 0.004075, 0.003467, 0.001424, -0.001796, 0.007456, 0.003843]",0.02,0.6
chlorine_monofluoride,-559.969897349308,7,0.407397,"[-9.535242, -7.304144, -7.285047, -7.285047, -1.238541, -0.8322853, -0.5294592, -0.4777138, -0.4777138, -0.3257998, -0.3257998]","[0.0, 0.0, 0.029577, -0.0, -0.0, -0.029577]",0.1,0.9
sodium_hydride,-162.862910622654,5,2.374727,"[-38.46966, -2.218233, -1.149947, -1.149947, -1.147079, -0.185277]","[-0.0, -0.0, -0.000146, 0.0, 0.0, 0.000146]",0.02,0.8
nitrogen_tribromide,-7777.111340254807,9,0.320391000006,"[-2.670552, -0.9685942, -0.8023737, -0.8023732, -0.6854344, -0.4723656, -0.4723651, -0.4241822, -0.3353144, -0.3353143, -0.3017829, -0.3017826, -0.2867988, -0.2731353]","[0.0, -1.1e-05, -0.007363, 0.0, -0.019025, 0.002455, -0.016477, 0.009518, 0.002454, 0.016477, 0.009518, 0.002454]",2.9,15.4
phosphorus_pentafluoride,-840.683881644774,7,1.7e-05,"[-4.99148, -1.350901, -1.284414, -1.284409, -1.241786, -1.207738, -0.7190329, -0.6192475, -0.6192464, -0.603848, -0.5402326, -0.5402301, -0.5216182, -0.5216155, -0.4890148, -0.4794, -0.457811, -0.4386975, -0.4386975, -0.4156946, -0.4156939]","[-0.0, 1.2e-05, -0.0, 0.0, -0.054074, 0.0, -0.046805, 0.027024, 0.0, 0.046805, 0.027024, 0.0, 0.0, 7e-06, -0.041719, 0.0, 7e-06, 0.041719]",0.28,2.3
aminyl_radical,-55.877158480810,7,0.709372,"[-14.34917, -0.8477762, -0.4652676, -0.3141113, -0.3050227]","[-0.0, -0.0, 0.018025, 0.0, -0.007071, -0.009013, 0.0, 0.007071, -0.009013]",0.01,0.4
allene,-116.663909793749,6,0.0,"[-10.2098, -10.19403, -10.194, -0.792436, -0.705709, -0.5216903, -0.4517187, -0.443894, -0.443894, -0.2685693, -0.2685693]","[0.0, -0.0, 0.0, -0.0, -0.0, 0.002887, -0.0, -0.0, -0.002887, -0.0, -0.003888, -0.003263, -0.0, 0.003888, -0.003263, -0.003888, 0.0, 0.003263, 0.003888, 0.0, 0.003263]",0.05,0.7
methane,-40.515925891163,5,0.0,"[-10.16952, -0.6942708, -0.390578, -0.390578, -0.390578]","[-0.0, -0.0, 0.0, -0.005092, -0.005092, -0.005092, -0.005092, 0.005092, 0.005092, 0.005092, -0.005092, 0.005092, 0.005092, 0.005092, -0.005092]",0.01,0.4
carbon_monosulfide,-436.234240041363,8,0.698628,"[-88.92463, -10.28059, -7.992463, -5.951864, -5.951703, -5.951703, -0.8405086, -0.5214467, -0.3555926, -0.3555926, -0.3100064]","[-0.0, 0.0, 0.018426, 0.0, -0.0, -0.018426]",0.13,1.1
sulfur_hexafluoride,-997.129790077879,6,0.0,"[-6.301739, -1.42906, -1.298702, -1.298702, -1.298702, -1.242817, -1.242817, -0.8221814, -0.6768634, -0.6768634, -0.6768634, -0.5673885, -0.5673885, -0.5673885, -0.528399, -0.528399, -0.4752128, -0.4752128, -0.4752128, -0.4710059, -0.4710059, -0.4710059, -0.4297867, -0.4297867, -0.4297867]","[-0.0, -0.0, -0.0, 0.0, 0.0, -0.046189, 0.0, -0.046189, 0.0, -0.046189, 0.0, 0.0, 0.0, 0.046189, 0.0, 0.046189, 0.0, 0.0, 0.0, 0.0, 0.046189]",0.39,2.8
nonane,-355.028709618044,6,0.025147,"[-10.17031, -0.813929, -0.7945473, -0.7627994, -0.7204584, -0.6706369, -0.6191009, -0.5809126, -0.5750571, -0.5701364, -0.4848573, -0.4671374, -0.4395793, -0.4341051, -0.4281579, -0.4058302, -0.400163, -0.3997262, -0.3714315, -0.3679285, -0.3471979, -0.3429295, -0.3387471, -0.3275617, -0.325336, -0.3211069, -0.3187637, -0.3187349, -0.2958996]","[-0.0, -0.0, 0.007329, 0.0, -1.1e-05, -0.007332, 0.0, 1.1e-05, -0.007332, -0.0, 0.000147, 0.007231, -0.0, -0.000147, 0.007231, 0.0, -0.001164, -0.007229, -0.0, 0.001164, -0.007229, -0.0, 0.004134, 0.004344, 0.0, -0.004134, 0.004344, -0.006119, 0.0, -0.005388, 0.006119, -0.0, -0.005388, -0.006138, 4e-06, 0.005406, 0.006138, 4e-06, 0.005406, 0.006138, -4e-06, 0.005406, -0.006138, -4e-06, 0.005406, -0.006213, -1e-06, -0.005419, 0.006213, -1e-06, -0.005419, 0.006213, 1e-06, -0.005419, -0.006213, 1e-06, -0.005419, 0.006605, -0.000283, 0.00568, -0.006605, -0.000283, 0.00568, -0.006605, 0.000283, 0.00568, 0.006605, 0.000283, 0.00568, 0.0, -0.007517, 0.004625, 0.007017, -0.00101, -0.005624, -0.007017, -0.00101, -0.005624, 0.0, 0.007517, 0.004625, -0.007017, 0.00101, -0.005624, 0.007017, 0.00101, -0.005624]",1.87,10.9
furan,-230.036546127889,9,0.211815,"[-10.18484, -1.111156, -0.7991414, -0.7443082, -0.5973513, -0.56967, -0.5411502, -0.4481834, -0.4449032, -0.411112, -0.3953164, -0.3719444, -0.2794419, -0.2301703]","[-0.0, 0.0, -6.1e-05, -0.0, 0.00137, 0.001313, 0.0, -0.00137, 0.001313, -0.0, 0.004499, -0.002685, -0.0, -0.004499, -0.002685, 0.0, -0.006166, -0.003694, 0.0, 0.006166, -0.003694, 0.0, -0.006525, 0.005097, 0.0, 0.006525, 0.005097]",0.25,2.0
methanol_radical,-115.054946001499,8,0.751548371743,"[-19.17799, -10.24032, -1.016967, -0.6746953, -0.4804449, -0.4577273, -0.4254592, -0.3288287, -0.280328]","[0.004801, -0.021415, -0.0, -0.000876, 0.007977, -0.0, -0.007777, 0.003645, 0.0, 0.001926, 0.004896, -0.0072, 0.001926, 0.004896, 0.0072]",0.05,0.6
sodium_lithium,-169.811776696076,6,0.00682,"[-38.45592, -2.202033, -2.004991, -1.133275, -1.133275, -1.133235, -0.1324407]","[-0.0, -0.0, -0.000207, 0.0, 0.0, 0.000207]",0.12,1.0
ethylene_oxide,-153.791722019307,7,0.710544,"[-10.23668, -10.2364, -1.075018, -0.6760048, -0.6333568, -0.5142119, -0.4797229, -0.3927421, -0.3869372, -0.3142835, -0.2671819]","[0.0, -0.0, -0.006367, 0.0, -0.000192, -0.003027, -0.0, 0.000192, -0.003027, 0.006385, -0.005663, 0.003105, -0.006385, -0.005663, 0.003105, -0.006385, 0.005663, 0.003105, 0.006385, 0.005663, 0.003105]",0.1,0.8
chlorine_diatomic,-920.395460963233,6,0.0,"[-7.262066, -7.262066, -7.262057, -7.262057, -0.9418752, -0.7686476, -0.4748762, -0.4093374, -0.4093374, -0.3052275, -0.3052275]","[0.0, 0.0, 0.023896, -0.0, -0.0, -0.023896]",0.1,1.1
aziridine,-133.923540013593,7,0.619613648408,"[-10.21095, -10.21015, -0.9502395, -0.6554821, -0.6126375, -0.5151225, -0.4647417, -0.3757184, -0.3387951, -0.3350971, -0.242199]","[-0.00195, 0.003964, 0.016845, -0.004205, -0.006104, -0.004153, 0.004086, -0.006648, -0.007346, 0.001617, -0.001747, -0.005332, 0.003434, 0.008432, -0.006835, 0.006392, -0.003193, 0.007123, -0.003929, 0.003483, 0.005345, -0.005446, 0.001814, -0.005647]",0.12,1.1
methoxyethane,-194.348850471220,7,0.431484519595,"[-10.17535, -1.028363, -0.7604043, -0.6715355, -0.6039329, -0.4834763, -0.4782461, -0.448849, -0.4179505, -0.3819921, -0.3599564, -0.3515965, -0.3161464, -0.2522213]","[-0.004911, -0.001314, 0.0, 0.005584, 0.006411, -0.0, 0.010295, -0.001331, 0.0, -0.003974, -0.001137, 0.0, -0.003109, -0.002295, -0.004569, -0.003109, -0.002295, 0.004569, -0.000832, 0.006411, 0.0, -0.004038, -0.001478, 0.004963, -0.004038, -0.001478, -0.004963, 0.003651, 0.00201, 0.004918, 0.003651, 0.00201, -0.004918, 0.000828, -0.005515, 0.0]",0.2,2.0
ethane,-79.828710234151,6,0.0,"[-10.17458, -10.17441, -0.7506319, -0.614767, -0.4325389, -0.4325358, -0.362973, -0.3424852, -0.3424823]","[2.5e-05, -0.0, 0.01208, -2.5e-05, 0.0, -0.01208, 0.006748, 0.0, -0.003667, -0.003386, -0.005871, -0.003672, -0.003386, 0.005871, -0.003672, -0.006748, -0.0, 0.003667, 0.003386, 0.005871, 0.003672, 0.003386, -0.005871, 0.003672]",0.04,0.8
carbon_tetrabromide,-10334.690409577632,7,0.0,"[-2.663182, -0.9115164, -0.7991935, -0.7991935, -0.7991935, -0.6111269, -0.4619541, -0.4619541, -0.4619541, -0.3411875, -0.3411875, -0.3177075, -0.3177075, -0.3177075, -0.2871599, -0.2871599, -0.2871599]","[-0.0, -0.0, -0.0, -0.005722, -0.005722, -0.005722, 0.005722, 0.005722, -0.005722, 0.005722, -0.005722, 0.005722, -0.005722, 0.005722, 0.005722]",5.71,23.0
beryllium_diatomic,-29.348746189450,6,0.0,"[-4.082953, -4.082911, -0.2960174, -0.1874396]","[0.0, -0.0, 0.001344, -0.0, 0.0, -0.001344]",0.01,0.4
tetrachloroethylene,-1917.041328778049,7,0.0,"[-7.24841, -0.9679873, -0.9150406, -0.8719635, -0.8487729, -0.7344782, -0.571145, -0.5154422, -0.5132423, -0.4548245, -0.444962, -0.3880037, -0.3665894, -0.3564669, -0.3530549, -0.3478941, -0.3413299, -0.3126678, -0.2551992]","[0.0, -0.0, 0.009874, 0.0, -0.0, -0.009874, -0.0, -0.00971, -0.006262, -0.0, 0.00971, -0.006262, -0.0, 0.00971, 0.006262, -0.0, -0.00971, 0.006262]",0.96,4.4
silicon_monoxide,-364.733550729047,7,1.054884,"[-66.16877, -19.12835, -5.317977, -3.676944, -3.676944, -3.672419, -0.9467399, -0.4368313, -0.3320149, -0.3320149, -0.3070252]","[-0.0, 0.0, 0.036011, 0.0, -0.0, -0.036011]",0.12,0.9
trimethylamine,-174.474656872490,7,0.192384035788,"[-10.20036, -0.9200802, -0.700848, -0.7008296, -0.5871353, -0.4639464, -0.4618248, -0.4618167, -0.3903219, -0.3903137, -0.3631401, -0.3573317, -0.3573295, -0.2100549]","[-3.4e-05, 4.8e-05, 0.007806, 0.001844, 0.00192, 0.017073, -0.002526, 0.000678, 0.017069, 0.000694, -0.002652, 0.017079, 0.002722, 0.00272, -0.017757, -0.003711, 0.000993, -0.017772, 0.000996, -0.003715, -0.017777, -0.004141, 0.001872, -0.000944, 0.001881, -0.004175, -0.000957, 0.000452, -0.004533, -0.000944, 0.002663, 0.003703, -0.000952, 0.003728, 0.002686, -0.000966, -0.004567, 0.000455, -0.000959]",0.26,2.2
carbonyl_fluoride,-313.031435151971,8,0.418497,"[-10.44488, -1.340922, -1.268941, -1.113236, -0.6935265, -0.6239178, -0.576836, -0.5453775, -0.477487, -0.4717355, -0.4571094, -0.3975611, -0.3528876]","[0.0, -0.0, -0.009771, -0.0, -0.0, -0.003215, 0.0, -0.008734, 0.006493, -0.0, 0.008734, 0.006493]",0.14,0.8
phosphorus_mononitride,-396.080503118720,8,0.972959,"[-77.12251, -14.36245, -6.597973, -4.759021, -4.759021, -4.755838, -0.8541981, -0.4909443, -0.3318878, -0.3318878, -0.321638]","[-0.0, 0.0, 0.014088, 0.0, -0.0, -0.014088]",0.12,1.0
carbon_tetrachloride,-1878.945817702110,7,0.0,"[-7.246754, -0.9888631, -0.8589244, -0.8589244, -0.8589244, -0.6312559, -0.5061096, -0.5061096, -0.5061096, -0.3786043, -0.3786043, -0.3529376, -0.3529376, -0.3529376, -0.3181972, -0.3181972, -0.3181972]","[-0.0, -0.0, -0.0, -0.008615, -0.008615, -0.008615, 0.008615, 0.008615, -0.008615, 0.008615, -0.008615, 0.008615, -0.008615, 0.008615, 0.008615]",0.94,4.1
acrylonitrile,-170.841312504125,9,1.47696194554,"[-10.23322, -0.9059878, -0.8202121, -0.6609789, -0.5417661, -0.4834319, -0.4196994, -0.3800186, -0.3675132, -0.3345882, -0.291734]","[-0.002977, -0.0029, -0.0, 0.006955, 7.3e-05, -0.0, 0.01406, -0.036591, -0.0, 0.005344, -0.000614, 0.0, -0.002816, 0.005058, -0.0, -0.005322, -0.0004, -0.0, -0.015243, 0.035373, 0.0]",0.15,1.4
sodium_hydroxide,-238.136767323619,37,2.33683,"[-38.45622, -18.98829, -2.207003, -1.138894, -1.138894, -1.136531, -0.8119027, -0.3250243, -0.1676561, -0.1676561]","[-0.0, -0.0, -0.032198, -0.0, -0.0, 0.008884, 0.0, 0.0, 0.023314]",0.16,2.4
methylene_t,-39.153446648296,7,0.230135,"[-10.22609, -0.6755608, -0.4527026, -0.2749105, -0.2414142]","[0.0, -0.0, -0.004035, -0.0, -0.003447, 0.002018, -0.0, 0.003447, 0.002018]",0.01,0.4
carbon_monophosphide,-379.315024430569,11,0.361376,"[-77.11246, -10.27343, -6.585024, -4.748269, -4.743899, -4.743899, -0.737571, -0.4631252, -0.3333604, -0.3007006, -0.3007006]","[-0.0, 0.0, 0.009992, 0.0, -0.0, -0.009992]",0.13,1.3
formic_acid,-189.763584217817,9,0.535646971052,"[-19.13508, -10.32293, -1.117835, -1.028544, -0.6580166, -0.5339519, -0.4876577, -0.449547, -0.4009047, -0.329052, -0.2789872]","[-0.026368, -0.002811, 0.0, 0.007666, -0.018584, 0.0, -0.013141, 0.022854, -0.0, 0.035825, -0.00427, -0.0, -0.003983, 0.002812, -0.0]",0.08,0.7
aluminum_trifluoride,-542.184934578831,6,1.8e-05,"[-2.788529, -1.189654, -1.176655, -1.176654, -0.5152542, -0.4706318, -0.4706299, -0.4516523, -0.4361125, -0.436112, -0.4287651, -0.428763, -0.4109592]","[0.0, -1.5e-05, 0.0, 0.0, -0.029538, -0.0, -0.025592, 0.014777, 0.0, 0.025592, 0.014777, -0.0]",0.19,1.2
vinyl_radical,-77.906426435905,11,0.249915930619,"[-10.2135, -10.195, -0.7679498, -0.5780598, -0.4634707, -0.4309219, -0.2845493, -0.2389767]","[-0.004376, 0.00877, 0.0, -0.003845, -0.014032, -0.0, 0.005186, -0.006425, -0.0, 0.009607, 0.006515, 0.0, -0.006572, 0.005172, -0.0]",0.02,0.7
nitrous_oxide,-184.678516276172,7,0.00598,"[-19.23971, -14.55838, -14.4269, -1.247133, -1.088709, -0.6003916, -0.5625375, -0.5625375, -0.47228, -0.3389776, -0.3389776]","[-0.0, -0.0, 0.014665, 0.0, -0.0, -0.008374, 0.0, 0.0, -0.006291]",0.05,0.5
2_butyne,-155.983616864591,6,1.6e-05,"[-10.17131, -0.777194, -0.7378043, -0.662134, -0.4738519, -0.4285875, -0.4249152, -0.4249141, -0.4126663, -0.4126651, -0.2456596, -0.2456593]","[-0.0, 2e-06, -0.003418, -0.0, 2e-06, 0.003418, 0.0, -1.3e-05, -0.001423, -0.0, -1.3e-05, 0.001423, 0.0, 0.008473, 0.00165, -0.007323, -0.004231, 0.001643, 0.007323, -0.004231, 0.001643, 0.0, 0.008473, -0.00165, 0.007323, -0.004231, -0.001643, -0.007323, -0.004231, -0.001643]",0.15,2.3
hydrogen_diatomic,-1.173321931503,4,0.0,"[-0.4297981]","[0.0, -0.0, 0.014902, -0.0, 0.0, -0.014902]",0.0,0.3
beryllium_dihydride,-15.916461923304,5,0.0,"[-4.042513, -0.3530569, -0.3164227]","[-0.0, -0.0, -0.0, -0.0, -0.0, -0.002231, 0.0, 0.0, 0.002231]",0.0,0.3
beryllium_monohydride,-15.261720883448,7,0.068619,"[-4.07558, -0.3476726, -0.201074]","[0.0, -0.0, 0.001777, -0.0, 0.0, -0.001777]",0.0,0.4
sodium_monoxide,-237.453114946870,10,2.79763,"[-38.47379, -19.05489, -2.222914, -1.155541, -1.154581, -1.152046, -0.7979523, -0.2625292, -0.2078742, -0.1959]","[-0.0, 0.0, -0.002389, 0.0, -0.0, 0.002389]",0.11,1.2
phosphino_radical,-342.524256097848,7,0.261367,"[-77.09796, -6.567671, -4.734133, -4.727865, -4.724795, -0.6366284, -0.3855593, -0.3089106, -0.2477548]","[0.0, -0.0, 0.006681, -0.0, -0.003637, -0.003341, -0.0, 0.003637, -0.003341]",0.03,1.0
boron_monochloride,-485.005598577364,7,0.638097,"[-101.5895, -9.510847, -7.268835, -7.265487, -7.265487, -6.862004, -0.8902651, -0.51173, -0.391266, -0.391266, -0.2619455]","[0.0, -0.0, 0.01255, -0.0, 0.0, -0.01255]",0.13,1.0
ozone,-225.425228278802,7,0.244395002506,"[-19.25425, -19.25419, -1.356028, -1.0882, -0.7832213, -0.591542, -0.5845869, -0.5829524, -0.3571602, -0.3407293, -0.3347757]","[-0.0, 3e-06, -0.024123, 0.0, 0.014062, 0.012061, 0.0, -0.014065, 0.012062]",0.02,0.4
water,-76.420369138641,6,0.751671,"[-19.12211, -0.9951199, -0.5138719, -0.364692, -0.2880084]","[0.0, -0.0, -0.015401, -0.0, -0.006608, 0.007701, -0.0, 0.006608, 0.007701]",0.01,0.3
acetate_anion,-228.512473279372,9,1.20828740707,"[-9.988072, -0.7733316, -0.6893381, -0.511899, -0.2757247, -0.2274593, -0.2192644, -0.1869927, -0.150403, -0.1273341, -0.007544392, -0.0005635617, 0.009967385]","[-0.001698, -0.000534, -0.0, 0.000585, -0.024541, 0.0, -0.000788, 0.00134, 0.0, 0.001085, 0.0018, -0.000401, 0.001085, 0.0018, 0.000401, -0.015967, 0.009192, -0.0, 0.015697, 0.010943, -0.0]",0.13,1.3
tetrachlorosilane,-2130.570232039404,7,0.0,"[-3.788094, -0.9018653, -0.8511124, -0.8511124, -0.8511124, -0.5569874, -0.4533201, -0.4533201, -0.4533201, -0.3777772, -0.3777772, -0.3661864, -0.3661864, -0.3661864, -0.3361397, -0.3361397, -0.3361397]","[0.0, 0.0, 0.0, -0.011351, -0.011351, -0.011351, 0.011351, 0.011351, -0.011351, 0.011351, -0.011351, 0.011351, -0.011351, 0.011351, 0.011351]",0.95,5.3
oxygen_diatomic,-150.334038392398,6,0.0,"[-19.29153, -19.29145, -1.306532, -0.8331727, -0.5587999, -0.5587999, -0.5422706, -0.3018766, -0.3018766]","[0.0, -0.0, 0.001819, -0.0, 0.0, -0.001819]",0.01,0.4
heptane,-276.402232870594,6,0.02531,"[-10.17531, -0.8060645, -0.7762469, -0.7289586, -0.6693479, -0.607626, -0.5714028, -0.5705107, -0.4780069, -0.4515455, -0.4293448, -0.4224662, -0.4128899, -0.3969049, -0.3711244, -0.3674878, -0.3557811, -0.3378574, -0.3335894, -0.3218722, -0.3210889, -0.3183602, -0.3025339]","[-0.0, -0.0, 0.003846, -0.0, 4.5e-05, -0.003817, -0.0, -4.5e-05, -0.003817, -0.0, -0.001038, 0.003952, -0.0, 0.001038, 0.003952, 0.0, 0.001553, -0.002586, -0.0, -0.001553, -0.002586, -0.000357, 0.0, -0.000546, 0.000357, -0.0, -0.000546, -0.000289, -5.4e-05, 0.000538, 0.000289, -5.4e-05, 0.000538, 0.000289, 5.4e-05, 0.000538, -0.000289, 5.4e-05, 0.000538, 7e-06, -0.000264, -0.000753, -7e-06, -0.000264, -0.000753, -7e-06, 0.000264, -0.000753, 7e-06, 0.000264, -0.000753, 0.0, -0.000477, 0.000172, -0.000108, -0.000638, 0.000666, 0.000108, -0.000638, 0.000666, 0.0, 0.000477, 0.000172, 0.000108, 0.000638, 0.000666, -0.000108, 0.000638, 0.000666]",1.02,7.2
methylene_s,-39.133394740741,6,0.718185,"[-10.25198, -0.6699002, -0.4087384, -0.2472745]","[0.0, -0.0, -0.016741, -0.0, -0.007517, 0.00837, -0.0, 0.007517, 0.00837]",0.01,0.3
octane,-315.715681193583,6,0.0,"[-10.17283, -0.8090331, -0.7860976, -0.7485546, -0.6993275, -0.6436245, -0.5926724, -0.5729059, -0.5699352, -0.4811052, -0.4601142, -0.4343881, -0.4281913, -0.4155816, -0.4118871, -0.3908277, -0.3818981, -0.3557993, -0.3557298, -0.3490899, -0.330536, -0.3270821, -0.3190457, -0.3180069, -0.3174268, -0.304539]","[0.001719, 0.001171, -0.0, -0.001719, -0.001171, -0.0, -0.001968, -0.000338, -0.0, 0.001968, 0.000338, -0.0, 0.000825, 0.002111, -0.0, -0.000825, -0.002111, -0.0, -0.00342, 0.002913, -0.0, 0.00342, -0.002913, -0.0, -0.00372, -0.002424, -0.004444, -0.00372, -0.002424, 0.004444, 0.00372, 0.002424, -0.004444, 0.00372, 0.002424, 0.004444, 0.003654, 0.002471, 0.004414, 0.003654, 0.002471, -0.004414, -0.003654, -0.002471, 0.004414, -0.003654, -0.002471, -0.004414, -0.003355, -0.00242, -0.00437, -0.003355, -0.00242, 0.00437, 0.003355, 0.00242, -0.00437, 0.003355, 0.00242, 0.00437, -0.00125, -0.005579, -0.0, 0.003576, 0.001943, 0.005214, 0.003576, 0.001943, -0.005214, 0.00125, 0.005579, -0.0, -0.003576, -0.001943, 0.005214, -0.003576, -0.001943, -0.005214]",1.39,10.3
beryllium_difluoride,-214.602352605726,6,0.0,"[-24.6845, -24.68447, -4.099035, -1.170924, -1.164356, -0.4740446, -0.466582, -0.4343554, -0.4343554, -0.4106462, -0.4106462]","[-0.0, -0.0, 0.0, 0.0, 0.0, -0.003177, 0.0, 0.0, 0.003177]",0.04,0.5
dilithium_oxide,-90.322345763633,66,0.00133744121366,"[-18.9619, -1.9181, -1.918046, -0.7220911, -0.1833124, -0.1543966, -0.1543965]","[-1e-06, -0.0, -0.0, 1e-06, 0.0, -0.009198, 1e-06, 0.0, 0.009198]",0.05,2.1
thiophene,-553.031888823497,9,0.153728,"[-5.925218, -0.8816726, -0.7360328, -0.7224675, -0.5628958, -0.5527814, -0.5136484, -0.4110129, -0.3931129, -0.3873823, -0.3801289, -0.3441047, -0.2529431, -0.2365086]","[0.0, -0.0, -0.014221, 0.0, -0.003976, 0.008655, -0.0, 0.003976, 0.008655, -0.0, -0.005448, -0.003927, 0.0, 0.005448, -0.003927, 0.0, -0.004209, -0.001097, -0.0, 0.004209, -0.001097, 0.0, -0.002143, 0.003479, 0.0, 0.002143, 0.003479]",0.44,3.9
ketene,-152.611603963243,9,0.481431,"[-19.21033, -10.31383, -10.19437, -1.123393, -0.7776033, -0.5403714, -0.4878587, -0.4872375, -0.452425, -0.4077132, -0.2428223]","[-0.0, -0.0, -0.003096, -0.0, -0.0, 0.010241, -0.0, 0.0, -0.016589, 0.0, -0.005701, 0.004722, -0.0, 0.005701, 0.004722]",0.07,0.7
phosphorus_monofluoride,-441.163267417650,7,0.351274,"[-77.1489, -24.72167, -6.614825, -4.777162, -4.777162, -4.776797, -1.229087, -0.6288172, -0.4740406, -0.4740406, -0.4458916, -0.2317945, -0.2317945]","[-0.0, 0.0, 0.039111, 0.0, -0.0, -0.039111]",0.11,1.0
boron_diatomic,-49.415388169061,6,0.0,"[-6.849308, -6.848692, -0.5595267, -0.3023202, -0.2519049, -0.2519049]","[-0.0, 0.0, 0.01644, 0.0, -0.0, -0.01644]",0.01,0.4
nitrogen_dioxide,-205.092605054351,7,0.129337000004,"[-19.24804, -19.24801, -14.56833, -1.287457, -1.13973, -0.6725991, -0.5759976, -0.5687105, -0.5668436, -0.3779872, -0.3742041, -0.2796083]","[0.0, -0.0, 0.005915, 0.0, -0.008756, -0.002958, -0.0, 0.008757, -0.002958]",0.04,0.5
argon_dimer,-1055.084384831423,5,0.0,"[-8.683767, -8.683763, -8.683763, -0.9627971, -0.961579, -0.4263493, -0.4207849, -0.4207849, -0.4190488, -0.4190488, -0.4135244]","[0.0, -0.0, 0.000367, -0.0, 0.0, -0.000367]",0.06,0.9
sodium_diatomic,-324.608685652127,5,0.0,"[-38.46106, -38.46105, -2.206713, -2.206594, -1.138966, -1.137987, -1.137987, -1.137752, -1.137752, -1.136919, -0.1305618]","[0.0, 0.0, -0.000552, -0.0, -0.0, 0.000552]",0.1,1.0
dimethylamine,-135.165500852585,7,0.357489006473,"[-10.19725, -0.8911782, -0.696499, -0.6235515, -0.4829788, -0.4374964, -0.4291893, -0.3822601, -0.360532, -0.3598685, -0.2167723]","[6.3e-05, -0.001412, -0.0, -0.005253, 0.002352, 0.015712, -0.005253, 0.002352, -0.015712, 0.001554, 0.000988, 0.0, 0.008369, -0.005509, -0.001597, 0.008369, -0.005509, 0.001597, -0.003006, -0.002297, -0.002942, -0.003006, -0.002297, 0.002942, -0.000918, 0.005666, -0.009674, -0.000918, 0.005666, 0.009674]",0.12,1.3
cyclobutene,-155.979383902273,6,0.049427,"[-10.18205, -0.8555257, -0.6547355, -0.6431753, -0.5127599, -0.4961349, -0.4593593, -0.3783062, -0.3631042, -0.3288355, -0.3145005, -0.2485664]","[-0.0, 0.003226, 0.001822, 0.0, -0.003226, 0.001822, -0.0, 0.000766, -0.005991, 0.0, -0.000766, -0.005991, -0.0, -0.005183, -0.005359, 0.0, 0.005183, -0.005359, -0.003067, -0.003009, 0.004764, 0.003067, 0.003009, 0.004764, 0.003067, -0.003009, 0.004764, -0.003067, 0.003009, 0.004764]",0.18,1.5
acetic_acid,-229.099850068012,9,0.63448807696,"[-10.20177, -1.101862, -1.011848, -0.7614526, -0.6065622, -0.4891236, -0.4749107, -0.468158, -0.4120677, -0.3931877, -0.3912594, -0.3176419, -0.2746098]","[0.003244, -0.012045, 0.0, 9.5e-05, -0.004225, -0.0, 0.002553, 0.013357, 0.0, 0.000257, -0.006029, 0.0, -0.002072, 0.002925, -0.0, -0.005169, -0.001823, -0.0, 0.000546, 0.00392, -0.004481, 0.000546, 0.00392, 0.004481]",0.13,1.3
hydrogen_fluoride,-100.435485003929,6,0.710613,"[-24.66197, -1.173853, -0.5204501, -0.3802433, -0.3802433]","[-0.0, -0.0, 0.008995, 0.0, 0.0, -0.008995]",0.0,0.3
phosphorus_diatomic,-682.727473459183,6,0.0,"[-4.735495, -4.735495, -4.7353, -4.7353, -4.733177, -4.73102, -0.6844984, -0.4624815, -0.2932596, -0.2839925, -0.2839925]","[-0.0, -0.0, 0.011406, 0.0, 0.0, -0.011406]",0.11,1.0
sodium_fluoride,-262.184762278439,25,2.958666,"[-38.47204, -24.49282, -2.221655, -1.153803, -1.153803, -1.15235, -0.9401904, -0.2295171, -0.2225571, -0.2225571]","[0.0, 0.0, 0.019633, -0.0, -0.0, -0.019633]",0.12,2.2
lithium_diatomic,-15.015865162820,5,0.0,"[-1.99773, -1.997342, -0.134064]","[0.0, 0.0, 0.001199, -0.0, -0.0, -0.001199]",0.01,0.4
difluoromethane,-238.988734467883,7,0.692023,"[-10.33862, -1.252128, -1.193429, -0.7054587, -0.5474428, -0.5425639, -0.536168, -0.4142322, -0.4060607, -0.3934286, -0.339101]","[0.0, -0.0, 0.005707, 0.01105, -0.0, -0.008286, -0.01105, -0.0, -0.008286, 0.0, -0.009752, 0.005432, 0.0, 0.009752, 0.005432]",0.07,0.6
propene,-117.911329666118,7,0.159261348999,"[-10.18363, -10.17602, -0.7854226, -0.6841604, -0.5528918, -0.4644232, -0.418794, -0.4121781, -0.3698801, -0.3452236, -0.2552522]","[0.005305, -0.00282, -0.0, -0.004249, 0.00532, 0.0, -0.004431, -0.002334, -0.0, -0.001259, 0.005972, 0.0, -0.004044, -0.004504, -0.0, 0.001343, -0.005514, -0.0, -0.001169, 0.005519, -0.0, 0.004252, -0.000819, -0.004548, 0.004252, -0.000819, 0.004548]",0.08,1.0
difluorine_monoxide,-274.670136287027,7,0.117085,"[-19.35616, -1.341896, -1.229408, -0.944882, -0.6142636, -0.5686466, -0.5432398, -0.4530896, -0.4425192, -0.4349886, -0.3345541]","[0.0, -0.0, -0.001678, -0.0, -0.004864, 0.000839, 0.0, 0.004864, 0.000839]",0.04,0.5
phosphorus_monoxide,-416.547960582748,8,0.753828,"[-77.14763, -19.174, -6.616931, -4.78069, -4.777144, -4.776105, -1.028952, -0.5538344, -0.4045535, -0.3890342, -0.3849236, -0.1893667]","[-0.0, 0.0, 0.045228, 0.0, -0.0, -0.045228]",0.12,1.1
tert_butyl_radical,-157.799757653254,14,0.0924210001353,"[-10.17558, -0.8026182, -0.6892478, -0.6892478, -0.5334061, -0.4440645, -0.4371413, -0.4371408, -0.3846305, -0.3846302, -0.3645809, -0.3407626, -0.3407623, -0.1725467]","[5e-06, 0.010785, -0.062384, 0.0, -0.11427, -0.00536, -0.080261, 0.051561, -0.008827, 0.080256, 0.051561, -0.008893, 0.0, -0.008971, 0.03502, 0.009317, -0.005062, -0.003099, -0.009317, -0.005062, -0.003099, -0.007855, 0.004636, 0.034905, -0.009604, -0.005431, -0.003499, -0.000361, 0.010525, -0.003085, 0.007855, 0.004636, 0.034905, 0.000361, 0.010525, -0.003085, 0.009604, -0.005431, -0.003499]",0.15,4.7
lithium_fluoride,-107.430409064684,6,2.349856,"[-24.53668, -1.9976, -0.9939805, -0.2826715, -0.2709746, -0.2709746]","[-0.0, 0.0, 0.003081, 0.0, -0.0, -0.003081]",0.03,0.5
acetyl_fluoride,-253.107685912023,9,1.05263856683,"[-10.21638, -1.246221, -1.077248, -0.7758019, -0.6114115, -0.5194782, -0.5071373, -0.4934771, -0.4343325, -0.4275483, -0.3928697, -0.3712201, -0.3067523]","[-0.012536, 0.014256, 0.0, 0.002092, -0.008401, -0.0, -0.000179, -0.01542, -0.0, 0.012017, 0.002273, 0.0, -0.007612, -0.0045, -0.0, 0.003109, 0.005895, -0.010105, 0.003109, 0.005895, 0.010105]",0.2,1.3
lithium_hydroxide,-83.384462063015,20,1.537526,"[-19.02999, -1.974775, -0.8499609, -0.3731793, -0.2122395, -0.2122395]","[0.0, 0.0, -0.011389, -0.0, -0.0, 0.001409, 0.0, 0.0, 0.00998]",0.04,0.9
propyne,-116.658742984173,7,0.307425000197,"[-10.21416, -10.186, -10.1726, -0.7798796, -0.6995283, -0.5254756, -0.4471371, -0.434298, -0.4342839, -0.2653856, -0.2653841]","[-0.0, -2e-05, -0.007697, 0.0, 1e-06, 0.007637, -0.0, 0.0, -0.000273, 0.0, 0.0, -0.012873, -0.0, 0.004105, 0.004395, 0.003549, -0.002043, 0.004405, -0.003549, -0.002043, 0.004405]",0.05,0.8
aluminum_monosulfide,-640.650731253468,14,1.379555,"[-5.875125, -5.866604, -5.866604, -4.184441, -2.737178, -2.736522, -2.736522, -0.6709943, -0.3702755, -0.259192, -0.254204, -0.254204]","[-0.0, 0.0, 0.054098, 0.0, -0.0, -0.054098]",0.34,2.4
boron_monocarbide,-62.674786388770,11,0.413001,"[-10.27568, -6.853984, -0.7041916, -0.37826, -0.3050244, -0.3050244, -0.2866127]","[0.0, 0.0, 0.00344, -0.0, -0.0, -0.00344]",0.03,0.6
boron_trichloride,-1405.629777897738,7,6.9e-05,"[-6.90772, -0.8982546, -0.848842, -0.8488351, -0.531065, -0.4585407, -0.4585361, -0.4115506, -0.3525911, -0.3525877, -0.3471376, -0.3471329, -0.3187878]","[0.0, 1.9e-05, 0.0, 0.0, -0.008714, 0.0, -0.007544, 0.004347, -0.0, 0.007544, 0.004347, -0.0]",0.42,2.5
ethyl_radical,-79.158640690766,7,0.118765275068,"[-10.18668, -10.18176, -0.7570146, -0.6086037, -0.4499832, -0.4140553, -0.3898112, -0.3567804, -0.2005163]","[0.00172, -0.009595, 0.0, 0.001181, 0.008034, 0.0, -0.008973, 0.004463, 0.0, 0.003761, 0.004202, -0.007638, 0.003761, 0.004202, 0.007638, -0.000726, -0.005653, 0.009319, -0.000726, -0.005653, -0.009319]",0.03,2.2
magnesium_hydroxide,-275.929691621282,72,0.285000006793,"[-46.82593, -19.06596, -3.112076, -1.856325, -1.856325, -1.853884, -0.9023877, -0.4402985, -0.2564185, -0.2564162, -0.1888504]","[-2.7e-05, -2.7e-05, -0.015143, 4e-06, 4e-06, -0.003411, 2.3e-05, 2.3e-05, 0.018554]",0.16,7.9
hydrogen_peroxide,-151.548108976937,6,0.650033,"[-19.18826, -19.18822, -1.111751, -0.8988175, -0.5081637, -0.4940356, -0.4128899, -0.3221668, -0.2705045]","[0.008724, 0.011984, 0.010619, -0.008724, -0.011984, 0.010619, -0.019796, -0.011888, -0.010619, 0.019796, 0.011888, -0.010619]",0.02,0.4
propane,-119.143183914733,6,0.0250000481,"[-10.17111, -0.779774, -0.6800939, -0.5835603, -0.4549038, -0.4329492, -0.3975204, -0.3797064, -0.3364366, -0.3332259, -0.3266055]","[2.8e-05, 0.008092, 7e-06, 7.1e-05, -0.009637, -2e-06, -0.000101, -0.009683, 2.4e-05, 0.0, -0.00345, -0.004656, -3.1e-05, -0.003402, 0.00462, 0.005734, -0.002681, -0.0, -0.005707, -0.002654, 4e-06, -0.000486, 0.005857, -0.007708, -0.000486, 0.005856, 0.007709, 0.000482, 0.005854, 0.007709, 0.000497, 0.005848, -0.007706]",0.11,1.5
butane,-158.458131266115,6,0.0,"[-10.17229, -0.7941087, -0.7229059, -0.6285281, -0.573973, -0.4669999, -0.4243064, -0.4174746, -0.4086724, -0.3662687, -0.3480465, -0.3321165, -0.3208527, -0.3205435]","[-0.001376, 0.003989, 0.0, 0.003049, -0.003163, 0.0, -0.003049, 0.003163, 0.0, 0.001376, -0.003989, 0.0, -0.005015, -0.002594, -0.0, 0.005015, 0.002594, -0.0, 0.002806, -0.002955, -0.004655, 0.002806, -0.002955, 0.004655, -0.002806, 0.002955, -0.004655, -0.002806, 0.002955, 0.004655, -0.003295, 0.002066, 0.004357, -0.003295, 0.002066, -0.004357, 0.003295, -0.002066, 0.004357, 0.003295, -0.002066, -0.004357]",0.25,2.6
carbon_dioxide,-188.598352510975,6,0.0,"[-19.22249, -19.22248, -10.37868, -1.162175, -1.121636, -0.5603422, -0.5167807, -0.5138887, -0.5138887, -0.367648, -0.367648]","[-0.0, -0.0, -0.0, 0.0, 0.0, -0.011458, 0.0, 0.0, 0.011458]",0.04,0.5
magnesium_monohydride,-200.643726577425,7,0.458512,"[-46.83694, -3.120205, -1.864869, -1.864869, -1.860907, -0.2963622, -0.1738625]","[-0.0, -0.0, 0.00296, 0.0, 0.0, -0.00296]",0.02,1.0
cyclopropene,-116.624144443865,6,0.199175,"[-10.20205, -10.20096, -10.19739, -0.870122, -0.5994407, -0.565521, -0.5039008, -0.4351336, -0.3471802, -0.2955929, -0.2527503]","[-0.0, 0.0, 0.005511, -0.0, 0.002193, -0.002115, 0.0, -0.002193, -0.002115, 0.0, -0.008861, 0.005135, -0.0, 0.008861, 0.005135, -0.006322, -0.0, -0.005775, 0.006322, -0.0, -0.005775]",0.06,0.7
cyclobutane,-157.215594465927,6,0.0,"[-10.17823, -0.8429768, -0.6526519, -0.6526519, -0.5467083, -0.4746353, -0.4745765, -0.380894, -0.380894, -0.3499356, -0.3141972, -0.3046315, -0.3046315]","[-0.0, -0.001857, 0.001823, 0.0, 0.001857, 0.001823, 0.001857, -0.0, -0.001823, -0.001857, -0.0, -0.001823, -0.0, -0.004318, 0.002704, -0.0, -0.001853, -0.005047, 0.0, 0.004318, 0.002704, 0.0, 0.001853, -0.005047, 0.004318, 0.0, -0.002704, 0.001853, 0.0, 0.005047, -0.004318, -0.0, -0.002704, -0.001853, -0.0, 0.005047]",0.23,2.7
silylene_s,-290.629729872781,6,0.101526724979,"[-66.15823, -5.301868, -3.666281, -3.657472, -3.654701, -0.5105779, -0.32968, -0.2415443]","[0.0, 0.008307, -0.008028, -0.0, -0.000376, 0.007929, -0.0, -0.00793, 0.0001]",0.03,0.9
aluminum_monohydride,-242.997286879270,6,0.016316,"[-56.06476, -4.145527, -2.700106, -2.700106, -2.692434, -0.3669547, -0.2061662]","[0.0, -0.0, 0.005843, -0.0, 0.0, -0.005843]",0.02,0.8
beryllium_oxide,-89.904585723677,10,2.244575,"[-19.07036, -4.080617, -0.8517322, -0.2961174, -0.2619144, -0.2619144]","[-0.0, 0.0, 0.006925, 0.0, -0.0, -0.006925]",0.03,0.5
