,Energy,Iterations,Dipole Moment,Eigens,Derivatives,Derivative Time,Wall Time
bicyclo[3.1.0]hexane,-234.721153477699,7,0.0754694804871,"[-10.16266, -0.8815111, -0.7608995, -0.7064731, -0.6204288, -0.5543629, -0.5442168, -0.5126167, -0.464304, -0.4369327, -0.4089331, -0.3955938, -0.3550282, -0.3392394, -0.3388686, -0.3306246, -0.2816247, -0.2696945]","[-0.155441, 0.277315, 0.000877, 0.279859, 0.16802, 0.004068, 0.094524, -0.305944, 0.06603, 0.094535, -0.302092, -0.067009, -0.093488, 0.079268, 0.451937, -0.128275, 0.074043, -0.455538, 0.005507, 0.022868, 0.000157, 0.013103, -0.006141, 0.000154, 0.018554, -0.00129, 7e-05, -0.010427, -0.011058, 4.4e-05, -0.025048, 0.00124, 0.020993, -0.025122, 0.001423, -0.021116, -0.020416, -0.014643, -0.000685, -0.020559, -0.01486, 0.000662, -0.013914, 0.016254, 0.000197, -0.013391, 0.015597, -0.000843]",6.9,30.1
phosphine,-343.184965341253,6,0.273731000117,"[-77.03866, -6.545281, -4.705864, -4.705863, -4.701916, -0.6481134, -0.3884623, -0.3884607, -0.281129]","[2e-06, 0.000392, -0.000892, 0.0, -0.000333, 0.001571, 0.001638, -3e-05, -0.000279, -0.001641, -3e-05, -0.0004]",0.1,1.3
beryllium_sulfide,-412.938736466028,9,2.112126,"[-88.79182, -7.885397, -5.845539, -5.843619, -5.843619, -4.112633, -0.6464409, -0.3088258, -0.2453026, -0.2453026]","[0.0, -0.0, 0.018078, -0.0, 0.0, -0.018078]",0.08,1.4
lithium_oxide,-82.723844543532,7,2.540885,"[-19.05662, -2.001977, -0.8295928, -0.2965546, -0.2465849, -0.2322795]","[0.0, -0.0, -0.253752, -0.0, 0.0, 0.253752]",0.04,0.8
carbon_monoxide,-113.361290298149,6,0.030054,"[-19.23556, -10.29504, -1.172389, -0.5840742, -0.4850747, -0.4850747, -0.3864851]","[0.0, 0.0, -2.111278, -0.0, -0.0, 2.111278]",0.1,1.4
magnesium_oxide,-275.276491675090,11,2.849869,"[-46.81107, -19.03698, -3.131838, -1.875158, -1.875158, -1.87326, -0.794584, -0.2500598, -0.2183212, -0.2183212]","[-0.0, -0.0, -0.048279, 0.0, 0.0, 0.048279]",0.09,1.8
aluminum_nitride,-297.097200570221,11,1.112343,"[-56.03495, -14.34289, -4.153675, -2.707416, -2.704773, -2.704491, -0.763227, -0.3698837, -0.3144835, -0.2670307, -0.2572987]","[0.0, 0.0, -0.046654, -0.0, -0.0, 0.046654]",0.15,2.5
imidogen,-55.245456872417,7,0.631522,"[-14.39751, -0.849237, -0.4104266, -0.3428943, -0.3428943]","[0.0, 0.0, -0.239068, -0.0, -0.0, 0.239068]",0.02,1.2
methyl_formate,-229.164810244781,8,0.766456065192,"[-10.23705, -1.117791, -1.031135, -0.7473624, -0.6076331, -0.5424573, -0.4959962, -0.4864432, -0.4340257, -0.4075918, -0.3786095, -0.3251998, -0.29923]","[0.267419, -0.10565, 2e-06, -0.252652, 0.127653, 7.3e-05, -0.059211, 0.324407, 2e-06, 0.038542, -0.258922, 5e-06, 0.025975, -0.021061, 0.0, -0.023303, -0.018883, 1e-06, 0.001614, -0.023763, 0.018058, 0.001616, -0.02378, -0.018142]",1.08,6.3
hypochlorite,-535.375029158971,10,0.581077,"[-19.22567, -9.547001, -7.309525, -7.30487, -7.296472, -1.106506, -0.7992502, -0.4971781, -0.4914519, -0.454937, -0.334377, -0.296246]","[-0.0, -0.0, -1.188456, 0.0, 0.0, 1.188456]",0.15,1.6
methanol,-115.778205948237,7,0.686779217107,"[-19.123, -10.21727, -1.020928, -0.6864994, -0.5110697, -0.4449768, -0.4336254, -0.3418758, -0.281724]","[-0.045378, -0.327917, 6.1e-05, 0.03709, 0.289144, 5e-06, 0.022771, -0.011977, 1e-06, 0.022394, 0.004941, 0.020495, 0.022413, 0.004956, -0.020562, -0.059291, 0.040853, 0.0]",0.35,2.5
vinyl_fluoride,-177.905765258225,8,0.56653369328,"[-10.26527, -10.18038, -1.229719, -0.7772578, -0.6187563, -0.5373019, -0.4918118, -0.4699637, -0.4206813, -0.3854953, -0.2769346]","[-0.18642, -0.249435, -0.0, -0.098379, 0.079046, -0.0, 0.301618, 0.19294, 0.0, 0.00363, -0.03595, -0.0, -0.004607, 0.021944, -0.0, -0.015842, -0.008546, 0.0]",0.5,3.5
formaldehyde,-114.554523885600,7,0.950874,"[-19.1486, -10.2794, -1.070288, -0.6428844, -0.5051733, -0.4623913, -0.4118693, -0.2813385]","[0.0, 0.0, 1.72528, -0.0, 8e-06, -1.731024, 0.0, -0.004747, 0.003033, 0.0, 0.004739, 0.002711]",0.23,1.8
sulfur_diatomic,-796.443193457693,7,0.0,"[-5.945504, -5.945504, -5.94544, -5.94544, -5.944577, -5.943714, -0.8470069, -0.6357361, -0.4036834, -0.3840526, -0.3840526, -0.249873, -0.249873]","[0.0, 0.0, 0.072212, -0.0, -0.0, -0.072212]",0.11,1.5
acetaldehyde,-153.899111549504,8,1.16696849377,"[-10.27414, -10.18925, -1.049608, -0.7633327, -0.5909095, -0.4876583, -0.4545813, -0.4448623, -0.407121, -0.3735058, -0.2698623]","[-0.234724, 0.0172, 2e-06, 0.131555, -0.070696, 4e-06, 0.143507, 0.056701, 8.7e-05, 0.017795, -0.021803, 0.0, -0.006493, 0.017313, 1e-06, -0.025815, 0.000641, 0.019893, -0.025825, 0.000643, -0.019988]",0.63,4.2
boron_monosulfide,-423.016816377238,11,0.353794,"[-88.84853, -7.944291, -6.849573, -5.904886, -5.902142, -5.902142, -0.7455315, -0.4361286, -0.3122498, -0.3122498, -0.3117519]","[-0.0, 0.0, -0.580877, 0.0, -0.0, 0.580877]",0.17,2.0
beryllium_monofluoride,-114.664802539999,7,0.469861,"[-24.65912, -4.084558, -1.167932, -0.4777411, -0.4298127, -0.4298127, -0.226793]","[-0.0, 0.0, -0.089026, 0.0, -0.0, 0.089026]",0.04,1.2
phosphorus_tribromide,-8064.152563124248,8,0.191998000023,"[-2.642143, -0.8536483, -0.7958797, -0.7958796, -0.6060901, -0.4314206, -0.4314206, -0.3923067, -0.3417604, -0.3417603, -0.3121894, -0.3121893, -0.3025399, -0.2834363]","[0.0, 0.001754, -34.230544, 0.0]",4.64,18.8
sulfur_dioxide,-548.723080092979,7,0.715529,"[-6.059194, -6.055066, -1.157657, -1.064135, -0.6426043, -0.5053875, -0.5019968, -0.5019565, -0.3872822, -0.3726815, -0.3423839]","[0.0, 0.0, 0.168702, -0.0, -0.149207, -0.08363, -0.0, 0.149207, -0.085072]",0.28,2.1
methanethiol_radical,-438.115951279080,7,0.690832304876,"[-10.2075, -7.944606, -5.914278, -5.904426, -5.89612, -0.7887419, -0.6348239, -0.4501229, -0.443428, -0.3755298, -0.2880602, -0.2465486]","[0.172945, 0.000524, -0.073969, -0.165277, 0.000376, -0.006675, -0.036408, -0.000568, 0.074194, 0.014588, -0.014819, 0.003425, 0.014152, 0.014487, 0.003025]",0.41,2.8
hydroxyl_radical,-75.769694693773,7,0.681713,"[-19.20491, -1.027591, -0.4876548, -0.4270502, -0.3549529]","[0.0, 0.0, -0.56164, -0.0, -0.0, 0.56164]",0.02,0.8
lithium_monosulfide,-405.750329231526,7,2.739488,"[-88.77833, -7.869369, -5.840517, -5.82451, -5.824069, -2.03344, -0.618673, -0.2510271, -0.2327727, -0.2090158]","[-0.0, -0.0, 0.00544, 0.0, 0.0, -0.00544]",0.08,1.9
phosphorus_dioxide,-491.897020263496,7,0.597775000041,"[-4.826895, -4.824903, -4.820973, -1.085591, -1.039056, -0.5762635, -0.4783763, -0.4590516, -0.4541743, -0.383303, -0.3808308, -0.3187896]","[0.0, 1e-06, -0.121459, -0.0, -0.152531, 0.060406, -0.0, 0.15253, 0.061053]",0.27,2.5
formaldoxime_zwitterion,-169.876173715476,10,1.44041653644,"[-14.47146, -10.22712, -1.117538, -0.8689309, -0.6699947, -0.5587106, -0.494141, -0.4613209, -0.4323876, -0.2707567, -0.2470262]","[-0.18662, 0.104454, 0.000591, -0.217936, -0.318835, 0.000324, 0.422802, 0.235504, -0.000228, -0.00607, 0.023896, -6e-05, -0.013353, -0.005744, 0.000169, 0.001176, -0.039275, -0.000796]",0.83,4.5
tetrafluoroethylene,-475.723944449735,7,0.0,"[-10.36913, -1.326005, -1.311993, -1.268219, -1.257311, -0.8271175, -0.6810466, -0.6394287, -0.630765, -0.586208, -0.5769335, -0.5332238, -0.5063674, -0.4839724, -0.4777095, -0.4727726, -0.4706704, -0.4535383, -0.2788236]","[0.0, -1e-06, 1.154126, 0.0, 1e-06, -1.141078, -0.0, -0.014731, -0.11325, -0.0, 0.014732, -0.114017, -0.0, 0.004709, 0.106726, -0.0, -0.00471, 0.107493]",1.32,5.3
boron_dioxide,-175.381295631700,7,0.0,"[-19.21497, -19.21496, -6.835937, -1.062973, -1.061828, -0.5020425, -0.4851255, -0.4839964, -0.4510497, -0.4223927, -0.3808154]","[-0.0, 0.0, -1e-05, 0.0, 0.0, 0.52593, -0.0, -0.0, -0.52592]",0.18,1.7
cyano_radical,-92.748196836765,11,0.542367,"[-14.38904, -10.29777, -0.9648215, -0.5075108, -0.4147142, -0.3960383, -0.3960383]","[-0.0, -0.0, -1.412724, 0.0, 0.0, 1.412724]",0.09,1.2
boron_nitride,-79.444915931998,11,0.838224,"[-14.37029, -6.846216, -0.8511061, -0.4136191, -0.3717272, -0.3296037, -0.3283574]","[0.0, 0.0, -0.450705, -0.0, -0.0, 0.450705]",0.09,2.5
acetyl_chloride,-613.553505142627,10,1.13310395806,"[-7.218248, -1.10357, -0.861703, -0.7693962, -0.5727247, -0.5013685, -0.4858872, -0.4856309, -0.4258129, -0.4116238, -0.3356138, -0.3313576, -0.3083402]","[-0.187477, 0.188604, 3e-06, -0.1875, 0.007149, 6.1e-05, 0.299469, -0.284741, 1e-06, 0.053584, 0.142196, 3e-06, -0.009805, -0.016057, 1e-06, 0.015862, -0.018573, 0.030816, 0.015867, -0.018579, -0.030886]",1.37,7.1
magnesium_diatomic,-400.201090019114,6,0.0,"[-46.77906, -3.094301, -3.0943, -1.837494, -1.837494, -1.837493, -1.837493, -1.837312, -1.83729, -0.215481, -0.1774168]","[-0.0, 0.0, 0.000184, 0.0, -0.0, -0.000184]",0.03,0.9
methyl_chloride,-500.167146823667,7,0.753943000095,"[-9.448958, -7.210749, -7.201581, -7.201581, -0.8545473, -0.6768534, -0.4470878, -0.4470863, -0.4219066, -0.3026039, -0.3026035]","[-0.017501, 2.8e-05, -0.464097, 0.013741, 0.0, 0.479806, -0.007052, 0.0, -0.002, 0.005406, -0.002185, -0.006747, 0.005406, 0.002157, -0.006963]",0.39,2.3
dimethyl_ether,-155.095427448314,7,0.511918,"[-10.21458, -1.036864, -0.7232053, -0.6412531, -0.479064, -0.4776014, -0.47702, -0.4013448, -0.3844665, -0.3244484, -0.2637234]","[0.0, -0.000269, -0.140185, 2.3e-05, -0.080701, 0.053109, -2.3e-05, 0.080956, 0.054332, 0.0, 0.003625, -0.003751, -0.0, -0.003621, -0.003754, -0.008415, -0.005181, 0.010374, 0.008392, -0.005181, 0.009751, 0.008422, 0.005186, 0.010373, -0.008399, 0.005186, 0.009751]",0.97,5.5
methyl_ketene,-191.997840086008,8,0.759553619949,"[-10.18614, -1.11438, -0.8071047, -0.6916805, -0.5363909, -0.5016597, -0.4620636, -0.4574558, -0.4220671, -0.4079425, -0.390409, -0.2361163]","[-0.08123, -0.023011, -0.000102, -0.028298, -0.078961, -8e-06, -0.13095, 0.029394, -0.000176, 0.195336, 0.064306, 6.7e-05, -0.006754, -0.02324, 1.3e-05, 0.005448, 0.021544, -3e-06, 0.023177, 0.004984, -0.021057, 0.023271, 0.004984, 0.021266]",1.13,6.5
tetrafluorosilane,-689.361062196709,7,0.0,"[-3.759183, -1.27536, -1.238585, -1.238585, -1.238585, -0.627252, -0.5592202, -0.5592202, -0.5592202, -0.5066068, -0.5066068, -0.4973684, -0.4973684, -0.4973684, -0.4607242, -0.4607242, -0.4607242]","[0.0, -0.0, 0.0, -0.038875, -0.038875, -0.06205, 0.038875, 0.038875, -0.062245, 0.038787, -0.038787, 0.06205, -0.038787, 0.038787, 0.062245]",0.72,4.1
silicon_monosulfide,-687.764601735107,9,0.749725,"[-5.884728, -5.883595, -5.31463, -3.673392, -3.673392, -3.667354, -0.7154227, -0.4402103, -0.2946198, -0.2946198, -0.2876361]","[-0.0, -0.0, 0.04577, 0.0, 0.0, -0.04577]",0.25,1.7
sulfur_monochloride,-858.422541363769,8,0.003208,"[-7.26151, -7.256395, -5.960879, -5.95765, -5.944112, -0.9080266, -0.6933708, -0.4414754, -0.4146999, -0.3950732, -0.2949011, -0.2608491]","[-0.0, -0.0, 0.03449, 0.0, 0.0, -0.03449]",0.23,1.6
neon_dimer,-257.942920637102,6,0.0,"[-30.9659, -30.9659, -1.458277, -1.457667, -0.5780173, -0.5747511, -0.5747511, -0.5736462, -0.5736462, -0.5704166]","[-0.0, 0.0, 7.1e-05, 0.0, -0.0, -7.1e-05]",0.01,0.9
formaldoxime,-169.890799053722,9,0.142002579924,"[-14.38296, -10.21295, -1.092431, -0.8716186, -0.6180459, -0.5420494, -0.4740951, -0.4310995, -0.4217165, -0.2989824, -0.2813956]","[-0.207865, 0.084496, -0.0, -0.071157, -0.288244, 0.0, 0.235306, 0.212195, 0.0, -0.00889, 0.031003, 0.0, -0.014528, -0.005378, -0.0, 0.067133, -0.03407, -0.0]",0.82,4.2
lithium_chloride,-467.843460378109,6,2.737378,"[-101.4097, -9.356304, -7.112291, -7.111818, -7.111818, -2.038213, -0.7153816, -0.2770919, -0.2541962, -0.2541962]","[-0.0, -0.0, 0.005566, 0.0, 0.0, -0.005566]",0.07,1.0
isopropyl_radical,-118.529816798500,7,0.115519004934,"[-10.16401, -10.164, -0.784437, -0.6926981, -0.5725199, -0.4558612, -0.434054, -0.4118215, -0.3903536, -0.3575727, -0.3514881, -0.1899996]","[-0.01314, 0.256061, 0.000114, -0.005251, -0.163505, 0.131247, -0.005174, -0.16351, -0.131358, 0.005937, -0.011158, 2e-06, 0.005655, 0.023044, 0.015313, 0.005656, 0.023046, -0.015318, 0.014408, 0.009176, 0.000522, -0.01121, 0.008817, 0.000228, -0.011342, 0.008858, -0.000187, 0.014461, 0.009172, -0.000564]",1.08,8.0
cyanogen,-185.727438408322,7,1e-06,"[-10.28928, -10.28871, -0.9902909, -0.9720131, -0.7554354, -0.46246, -0.46246, -0.4407963, -0.4292749, -0.3837563, -0.3837563]","[-0.0, -0.0, -1.268245, -0.0, 0.0, 1.27385, 0.0, -0.0, 1.802306, 0.0, 0.0, -1.80791]",0.37,2.3
boron_monohydride,-25.299768145794,6,0.615622,"[-6.841317, -0.487485, -0.2394737]","[-0.0, 0.0, -0.064298, 0.0, -0.0, 0.064298]",0.02,1.0
thiirane,-476.856182823029,7,0.773338,"[-5.884446, -5.877075, -0.8679252, -0.6255124, -0.6206035, -0.5006621, -0.4567772, -0.3943773, -0.3302296, -0.3208221, -0.2323532]","[0.0, -0.00208, 0.001874, -2.8e-05, -0.127534, 0.0123, 2.8e-05, 0.129192, -0.007622, 0.016229, -0.021003, -0.001674, -0.0162, -0.021003, -0.001764, -0.016773, 0.021214, -0.001512, 0.016745, 0.021214, -0.001602]",0.83,5.4
sodium_chloride,-622.622766638509,7,3.440488,"[-7.089944, -7.088741, -7.088741, -2.254813, -1.186845, -1.186845, -1.185071, -0.6887253, -0.2466586, -0.2298802, -0.2298802]","[0.0, -0.0, 0.003482, -0.0, 0.0, -0.003482]",0.13,1.5
magnesium_sulfide,-598.314015980073,10,2.937595,"[-5.827077, -5.820016, -5.820016, -3.15927, -1.902347, -1.902033, -1.902033, -0.6057591, -0.2665808, -0.2089379, -0.2089379]","[0.0, 0.0, -0.000126, -0.0, -0.0, 0.000126]",0.14,1.3
methyl_silane,-331.269248160723,7,0.293988006328,"[-5.260823, -3.618204, -3.618204, -3.617693, -0.7048499, -0.5215711, -0.4162981, -0.4162878, -0.3375122, -0.3375057, -0.330862]","[-3.7e-05, 0.011916, -0.356335, -0.0, -0.007926, 0.360205, -0.0, 0.022257, 0.002488, 0.015274, -0.012828, -0.00226, -0.015236, -0.012828, -0.002644, -0.0, -0.001258, -0.001054, -0.00078, 0.000334, -0.000207, 0.00078, 0.000334, -0.000193]",0.63,4.4
aluminum_trichloride,-1623.389678420213,7,1.4e-05,"[-2.764263, -0.8507848, -0.833663, -0.833662, -0.4728301, -0.4098022, -0.4098017, -0.3775728, -0.3600572, -0.3600563, -0.3541228, -0.3541221, -0.3366318]","[-0.0, -0.000341, -0.0, -0.0, -0.003587, -0.0, -0.003829, 0.001964, 0.0, 0.003829, 0.001964, -0.0]",0.8,3.8
methanethiol,-438.759468658416,7,0.650520936389,"[-7.926781, -5.889941, -5.886387, -5.880471, -0.7829752, -0.6468036, -0.452858, -0.434907, -0.404359, -0.3294482, -0.2403405]","[0.133792, -0.075104, -0.074009, -0.120571, 0.058236, 0.002436, -0.001866, -0.008638, -0.006549, 0.008562, 0.000102, 0.004393, 0.007337, 0.004394, -0.003061, -0.027254, 0.02101, 0.076791]",0.47,3.3
hypochlorous_acid,-536.033067141385,7,0.645481950851,"[-9.500354, -7.266192, -7.25146, -7.251134, -1.081696, -0.8062204, -0.542883, -0.4552888, -0.4212864, -0.3259304, -0.2925123]","[-0.033646, -0.131555, 0.0, 0.063823, -0.030029, -0.0, -0.030176, 0.161583, 0.0]",0.29,1.9
lithium_hydride,-8.087761453835,6,2.24701,"[-2.006429, -0.1952455]","[-0.0, 0.0, -0.018811, 0.0, -0.0, 0.018811]",0.01,1.2
monosulfur_monofluoride,-498.044902779042,8,0.367523,"[-24.73166, -8.020286, -5.987716, -5.985593, -5.969405, -1.253613, -0.7360246, -0.5136219, -0.5098327, -0.4934754, -0.3131124, -0.2712842]","[-0.0, -0.0, -0.118588, 0.0, 0.0, 0.118588]",0.14,1.6
ammonia,-56.589429677679,6,0.643703000447,"[-14.29508, -0.8561491, -0.4657273, -0.4657099, -0.273006]","[0.000138, 0.010531, 0.040609, 1e-06, 0.057329, -0.011425, -0.052582, -0.033927, -0.014125, 0.052442, -0.033933, -0.015059]",0.06,1.0
boron_monofluoride,-124.720005798753,6,0.374373,"[-24.76783, -6.8575, -1.302562, -0.6264284, -0.5361487, -0.5361487, -0.2885437]","[0.0, 0.0, -0.569106, -0.0, -0.0, 0.569106]",0.11,0.9
carbon_tetrafluoride,-437.681151635617,6,0.0,"[-10.52778, -1.397703, -1.279954, -1.279954, -1.279954, -0.7489495, -0.66043, -0.66043, -0.6604299, -0.5257371, -0.5257371, -0.4991092, -0.4991092, -0.4991092, -0.4545214, -0.4545214, -0.4545214]","[-0.0, -1e-06, 2e-06, -0.057543, -0.057543, -0.162316, 0.057544, 0.057544, -0.163252, 0.05701, -0.05701, 0.162315, -0.057011, 0.057011, 0.163251]",0.85,4.0
silicon_diatomic,-578.907762305342,6,6e-06,"[-5.30476, -5.304579, -3.665257, -3.665164, -3.663765, -3.662765, -3.65899, -3.6589, -0.5412038, -0.3903301, -0.2477585, -0.2336994, -0.2123614]","[0.0, 0.0, -0.013057, -0.0, -0.0, 0.013057]",0.1,1.3
acetylene,-77.366062435393,6,0.0,"[-10.18493, -10.18239, -0.7584737, -0.5744255, -0.5049245, -0.3008273, -0.3008273]","[0.0, -0.0, 0.900526, -0.0, 0.0, -0.8988, 0.0, -0.0, 0.090631, 0.0, 0.0, -0.092357]",0.14,1.7
phosphorus_trichloride,-1722.170767911078,8,0.296135006701,"[-4.827324, -0.9161854, -0.8512322, -0.8512269, -0.6188751, -0.4661366, -0.4661327, -0.4260638, -0.3778876, -0.3778862, -0.3450436, -0.3450399, -0.3341735, -0.2975138]","[0.0, -6.5e-05, -0.005819, -0.0, -0.009113, 0.001671, -0.008332, 0.004589, 0.002064, 0.008332, 0.004589, 0.002084]",0.85,3.9
magnesium_monochloride,-660.391332412558,7,1.399595,"[-7.159876, -7.157068, -7.157068, -3.14887, -1.892717, -1.892717, -1.890379, -0.7657449, -0.3433528, -0.2969835, -0.2969835, -0.2053581]","[-0.0, 0.0, 0.009817, 0.0, -0.0, -0.009817]",0.14,1.6
carbon_disulfide,-834.581867047533,7,0.0,"[-5.926053, -5.926053, -5.926053, -0.8633858, -0.7755237, -0.5134747, -0.4362834, -0.3952772, -0.3952772, -0.2801625, -0.2801625]","[0.0, 0.0, -0.0, -0.0, -0.0, 1.357463, -0.0, -0.0, -1.357463]",0.37,2.4
magnesium_monofluoride,-300.030644759696,7,1.299876,"[-46.80856, -24.57124, -3.12907, -1.873414, -1.873414, -1.870125, -1.063698, -0.3702332, -0.3403617, -0.3403617, -0.2045459]","[-0.0, 0.0, -0.016876, 0.0, -0.0, 0.016876]",0.09,1.1
methyl_radical,-39.860340548582,6,7e-06,"[-10.1861, -0.6902152, -0.4261564, -0.4261561, -0.2375395]","[0.000224, -2.5e-05, -0.0, -0.02502, -0.0, 0.0, 0.012398, 0.01333, 0.0, 0.012398, -0.013305, 0.0]",0.05,1.9
ethylene,-78.625577411085,6,0.0,"[-10.17656, -10.17568, -0.7635574, -0.5839796, -0.4752373, -0.424185, -0.3630078, -0.2801824]","[-0.0, 1.9e-05, 0.689979, 0.0, 1.9e-05, -0.68825, 0.0, -0.002342, -0.003101, 0.0, 0.002323, -0.002794, 0.0, -0.001078, 0.002236, 0.0, 0.00106, 0.00193]",0.27,1.8
trifluoroacetate_anion,-526.501333464311,10,1.90395561267,"[-10.09743, -1.150491, -1.06253, -1.062316, -0.8575956, -0.7772602, -0.5575633, -0.4495217, -0.4324474, -0.4299676, -0.315466, -0.3151298, -0.3038142, -0.2785498, -0.2736448, -0.2553316, -0.2491288, -0.2364706, -0.2202112, -0.08711542, -0.07933086, -0.07562238]","[-0.705347, -0.150725, -1e-06, 0.051359, -0.039339, 0.0, 0.298651, -0.292844, 0.0, 0.161041, 0.054492, 0.096651, 0.161883, 0.055019, -0.096651, 0.28275, 0.134152, 0.0, -0.250337, 0.239246, 0.0]",2.1,11.3
bromoform,-7761.398162534263,7,0.361334004655,"[-2.641189, -0.892219, -0.7965931, -0.7965913, -0.6434845, -0.4874692, -0.448339, -0.4483384, -0.3322526, -0.3322497, -0.3090383, -0.3064911, -0.30649, -0.2892258]","[-0.0, 0.018742, -12.188755, 0.0, 0.002459, -2.464369, 0.0]",4.62,15.9
nitrogen_trifluoride,-354.240293861237,7,0.0692000202962,"[-14.62405, -1.394098, -1.262932, -1.262897, -0.8405585, -0.6513423, -0.6513256, -0.6022425, -0.5113141, -0.511312, -0.4668161, -0.4667963, -0.4512998, -0.3702577]","[-3e-06, -0.014796, -0.388636, -0.0, -0.253162, 0.140247, -0.195139, 0.133976, 0.123742, 0.195142, 0.133981, 0.124647]",0.43,2.7
phosphorus_tetramer,-1365.591507988533,6,6.67083203206e-05,"[-4.728871, -0.8060063, -0.5438793, -0.5438793, -0.5438727, -0.3507503, -0.3002469, -0.3002438, -0.3002392, -0.2709803, -0.2709774]","[4.8e-05, -0.0, -0.001281, 0.003478, -0.0, 0.000349, -0.001765, -0.002908, 0.00042, -0.001761, 0.002908, 0.000511]",0.85,4.0
phosphorus_monochloride,-801.589832029215,8,0.232406,"[-7.237993, -7.237993, -6.600621, -4.763008, -4.763008, -4.760329, -0.8716979, -0.6036014, -0.3961861, -0.3845048, -0.3845048, -0.241942, -0.241942]","[0.0, 0.0, 0.024202, -0.0, -0.0, -0.024202]",0.23,1.9
mercapto_radical,-398.783615550745,7,0.366333,"[-88.87418, -7.965306, -5.935495, -5.92462, -5.916791, -0.7409989, -0.4163951, -0.3247292, -0.2783482]","[0.0, 0.0, 0.020523, -0.0, -0.0, -0.020523]",0.04,1.5
pentane,-197.853492026218,7,0.036977,"[-10.15524, -0.8047002, -0.752746, -0.6768553, -0.5997052, -0.5765115, -0.4792254, -0.4408748, -0.4348026, -0.4064316, -0.396728, -0.3791198, -0.3556411, -0.3372705, -0.3297056, -0.3235879, -0.3180538]","[3e-05, -6.6e-05, -0.086517, 3.1e-05, -0.008291, 0.090838, -3e-05, 0.00835, 0.091409, -2.9e-05, -0.059524, -0.047053, 2.9e-05, 0.059529, -0.047055, -0.011471, -1e-06, -0.009356, 0.01144, -1e-06, -0.008722, -0.01108, -0.000564, 0.009434, 0.011048, -0.000563, 0.008806, 0.011082, 0.000565, 0.009435, -0.01105, 0.000565, 0.008807, -0.0, -0.01107, 0.00403, 0.0, 0.011071, 0.00403, 0.008847, -0.002573, -0.007331, -0.008817, -0.002573, -0.006711, -0.008847, 0.002574, -0.007332, 0.008817, 0.002574, -0.006712]",4.72,23.3
isopropyl_alcohol,-194.447041505123,7,0.653090761173,"[-10.15809, -1.02014, -0.7758395, -0.6942387, -0.5879192, -0.5174663, -0.4583245, -0.4399248, -0.3953398, -0.3851946, -0.3728889, -0.3601141, -0.3308886, -0.2792836]","[0.050111, -0.291135, 0.049211, -0.006663, 0.157772, -0.217444, 0.117188, 0.082876, 0.132216, -0.089964, 0.08721, 0.121877, -0.078747, -0.06028, 0.024098, 0.001477, 0.010143, 0.115535, 7.3e-05, -0.007614, -0.114297, -0.000735, -0.006161, -0.113358, 0.017017, -0.009271, 0.004467, -0.015926, -0.007336, 0.003647, 0.006009, 0.022806, -0.003385, 0.000159, 0.020989, -0.002566]",4.09,14.0
glyoxal_trans,-227.916966230748,7,0.0,"[-10.30235, -1.100929, -1.08754, -0.7224547, -0.6077116, -0.5075248, -0.5065504, -0.4725609, -0.4627821, -0.4117132, -0.3460525, -0.2852687]","[-0.266581, 0.03693, -0.0, 0.269759, -0.038511, -0.0, -0.003325, -0.015894, 0.0, 0.003912, 0.01612, 0.0, 0.295122, -0.27786, 0.0, -0.298887, 0.279215, 0.0]",0.67,3.8
ethanol,-155.111276675587,7,0.672280752755,"[-10.1613, -1.018977, -0.7529002, -0.6113637, -0.5174703, -0.4742412, -0.408194, -0.3872123, -0.3723695, -0.3391203, -0.2780282]","[-0.069886, 0.120491, 8.4e-05, -0.120204, -0.246379, 7.8e-05, 0.19157, 0.144129, 8e-06, 0.050324, -0.015593, 1e-06, -0.01618, -5.9e-05, 2e-06, -0.008573, -0.023647, 0.020433, -0.008574, -0.023653, -0.020521, -0.009238, 0.022339, 0.013035, -0.009239, 0.02237, -0.013119]",1.02,5.9
nitrogen_monofluoride,-154.505601459864,8,0.05133,"[-24.7788, -14.47434, -1.328239, -0.8188888, -0.5564864, -0.5564864, -0.5290798, -0.3207469, -0.3207469]","[-0.0, -0.0, -1.823096, 0.0, 0.0, 1.823096]",0.09,1.0
vinyl_chloride,-538.262063439578,7,0.551153392342,"[-7.216916, -7.216313, -0.8813848, -0.7550112, -0.5899306, -0.4959724, -0.4562084, -0.3938621, -0.3753187, -0.3198346, -0.269621]","[0.0, 0.069973, 0.824205, -0.0, 0.004018, -0.773032, 0.0, -0.073416, -0.060057, 0.0, -0.001436, 0.001074, 0.0, -0.005651, 0.004723, -0.0, 0.006511, 0.003087]",0.63,3.4
ammonia_oxide,-131.742588171917,19,2.11480400001,"[-19.04317, -14.45937, -1.054524, -0.8083412, -0.5760977, -0.5760968, -0.425366, -0.2150638, -0.2150635]","[0.000128, -0.025722, -1.533212, 1e-06, 0.01348, 1.532968, 1e-06, -0.050551, 0.002364, -0.045907, 0.031392, -0.000911, 0.045778, 0.031401, -0.001209]",0.29,3.3
methylenecyclopropane,-156.026843682251,7,0.162927,"[-10.16891, -0.8697631, -0.7159387, -0.6162476, -0.5367447, -0.4819393, -0.4740835, -0.4302305, -0.3776371, -0.3182252, -0.2981497, -0.2610262]","[0.0, -0.000148, 0.656294, -0.0, -0.001273, -0.41196, 3.2e-05, -0.029668, -0.098211, -3.2e-05, 0.030776, -0.137521, -0.0, -0.002663, 0.001848, -0.0, 0.002618, 0.00215, -0.012895, -0.012524, -0.00312, 0.012862, -0.012523, -0.003292, 0.013278, 0.012703, -0.003008, -0.013245, 0.012702, -0.003179]",1.65,8.1
oxygen_monofluoride,-174.952584437748,8,0.002146,"[-24.7896, -19.30148, -1.334336, -0.9679376, -0.5818071, -0.5721782, -0.5392639, -0.4059115, -0.3522279]","[0.0, -0.0, -1.085267, -0.0, 0.0, 1.085267]",0.08,1.4
methylamine,-95.905049980272,7,0.521579057541,"[-14.29362, -10.18682, -0.8758051, -0.6619104, -0.4930395, -0.4427373, -0.406511, -0.371562, -0.2419302]","[-0.057922, -0.258866, 7.4e-05, 0.14818, 0.332, -0.000245, 0.021061, -0.020705, 1e-06, 0.016324, 0.007675, 0.018206, 0.016326, 0.007675, -0.0183, -0.071961, -0.033877, -0.067087, -0.072008, -0.033903, 0.067351]",0.48,3.4
hydrogen_chloride,-460.846239244743,7,0.492571,"[-101.5199, -9.46648, -7.227808, -7.219174, -7.219174, -0.8503543, -0.4776635, -0.3374529, -0.3374529]","[-0.0, 0.0, -0.152258, 0.0, -0.0, 0.152258]",0.05,1.4
ethanethiol,-478.090471623989,7,0.652096767866,"[-5.878038, -0.8054863, -0.7077912, -0.6050697, -0.4668463, -0.4646745, -0.3967212, -0.3703451, -0.3685206, -0.3308041, -0.2402454]","[0.089746, 0.144023, 8.4e-05, -0.019325, -0.188316, 8e-05, -0.073978, 0.055489, 1e-05, 0.014361, -0.006632, 2e-06, 0.004044, -0.026277, 0.020273, 0.004044, -0.02629, -0.020363, -0.003325, 0.028705, 0.022795, -0.003325, 0.02873, -0.022882, -0.012243, -0.009434, 0.0]",1.14,7.3
acetamide,-209.309073425257,10,1.54052043599,"[-10.19249, -1.039293, -0.9064082, -0.7403805, -0.5918104, -0.5400203, -0.4752692, -0.4529842, -0.4127431, -0.4024446, -0.3750298, -0.283267, -0.2629686]","[0.171007, 0.143336, -0.011759, 0.06449, 0.138652, 0.002001, -0.089197, 0.087259, -0.026985, -0.130757, -0.321042, 0.000638, 0.004035, 0.008753, -0.00235, -0.00241, -0.031176, -0.028692, -0.007225, -0.036146, 0.043782, -0.017247, -0.00779, 0.008582, 0.007304, 0.018154, 0.014781]",1.56,9.0
nitromethane,-245.119353897561,10,1.45303352145,"[-10.24775, -1.243895, -1.072035, -0.8307524, -0.6356063, -0.5650612, -0.5535113, -0.5350681, -0.4618492, -0.4485677, -0.332664, -0.325843, -0.3117199]","[-0.35514, -0.055679, 6.2e-05, -0.273778, -0.008103, 4e-06, -0.022493, 0.028772, 1e-06, 0.004707, 0.018395, 0.024308, 0.004708, 0.018401, -0.024379, 0.316244, -0.507308, 2e-06, 0.325752, 0.505522, 1e-06]",1.15,6.3
hydrogen_sulfide,-399.435058682464,6,0.464352,"[-88.84506, -7.940286, -5.903004, -5.899928, -5.894126, -0.7500568, -0.4521846, -0.3726633, -0.2676365]","[0.0, 1e-05, 0.017725, -0.0, -0.007272, -0.008979, -0.0, 0.007262, -0.008746]",0.07,1.0
monosodium_sulfide,-560.533453782754,7,3.234152,"[-7.858061, -5.829062, -5.814136, -5.812226, -2.247861, -1.180302, -1.179592, -1.177898, -0.6029614, -0.2368678, -0.2132622, -0.1937668]","[0.0, 0.0, 0.00199, -0.0, -0.0, -0.00199]",0.14,1.6
silicon_nitride,-344.174834900533,12,1.11743,"[-66.13096, -14.34714, -5.312095, -3.670351, -3.668693, -3.668693, -0.8006827, -0.4417638, -0.3237874, -0.3014976, -0.3014976]","[0.0, 0.0, -0.075782, -0.0, -0.0, 0.075782]",0.16,2.1
hydrogen_cyanide,-93.464210898864,7,1.199082,"[-14.3463, -10.23249, -0.9295938, -0.617493, -0.393574, -0.372535, -0.372535]","[-0.0, 0.0, 1.575833, -0.0, -0.0, 0.074229, 0.0, 0.0, -1.650063]",0.19,1.2
carbonyl_sulfide,-511.626080806394,9,0.30965,"[-5.934705, -5.928795, -5.928795, -1.146714, -0.8308119, -0.5574676, -0.4848244, -0.4848244, -0.4792033, -0.3113305, -0.3113305]","[0.0, 0.0, -0.736992, -0.0, -0.0, 1.926033, -0.0, -0.0, -1.189041]",0.56,2.6
chlorine_trifluoride,-759.680836150972,8,0.287915,"[-7.434064, -1.328922, -1.207151, -1.206899, -0.9022165, -0.6274278, -0.6225241, -0.5748631, -0.5166842, -0.4695331, -0.4492183, -0.4491371, -0.4267018, -0.4027818, -0.3538307]","[0.0, -0.0, 0.156857, 0.0, -0.0, -0.157708, -0.0, -0.107481, 0.000407, -0.0, 0.107481, 0.000444]",0.41,3.3
ethanol_radical,-154.433535413337,8,0.806380380605,"[-10.23527, -10.1661, -1.028816, -0.7486125, -0.622876, -0.5083317, -0.4663616, -0.4209697, -0.3961234, -0.3895617, -0.3417455, -0.2890888]","[-0.098557, 0.150437, 8.1e-05, -0.212599, -0.2672, 7.2e-05, 0.321115, 0.135985, 8e-06, 0.010182, 0.017989, 0.020727, 0.010181, 0.018002, -0.020805, -0.022525, -0.005153, 2e-06, -0.003895, -0.025029, 0.023621, -0.003901, -0.025031, -0.023706]",0.81,6.5
phosphorus_trifluoride,-641.157907921786,7,0.226360000108,"[-4.833878, -1.307698, -1.253696, -1.253693, -0.6869909, -0.5854992, -0.5854978, -0.5522416, -0.5147172, -0.5147155, -0.4754282, -0.4754262, -0.4590109, -0.3134597]","[-0.0, 0.016256, -0.210646, -0.0, -0.167201, 0.072612, -0.126122, 0.075473, 0.068737, 0.126122, 0.075473, 0.069297]",0.47,3.1
nitrogen_diatomic,-109.571807599299,5,0.0,"[-14.42339, -14.4216, -1.132329, -0.5593332, -0.4738415, -0.4738415, -0.4391392]","[-0.0, 0.0, -2.827029, 0.0, -0.0, 2.827029]",0.05,0.8
acetone,-193.239774508469,7,1.247476,"[-10.18173, -1.039782, -0.7779507, -0.7182877, -0.5400927, -0.4684105, -0.4676458, -0.4589167, -0.4126161, -0.4030358, -0.3863512, -0.356496, -0.2591397]","[-0.0, -3e-06, 1.672183, 0.0, -4.9e-05, -1.756207, -2.9e-05, -0.074223, 0.035005, 2.9e-05, 0.074272, 0.034388, -0.0, 0.00018, -0.001169, 0.0, -0.000179, -0.001169, 0.005281, -0.001377, 0.00457, -0.005252, -0.001377, 0.003912, -0.005283, 0.001378, 0.004572, 0.005253, 0.001378, 0.003914]",3.01,9.7
glycine_zwitterion,-284.520050305737,10,4.09563789417,"[-10.24435, -1.046979, -1.009394, -0.9372292, -0.7487606, -0.6371932, -0.6166409, -0.5290085, -0.4960053, -0.4589643, -0.4207029, -0.3883408, -0.369874, -0.2440333, -0.2416016, -0.2266116]","[0.033278, 0.066301, 1e-05, 0.241597, -0.038898, 8.9e-05, -0.321214, 0.120838, 1.5e-05, 0.204605, -0.311051, 5e-06, -0.231021, 0.118558, 0.000354, -0.026244, -0.002565, 0.022281, -0.026252, -0.002566, -0.022366, 0.052883, 0.007547, 0.032754, 0.052894, 0.007546, -0.033149, 0.019474, 0.03429, 5e-06]",2.35,13.8
hexane,-237.182329850368,6,0.0,"[-10.15501, -0.8092097, -0.7703124, -0.7102139, -0.6394074, -0.5828362, -0.5768189, -0.4832795, -0.4491787, -0.4388656, -0.4238915, -0.4018423, -0.3838566, -0.3804812, -0.3567712, -0.343813, -0.3294935, -0.3282885, -0.3228582, -0.311551]","[0.035195, -0.192906, 7.5e-05, -0.034968, 0.193135, -8.5e-05, 0.119466, -0.106598, 7.3e-05, -0.120505, 0.106056, -8.6e-05, 0.135756, -0.091908, -9.2e-05, -0.134686, 0.091996, -7.8e-05, 0.020583, 0.018988, -2e-06, -0.020563, -0.018977, 1e-06, -0.018537, 0.007449, 0.020222, -0.018543, 0.007457, -0.02031, 0.018555, -0.007413, -0.020206, 0.018562, -0.007422, 0.020293, 0.013481, -0.00802, -0.016974, 0.013491, -0.008026, 0.017072, -0.013419, 0.007978, -0.01695, -0.013431, 0.007987, 0.017048, -0.014083, 0.006966, 0.017662, -0.014094, 0.006974, -0.017761, 0.013865, -0.006853, -0.017289, 0.013876, -0.006862, 0.017387]",7.18,30.0
pyridine,-248.380246583127,8,0.906546,"[-10.19071, -0.945383, -0.8116548, -0.7678725, -0.6358434, -0.6357229, -0.5363864, -0.4885253, -0.4772962, -0.4368414, -0.4128241, -0.4063149, -0.3720742, -0.2983952, -0.2741387, -0.2663456]","[0.0, -0.000399, -0.117629, 0.0, 0.000175, 0.148268, 0.0, -0.303715, 0.693398, 0.0, 0.304114, 0.695294, -0.0, 0.06228, -0.644356, -0.0, -0.06246, -0.644808, -0.0, 1e-06, -0.125385, 0.0, -0.011539, -0.000311, 0.0, 0.011545, -0.000312, -0.0, 0.013194, -0.002079, -0.0, -0.013195, -0.00208]",5.29,18.0
silane,-291.924509923424,6,0.0,"[-66.0833, -5.269855, -3.627007, -3.627007, -3.627007, -0.5498553, -0.3553943, -0.3553943, -0.3553943]","[-0.0, 0.0, 2e-06, -1.7e-05, -1.7e-05, 5.5e-05, 1.7e-05, 1.7e-05, 7.8e-05, 1.6e-05, -1.6e-05, -5.6e-05, -1.6e-05, 1.6e-05, -7.8e-05]",0.11,1.7
isobutylene,-157.294580462873,7,0.226956,"[-10.15502, -0.8089623, -0.6957295, -0.6813191, -0.5264965, -0.4558559, -0.447814, -0.4365491, -0.3905804, -0.3737685, -0.3690056, -0.3435263, -0.2505978]","[-0.0, 1.8e-05, 0.73728, 0.0, -6.3e-05, -0.828323, 2.9e-05, -0.066227, 0.039201, -2.9e-05, 0.06629, 0.039604, 0.0, -0.003276, -0.00227, -0.0, 0.003255, -0.001968, 0.0, -0.003641, -0.001821, -0.006246, -0.001959, 0.00536, 0.006217, -0.001959, 0.004698, -0.0, 0.003642, -0.001821, 0.006248, 0.001961, 0.005362, -0.006219, 0.00196, 0.004699]",2.07,11.0
fluorine_diatomic,-199.596853640149,6,4e-06,"[-24.79615, -24.7961, -1.357294, -1.118244, -0.6135031, -0.551782, -0.551782, -0.4236665, -0.4236665]","[-0.0, 0.0, -0.980268, 0.0, -0.0, 0.980268]",0.05,1.1
ethylamine,-135.237043954171,7,0.541575763225,"[-10.16209, -0.882503, -0.7309554, -0.6119471, -0.5003513, -0.4415215, -0.4156517, -0.4116395, -0.364832, -0.3432191, -0.2456393]","[-0.074551, 0.121553, 8.1e-05, -0.11378, -0.23557, -7.6e-05, 0.202415, 0.296172, 0.000286, -0.013702, -0.007863, 1e-06, -0.00149, -0.026589, 0.019864, -0.001491, -0.026601, -0.019952, 0.000225, 0.021566, -0.015272, 0.000222, 0.021574, 0.015377, 0.001078, -0.082088, 0.064679, 0.001075, -0.082153, -0.064988]",2.88,9.1
aluminum_diatomic,-484.825489458234,7,0.0,"[-56.03644, -4.1516, -4.151553, -2.703901, -2.703565, -2.703565, -2.703527, -2.703527, -2.703469, -0.3866834, -0.2828764, -0.1593541, -0.1593541]","[-0.0, 0.0, -0.014213, 0.0, -0.0, 0.014213]",0.09,1.7
methyl_nitrite,-245.112587560821,8,0.92889762408,"[-10.2441, -1.216976, -1.065883, -0.7748862, -0.6403542, -0.5622757, -0.5240773, -0.5181134, -0.4474501, -0.429875, -0.3888643, -0.3420319, -0.2956511]","[0.250117, 0.140958, 7.1e-05, -0.021599, -0.320318, 5e-06, 0.102492, 0.579755, 3e-06, 0.023627, -0.017543, 1e-06, 0.000788, -0.024818, 0.017697, 0.000784, -0.024837, -0.017779, -0.356209, -0.333197, 2e-06]",1.14,5.4
isobutane,-158.525502568769,7,0.0569560000351,"[-10.15616, -0.8050804, -0.6824458, -0.6824453, -0.5600476, -0.4664319, -0.4332721, -0.4332716, -0.3850983, -0.3850983, -0.3642841, -0.3303818, -0.3303817, -0.3244772]","[-8.8e-05, 0.008001, -0.179331, -4.3e-05, -0.151392, 0.147119, -0.091676, 0.077597, 0.122892, 0.091786, 0.077611, 0.122994, -1e-06, 0.004111, 0.114961, -1e-06, 0.001739, -0.110197, 0.015709, -0.017432, 0.002076, -0.015671, -0.01743, 0.002402, 0.004111, -0.004318, -0.113226, -0.015144, -0.008257, 0.003552, -0.00116, 0.02117, -0.001799, -0.004109, -0.004319, -0.113224, 0.00118, 0.021124, -0.002109, 0.015104, -0.008206, 0.00389]",2.82,15.4
boron_trifluoride,-324.711345403368,6,4e-06,"[-6.916819, -1.284801, -1.245652, -1.245651, -0.6198213, -0.5845192, -0.584519, -0.5464097, -0.4801245, -0.4801239, -0.4715008, -0.4715001, -0.4389136]","[-1e-06, -0.059831, 0.0, -0.0, -0.242993, -0.0, -0.200198, 0.151411, -0.0, 0.200199, 0.151413, -0.0]",0.38,2.0
nitrosyl_chloride,-590.182989138289,10,0.722448528979,"[-7.209592, -7.207782, -1.310917, -0.8346738, -0.7136518, -0.5745228, -0.5706746, -0.5497904, -0.329247, -0.3227474, -0.3128895]","[0.065926, 0.059875, 0.0, 0.529572, 0.100813, 0.0, -0.595499, -0.160687, -0.0]",0.51,2.8
silicon_monophosphide,-630.815042592193,13,0.639978,"[-5.324364, -4.726513, -4.719452, -4.719452, -3.683592, -3.6809, -3.6809, -0.6197753, -0.4303833, -0.2885343, -0.2490501, -0.2490501]","[0.0, 0.0, -0.024875, -0.0, -0.0, 0.024875]",0.24,2.0
pyrrole,-210.256041440446,8,0.748552,"[-10.1532, -0.9788399, -0.7748353, -0.7206806, -0.594609, -0.5667863, -0.5466221, -0.433744, -0.4265981, -0.4112618, -0.3900897, -0.3788305, -0.2504512, -0.2169464]","[0.0, -0.000695, -0.362376, 0.0, -2.2e-05, 0.342092, -0.0, 0.182086, 0.546233, -0.0, -0.181731, 0.547844, -0.0, -0.295389, -0.512977, -0.0, 0.295384, -0.511229, 0.0, -0.012394, 0.002189, 0.0, 0.012441, 0.002095, 0.0, 0.025254, -0.0272, 0.0, -0.024936, -0.026671]",4.31,13.9
aluminum_monoxide,-317.679663494748,11,1.664858,"[-56.03105, -19.09391, -4.153366, -2.70554, -2.70554, -2.704175, -0.8944038, -0.3819328, -0.2938108, -0.2938108, -0.2768096]","[-0.0, 0.0, -0.069359, 0.0, -0.0, 0.069359]",0.15,2.0
trifluoromethane,-338.389727166217,7,0.574383008023,"[-10.43639, -1.33366, -1.248612, -1.248586, -0.7337986, -0.621789, -0.6129911, -0.6129806, -0.4892254, -0.4892251, -0.4569385, -0.4569259, -0.4339089, -0.4043096]","[-2e-06, -0.043702, -0.481829, -0.0, 0.001615, 0.109624, -0.0, -0.334075, 0.13276, -0.276173, 0.188079, 0.119431, 0.276175, 0.188083, 0.120015]",0.6,3.4
silicon_monofluoride,-389.392064276644,7,0.409134,"[-66.14863, -24.68836, -5.323261, -3.683761, -3.680622, -3.678614, -1.206099, -0.5502071, -0.4653406, -0.461532, -0.3677405, -0.1724381]","[-0.0, -0.0, -0.077463, 0.0, 0.0, 0.077463]",0.16,1.6
ethyl_chloride,-539.501596785980,7,0.830211991049,"[-7.193838, -0.8608944, -0.7469557, -0.6239921, -0.48312, -0.4588781, -0.4152074, -0.3820015, -0.3773926, -0.2990118, -0.2977211]","[0.050978, 0.02687, 0.000819, -0.062737, 0.118613, -3.7e-05, 0.033568, -0.142345, -0.004509, -0.01827, -0.008945, -1.3e-05, -0.003313, -0.024915, -0.019312, -0.003297, -0.024894, 0.019441, 0.002455, 0.027133, -0.018222, 0.000615, 0.028484, 0.021833]",0.93,5.0
bicyclo[1.1.0]butane,-156.009221441190,7,0.29286,"[-10.18439, -0.9236193, -0.6879688, -0.5773461, -0.5765182, -0.5194624, -0.4305978, -0.4304016, -0.375503, -0.3307045, -0.3180827, -0.2458032]","[-0.278409, -0.0001, 0.085448, 0.281053, -0.0001, 0.059321, -0.001365, -0.217855, -0.17397, -0.001365, 0.218049, -0.174651, -6.5e-05, 0.005888, 0.115027, -6.5e-05, -0.005885, 0.115049, -6.2e-05, 0.008593, -0.005696, -6.2e-05, -0.008588, -0.005698, 0.001896, -2e-06, -0.007654, -0.001556, -2e-06, -0.007177]",1.97,9.3
silyl_radical,-291.269986207853,6,0.090247,"[-66.09353, -5.279171, -3.641118, -3.634594, -3.634594, -0.5456129, -0.3634442, -0.3634441, -0.2257503]","[0.0, 0.000395, -0.005561, 0.0, -0.007926, 0.002709, -0.004609, 0.003765, 0.001433, 0.004609, 0.003765, 0.001419]",0.09,1.7
cyclopentane,-196.634334456369,7,0.00943043784774,"[-10.15863, -0.8335449, -0.7054863, -0.7050581, -0.5691506, -0.5597347, -0.4812937, -0.4785858, -0.4151758, -0.4136195, -0.3390381, -0.338329, -0.3345064, -0.3306513, -0.3259732, -0.3149071]","[-0.142592, 0.147386, -0.224806, -0.002882, -0.230743, -0.107779, 0.245033, -0.070735, -0.020582, 0.126373, 0.205018, 0.156955, -0.193914, -0.061691, 0.191867, 0.01199, 0.032117, 0.078222, 0.001713, -0.015418, 0.007311, -0.013111, 0.00334, -0.010591, -0.022742, -0.00076, 0.021841, 0.000801, -0.026797, -0.086481, 0.014591, 0.018088, -0.001448, -0.017957, 0.019654, -0.00339, 0.004297, 0.001759, 0.108748, 0.010219, -0.009783, -0.110135, -0.021817, -0.011436, 0.000269]",4.67,22.5
dimethyl_sulfoxide,-553.313791943581,10,1.65090989532,"[-5.975086, -1.018739, -0.8026959, -0.7330923, -0.6083885, -0.4872968, -0.4656261, -0.4641161, -0.4343926, -0.4090653, -0.4051391, -0.3629512, -0.2805026, -0.2379887]","[-3.5e-05, 0.035803, -0.067229, -2e-06, -0.06896, 0.056447, 0.048531, 0.031806, 0.121971, -0.048496, 0.031809, 0.121617, -0.041571, -0.024284, 0.001639, 0.041571, -0.024285, 0.001639, 0.003452, 0.022724, -0.003443, -0.018657, -0.013668, -0.114602, -0.003452, 0.022724, -0.003442, 0.018659, -0.013668, -0.114598]",1.98,13.6
trifluoroacetic_acid,-527.026010912295,10,0.72174568505,"[-10.35644, -1.357958, -1.268845, -1.265867, -1.157289, -1.069719, -0.787084, -0.6921787, -0.6376095, -0.6363417, -0.6085946, -0.5282164, -0.5127844, -0.5084956, -0.4943488, -0.4854001, -0.468451, -0.4628621, -0.4475549, -0.4294126, -0.3717436, -0.3317139]","[-1.209457, -0.24473, -1e-06, -0.032307, -0.142642, 0.0, -0.245878, 0.184451, 0.0, 0.38004, 0.226438, 0.0, 0.310622, -0.311688, 0.0, 0.392799, 0.120405, 0.351388, 0.393848, 0.120753, -0.351388, 0.010333, 0.047013, 0.0]",2.51,13.3
nitric_oxide,-129.945308374604,7,0.042024,"[-19.27029, -14.46287, -1.254962, -0.6969934, -0.5467233, -0.5194565, -0.4954766, -0.2266999]","[-0.0, 0.0, -2.65524, 0.0, -0.0, 2.65524]",0.1,1.0
hydrazine,-111.915784456009,6,1.116464,"[-14.3279, -14.32778, -0.9609156, -0.7560289, -0.5145872, -0.4911732, -0.4394004, -0.2999689, -0.2410548]","[0.035796, -0.288826, -0.077719, -0.036031, 0.288726, -0.065845, -0.018462, -0.003591, 0.057766, 0.018335, 0.00373, 0.057327, -0.038151, -0.025603, 0.014254, 0.038513, 0.025564, 0.014216]",0.3,2.1
aluminum_carbide,-280.374539277911,9,0.781829,"[-56.03424, -10.2266, -4.151656, -2.704596, -2.704596, -2.701773, -0.6079936, -0.3341969, -0.2501081, -0.2501081, -0.2279472]","[-0.0, -0.0, -0.026406, 0.0, 0.0, 0.026406]",0.14,2.5
sulfur_monoxide,-473.434871693813,8,0.673683,"[-88.9368, -19.20177, -8.023255, -5.985062, -5.985062, -5.983059, -1.098544, -0.6895898, -0.4648954, -0.4648954, -0.4619666, -0.2685203, -0.2685203]","[-0.0, -0.0, -0.063754, 0.0, 0.0, 0.063754]",0.16,1.4
hydroxymethyl_radical,-115.115814553679,8,0.594356091638,"[-19.16575, -10.22272, -1.063322, -0.6780266, -0.5348198, -0.4574197, -0.4118752, -0.3628529, -0.1911346]","[-0.326554, -0.024707, 0.013703, 0.31345, 0.081389, -0.003728, 0.05491, -0.052693, -0.016018, -0.02022, -0.025747, 0.001649, -0.021586, 0.021758, 0.004394]",0.29,2.6
dimethyl_sulfide,-478.089778867249,7,0.618878,"[-5.874613, -0.8002647, -0.7069485, -0.5999213, -0.4453438, -0.4434229, -0.4278373, -0.4110662, -0.3670729, -0.3177648, -0.2230512]","[2.4e-05, -0.000998, 0.021365, -2.4e-05, 0.001018, 0.021277, 0.0, -2.1e-05, -0.055185, 0.0, -0.009186, -0.004117, -0.009567, -0.000486, 0.005469, 0.009542, -0.000486, 0.004918, -0.0, 0.009186, -0.004117, 0.009568, 0.000486, 0.00547, -0.009543, 0.000486, 0.00492]",1.02,6.2
beryllium_monochloride,-474.999891279629,7,0.375754,"[-101.5055, -9.453308, -7.210488, -7.208067, -7.208067, -4.103149, -0.8244811, -0.4116163, -0.3460125, -0.3460125, -0.2229659]","[0.0, 0.0, 0.020604, -0.0, -0.0, -0.020604]",0.07,1.5
n_propyl_chloride,-578.828622806023,7,0.858185433948,"[-7.193405, -0.8585682, -0.7786382, -0.6714049, -0.598741, -0.4883535, -0.448353, -0.4316316, -0.4167022, -0.3712397, -0.3653478, -0.3509609, -0.2966883, -0.2965883]","[-0.08105, 0.024724, 1e-05, 0.005391, -0.145427, 6.1e-05, -0.078867, 0.14771, 7.2e-05, 0.164254, -0.097253, 6.4e-05, -0.008114, 0.033579, 0.034349, -0.008116, 0.033603, -0.034414, 0.006068, -0.026538, 0.027875, 0.006075, -0.02655, -0.027952, -0.007799, 0.029588, 0.030091, -0.007808, 0.029601, -0.030156, 0.009967, -0.003039, 2e-06]",5.48,15.0
chloroform,-1419.419009969145,7,0.477285000177,"[-7.23502, -0.9576531, -0.8489006, -0.8489, -0.6642145, -0.5242505, -0.4847702, -0.48477, -0.3657564, -0.3657554, -0.3402264, -0.3318491, -0.3318491, -0.3145832]","[-0.0, 0.003889, -0.234431, 0.0, 0.002296, 0.142128, 0.0, -0.184855, 0.046734, -0.124099, 0.089335, 0.022771, 0.124099, 0.089335, 0.022798]",1.04,4.4
phosphorus_monosulfide,-739.592984656213,10,0.302005,"[-5.919887, -5.917997, -5.917682, -4.757164, -4.754916, -4.751311, -0.7764906, -0.542057, -0.3497164, -0.3426863, -0.3330222, -0.201649]","[0.0, -0.0, 0.084045, -0.0, 0.0, -0.084045]",0.25,2.0
cyclopropane,-117.946142085907,6,1.5e-05,"[-10.17015, -10.17015, -0.853556, -0.5982507, -0.5982436, -0.4977181, -0.4690706, -0.3659578, -0.3659498, -0.2994393, -0.2994328]","[-0.00119, -0.333138, 6.4e-05, -0.27256, 0.161512, 5.9e-05, 0.273447, 0.160622, 5.9e-05, -5.6e-05, 0.024043, 0.03153, 0.019566, -0.00935, 0.032748, -0.019358, -0.00919, 0.032283, -5.6e-05, 0.024043, -0.031594, 0.019564, -0.00935, -0.032807, -0.019357, -0.009191, -0.032342]",1.07,4.9
formyl_radical,-113.901132185254,7,0.68998063486,"[-19.1986, -10.28624, -1.109622, -0.6373795, -0.5113008, -0.445026, -0.4393017, -0.2386703]","[-0.184671, 0.271768, 0.0, -0.048074, 0.01069, 0.0, 0.232745, -0.282457, -0.0]",0.18,1.9
spiropentane,-195.349854064129,7,0.0,"[-10.17112, -0.8832058, -0.7992339, -0.6044881, -0.6044881, -0.5425059, -0.4887613, -0.4744931, -0.4744931, -0.3763967, -0.3629285, -0.3515646, -0.291095, -0.291095, -0.2753591]","[0.001257, -0.001257, 0.000116, 0.000195, -0.054813, 0.070953, 0.000133, 0.056105, 0.105929, 0.054016, -0.000195, -0.071008, -0.055308, -0.000133, -0.105985, -0.019225, -0.019874, 0.002378, 0.019217, -0.019864, 0.002589, 0.019671, 0.020034, 0.002261, -0.019615, 0.020045, 0.002428, 0.019872, 0.019224, -0.002379, 0.019862, -0.019216, -0.00259, -0.020033, -0.019669, -0.002262, -0.020043, 0.019614, -0.002429]",3.63,16.4
acetonitrile,-132.664145242386,8,1.83696015892,"[-14.31634, -10.24259, -10.22169, -0.9172712, -0.8618522, -0.5955007, -0.5109432, -0.3840617, -0.369762, -0.3450134, -0.2900114]","[-0.013166, 0.013432, -0.442637, 0.003974, -0.002138, -1.310991, 0.009317, -0.005267, 1.760093, 0.050905, 0.01953, 0.010519, 0.008487, -0.063445, 0.012255, -0.059517, 0.037888, -0.029239]",0.51,3.6
disilane,-582.656851414407,6,0.0,"[-3.622998, -3.622936, -3.622936, -3.622732, -0.5747336, -0.5105592, -0.371291, -0.371283, -0.3464435, -0.3464349, -0.2982817]","[-0.0, 0.000792, -0.004928, -0.0, -0.000792, 0.004929, -0.0, -0.00633, -0.004948, 0.003321, 0.003021, -0.003592, -0.003321, 0.003021, -0.003576, -0.0, 0.006328, 0.004948, 0.003319, -0.00302, 0.003592, -0.003319, -0.00302, 0.003576]",0.52,3.6
methylene_chloride,-959.797002220703,7,0.69127,"[-7.220344, -0.9118647, -0.8329909, -0.6756622, -0.5092479, -0.4707447, -0.4525822, -0.3386367, -0.3342144, -0.3162407, -0.3136905]","[-2.8e-05, 0.0, -0.066054, 0.03017, 0.0, -0.020273, -0.030141, 0.0, -0.019681, -0.0, -0.061583, 0.052984, -0.0, 0.061583, 0.053024]",0.65,3.6
methlidyne_radical,-38.497118410578,6,0.59536,"[-10.28473, -0.650247, -0.3268712, -0.2625313]","[0.0, -0.0, -0.07987, -0.0, 0.0, 0.07987]",0.02,1.1
trifluoro_acetonitrile,-430.638211467790,9,0.584756000042,"[-10.26221, -1.37747, -1.287783, -1.287782, -0.9619462, -0.802421, -0.6900091, -0.65624, -0.6562398, -0.5264674, -0.5264671, -0.4943995, -0.4943994, -0.4831712, -0.4679442, -0.4153025, -0.3975061, -0.3975061]","[-2e-06, -0.063701, -0.853853, -0.0, 0.007429, -1.418567, -0.0, 0.0015, 1.939998, -0.0, -0.32675, 0.118822, -0.278613, 0.190758, 0.106525, 0.278615, 0.190763, 0.107075]",1.4,6.7
acetyl_radical,-153.248288618340,8,1.04624243373,"[-19.17353, -10.27658, -10.20947, -1.090959, -0.7727398, -0.5571987, -0.4782268, -0.471165, -0.4673129, -0.3993149, -0.3978001, -0.2114153]","[0.146476, 0.033913, 9e-05, 0.21969, -0.06491, 5e-06, -0.007834, 0.018701, 1e-06, -0.024211, 0.001305, 0.020093, -0.024217, 0.001309, -0.020191, -0.309904, 0.009682, 2e-06]",0.5,3.7
silylene_t,-290.615489164840,7,0.068599,"[-66.11409, -5.295651, -3.656222, -3.655898, -3.649553, -0.5330113, -0.3781285, -0.2648763, -0.1987781]","[0.0, -0.0, 0.003682, 0.0, 0.005947, -0.001837, -0.0, -0.005947, -0.001845]",0.06,1.1
oxygen_water,-152.942418016526,7,1.01416107221,"[-19.15873, -19.09848, -1.046906, -0.9863452, -0.5664115, -0.5133988, -0.4274075, -0.3701749, -0.3455218, -0.2939895]","[0.198214, -0.175579, -0.267187, 0.034744, -0.097552, 0.018209, -0.166986, 0.121942, 0.278857, -0.026486, 0.048078, -0.011179, 0.047321, 0.017814, -0.013964, -0.086808, 0.085298, -0.004736]",0.17,2.1
chlorine_monofluoride,-560.041042415637,7,0.398218,"[-9.539083, -7.30708, -7.289111, -7.289111, -1.250425, -0.841609, -0.5462966, -0.497643, -0.497643, -0.338617, -0.338617]","[-0.0, -0.0, -1.104184, 0.0, 0.0, 1.104184]",0.14,1.5
sodium_hydride,-162.874717393677,6,2.364044,"[-38.43597, -2.218337, -1.150517, -1.150517, -1.147424, -0.1861265]","[-0.0, -0.0, -0.00031, 0.0, 0.0, 0.00031]",0.02,0.8
nitrogen_tribromide,-7777.361958407331,10,0.253323000126,"[-2.6553, -0.9679546, -0.8057815, -0.8057814, -0.6887818, -0.4763773, -0.4763772, -0.4309481, -0.3425882, -0.3425876, -0.3088878, -0.3088876, -0.2939324, -0.2808512]","[-0.0, 0.005417, -17.440719, 0.0]",3.5,15.6
phosphorus_pentafluoride,-840.987023250606,8,2.1e-05,"[-4.952573, -1.354371, -1.290661, -1.290657, -1.25117, -1.219176, -0.7261527, -0.6304901, -0.6304885, -0.6156365, -0.5589381, -0.5589352, -0.5396096, -0.5396067, -0.5143724, -0.4984771, -0.4773956, -0.4611865, -0.4611865, -0.4358645, -0.4358639]","[0.0, 0.005144, -0.0, 0.0, -0.245702, -0.0, -0.21268, 0.115326, -0.0, 0.21268, 0.115326, -0.0, -0.0, 0.004953, 0.093406, -0.0, 0.004953, -0.093406]",1.5,7.0
aminyl_radical,-55.906606456959,7,0.755178,"[-14.34994, -0.8615908, -0.4809725, -0.3355368, -0.3240979]","[0.0, 0.000121, 0.021692, -0.0, -0.041465, -0.011683, -0.0, 0.041345, -0.01001]",0.04,1.3
allene,-116.710114691398,6,0.0,"[-10.19851, -10.18172, -10.18167, -0.7959125, -0.7098585, -0.5270805, -0.458885, -0.4503964, -0.4503964, -0.2758288, -0.2758288]","[0.0, 0.0, -5.7e-05, 0.0, 1.9e-05, 0.768334, 1.9e-05, 0.0, -0.768278, 0.0, 0.002299, 0.000539, 0.0, -0.002318, 0.000821, 0.002299, 0.0, -0.000538, -0.002318, 0.0, -0.00082]",0.56,3.3
methane,-40.539571225420,5,0.0,"[-10.15317, -0.6969349, -0.3959216, -0.3959216, -0.3959216]","[5.9e-05, 3.7e-05, -0.0, -0.002391, -0.002391, -0.00411, -0.002378, 0.002372, 0.004074, 0.002361, -0.002367, 0.003511, 0.002349, 0.002349, -0.003474]",0.08,1.4
carbon_monosulfide,-436.264518442783,9,0.737883,"[-88.892, -10.27541, -7.989083, -5.947998, -5.947998, -5.946875, -0.8421189, -0.5283774, -0.3617973, -0.3617973, -0.3186087]","[0.0, 0.0, -1.095585, -0.0, -0.0, 1.095585]",0.18,1.8
sulfur_hexafluoride,-997.471999497894,7,0.0,"[-6.272405, -1.428847, -1.303997, -1.303997, -1.303997, -1.250768, -1.250768, -0.827404, -0.6848726, -0.6848726, -0.6848726, -0.584001, -0.584001, -0.584001, -0.5488724, -0.5488724, -0.4940216, -0.4940216, -0.4940216, -0.4901072, -0.4901072, -0.4901072, -0.4469534, -0.4469534, -0.4469534]","[-0.0, -0.0, -5.5e-05, -0.0, -0.0, 0.143895, -0.0, -0.258048, -0.000351, -0.258048, 0.0, -0.000351, 0.0, 0.258048, -0.000351, 0.258048, -0.0, -0.000351, -0.0, -0.0, -0.142435]",2.47,9.4
nonane,-355.168846712712,7,0.036977,"[-10.1549, -0.815465, -0.7960706, -0.7642934, -0.7219479, -0.6721812, -0.6207547, -0.5829767, -0.5773736, -0.5724656, -0.4889686, -0.4713161, -0.4437992, -0.4381058, -0.4321109, -0.4100593, -0.4040255, -0.4036026, -0.3755899, -0.371767, -0.3510931, -0.3469222, -0.3426553, -0.3316083, -0.329146, -0.325299, -0.3223802, -0.322292, -0.299879]","[3e-05, -6.8e-05, -0.093514, 3.1e-05, -0.003279, 0.093349, -3e-05, 0.003336, 0.093979, 3e-05, -0.006713, -0.092441, -3e-05, 0.006717, -0.092442, -3.1e-05, -0.011583, 0.095477, 3.1e-05, 0.011585, 0.095477, -3e-05, -0.067364, -0.049157, 3e-05, 0.067365, -0.049157, -0.014676, -1e-06, -0.010018, 0.014645, -1e-06, -0.009383, -0.014396, -6.9e-05, 0.009902, 0.014365, -6.9e-05, 0.009268, 0.014398, 7.1e-05, 0.009903, -0.014367, 7.1e-05, 0.009269, -0.013879, -0.000255, -0.009786, 0.013848, -0.000255, -0.009154, 0.013879, 0.000256, -0.009787, -0.013848, 0.000256, -0.009154, 0.013018, -0.000743, 0.009868, -0.012987, -0.000743, 0.009243, -0.013018, 0.000744, 0.009868, 0.012987, 0.000744, 0.009243, -0.0, -0.01292, 0.004341, 0.010409, -0.002763, -0.007693, -0.010379, -0.002763, -0.007074, 0.0, 0.01292, 0.004341, -0.010409, 0.002763, -0.007693, 0.010379, 0.002763, -0.007074]",18.79,81.3
furan,-230.116131630398,8,0.268516,"[-10.17538, -1.115291, -0.8043437, -0.7489566, -0.6033914, -0.575403, -0.5486086, -0.457543, -0.4514635, -0.418282, -0.4032651, -0.3810149, -0.2890156, -0.2384877]","[0.0, -0.000858, -0.099623, 0.0, 0.165264, 0.68244, -0.0, -0.164803, 0.685024, -0.0, -0.32317, -0.604797, -0.0, 0.323232, -0.599869, -0.0, -0.010627, -0.000676, 0.0, 0.010671, -0.000767, 0.0, 0.025293, -0.031114, 0.0, -0.025002, -0.030617]",3.66,11.8
methanol_radical,-115.104528699946,8,0.84046918951,"[-19.17578, -10.23349, -1.028505, -0.6831013, -0.4923739, -0.4686046, -0.4416669, -0.3441134, -0.2983941]","[0.055179, 0.357217, 4.9e-05, 0.012298, -0.355183, 4e-06, -0.02923, 0.019163, 1e-06, -0.019116, -0.010591, 0.020834, -0.019132, -0.010606, -0.020888]",0.28,2.3
sodium_lithium,-169.822000331216,6,0.012042,"[-38.42238, -2.202716, -2.011137, -1.134321, -1.134321, -1.134296, -0.132441]","[-0.0, 0.0, -3.5e-05, 0.0, -0.0, 3.5e-05]",0.05,1.2
ethylene_oxide,-153.855214349597,7,0.780609,"[-10.22819, -10.22782, -1.081114, -0.6826257, -0.639222, -0.5223804, -0.4894513, -0.4030855, -0.3937983, -0.3246916, -0.2819625]","[-0.0, -0.002127, 0.88376, -2.6e-05, 0.227065, -0.425975, 2.6e-05, -0.22535, -0.454643, 0.015839, -0.019792, -0.000823, -0.015813, -0.019791, -0.000874, -0.016399, 0.019998, -0.000697, 0.016372, 0.019998, -0.000748]",0.71,3.7
chlorine_diatomic,-920.439996684896,6,0.0,"[-7.260763, -7.260763, -7.260754, -7.260754, -0.9419488, -0.772439, -0.4778214, -0.4151494, -0.4151494, -0.3109778, -0.3109778]","[0.0, -0.0, 0.037326, -0.0, 0.0, -0.037326]",0.11,1.4
aziridine,-133.978603463365,7,0.698553758042,"[-10.20135, -10.20057, -0.9558897, -0.6616057, -0.6181885, -0.522909, -0.4726073, -0.3826294, -0.347928, -0.3436085, -0.2546901]","[0.003986, -0.441609, -0.014995, 0.310986, 0.215113, -0.043388, -0.320254, 0.216456, -0.051307, 0.000891, 0.031699, 0.065435, -0.025575, 0.009076, 0.038085, -0.007788, -0.018226, -0.016159, 0.014164, -0.008834, -0.020899, 0.02359, -0.003675, 0.043227]",0.94,4.8
methoxyethane,-194.430429709063,7,0.483754956635,"[-10.16084, -1.034467, -0.7637925, -0.6753044, -0.6085662, -0.4905273, -0.4855346, -0.4557862, -0.423921, -0.3872202, -0.3657776, -0.3572777, -0.3268765, -0.2641937]","[0.17854, 0.143891, -2e-06, -0.130948, -0.220918, 5.8e-05, -0.271084, 0.098383, -5.9e-05, 0.17857, -0.04189, -7e-05, 0.015143, 0.00844, 0.016737, 0.015166, 0.008456, -0.016814, 0.000468, 0.031016, -1e-06, 0.018256, 0.013309, -0.02036, 0.018276, 0.013325, 0.020429, -0.014544, -0.015438, -0.024605, -0.014546, -0.015442, 0.024687, 0.006704, -0.023133, -1e-06]",3.89,13.5
ethane,-79.866680847196,6,0.0,"[-10.15938, -10.15916, -0.7529323, -0.6171577, -0.437366, -0.4373629, -0.3677155, -0.3471118, -0.347109]","[0.016667, 3.9e-05, 0.581125, -0.016614, -3.9e-05, -0.579743, 0.020852, 0.0, -0.004626, -0.011585, -0.013947, -0.000644, -0.011585, 0.013907, -0.000311, -0.019997, -0.0, 0.004095, 0.011131, 0.013241, 0.000218, 0.011131, -0.013202, -0.000115]",0.48,3.2
carbon_tetrabromide,-10335.006186486933,7,0.0,"[-2.648098, -0.9136393, -0.8030864, -0.8030864, -0.8030864, -0.6153192, -0.4663866, -0.4663866, -0.4663866, -0.3488039, -0.3488039, -0.3246298, -0.3246298, -0.3246298, -0.294614, -0.294614, -0.294614]","[-0.0, -0.0, 1e-06, -87.880549, -87.880549, -88.126354, 87.880549, 87.880549, -88.126279, 87.880581, -87.880581, 88.126353, -87.880581, 87.880581, 88.126278]",5.59,17.5
beryllium_diatomic,-29.350784082531,6,0.0,"[-4.079985, -4.079946, -0.2952827, -0.1867826]","[-0.0, -0.0, 0.000609, 0.0, 0.0, -0.000609]",0.01,0.6
tetrachloroethylene,-1917.144971699319,8,0.0,"[-7.246835, -0.9698057, -0.9174331, -0.8753221, -0.8523808, -0.7385335, -0.5764457, -0.5208603, -0.5186259, -0.4609333, -0.4496789, -0.3943482, -0.3722504, -0.3625136, -0.3598146, -0.3542221, -0.3477589, -0.3188556, -0.262139]","[0.0, -0.0, 1.003717, -0.0, 0.0, -0.996015, 0.0, -0.072981, -0.045671, 0.0, 0.072981, -0.045704, 0.0, 0.064398, 0.04182, 0.0, -0.064398, 0.041853]",2.05,8.6
silicon_monoxide,-364.792924322959,7,1.255571,"[-66.12324, -19.10998, -5.306059, -3.665106, -3.665106, -3.658087, -0.9437293, -0.4402632, -0.3376427, -0.3376427, -0.3148796]","[0.0, -0.0, -0.063658, -0.0, 0.0, 0.063658]",0.16,1.8
trimethylamine,-174.546331948641,7,0.24015903009,"[-10.18838, -0.9243037, -0.7041932, -0.7041749, -0.5913301, -0.4702762, -0.4676196, -0.4676115, -0.3961451, -0.3961371, -0.3679193, -0.3629658, -0.3629635, -0.2196208]","[0.008249, 0.00867, 0.050467, 0.18357, 0.183646, -0.099019, -0.2809, 0.099543, -0.123377, 0.099734, -0.281209, -0.123469, -0.005325, -0.005327, 0.105064, 0.003343, -0.002404, 0.101479, -0.002401, 0.003337, 0.101477, 0.01051, -0.003554, -0.001235, -0.003546, 0.010476, -0.001562, -0.009529, 0.014524, 0.00041, -0.012749, -0.005434, -0.005319, -0.005469, -0.012747, -0.005004, 0.014513, -0.009521, 9e-05]",4.57,16.8
carbonyl_fluoride,-313.154733579735,8,0.442586,"[-10.44702, -1.353739, -1.282364, -1.125924, -0.7108417, -0.6422233, -0.5948964, -0.563462, -0.4991326, -0.4912599, -0.4786245, -0.4168397, -0.3725544]","[0.0, -0.0, 2.272572, -0.0, -2e-06, -2.368133, 0.0, 0.08084, 0.047682, 0.0, -0.080838, 0.047879]",0.57,2.7
phosphorus_mononitride,-396.122614084068,10,1.141324,"[-77.08389, -14.35127, -6.592269, -4.752926, -4.752926, -4.747907, -0.8555321, -0.4991065, -0.3396327, -0.3396327, -0.3313521]","[0.0, -0.0, -1.260666, -0.0, 0.0, 1.260666]",0.16,1.7
carbon_tetrachloride,-1879.036759807731,7,0.0,"[-7.246636, -0.9911449, -0.863316, -0.863316, -0.863316, -0.6376775, -0.5118481, -0.511848, -0.511848, -0.3858969, -0.3858969, -0.3598978, -0.3598978, -0.3598978, -0.3257745, -0.3257745, -0.3257745]","[0.0, 0.0, 0.0, -0.0477, -0.0477, -0.054652, 0.0477, 0.0477, -0.054669, 0.047703, -0.047703, 0.054652, -0.047703, 0.047703, 0.054669]",1.26,5.6
acrylonitrile,-170.900558488479,8,1.60630545591,"[-10.22238, -0.9112535, -0.8254709, -0.6671868, -0.5493972, -0.491437, -0.4270621, -0.3891063, -0.3770686, -0.3442485, -0.3008388]","[0.048253, 0.077863, -0.0, -0.087668, 0.0047, 0.0, 0.023324, -0.01275, -0.0, 0.023652, -0.000557, 0.0, -0.008969, 0.012824, -0.0, -0.024541, 0.003786, -0.0, 0.025949, -0.085866, 0.0]",0.95,4.6
sodium_hydroxide,-238.185512947156,19,2.53745,"[-38.42888, -18.96947, -2.21399, -1.146421, -1.14642, -1.143822, -0.8160681, -0.3331235, -0.1797533, -0.1797533]","[0.0, -0.0, 0.445631, -0.0, 0.0, 0.13071, -0.0, 0.0, -0.576341]",0.16,2.3
methylene_t,-39.170152510780,7,0.256227,"[-10.22153, -0.6816248, -0.4608579, -0.2829665, -0.249788]","[-0.0, 3e-06, 0.003617, 0.0, -0.008601, -0.001727, -0.0, 0.008598, -0.001889]",0.04,1.2
carbon_monophosphide,-379.343536402291,12,0.40362,"[-77.07076, -10.26612, -6.576817, -4.738176, -4.735145, -4.735145, -0.7394803, -0.4671948, -0.3392213, -0.3064547, -0.3064547]","[0.0, 0.0, -0.832283, -0.0, -0.0, 0.832283]",0.17,2.0
formic_acid,-189.840609441313,8,0.575224887991,"[-19.13022, -10.32186, -1.131336, -1.042639, -0.6721727, -0.549357, -0.5054678, -0.4668157, -0.4196564, -0.349392, -0.2995168]","[0.10654, -0.332747, -0.0, 0.238563, 0.152687, 0.0, -0.376691, 0.168479, 0.0, 0.042221, -0.030729, -0.0, -0.010633, 0.04231, -0.0]",0.42,2.7
aluminum_trifluoride,-542.362747607216,6,1.7e-05,"[-2.742121, -1.188307, -1.176111, -1.17611, -0.5200473, -0.4787644, -0.4787641, -0.4586631, -0.4467549, -0.4467539, -0.4398098, -0.4398096, -0.4220547]","[0.0, 0.005998, 0.0, 0.0, -0.107696, 0.0, -0.089993, 0.050849, -0.0, 0.089993, 0.050849, -0.0]",0.4,2.2
vinyl_radical,-77.938444522642,10,0.287876897512,"[-10.20537, -10.18319, -0.7730235, -0.5839016, -0.4714263, -0.4387475, -0.2930289, -0.2467258]","[-0.006199, -0.157701, -0.0, -0.001236, 0.132409, 0.0, 0.005539, -0.015994, 0.0, 0.017933, 0.021128, 0.0, -0.016036, 0.020159, -0.0]",0.19,2.5
nitrous_oxide,-184.740942731389,7,0.027411,"[-19.23211, -14.55068, -14.42092, -1.254323, -1.096594, -0.6139609, -0.5744832, -0.5744832, -0.4870274, -0.3537153, -0.3537153]","[0.0, 0.0, -2.009765, -0.0, -0.0, -0.103009, -0.0, -0.0, 2.112775]",0.22,1.8
2_butyne,-156.043658419390,6,1.60312195419e-05,"[-10.16055, -0.7804883, -0.7406756, -0.6662432, -0.4785772, -0.4349289, -0.4301872, -0.4301861, -0.417574, -0.4175728, -0.2535585, -0.2535581]","[-0.0, 0.008682, 0.615206, 0.0, 0.008982, -0.609355, -2.8e-05, -0.012098, 0.411031, 2.8e-05, -0.012086, -0.41599, -0.0, -0.002568, 0.001525, -0.001577, 0.002914, 0.005851, 0.001605, 0.002914, 0.006108, 0.0, -0.002362, -0.001821, 0.001756, 0.002811, -0.006148, -0.001784, 0.002811, -0.006405]",1.27,6.5
hydrogen_diatomic,-1.180121675213,4,0.0,"[-0.4340983]","[-0.0, -0.0, -0.007353, 0.0, 0.0, 0.007353]",0.0,0.6
beryllium_dihydride,-15.923782958937,5,0.0,"[-4.036154, -0.353175, -0.3183432]","[-0.0, -0.0, -0.0, 0.0, 0.0, -6.6e-05, 0.0, 0.0, 6.6e-05]",0.01,0.6
beryllium_monohydride,-15.265981140458,7,0.130879,"[-4.071643, -0.3481305, -0.2015347]","[0.0, -0.0, -0.001846, -0.0, 0.0, 0.001846]",0.01,0.7
sodium_monoxide,-237.494393413278,9,3.041264,"[-38.44289, -19.03668, -2.227009, -1.160107, -1.159221, -1.156249, -0.801415, -0.2714373, -0.21713, -0.2055546]","[-0.0, 0.0, 0.000372, 0.0, -0.0, -0.000372]",0.07,1.6
phosphino_radical,-342.545255830448,6,0.263296,"[-77.05565, -6.55971, -4.725791, -4.718704, -4.715707, -0.6389751, -0.3905217, -0.3143216, -0.2525357]","[0.0, 2e-06, 0.000299, -0.0, 0.000724, -0.000214, 0.0, -0.000726, -8.5e-05]",0.06,1.1
boron_monochloride,-485.030312564626,7,0.626738,"[-101.5606, -9.508499, -7.265518, -7.263172, -7.263172, -6.858247, -0.8930895, -0.515611, -0.3966389, -0.3966389, -0.2674961]","[0.0, 0.0, -0.447576, -0.0, -0.0, 0.447576]",0.16,1.3
ozone,-225.507934300270,7,0.267602000002,"[-19.25652, -19.2565, -1.364056, -1.099106, -0.7979656, -0.6062115, -0.6024314, -0.5999285, -0.3761725, -0.360867, -0.3557099]","[-0.0, -1.5e-05, 0.066757, 0.0, 0.093649, -0.032022, 0.0, -0.093634, -0.034735]",0.17,1.7
water,-76.467219378453,6,0.786075,"[-19.12974, -1.019408, -0.5388362, -0.3966747, -0.3214232]","[0.0, 0.000291, 0.023797, -0.0, -0.030584, -0.010745, -0.0, 0.030293, -0.013052]",0.04,1.0
acetate_anion,-228.623616355768,10,1.45482377053,"[-9.991617, -0.807708, -0.7247201, -0.5315038, -0.3038214, -0.2490139, -0.2409567, -0.2218564, -0.1857556, -0.1598072, -0.04914654, -0.03886147, -0.03118182]","[0.037054, 0.273764, 7.1e-05, 0.004617, 0.063375, 4e-06, -0.01473, 0.016735, 1e-06, -0.020269, -0.008752, 0.02708, -0.020276, -0.008754, -0.02716, 0.246884, -0.157278, 2e-06, -0.23328, -0.179091, 1e-06]",0.87,5.5
tetrachlorosilane,-2130.681737853974,7,0.0,"[-3.76373, -0.9040015, -0.8552384, -0.8552384, -0.8552384, -0.5592794, -0.457298, -0.457298, -0.457298, -0.3847028, -0.3847028, -0.3742689, -0.3742689, -0.3742689, -0.344072, -0.344072, -0.344072]","[0.0, 0.0, 0.0, -0.002713, -0.002713, -0.002888, 0.002713, 0.002713, -0.002892, 0.002714, -0.002714, 0.002888, -0.002714, 0.002714, 0.002892]",1.34,5.5
oxygen_diatomic,-150.387264019346,6,0.0,"[-19.29313, -19.29293, -1.314938, -0.8474192, -0.5747606, -0.5747606, -0.5614304, -0.3201957, -0.3201957]","[-0.0, -0.0, -3.249648, 0.0, 0.0, 3.249648]",0.06,0.9
heptane,-276.510194664115,6,0.037172,"[-10.16031, -0.8076897, -0.7778649, -0.7305357, -0.6709859, -0.6094363, -0.5739473, -0.572738, -0.4821881, -0.4557988, -0.4333682, -0.4264564, -0.417145, -0.4008172, -0.3753081, -0.3714472, -0.3596586, -0.3418489, -0.337636, -0.3260853, -0.3248756, -0.321976, -0.3065602]","[-2.5e-05, -6.1e-05, -0.108269, -2.5e-05, -0.006189, 0.106857, 2.5e-05, 0.006241, 0.107426, 2.6e-05, -0.008194, -0.110057, -2.6e-05, 0.008198, -0.110058, 2.5e-05, -0.044582, 0.056453, -2.5e-05, 0.044584, 0.056453, 0.006432, -1e-06, -0.004628, -0.006406, -1e-06, -0.004049, 0.00607, -0.000209, 0.004494, -0.006044, -0.000209, 0.003918, -0.006072, 0.000211, 0.004495, 0.006046, 0.000211, 0.003919, -0.005337, -0.000609, -0.004578, 0.005311, -0.000609, -0.004008, 0.005337, 0.000609, -0.004578, -0.005311, 0.000609, -0.004009, 0.0, -0.004293, 0.000504, -0.002723, -0.002245, 0.002583, 0.002698, -0.002245, 0.002023, -0.0, 0.004293, 0.000504, 0.002724, 0.002245, 0.002583, -0.002699, 0.002245, 0.002023]",10.08,40.8
methylene_s,-39.151199486854,6,0.763799,"[-10.24757, -0.6773106, -0.4182871, -0.2603083]","[0.0, 3.3e-05, -0.026787, -0.0, -0.030494, 0.013871, 0.0, 0.030462, 0.012917]",0.04,1.3
octane,-315.840064478981,7,0.0,"[-10.15758, -0.8106664, -0.7876946, -0.7501214, -0.7009209, -0.6453126, -0.5945757, -0.5754245, -0.5722487, -0.4852916, -0.4643578, -0.4384486, -0.4324698, -0.4195591, -0.4158383, -0.3950889, -0.3858268, -0.3598596, -0.3597072, -0.3530554, -0.334472, -0.3311764, -0.3227902, -0.3222452, -0.3210259, -0.3085808]","[-0.160291, -0.128689, 8e-05, 0.161353, 0.128021, 8e-05, 0.165119, 0.121077, -7.1e-05, -0.166143, -0.120887, -7.1e-05, -0.161779, -0.140993, 7.5e-05, 0.161579, 0.141218, 7.5e-05, 0.192375, -0.067189, -7.4e-05, -0.192461, 0.067235, -7.4e-05, 0.015604, 0.007261, 0.019249, 0.015616, 0.00727, -0.019345, -0.015385, -0.007168, 0.018902, -0.015397, -0.007177, -0.018998, -0.015375, -0.007808, -0.01904, -0.015385, -0.007817, 0.019137, 0.015312, 0.007776, -0.019013, 0.015322, 0.007786, 0.019109, 0.016505, 0.006368, 0.019412, 0.016514, 0.006378, -0.019507, -0.01652, -0.006333, 0.019396, -0.01653, -0.006343, -0.019491, -0.00051, -0.022744, -1e-06, -0.01963, -0.011528, -0.023078, -0.019639, -0.011535, 0.023165, 0.000502, 0.022751, -1e-06, 0.019618, 0.011531, -0.023075, 0.019627, 0.011537, 0.023162]",14.03,62.1
beryllium_difluoride,-214.700546012525,6,0.0,"[-24.66367, -24.66366, -4.082869, -1.171838, -1.164688, -0.4831744, -0.4742689, -0.4419859, -0.4419859, -0.4206194, -0.4206194]","[-0.0, -0.0, 0.0, 0.0, 0.0, 0.117, 0.0, 0.0, -0.117]",0.08,1.4
dilithium_oxide,-90.352442758286,66,0.00266654889323,"[-18.93461, -1.91521, -1.915049, -0.7173298, -0.182354, -0.1548533, -0.1548526]","[1.4e-05, -3e-06, 0.0, -7e-06, 1e-06, 0.278315, -7e-06, 2e-06, -0.278315]",0.06,3.8
thiophene,-553.107253514616,8,0.171493,"[-5.919897, -0.8841046, -0.739109, -0.7258398, -0.567532, -0.5569518, -0.5198101, -0.4168522, -0.3996032, -0.3925157, -0.3866115, -0.3500124, -0.259622, -0.2442232]","[-0.0, -0.00066, 0.066329, -0.0, 0.28181, 0.435869, 0.0, -0.281434, 0.434838, 0.0, -0.328583, -0.440022, 0.0, 0.328525, -0.435294, 0.0, -0.009359, 0.005499, 0.0, 0.009419, 0.00541, -0.0, 0.030723, -0.036583, -0.0, -0.03044, -0.036046]",5.89,14.7
ketene,-152.669366599600,8,0.579966,"[-19.19543, -10.302, -10.18553, -1.128426, -0.7849357, -0.5485691, -0.4975801, -0.4974493, -0.4631484, -0.4182351, -0.2547656]","[0.0, 1.9e-05, -0.657992, -0.0, 0.0, -1.179749, 0.0, 0.0, 1.840342, 0.0, 0.005376, -0.001173, -0.0, -0.005395, -0.001426]",0.38,2.4
phosphorus_monofluoride,-441.234289430051,8,0.372985,"[-77.1148, -24.71329, -6.611593, -4.773965, -4.773965, -4.771907, -1.238829, -0.639818, -0.4917473, -0.4917473, -0.4602935, -0.2416904, -0.2416904]","[0.0, -0.0, -0.094134, -0.0, 0.0, 0.094134]",0.16,2.1
boron_diatomic,-49.423327665183,6,9e-06,"[-6.843232, -6.842493, -0.5584899, -0.3022431, -0.2532881, -0.2532881]","[-0.0, 0.0, -0.104092, 0.0, -0.0, 0.104092]",0.04,0.8
nitrogen_dioxide,-205.164118810185,7,0.138355,"[-19.24589, -19.24588, -14.57227, -1.297997, -1.151282, -0.688367, -0.5920023, -0.5863232, -0.581977, -0.3965326, -0.3922713, -0.2997582]","[0.0, 1.3e-05, 0.016509, -0.0, -0.386823, -0.0067, 0.0, 0.38681, -0.009809]",0.2,2.0
argon_dimer,-1055.123282939727,5,0.0,"[-8.683626, -8.683613, -8.683613, -0.9704088, -0.9691432, -0.4347233, -0.429102, -0.429102, -0.4271843, -0.4271843, -0.4216511]","[-0.0, -0.0, 0.000458, 0.0, 0.0, -0.000458]",0.05,1.2
sodium_diatomic,-324.627465696506,5,0.0,"[-38.42697, -38.42697, -2.207031, -2.206887, -1.13969, -1.138674, -1.138674, -1.138423, -1.138423, -1.137594, -0.130423]","[-0.0, 0.0, -0.000795, 0.0, -0.0, 0.000795]",0.03,1.1
dimethylamine,-135.225038831980,7,0.416734808449,"[-10.18563, -0.8974882, -0.7007485, -0.6286562, -0.4906195, -0.4446967, -0.4365815, -0.3885877, -0.3674076, -0.3663896, -0.2291013]","[0.086972, -0.509318, 0.000283, -0.048959, 0.291139, 0.215134, -0.049042, 0.291049, -0.215395, 0.006504, 0.020056, 7e-06, 0.016327, -0.012315, -0.000409, 0.016311, -0.012302, 0.000401, -0.011803, -0.007234, -0.001733, -0.011787, -0.00722, 0.001725, -0.002261, -0.026925, 0.016176, -0.002261, -0.02693, -0.016188]",2.92,9.3
cyclobutene,-156.035617788895,6,0.065395,"[-10.17012, -0.8578104, -0.6574862, -0.6457892, -0.5161355, -0.5009995, -0.4642569, -0.3838117, -0.3675778, -0.3337532, -0.3195013, -0.2543771]","[0.0, -0.073728, 0.403269, -0.0, 0.073455, 0.390904, 3e-05, -0.148343, -0.412477, -3e-05, 0.147951, -0.404622, 0.0, 0.006603, 0.009498, -0.0, -0.006172, 0.008842, -0.012762, -0.01741, 0.001175, 0.013165, 0.017527, 0.001435, 0.012731, -0.017411, 0.000857, -0.013134, 0.017528, 0.001117]",1.81,7.7
acetic_acid,-229.190277150859,8,0.715049799083,"[-10.19227, -1.114197, -1.024267, -0.7698215, -0.6189453, -0.5026221, -0.4898532, -0.4808251, -0.4218483, -0.4093125, -0.4039579, -0.3363502, -0.292624]","[-0.167181, 0.077989, 5e-06, -0.053623, 0.137285, 8.7e-05, -0.085799, -0.324344, 2e-06, 0.267703, 0.195262, 3e-06, 0.06378, -0.029651, 0.0, -0.018257, -0.006538, 1e-06, -0.00331, -0.024999, 0.021432, -0.003314, -0.025005, -0.02153]",1.09,5.9
hydrogen_fluoride,-100.492635191785,6,0.737939,"[-24.67515, -1.206334, -0.5570121, -0.4213345, -0.4213345]","[0.0, -0.0, -0.498328, -0.0, 0.0, 0.498328]",0.02,0.9
phosphorus_diatomic,-682.758739625496,6,0.0,"[-4.727349, -4.727349, -4.727142, -4.727142, -4.723973, -4.721745, -0.6859152, -0.466736, -0.2974398, -0.2891132, -0.2891132]","[0.0, 0.0, 0.0708, -0.0, -0.0, -0.0708]",0.12,1.6
sodium_fluoride,-262.241389612264,7,3.117857,"[-38.43989, -24.47094, -2.224692, -1.157341, -1.157341, -1.155722, -0.9487669, -0.2458085, -0.237847, -0.237847]","[-0.0, -0.0, -0.003819, 0.0, 0.0, 0.003819]",0.09,1.0
lithium_diatomic,-15.017783305878,5,0.0,"[-2.004131, -2.003744, -0.1343369]","[0.0, -0.0, 0.001019, -0.0, 0.0, -0.001019]",0.01,0.8
difluoromethane,-239.094553453454,7,0.76963,"[-10.33934, -1.267127, -1.209404, -0.7191211, -0.5636508, -0.5605016, -0.5573393, -0.4386859, -0.4284976, -0.4177666, -0.3583277]","[-1.8e-05, -1e-06, -0.161643, 0.02601, -0.0, -0.027883, -0.025991, -0.0, -0.027251, -0.0, -0.009578, 0.107929, -0.0, 0.009579, 0.108848]",0.36,2.6
propene,-117.960438283539,7,0.165255301767,"[-10.1692, -10.16319, -0.7887446, -0.6873361, -0.5572993, -0.4704903, -0.4250148, -0.4173823, -0.3754068, -0.350922, -0.2622664]","[-0.13897, 0.050122, 1e-06, 0.078817, -0.10984, 4e-06, 0.132846, 0.041178, 8.5e-05, -0.012736, 0.02266, 0.0, -0.01353, -0.007254, 0.0, 0.009804, -0.021479, 0.0, -0.006374, 0.017582, 1e-06, -0.024922, 0.003513, 0.021388, -0.024935, 0.003518, -0.021481]",0.91,6.0
difluorine_monoxide,-274.782171219745,7,0.133893,"[-19.36, -1.352855, -1.242793, -0.9585917, -0.6324356, -0.5874819, -0.563383, -0.4760129, -0.4648399, -0.4576202, -0.3546137]","[-0.0, -1e-06, -0.045324, 0.0, 0.073418, 0.022155, 0.0, -0.073417, 0.023169]",0.17,1.7
phosphorus_monoxide,-416.611169908944,7,0.877667,"[-77.11142, -19.16262, -6.612161, -4.775758, -4.772806, -4.768914, -1.030849, -0.5625047, -0.413835, -0.3991433, -0.3974762, -0.2041167]","[0.0, -0.0, -1.537313, -0.0, 0.0, 1.537313]",0.16,1.4
tert_butyl_radical,-157.864407893903,8,0.0959060004223,"[-10.16149, -0.8053511, -0.6919401, -0.6919398, -0.5370193, -0.4492437, -0.4423193, -0.4423188, -0.3898921, -0.3898916, -0.3693806, -0.3460648, -0.3460645, -0.1786515]","[-9.3e-05, 0.019797, 0.021553, -3.7e-05, -0.179652, 0.096121, -0.107052, 0.088954, 0.082234, 0.10716, 0.08896, 0.082036, -0.0, 0.021889, -0.090364, 0.016696, -0.018519, -0.001217, -0.016661, -0.018518, -0.000813, 0.022579, -0.015005, -0.092094, -0.016512, -0.007449, 0.001548, -0.000583, 0.020992, -0.004243, -0.022578, -0.015005, -0.092093, 0.0006, 0.020961, -0.00463, 0.016482, -0.007405, 0.001962]",2.4,16.8
lithium_fluoride,-107.476928590832,6,2.423588,"[-24.51265, -1.996667, -0.9987306, -0.2960347, -0.2823914, -0.2823914]","[-0.0, -0.0, -0.388594, 0.0, 0.0, 0.388594]",0.04,0.7
acetyl_fluoride,-253.208838375414,8,1.17310719774,"[-10.20669, -1.258866, -1.087627, -0.7836066, -0.6264137, -0.5321555, -0.5222358, -0.5083057, -0.4454445, -0.4400351, -0.4099829, -0.3875097, -0.3236398]","[-0.194281, 0.0645, 5e-06, -0.040639, 0.126251, 0.000104, -0.103724, -0.327019, 2e-06, 0.365868, 0.1895, 4e-06, -0.02184, -0.009367, 2e-06, -0.002689, -0.021931, 0.014646, -0.002695, -0.021934, -0.014763]",1.08,5.3
lithium_hydroxide,-83.423983656210,7,1.669997,"[-19.01107, -1.978081, -0.8527042, -0.3799159, -0.2218653, -0.2218653]","[-0.0, -0.0, -0.30446, 0.0, 0.0, -0.236113, 0.0, 0.0, 0.540574]",0.1,1.0
propyne,-116.706184895532,7,0.329742000183,"[-10.20093, -10.17647, -10.16068, -0.7838999, -0.7042296, -0.5316927, -0.4541215, -0.4399614, -0.4399475, -0.2744485, -0.2744469]","[2.9e-05, -0.011783, -0.397465, 0.0, 0.007428, -0.666734, 0.0, 0.001276, 0.965743, 0.0, 7.2e-05, 0.094417, 0.0, -0.008882, 0.004339, -0.00321, 0.005944, -2.1e-05, 0.00318, 0.005944, -0.000279]",0.54,3.2
aluminum_monosulfide,-640.682852955102,9,1.531914,"[-5.867675, -5.860138, -5.860138, -4.174862, -2.726713, -2.726713, -2.726247, -0.6726694, -0.372247, -0.2616758, -0.2586514, -0.2586514]","[-0.0, -0.0, 0.01306, 0.0, 0.0, -0.01306]",0.25,1.9
boron_monocarbide,-62.687650999053,11,0.500779,"[-10.26814, -6.849596, -0.7047839, -0.38068, -0.3086384, -0.3086384, -0.2914987]","[-0.0, 0.0, -0.347894, 0.0, -0.0, 0.347894]",0.09,1.5
boron_trichloride,-1405.694987623768,7,6.3e-05,"[-6.901523, -0.9016715, -0.8531281, -0.8531218, -0.5362207, -0.4637907, -0.4637864, -0.4175861, -0.359088, -0.3590839, -0.3537414, -0.3537372, -0.3258474]","[0.0, 0.01188, -0.0, 0.0, -0.144855, 0.0, -0.066308, 0.066487, 0.0, 0.066308, 0.066487, 0.0]",0.69,3.9
ethyl_radical,-79.194889395968,7,0.132564490027,"[-10.17729, -10.16748, -0.7605826, -0.6126694, -0.4562578, -0.4199101, -0.3961171, -0.362674, -0.2074351]","[0.04993, 0.156743, 7.6e-05, -0.003088, -0.203827, -4.2e-05, -0.021273, 0.02001, 1e-06, -0.018025, -0.008692, 0.020418, -0.01803, -0.008698, -0.020501, 0.005242, 0.02223, -0.032524, 0.005243, 0.022234, 0.032573]",0.36,7.9
magnesium_hydroxide,-275.979056056789,70,0.492502146925,"[-46.79031, -19.0516, -3.111276, -1.855506, -1.855506, -1.852477, -0.9086546, -0.4489842, -0.2702783, -0.2702767, -0.1912838]","[2.4e-05, 2.4e-05, 0.275754, 3e-06, 3e-06, 0.365923, -2.7e-05, -2.7e-05, -0.641677]",0.17,14.8
hydrogen_peroxide,-151.618256816316,7,0.651602,"[-19.1926, -19.19254, -1.130126, -0.9170683, -0.5289766, -0.5169741, -0.4378217, -0.3474459, -0.2964837]","[0.105374, -0.222388, 0.038698, -0.105584, 0.2224, 0.037467, -0.158855, -0.039438, -0.038026, 0.159065, 0.039425, -0.038139]",0.12,1.9
propane,-119.195665702344,6,0.0357870370246,"[-10.15592, -0.781791, -0.6820659, -0.5860388, -0.4595058, -0.4374218, -0.4018685, -0.3842536, -0.3409771, -0.3375738, -0.3307959]","[0.000141, -0.168052, 4.5e-05, 0.085673, 0.11663, 8.3e-05, -0.085806, 0.116609, -5.8e-05, 1e-06, 0.024505, 0.015755, -4.2e-05, 0.024526, -0.015831, 0.014397, -0.007297, 2e-06, -0.014371, -0.007271, 3e-06, -0.00281, -0.024904, 0.017303, -0.002811, -0.024918, -0.017397, 0.002805, -0.024906, -0.017299, 0.002825, -0.024922, 0.017396]",1.33,6.8
butane,-158.524723069937,7,0.0,"[-10.15714, -0.7959901, -0.7246636, -0.6304597, -0.5765615, -0.4714625, -0.4285451, -0.421702, -0.4131082, -0.3703801, -0.3523295, -0.3364512, -0.3248724, -0.3248201]","[0.03583, -0.192548, 6.8e-05, -0.131729, 0.098268, -7.9e-05, 0.132416, -0.089213, -7.9e-05, -0.036433, 0.182896, 6.8e-05, -0.017448, -0.017577, 1e-06, 0.017778, 0.017623, 1e-06, -0.019516, 0.008608, 0.022537, -0.019523, 0.008615, -0.022619, 0.019307, -0.008543, 0.022225, 0.019315, -0.00855, -0.022307, 0.01535, -0.008336, -0.019316, 0.015361, -0.008344, 0.01941, -0.015348, 0.008546, -0.01939, -0.015359, 0.008554, 0.019483]",2.69,14.7
carbon_dioxide,-188.667888024789,6,0.0,"[-19.21312, -19.21311, -10.36924, -1.171423, -1.131965, -0.5737801, -0.5317131, -0.528293, -0.528293, -0.3846865, -0.3846865]","[-0.0, -0.0, -1e-06, 0.0, 0.0, 1.763791, 0.0, 0.0, -1.763791]",0.19,1.6
magnesium_monohydride,-200.655209463005,7,0.531029,"[-46.79565, -3.114288, -1.858725, -1.858725, -1.854741, -0.2960945, -0.1735557]","[-0.0, -0.0, 0.002547, 0.0, 0.0, -0.002547]",0.02,0.9
cyclopropene,-116.669111652316,7,0.177924,"[-10.18956, -10.18832, -10.1845, -0.8722829, -0.603341, -0.5692834, -0.5093207, -0.441125, -0.3535219, -0.3015367, -0.2589445]","[1.8e-05, -0.001241, 0.395796, 0.0, 0.173371, -0.16088, 0.0, -0.172714, -0.219634, 0.0, -0.013406, -0.003793, 0.0, 0.01412, -0.003301, -0.001215, -6.5e-05, -0.004237, 0.001197, -6.5e-05, -0.003951]",0.65,3.7
cyclobutane,-157.275322545314,6,0.0,"[-10.16466, -0.8440882, -0.6542858, -0.6542858, -0.5488626, -0.4782722, -0.4781962, -0.3845641, -0.3845641, -0.3538684, -0.3176509, -0.308473, -0.308473]","[0.000227, -0.246261, -0.130457, 0.000227, 0.246711, -0.130864, 0.246389, -0.000227, 0.130539, -0.24684, -0.000227, 0.130947, 5e-06, -0.009909, 0.003962, 6e-06, 0.032399, 0.092457, 5e-06, 0.009923, 0.003969, 6e-06, -0.032388, 0.092437, 0.009535, -5e-06, -0.003935, -0.032181, -6e-06, -0.092567, -0.009549, -5e-06, -0.003942, 0.03217, -6e-06, -0.092547]",2.48,11.1
silylene_s,-290.648190670510,6,0.0682423766658,"[-66.11214, -5.291176, -3.654764, -3.645897, -3.643238, -0.5111968, -0.3330001, -0.2444935]","[-0.0, 0.006033, -0.005578, 0.0, -0.00076, 0.005084, -0.0, -0.005273, 0.000494]",0.07,0.9
aluminum_monohydride,-243.010703230743,5,0.083655,"[-56.01976, -4.13647, -2.690446, -2.690446, -2.682767, -0.3665991, -0.2075371]","[0.0, -0.0, 0.003705, -0.0, 0.0, -0.003705]",0.04,0.9
beryllium_oxide,-89.941781086436,10,2.489689,"[-19.04885, -4.074418, -0.8479838, -0.2981192, -0.2644364, -0.2644364]","[-0.0, 0.0, -0.104702, 0.0, -0.0, 0.104702]",0.04,0.8
