,Energy,Iterations,Dipole Moment,Eigens,Derivatives,Derivative Time,Wall Time
bicyclo[3.1.0]hexane,-233.024179163834,12,0.0713595934546,"[-11.2248, -11.2241, -11.2205, -11.2204, -11.2203, -11.2188, -1.172963, -1.024036, -0.9585211, -0.8450496, -0.7573252, -0.7466451, -0.6857074, -0.6280214, -0.5902994, -0.5605098, -0.5450499, -0.4936229, -0.4745281, -0.4687955, -0.4626195, -0.3984161, -0.3837084]","[-0.000346, -0.002759, 0.0, -0.001479, 0.000391, -0.0, 0.000313, -0.002109, -0.002892, 0.000313, -0.002109, 0.002892, 0.000739, 0.003214, 0.005398, 0.000739, 0.003214, -0.005398, 0.000481, 0.000291, 0.0, 0.000391, 0.002073, -0.0, -0.000523, -0.001137, -0.0, -0.0, 5.7e-05, -0.0, -0.000598, -0.000125, -0.000276, -0.000598, -0.000125, 0.000276, 0.000164, -0.000179, 0.00044, 0.000164, -0.000179, -0.00044, 0.000119, -0.000261, -0.000444, 0.000119, -0.000261, 0.000444]",4.34,85.4
phosphine,-342.471997879262,4,0.280488000064,"[-79.9554, -7.496164, -5.390028, -5.390028, -5.388636, -0.8566768, -0.5188444, -0.5188432, -0.3880485]","[-0.0, 9e-06, 0.008852, -0.0, 0.001402, -0.002954, -0.001226, -0.000705, -0.002949, 0.001226, -0.000705, -0.002949]",0.08,1.5
beryllium_sulfide,-412.129932699077,5,2.572351,"[-91.8969, -8.899327, -6.580615, -6.578616, -6.578616, -4.778124, -0.8617111, -0.4174294, -0.3366311, -0.3366311]","[-0.0, -0.0, -0.002917, 0.0, 0.0, 0.002917]",0.23,1.7
C,-37.687763267131,4,0.0,"[-11.3514, -0.8303902, -0.4381835, -0.4381835]","[0.0, -0.0, -0.0]",0.0,0.2
lithium_oxide,-82.294600315289,4,2.691288,"[-20.4843, -2.446977, -1.180127, -0.4956253, -0.4274921, -0.4040671]","[-0.0, -0.0, 0.00242, 0.0, 0.0, -0.00242]",0.06,0.5
carbon_monoxide,-112.754692915947,5,0.102177,"[-20.6785, -11.3738, -1.529924, -0.8083061, -0.6409988, -0.6409988, -0.5546882]","[0.0, -0.0, -0.046725, -0.0, 0.0, 0.046725]",0.07,0.5
magnesium_oxide,-274.356768748132,6,3.536367,"[-49.0546, -20.4582, -3.797038, -2.313513, -2.313513, -2.312307, -1.088201, -0.354935, -0.354935, -0.3207504]","[-0.0, 0.0, -0.002776, 0.0, -0.0, 0.002776]",0.2,1.7
aluminum_nitride,-296.277875133363,3,0.613578,"[-58.5123, -15.61419, -4.922217, -3.235976, -3.231423, -3.228998, -1.116962, -0.5887612, -0.5231668, -0.4553459, -0.340587]","[-0.0, -0.0, 0.029607, 0.0, 0.0, -0.029607]",0.21,2.5
imidogen,-54.971995261157,4,0.645866,"[-15.6491, -1.175516, -0.5872322, -0.5459712, -0.5459712]","[0.0, 0.0, -0.00714, -0.0, -0.0, 0.00714]",0.01,0.3
methyl_formate,-227.819903705703,5,0.801059397753,"[-20.627, -20.5708, -11.3992, -11.3008, -1.469859, -1.371034, -0.9913701, -0.8238502, -0.7388068, -0.6819587, -0.6752586, -0.5951049, -0.5526129, -0.540396, -0.470401, -0.466082]","[-0.019133, 0.02661, 0.0, 0.004301, -0.005665, 0.0, 0.010447, -0.05708, -0.0, 0.005536, 0.033039, -0.0, -0.003901, 0.005804, 0.0, 0.000626, 0.00233, 0.0, 0.001062, -0.002519, 0.002325, 0.001062, -0.002519, -0.002325]",0.58,3.7
hypochlorite,-534.268063258223,5,0.315051,"[-104.9199, -20.7103, -10.64246, -8.109439, -8.1087, -8.104845, -1.492545, -1.068297, -0.7435978, -0.6722677, -0.669754, -0.490348, -0.4579669]","[0.0, -0.0, 0.034509, -0.0, 0.0, -0.034509]",0.21,2.0
methanol,-115.061072453049,4,0.713381311292,"[-20.5667, -11.28211, -1.359, -0.9262721, -0.689227, -0.6192548, -0.5959296, -0.5021474, -0.4491019]","[-0.007235, 0.00994, -0.0, -0.008412, -0.009073, 0.0, -0.005109, 0.007471, 0.0, 0.002827, -0.001579, 0.002506, 0.002827, -0.001579, -0.002506, 0.015102, -0.00518, 0.0]",0.18,0.8
vinyl_fluoride,-176.907357991729,5,0.63732488983,"[-26.3197, -11.3387, -11.24668, -1.629849, -1.052416, -0.8406437, -0.7371699, -0.6882023, -0.6806761, -0.5901774, -0.5598587, -0.3839401]","[-0.005949, 0.011468, 0.0, 0.021509, -0.003476, -0.0, -0.007433, -0.003205, 0.0, -0.006164, 0.001878, 0.0, -0.002252, -0.005479, -0.0, 0.000289, -0.001185, 0.0]",0.28,1.5
formaldehyde,-113.885060267108,4,1.120305,"[-20.5894, -11.35418, -1.412912, -0.8692584, -0.6929177, -0.6541771, -0.538542, -0.4416145]","[-0.0, 0.0, 0.038951, 0.0, 0.0, -0.027519, -0.0, 0.006966, -0.005716, 0.0, -0.006966, -0.005716]",0.14,0.6
sulfur_diatomic,-795.067318525746,32,0.0,"[-6.7111, -6.7111, -6.711022, -6.711022, -6.702594, -6.701628, -1.12352, -0.8704818, -0.5401251, -0.5401241, -0.5387207, -0.3813283, -0.381324]","[0.0, 0.0, 0.129299, -0.0, -0.0, -0.129299]",0.15,2.4
acetaldehyde,-152.937351986086,4,1.31630270039,"[-20.5716, -11.3484, -11.25164, -1.391304, -1.024615, -0.8044994, -0.6742821, -0.6231477, -0.6047783, -0.5606619, -0.501327, -0.4279743]","[0.05911, -0.00581, 0.0, -0.049923, 0.000918, -0.0, -0.002497, 0.00387, 0.0, -0.005388, 0.004401, -0.0, 0.002105, -0.001432, -0.0, -0.001703, -0.000973, 0.001286, -0.001703, -0.000973, -0.001286]",0.34,1.9
boron_monosulfide,-422.173356135361,5,0.570862,"[-91.9592, -8.964474, -7.724174, -6.648738, -6.640687, -6.640687, -0.9815126, -0.5936848, -0.4637465, -0.4059436, -0.4059436]","[-0.0, -0.0, 0.003165, 0.0, 0.0, -0.003165]",0.23,2.1
beryllium_monofluoride,-114.126339451276,4,0.496788,"[-26.2784, -4.740301, -1.564267, -0.696965, -0.6334944, -0.6334944, -0.3400674]","[0.0, -0.0, 0.022204, -0.0, 0.0, -0.022204]",0.06,0.5
phosphorus_tribromide,-8057.963304867602,5,0.188764000024,"[-490.0946, -490.0946, -490.0946, -80.1069, -65.2315, -65.2315, -65.2315, -58.5882, -58.5882, -58.5882, -58.5869, -58.5869, -58.5869, -58.5869, -58.5869, -58.5869, -9.8832, -9.8832, -9.8831, -7.6365, -7.4959, -7.4959, -7.4959, -7.4877, -7.4877, -7.4877, -7.4875, -7.4875, -7.4875, -5.5279, -5.5279, -5.5256, -3.2325, -3.2325, -3.2325, -3.229, -3.229, -3.229, -3.2288, -3.2288, -3.2288, -3.2196, -3.2196, -3.2196, -3.2196, -3.2196, -3.2196, -1.108619, -1.03295, -1.03295, -0.7850511, -0.5584625, -0.5584625, -0.5275828, -0.4667109, -0.4667109, -0.4286787, -0.4286787, -0.4204554, -0.3836306]","[0.0, 0.0, -0.009211, 0.0, -0.006923, 0.00307, -0.005995, 0.003461, 0.00307, 0.005995, 0.003461, 0.00307]",4.87,34.9
sulfur_dioxide,-547.206060861741,4,0.79785,"[-92.2043, -20.6369, -20.6369, -9.1846, -6.8672, -6.865, -6.863034, -1.517115, -1.41135, -0.877028, -0.7046269, -0.7003245, -0.6704449, -0.5443167, -0.5209484, -0.4918622]","[0.0, -0.0, 0.011371, -0.0, 0.001871, -0.005686, -0.0, -0.001871, -0.005686]",0.31,1.7
decane,-391.547671274752,4,0.0,"[-11.218, -11.218, -11.2158, -11.2157, -11.2154, -11.2152, -11.2149, -11.2147, -11.2138, -11.2138, -1.097258, -1.076994, -1.04336, -0.9978681, -0.9429729, -0.8826415, -0.8251549, -0.7896103, -0.7846852, -0.7807554, -0.659949, -0.641922, -0.6132736, -0.5938181, -0.5855372, -0.5772151, -0.5698015, -0.5385107, -0.5383838, -0.5326743, -0.5030486, -0.5015483, -0.4763621, -0.4756671, -0.471564, -0.46134, -0.4602435, -0.4562609, -0.456084, -0.4541934, -0.4193864]","[-0.000906, -0.000622, -0.0, 0.000906, 0.000622, 0.0, 0.000896, 0.000588, -0.0, -0.000896, -0.000588, -0.0, -0.001098, -0.000384, 0.0, 0.001098, 0.000384, -0.0, 0.000977, 4.5e-05, 0.0, -0.000977, -4.5e-05, -0.0, 0.000652, -0.000963, -0.0, -0.000652, 0.000963, 0.0, 7.9e-05, 5.8e-05, 0.000597, 7.9e-05, 5.8e-05, -0.000597, -7.9e-05, -5.8e-05, 0.000597, -7.9e-05, -5.8e-05, -0.000597, -5.8e-05, -4.5e-05, -0.000554, -5.8e-05, -4.5e-05, 0.000554, 5.8e-05, 4.5e-05, -0.000554, 5.8e-05, 4.5e-05, 0.000554, 6.7e-05, 4e-05, 0.000519, 6.7e-05, 4e-05, -0.000519, -6.7e-05, -4e-05, 0.000519, -6.7e-05, -4e-05, -0.000519, 0.000475, -0.000511, -7.2e-05, 0.000475, -0.000511, 7.2e-05, -0.000475, 0.000511, -7.2e-05, -0.000475, 0.000511, 7.2e-05, 0.000784, -0.000228, -0.0, -0.000105, -0.000857, -0.000671, -0.000105, -0.000857, 0.000671, -0.000784, 0.000228, -0.0, 0.000105, 0.000857, -0.000671, 0.000105, 0.000857, 0.000671]",30.95,136.8
methanethiol_radical,-437.127542981069,4,0.694206707208,"[-91.9731, -11.2689, -8.974645, -6.670287, -6.652521, -6.649539, -1.054706, -0.8609758, -0.6079495, -0.5997763, -0.5006634, -0.4296166, -0.3692156]","[0.010967, -0.000369, 0.006711, -0.010088, 0.000119, -0.003164, -0.003122, 9.4e-05, -0.001389, 0.00117, 0.001861, -0.00106, 0.001073, -0.001705, -0.001098]",0.44,2.3
hydroxyl_radical,-75.403656889667,4,0.696618,"[-20.6514, -1.393083, -0.6843102, -0.6571305, -0.5616103]","[0.0, -0.0, -0.015504, -0.0, 0.0, 0.015504]",0.01,0.3
lithium_monosulfide,-405.004812052181,4,2.898076,"[-91.8878, -8.889432, -6.584628, -6.566458, -6.565858, -2.483488, -0.8569064, -0.3828718, -0.3478643, -0.3189289]","[-0.0, -0.0, 0.006188, 0.0, 0.0, -0.006188]",0.22,1.5
B,-24.530573774302,4,0.0,"[-7.7045, -0.5457962, -0.317329]","[-0.0, 0.0, 0.0]",0.0,0.2
phosphorus_dioxide,-490.448529521993,18,0.742261,"[-5.557511, -5.552897, -5.551803, -1.439965, -1.38961, -0.800015, -0.6827504, -0.650797, -0.6177064, -0.5510811, -0.5295452, -0.4734658]","[-0.0, -1e-05, -0.071524, 0.0, 0.018582, 0.035686, 0.0, -0.018572, 0.035838]",0.24,1.8
formaldoxime_zwitterion,-168.842872588426,5,1.77228530984,"[-20.5372, -15.747, -11.31034, -1.456532, -1.158567, -0.8964016, -0.7542766, -0.6747728, -0.6173267, -0.5935542, -0.4326758, -0.3527801]","[0.044505, -0.015409, -0.000168, -0.032232, 0.000502, 0.001424, -0.01739, -0.007023, -0.000133, 0.001136, -0.006322, -9.2e-05, 0.005072, 0.003566, 0.000282, -0.001092, 0.024686, -0.001313]",0.52,2.1
tetrafluoroethylene,-473.477962667393,5,0.0,"[-26.3836, -26.3836, -26.3836, -26.3836, -11.4581, -11.4563, -1.7377, -1.7226, -1.6745, -1.6643, -1.113145, -0.9238528, -0.8705071, -0.8477601, -0.8081799, -0.7932459, -0.7658311, -0.742255, -0.7179894, -0.7114099, -0.6974904, -0.682199, -0.6811839, -0.4106079]","[0.0, -0.0, -0.009488, 0.0, 0.0, 0.009488, -0.0, 0.015886, 0.011243, -0.0, -0.015886, 0.011243, -0.0, -0.015886, -0.011243, -0.0, 0.015886, -0.011243]",0.66,3.5
boron_dioxide,-174.452186169801,5,0.0,"[-20.6739, -20.67388, -7.690415, -1.440465, -1.438808, -0.7236654, -0.7071052, -0.7025796, -0.6484716, -0.6472011, -0.5787424]","[0.0, -0.0, 0.0, -0.0, 0.0, 0.014795, -0.0, 0.0, -0.014795]",0.13,0.9
cyano_radical,-92.216966087066,3,0.860772,"[-15.6165, -11.36702, -1.24767, -0.7433232, -0.5672877, -0.5204218, -0.5204218]","[0.0, 0.0, -0.017193, -0.0, -0.0, 0.017193]",0.07,0.9
boron_nitride,-79.001621505820,6,1.102226,"[-15.6117, -7.713371, -1.139396, -0.596361, -0.5100967, -0.4942741, -0.4309904]","[0.0, -0.0, -0.036806, -0.0, 0.0, 0.036806]",0.07,0.8
acetyl_chloride,-611.877269666648,5,1.22535367534,"[-104.847, -20.6082, -11.4236, -11.2816, -10.5741, -8.0416, -8.0385, -8.0383, -1.455895, -1.139227, -1.028616, -0.7801855, -0.6795621, -0.6732672, -0.642277, -0.5790855, -0.5536688, -0.4698102, -0.4688644, -0.4550219]","[0.022551, -0.02412, -0.0, -0.014431, -0.008497, 0.0, -0.029941, 0.03066, -0.0, 0.001027, -0.004842, -0.0, 0.007091, 0.010832, 0.0, 0.006852, -0.002016, 0.009771, 0.006852, -0.002016, -0.009771]",1.34,5.8
magnesium_diatomic,-399.213946353956,3,0.0,"[-49.0312, -49.0312, -3.766913, -3.766897, -2.281307, -2.281307, -2.281306, -2.281306, -2.281306, -2.28127, -0.2830322, -0.2269733]","[0.0, -0.0, 0.002652, -0.0, 0.0, -0.002652]",0.12,1.3
methyl_chloride,-499.119939881968,4,0.830048000073,"[-104.828, -11.3063, -10.554, -8.021732, -8.018391, -8.018391, -1.129564, -0.9103771, -0.6064922, -0.6064919, -0.552097, -0.4365668, -0.4365668]","[-1.6e-05, -0.0, 0.033409, 1e-06, 0.0, 0.001401, 0.015533, -0.0, -0.011606, -0.007759, 0.01343, -0.011601, -0.007759, -0.01343, -0.011601]",0.43,2.1
dimethyl_ether,-154.085959106742,4,0.572775,"[-20.563, -11.2778, -11.2778, -1.376456, -0.9688153, -0.8745114, -0.6619734, -0.6509955, -0.6348008, -0.5505787, -0.5291946, -0.4782194, -0.4220389]","[0.0, 0.0, 0.004087, -0.0, 0.007758, -0.004675, 0.0, -0.007758, -0.004675, -0.0, 0.007284, 0.001741, -0.0, -0.007284, 0.001741, 0.002183, -0.003435, 0.000445, -0.002183, -0.003435, 0.000445, -0.002183, 0.003435, 0.000445, 0.002183, 0.003435, 0.000445]",0.63,2.5
methyl_ketene,-190.785212564566,5,0.888398308686,"[-20.6304, -11.3827, -11.2516, -11.2488, -1.466901, -1.085119, -0.9344374, -0.7455633, -0.6831983, -0.6379837, -0.6185584, -0.5790268, -0.5563963, -0.5332283, -0.3452384]","[0.029896, 0.012452, -3.5e-05, 0.013131, 0.001229, -1.1e-05, -0.000998, 0.002339, 1.1e-05, -0.042089, -0.016633, 2.6e-05, 0.001156, 0.000458, 9e-06, -0.000298, 0.000688, -0.0, -0.000402, -0.000264, 0.000512, -0.000396, -0.000268, -0.000513]",0.64,3.8
tetrafluorosilane,-686.994400694605,5,0.0,"[-68.9856, -26.3546, -26.3546, -26.3546, -26.3546, -6.3144, -4.4238, -4.4238, -4.4238, -1.6879, -1.6478, -1.6478, -1.6478, -0.8708862, -0.7895961, -0.7895961, -0.7895961, -0.7322175, -0.7322175, -0.7137567, -0.7137567, -0.7137567, -0.6816658, -0.6816658, -0.6816658]","[-0.0, -0.0, -0.0, -0.011918, -0.011918, -0.011918, 0.011918, 0.011918, -0.011918, 0.011918, -0.011918, 0.011918, -0.011918, 0.011918, 0.011918]",0.53,3.2
silicon_monosulfide,-686.484579907822,4,0.890027,"[-91.9437, -68.8474, -8.9483, -6.6292, -6.6274, -6.627417, -6.191587, -4.292424, -4.292401, -4.292401, -0.9476441, -0.5766485, -0.3916121, -0.39064, -0.39064]","[-0.0, -0.0, 0.002736, 0.0, 0.0, -0.002736]",0.57,2.0
sulfur_monochloride,-857.007141075760,20,0.166115,"[-8.069555, -8.066217, -6.733048, -6.717192, -6.7122, -1.184068, -0.9311968, -0.5710033, -0.5667096, -0.5423505, -0.4342436, -0.38716]","[0.0, -0.0, 0.097147, -0.0, 0.0, -0.097147]",0.42,2.2
neon_dimer,-256.992639770677,2,0.0,"[-32.7948, -32.79479, -1.940583, -1.940048, -0.8565917, -0.8533771, -0.8533771, -0.8524333, -0.8524333, -0.8493638]","[0.0, 0.0, 0.000192, -0.0, -0.0, -0.000192]",0.01,0.3
formaldoxime,-168.873684353126,5,0.276385359332,"[-20.6108, -15.6471, -11.28652, -1.432477, -1.16298, -0.829478, -0.7280663, -0.653505, -0.5961129, -0.5938819, -0.4550623, -0.4066936]","[0.031173, -0.02234, -0.0, -0.016226, 0.037812, 0.0, -0.004714, -0.02973, -0.0, -0.001701, -0.00181, -0.0, 0.00193, 0.005297, -0.0, -0.010463, 0.010771, -0.0]",0.52,1.9
lithium_chloride,-467.037645085678,4,2.866945,"[-104.729, -10.45604, -7.9225, -7.921475, -7.921475, -2.489745, -0.9746856, -0.40957, -0.3802492, -0.3802492]","[-0.0, -0.0, 0.008419, 0.0, 0.0, -0.008419]",0.22,1.3
isopropyl_radical,-117.649290544947,4,0.0936980654069,"[-11.2318, -11.2207, -11.22069, -1.064811, -0.93607, -0.7895711, -0.6185546, -0.5983588, -0.5623858, -0.5360448, -0.495858, -0.4902309, -0.3274789]","[-0.000213, -0.006551, -0.0, 0.000251, 0.003914, -0.006945, 0.000251, 0.003914, 0.006945, -5e-06, 0.001411, 0.0, 0.000256, 0.00109, 0.001423, 0.000256, 0.00109, -0.001423, -0.001398, -0.001052, 0.000498, 0.001, -0.001382, -0.000443, 0.001, -0.001382, 0.000443, -0.001398, -0.001052, -0.000498]",0.51,3.3
cyanogen,-184.611926544802,5,0.0,"[-15.6655, -15.6655, -11.3645, -11.36352, -1.308937, -1.284483, -0.9792273, -0.6398736, -0.6238475, -0.601701, -0.601701, -0.5003109, -0.5003109]","[-0.0, 0.0, -0.050337, -0.0, -0.0, 0.050337, 0.0, 0.0, 0.042515, 0.0, 0.0, -0.042515]",0.24,1.3
boron_monohydride,-25.126427155751,4,0.688429,"[-7.6916, -0.649808, -0.3473882]","[0.0, -0.0, 0.000323, -0.0, 0.0, -0.000323]",0.01,0.2
thiirane,-475.577357874937,5,0.881446,"[-91.9464, -11.2828, -11.2821, -8.9485, -6.6304, -6.6285, -6.626302, -1.146089, -0.8470694, -0.8334168, -0.6729217, -0.6096622, -0.545208, -0.4411184, -0.4278483, -0.3457433]","[0.0, -0.0, -0.00508, -0.0, 0.003115, 0.003078, 0.0, -0.003115, 0.003078, -0.002402, 0.000481, -0.000269, 0.002402, 0.000481, -0.000269, 0.002402, -0.000481, -0.000269, -0.002402, -0.000481, -0.000269]",0.7,4.8
sodium_chloride,-621.438404330437,4,3.684039,"[-104.7047, -40.5013, -10.4298, -7.8962, -7.895406, -7.895406, -2.824475, -1.546729, -1.546611, -1.546611, -0.9425764, -0.3705966, -0.3526018, -0.3526018]","[-0.0, -0.0, 0.006334, 0.0, 0.0, -0.006334]",0.52,1.9
magnesium_sulfide,-597.116565198944,4,3.687427,"[-91.8732, -49.0994, -8.8728, -6.5546, -6.551507, -6.551507, -3.837574, -2.354766, -2.354069, -2.354069, -0.8058763, -0.3364647, -0.2979169, -0.2979169]","[0.0, 0.0, 0.003973, -0.0, -0.0, -0.003973]",0.57,2.1
methyl_silane,-330.292946241663,4,0.286727008791,"[-68.7751, -11.2181, -6.1233, -4.229387, -4.229387, -4.229231, -0.9502714, -0.7003857, -0.5638231, -0.5638079, -0.4661435, -0.4661344, -0.4552376]","[-0.0, -4e-05, 0.011132, -0.0, -2.8e-05, -0.00592, 0.0, -0.002623, -0.000562, -0.002305, 0.001332, -0.000577, 0.002305, 0.001332, -0.000577, 0.0, -0.002403, -0.001159, 0.002105, 0.001215, -0.001169, -0.002105, 0.001215, -0.001169]",0.62,4.9
aluminum_trichloride,-1620.659792237431,4,1.2e-05,"[-104.8433, -104.8433, -104.8433, -58.5991, -10.5723, -10.5723, -10.5723, -8.0393, -8.0393, -8.0393, -8.037, -8.037, -8.037, -8.0368, -8.0368, -8.0368, -5.0064, -3.3217, -3.3214, -3.3214, -1.121236, -1.100528, -1.100527, -0.6226346, -0.5506183, -0.5506181, -0.5128504, -0.4939394, -0.4939386, -0.4856699, -0.4856693, -0.467615]","[-0.0, -4e-06, 0.0, 0.0, -0.015742, 0.0, -0.013637, 0.007873, -0.0, 0.013637, 0.007873, -0.0]",1.13,6.3
methanethiol,-437.728959920290,4,0.690661314716,"[-91.9533, -11.2717, -8.9557, -6.637959, -6.636497, -6.634331, -1.039278, -0.8664687, -0.6064342, -0.5908657, -0.5379774, -0.4511167, -0.3550284]","[0.005631, -0.009754, -0.003115, -0.004792, 0.015725, 0.006055, 0.001429, -0.007359, -0.002906, 0.004295, 0.008879, -0.004802, -0.008694, -0.009541, -0.005339, 0.002131, 0.002049, 0.010107]",0.49,2.8
hypochlorous_acid,-534.887103159088,4,0.645822997303,"[-104.8923, -20.6555, -10.6133, -8.081452, -8.076675, -8.076423, -1.420607, -1.06495, -0.7247619, -0.6149961, -0.6062969, -0.4700254, -0.4449264]","[0.021037, 0.005441, -0.0, -0.018391, -0.000688, 0.0, -0.002646, -0.004752, 0.0]",0.35,1.7
lithium_hydride,-7.984169248956,4,2.372667,"[-2.4539, -0.3011643]","[-0.0, -0.0, 0.003013, 0.0, 0.0, -0.003013]",0.01,0.3
monosulfur_monofluoride,-496.925282273518,4,0.450915,"[-92.0729, -26.3532, -9.065796, -6.760657, -6.743948, -6.738996, -1.649332, -0.9909732, -0.7324804, -0.7176581, -0.6812179, -0.4726955, -0.4087341]","[-0.0, -0.0, 0.010342, 0.0, 0.0, -0.010342]",0.2,1.4
ammonia,-56.205386617595,4,0.63934900045,"[-15.5518, -1.144148, -0.6286222, -0.6285991, -0.4289927]","[-0.0, -4.3e-05, 0.00986, 0.0, -0.006324, -0.003275, 0.005507, 0.003184, -0.003293, -0.005507, 0.003184, -0.003293]",0.02,0.4
boron_monofluoride,-124.114970065240,4,0.344436,"[-26.3895, -7.725938, -1.707568, -0.8589172, -0.7469479, -0.7469479, -0.4060754]","[0.0, 0.0, 0.008385, -0.0, -0.0, -0.008385]",0.07,0.4
carbon_tetrafluoride,-435.695066053671,5,0.0,"[-26.3891, -26.3891, -26.3891, -26.3891, -11.6217, -1.8168, -1.6887, -1.6887, -1.6887, -1.018164, -0.8961823, -0.8961823, -0.8961823, -0.7674592, -0.7674592, -0.7138292, -0.7138292, -0.7138292, -0.6850475, -0.6850475, -0.6850475]","[0.0, -0.0, -0.0, 0.008246, 0.008246, 0.008246, -0.008246, -0.008246, 0.008246, -0.008246, 0.008246, -0.008246, 0.008246, -0.008246, -0.008246]",0.37,2.0
silicon_diatomic,-577.764730865047,33,2e-06,"[-6.155678, -6.155439, -4.260302, -4.260302, -4.260187, -4.260187, -4.253934, -4.252913, -0.7310403, -0.494135, -0.318064, -0.3180608, -0.3001313]","[0.0, 0.0, 0.056736, -0.0, -0.0, -0.056736]",0.14,2.3
H,-0.499334315440,1,0.0,"[-0.4993343]","[0.0, 0.0, 0.0]",0.0,0.1
acetylene,-76.828482398019,4,0.0,"[-11.2534, -11.24969, -1.034092, -0.7679198, -0.6806277, -0.4111469, -0.4111469]","[-0.0, 0.0, 0.024289, 0.0, -0.0, -0.024289, -0.0, -0.0, 0.00028, -0.0, -0.0, -0.00028]",0.07,0.5
phosphorus_trichloride,-1719.317230476547,4,0.261873006646,"[-104.8631, -104.8631, -104.8631, -80.1173, -10.5913, -10.5913, -10.5912, -8.0587, -8.0587, -8.0587, -8.0553, -8.0553, -8.0553, -8.0552, -8.0552, -8.0552, -7.6454, -5.5372, -5.5372, -5.5346, -1.197087, -1.119635, -1.119629, -0.807413, -0.6071704, -0.6071657, -0.5750384, -0.5170471, -0.5170442, -0.4755591, -0.4755551, -0.4656824, -0.403999]","[0.0, 7e-06, -0.014172, 0.0, -0.010918, 0.004727, -0.009454, 0.005455, 0.004723, 0.009454, 0.005455, 0.004723]",1.22,7.1
magnesium_monochloride,-659.185985682562,15,1.356493,"[-7.97162, -7.968873, -7.968873, -3.824919, -2.342182, -2.34041, -2.34041, -1.028486, -0.479065, -0.4264711, -0.4264711, -0.2904336]","[0.0, -0.0, 0.012961, -0.0, 0.0, -0.012961]",0.42,1.8
carbon_disulfide,-832.930815879604,5,0.0,"[-91.9968, -91.9968, -11.4098, -9.0009, -9.0009, -6.6831, -6.6831, -6.6796, -6.6796, -6.679578, -6.679578, -1.150792, -1.027224, -0.680533, -0.583891, -0.5276729, -0.5276729, -0.3749942, -0.3749942]","[-0.0, 0.0, -0.0, 0.0, -0.0, 0.001743, 0.0, -0.0, -0.001743]",0.53,3.4
magnesium_monofluoride,-299.116693568482,4,1.248236,"[-49.0562, -26.19098, -3.797896, -2.315428, -2.314105, -2.314105, -1.453754, -0.5778075, -0.5404479, -0.5404479, -0.2888444]","[-0.0, 0.0, 0.001967, 0.0, -0.0, -0.001967]",0.2,1.4
methyl_radical,-39.565812698531,4,7e-06,"[-11.2426, -0.9489288, -0.5807472, -0.5807454, -0.3831289]","[-2.2e-05, -0.0, 0.0, -0.000239, 0.0, -0.0, 0.00013, 0.000233, -0.0, 0.00013, -0.000233, 0.0]",0.02,0.4
ethylene,-78.043347941462,4,0.0,"[-11.2412, -11.23962, -1.034287, -0.7926665, -0.6430226, -0.5851002, -0.5077072, -0.3752963]","[-0.0, 0.0, 0.017377, -0.0, -0.0, -0.017377, 0.0, 0.003291, 0.001024, 0.0, -0.003291, 0.001024, 0.0, 0.003291, -0.001024, -0.0, -0.003291, -0.001024]",0.11,0.7
trifluoroacetate_anion,-523.912779646739,5,1.97128504467,"[-26.1891, -26.1891, -26.1873, -20.3442, -20.3409, -11.3405, -11.1924, -1.5674, -1.472643, -1.472035, -1.213536, -1.117859, -0.8282321, -0.6908825, -0.6566461, -0.6544057, -0.5485166, -0.5477135, -0.5314519, -0.4998268, -0.4981588, -0.4855085, -0.4530033, -0.4349146, -0.3880982, -0.2530423, -0.2449434, -0.2274917]","[-0.003171, -0.013913, -0.0, 0.004809, 0.02581, -0.0, -0.016036, 0.010176, 0.0, 0.010488, 0.00453, 0.01512, 0.010488, 0.00453, -0.01512, -0.040388, -0.00949, -0.0, 0.03381, -0.021644, 0.0]",1.26,8.4
bromoform,-7755.592623493893,4,0.400448001899,"[-490.0952, -490.0952, -490.0952, -65.2316, -65.2316, -65.2316, -58.5886, -58.5886, -58.5886, -58.5869, -58.5869, -58.5869, -58.5869, -58.5869, -58.5869, -11.4228, -9.8833, -9.8833, -9.8832, -7.4968, -7.4968, -7.4968, -7.4873, -7.4873, -7.4873, -7.4872, -7.4872, -7.4872, -3.2342, -3.2342, -3.2342, -3.2297, -3.2297, -3.2297, -3.2297, -3.2297, -3.2297, -3.2184, -3.2184, -3.2184, -3.2184, -3.2184, -3.2183, -1.161267, -1.03193, -1.031928, -0.8469443, -0.6412045, -0.5769618, -0.5769613, -0.4573685, -0.4573668, -0.4294943, -0.4242348, -0.4242337, -0.407916]","[0.0, -9e-06, -0.023366, -0.0, -2e-06, 0.021929, 0.0, -0.001983, 0.000476, -0.001734, 0.000997, 0.000481, 0.001734, 0.000997, 0.000481]",6.32,38.1
nitrogen_trifluoride,-352.589470910232,5,0.141595017801,"[-26.4056, -26.4056, -26.4056, -15.9165, -1.8066, -1.6679, -1.6678, -1.127261, -0.8591263, -0.8591203, -0.8503766, -0.7454573, -0.7454481, -0.6880804, -0.6880713, -0.6852125, -0.5587184]","[0.0, 2.2e-05, 0.042201, 0.0, 0.034674, -0.01406, 0.030031, -0.017348, -0.01407, -0.030031, -0.017348, -0.01407]",0.23,1.3
phosphorus_tetramer,-1362.994975606537,4,1.47648230602e-05,"[-79.987, -79.987, -79.987, -79.987, -7.5262, -7.5259, -7.5259, -7.5259, -5.4188, -5.4182, -5.4182, -5.4182, -5.4171, -5.4171, -5.417, -5.417, -5.417, -5.4168, -5.4168, -5.4168, -1.057461, -0.7189712, -0.7189711, -0.7189624, -0.4617248, -0.39177, -0.3917667, -0.3917609, -0.3559464, -0.3559428]","[6e-06, -0.0, 0.003603, 0.003411, -0.0, -0.001196, -0.001708, -0.002962, -0.001204, -0.001708, 0.002962, -0.001204]",1.31,9.6
phosphorus_monochloride,-800.244669198796,38,0.354666,"[-8.046022, -8.046022, -7.559536, -5.459651, -5.45965, -5.446075, -1.142983, -0.8235028, -0.5307541, -0.5307539, -0.5210335, -0.3712112, -0.3712056]","[0.0, 0.0, 0.08567, -0.0, -0.0, -0.08567]",0.39,3.1
mercapto_radical,-398.092157298048,4,0.353649,"[-91.9948, -8.995565, -6.691351, -6.673481, -6.670437, -0.9913369, -0.5527415, -0.4700116, -0.402948]","[0.0, 0.0, 0.001382, -0.0, -0.0, -0.001382]",0.05,1.1
pentane,-196.353827957677,7,0.033691,"[-11.21397, -1.082593, -1.016636, -0.9200098, -0.8205632, -0.7854162, -0.6469544, -0.5980383, -0.5924504, -0.5534307, -0.546836, -0.5249509, -0.493696, -0.4749872, -0.4609332, -0.4581566, -0.4460596]","[0.0, 0.0, -0.001217, -0.0, -0.000379, 0.00083, -0.0, 0.000379, 0.00083, 0.0, -0.00098, -0.000147, 0.0, 0.00098, -0.000147, -0.000153, 0.0, -0.000234, 0.000153, 0.0, -0.000234, -0.000547, -0.000669, 0.000444, 0.000547, -0.000669, 0.000444, 0.000547, 0.000669, 0.000444, -0.000547, 0.000669, 0.000444, -0.0, -0.001077, 0.001013, 0.0, 0.001077, 0.001013, 0.001203, -0.000602, -0.000871, -0.001203, -0.000602, -0.000871, -0.001203, 0.000602, -0.000871, 0.001203, 0.000602, -0.000871]",3.4,11.9
isopropyl_alcohol,-193.148450463054,5,0.698064258611,"[-20.5638, -11.2845, -11.2244, -11.217, -1.357322, -1.044552, -0.9400656, -0.7975163, -0.694479, -0.6268568, -0.6044349, -0.5452357, -0.5331333, -0.5259958, -0.5092201, -0.4725667, -0.4362577]","[-0.032238, -0.001884, -0.01887, 0.003323, -0.00776, 0.001438, 0.003342, 0.001611, 0.00062, -0.002998, 9e-06, 0.001597, 0.027874, 0.009562, 0.011347, -7.6e-05, -0.001883, 0.004979, 0.001067, 0.000473, -0.001855, -0.001159, 0.000775, -0.001779, -0.001235, 0.001745, 0.000678, 0.001513, 0.001181, 0.00068, 0.000198, -0.001603, 0.000699, 0.00039, -0.002226, 0.000467]",1.46,10.0
glyoxal_trans,-226.622433138491,5,0.0,"[-20.6215, -20.6215, -11.3803, -11.3797, -1.448319, -1.431981, -0.9696273, -0.8203835, -0.7120723, -0.7016545, -0.6606327, -0.5967353, -0.5349551, -0.5264953, -0.4392634]","[0.016452, -0.02232, -0.0, -0.016452, 0.02232, -0.0, 0.023834, -1.8e-05, 0.0, -0.023834, 1.8e-05, 0.0, -0.049518, 0.026931, 0.0, 0.049518, -0.026931, -0.0]",0.38,2.4
ethanol,-154.103360419904,5,0.706151101118,"[-20.5633, -11.2774, -11.2207, -1.356152, -1.014646, -0.8334135, -0.6935173, -0.6492642, -0.5712277, -0.5322604, -0.5266795, -0.4881295, -0.4412486]","[0.007544, -0.011867, -0.0, 0.016461, 0.01358, -0.0, 0.016493, -0.031095, 0.0, -0.017876, 0.025712, -0.0, 0.000294, 0.009581, 0.0, -0.00644, 0.001259, -0.00037, -0.00644, 0.001259, 0.00037, -0.005019, -0.004215, -0.002855, -0.005019, -0.004215, 0.002855]",0.65,3.8
nitrogen_monofluoride,-153.801972810431,5,0.13465,"[-26.3899, -15.75146, -1.727085, -1.144898, -0.7981647, -0.7981647, -0.7112885, -0.5439154, -0.5439154]","[-0.0, 0.0, -0.012848, 0.0, -0.0, 0.012848]",0.06,0.6
vinyl_chloride,-536.967326962110,5,0.653906968064,"[-104.8411, -11.3111, -11.2559, -10.5676, -8.0355, -8.032, -8.032005, -1.163184, -1.016879, -0.7942949, -0.6646759, -0.6153981, -0.5338745, -0.5128746, -0.4556125, -0.3708749]","[-0.0, 0.01349, 0.020173, 0.0, -0.00055, -0.021324, 0.0, -0.006144, -0.00587, -0.0, -0.007859, 0.004393, 0.0, 0.000756, 0.001777, -0.0, 0.000309, 0.000851]",0.61,3.8
ammonia_oxide,-130.975579763955,5,2.190674,"[-20.4859, -15.71508, -1.383841, -1.089273, -0.7545771, -0.7545768, -0.5913423, -0.3881611, -0.388161]","[-0.0, -1.5e-05, 0.018153, 0.0, 1e-06, -0.001421, 0.0, 0.009966, -0.005581, 0.00861, -0.004976, -0.005576, -0.00861, -0.004976, -0.005576]",0.16,0.7
methylenecyclopropane,-154.903149089712,5,0.176994,"[-11.251, -11.2443, -11.2439, -11.2318, -1.156397, -0.9710451, -0.8391187, -0.7281794, -0.6447299, -0.6415351, -0.5881553, -0.522165, -0.4416885, -0.4232537, -0.3567469]","[0.0, -0.0, 0.011471, -0.0, 0.0, -0.036089, 0.0, -0.006954, 0.002709, -0.0, 0.006954, 0.002709, -0.0, 0.000661, 0.006865, -0.0, -0.000661, 0.006865, 0.003615, 0.005623, 0.001368, -0.003615, 0.005623, 0.001368, -0.003615, -0.005623, 0.001368, 0.003615, -0.005623, 0.001368]",0.85,4.3
oxygen_monofluoride,-174.148976966804,5,0.171054,"[-26.4025, -20.7785, -1.731381, -1.337295, -0.8302697, -0.7832301, -0.7401666, -0.644778, -0.5827586]","[0.0, 0.0, -0.025805, -0.0, -0.0, 0.025805]",0.06,0.6
methylamine,-95.230758363391,4,0.536173043649,"[-15.5477, -11.24893, -1.170415, -0.8968101, -0.6625247, -0.6022281, -0.5572442, -0.5166853, -0.3881404]","[-5.7e-05, 0.002449, -0.0, 0.008028, 0.001307, -0.0, -0.00078, 0.002087, 0.0, 0.000246, 0.000678, 0.000127, 0.000246, 0.000678, -0.000127, -0.003841, -0.003599, -0.007627, -0.003841, -0.003599, 0.007627]",0.22,1.1
hydrogen_chloride,-460.092618907609,4,0.488881,"[-104.8509, -10.57678, -8.044718, -8.041166, -8.041166, -1.11957, -0.6263711, -0.4774298, -0.4774298]","[0.0, 0.0, 0.000807, -0.0, -0.0, -0.000807]",0.05,0.9
ethanethiol,-476.769649519856,4,0.704981076447,"[-91.9498, -11.268, -11.2353, -8.9525, -6.6347, -6.6333, -6.6311, -1.07363, -0.9461316, -0.818757, -0.6310798, -0.6179297, -0.5407875, -0.5140781, -0.4986621, -0.4509033, -0.3543082]","[0.000393, -0.002621, -0.0, 0.00891, 0.001281, -0.0, 0.000191, 0.005199, 0.0, -0.002044, 0.002689, 0.0, 0.001457, -0.001116, 0.000913, 0.001457, -0.001116, -0.000913, -0.000766, 0.001081, 0.001623, -0.000766, 0.001081, -0.001623, -0.008834, -0.006479, -0.0]",1.01,5.1
acetamide,-208.008524736251,5,1.64285301717,"[-20.5327, -15.5959, -11.3659, -11.2581, -1.384477, -1.206281, -0.9978965, -0.7930883, -0.7150312, -0.6628286, -0.6108537, -0.586006, -0.553295, -0.5213559, -0.42649, -0.4147311]","[0.016492, 0.002381, 0.001769, -0.014239, -0.019659, -0.000889, -0.005806, 0.003078, -0.005443, 0.007918, 0.037881, 0.000446, -0.017039, 0.019662, -0.002079, -0.002764, -0.012377, -0.01753, -0.003296, -0.010888, 0.018205, 0.023521, 0.005926, 0.002156, -0.004787, -0.026004, 0.003364]",0.95,5.0
S,-397.498740139669,3,0.0,"[-92.0157, -9.015868, -6.70842, -6.70842, -6.687025, -0.9915959, -0.4861819, -0.4861819, -0.4177381]","[-0.0, -0.0, -0.0]",0.0,1.0
nitromethane,-243.703468015474,5,1.62508877394,"[-20.6213, -20.6179, -15.8618, -11.3209, -1.6147, -1.409706, -1.107328, -0.8732626, -0.7572235, -0.7397755, -0.7394724, -0.6258644, -0.605477, -0.4982931, -0.4968667, -0.4589229]","[0.00378, 0.005986, -0.0, 0.045631, 0.001939, 0.0, 0.001205, -0.004341, 0.0, 0.000933, -0.001028, 0.003225, 0.000933, -0.001028, -0.003225, -0.026942, 0.052707, 0.0, -0.025541, -0.054235, -0.0]",0.72,3.3
hydrogen_sulfide,-398.697908545834,4,0.447916,"[-91.9695, -8.972173, -6.654271, -6.653216, -6.650704, -0.9874616, -0.5925391, -0.5026512, -0.3850089]","[0.0, 0.0, 0.005633, 0.0, -0.007148, -0.002816, -0.0, 0.007148, -0.002816]",0.07,1.0
monosodium_sulfide,-559.406238424940,26,3.635076,"[-8.87093, -6.566196, -6.548173, -6.547337, -2.819655, -1.542029, -1.541412, -1.541027, -0.8327699, -0.3624901, -0.316466, -0.2979664]","[-0.0, 0.0, 0.030112, 0.0, -0.0, -0.030112]",0.4,2.4
silicon_nitride,-343.275082874246,3,0.693493,"[-68.8213, -15.63924, -6.167633, -4.277349, -4.264167, -4.264167, -1.165671, -0.666632, -0.5099807, -0.5099807, -0.4354234]","[-0.0, -0.0, 0.028866, 0.0, 0.0, -0.028866]",0.22,2.9
hydrogen_cyanide,-92.887174980016,5,1.296584,"[-15.6124, -11.30436, -1.240416, -0.8142145, -0.5823664, -0.496075, -0.496075]","[0.0, -0.0, 0.060994, -0.0, -0.0, -0.00144, 0.0, 0.0, -0.059554]",0.12,0.6
Si,-288.850936288450,3,0.0,"[-68.8185, -6.162727, -4.269658, -4.269658, -4.260717, -0.620836, -0.3009314, -0.3009314]","[0.0, -0.0, -0.0]",0.0,0.9
carbonyl_sulfide,-510.299355630081,5,0.302721,"[-91.9971, -20.6706, -11.4503, -9.0012, -6.6839, -6.679669, -6.679669, -1.511836, -1.097421, -0.7817319, -0.6598227, -0.6598227, -0.6373238, -0.4223429, -0.4223429]","[0.0, -0.0, -0.073136, -0.0, 0.0, 0.062487, 0.0, -0.0, 0.010649]",0.71,2.4
chlorine_trifluoride,-757.558618940416,5,0.252273,"[-105.1578, -26.4408, -26.3223, -26.3223, -10.852, -8.3187, -8.3167, -8.312, -1.7449, -1.605, -1.6025, -1.192727, -0.840071, -0.8199985, -0.8184862, -0.7484441, -0.699774, -0.6724091, -0.6462707, -0.64571, -0.5540687, -0.5395111]","[-0.0, -0.0, 0.007568, 0.0, -0.0, -0.014072, 0.0, 0.003058, 0.003252, -0.0, -0.003058, 0.003252]",0.4,2.7
ethanol_radical,-153.478763202176,5,0.752244347633,"[-20.6265, -11.2909, -11.2251, -1.40386, -1.011368, -0.8449388, -0.7116596, -0.6516006, -0.5988969, -0.5744374, -0.5367384, -0.4984592, -0.4591211]","[-0.009877, -0.013022, -0.0, -0.017793, 0.031065, -0.0, 0.012833, -0.018856, 0.0, 0.008896, -0.000956, 0.004567, 0.008896, -0.000956, -0.004567, -0.002905, 0.003786, 0.0, -2.4e-05, -0.00053, 0.001019, -2.4e-05, -0.00053, -0.001019]",0.41,3.0
Ne,-128.496349730514,1,0.0,"[-32.795, -1.940421, -0.8530402, -0.8530402, -0.8530402]","[0.0, 0.0, -0.0]",0.0,0.2
phosphorus_trifluoride,-639.173147629546,5,0.253776000333,"[-80.1501, -26.3626, -26.3626, -26.3626, -7.6708, -5.565, -5.565, -5.5605, -1.7217, -1.6634, -1.6634, -0.93796, -0.8118573, -0.8118572, -0.7833364, -0.7386548, -0.7386543, -0.6941705, -0.6941698, -0.6792909, -0.4465528]","[-0.0, 6e-06, -0.094622, 0.0, -0.035671, 0.031543, -0.030886, 0.017833, 0.03154, 0.030886, 0.017833, 0.03154]",0.44,2.8
nitrogen_diatomic,-108.960660270596,4,0.0,"[-15.6984, -15.69499, -1.479409, -0.781138, -0.6343622, -0.6154791, -0.6154791]","[0.0, 0.0, -0.067809, -0.0, -0.0, 0.067809]",0.02,0.5
acetone,-191.987467661975,5,1.381251,"[-20.5564, -11.3428, -11.2443, -11.2442, -1.381749, -1.045245, -0.9694557, -0.7434512, -0.6435133, -0.635977, -0.6231287, -0.5609213, -0.5604935, -0.5357375, -0.4845778, -0.4151009]","[-0.0, 0.0, 0.055706, 0.0, -0.0, -0.046821, -0.0, -0.003741, -0.003646, 0.0, 0.003741, -0.003646, 0.0, 0.001574, 0.002444, -0.0, -0.001574, 0.002444, -0.001495, 0.000875, -0.00162, 0.001495, 0.000875, -0.00162, 0.001495, -0.000875, -0.00162, -0.001495, -0.000875, -0.00162]",1.01,6.6
Na,-161.853070831372,3,0.0,"[-40.4798, -2.800413, -1.519002, -1.519002, -1.519002, -0.1821427]","[0.0, -0.0, 0.0]",0.0,1.0
glycine_zwitterion,-282.835925852690,6,4.36972717984,"[-20.4913, -20.4824, -15.7325, -11.3356, -11.3123, -1.376058, -1.335521, -1.26758, -0.9972964, -0.8219149, -0.7970215, -0.7166871, -0.6736682, -0.6185619, -0.6080738, -0.5769972, -0.5239361, -0.4041533, -0.3815253, -0.3767094]","[-0.008195, -0.009944, 0.0, -0.007132, -0.002159, -0.0, 0.027381, -0.007323, -0.0, -0.012507, 0.025033, 0.0, -0.006289, -0.000619, -0.0, -0.000895, -0.000206, 0.000835, -0.000895, -0.000206, -0.000835, 0.007286, 0.003069, 0.008016, 0.007286, 0.003069, -0.008016, -0.006038, -0.010713, 0.0]",1.35,8.7
hexane,-235.392607985860,8,0.0,"[-11.21377, -1.088288, -1.03898, -0.9626155, -0.8722094, -0.7980534, -0.7850871, -0.6519203, -0.6100663, -0.5952112, -0.5771316, -0.5523445, -0.527651, -0.524489, -0.4982357, -0.4796368, -0.4656306, -0.4586628, -0.4571511, -0.4377138]","[-0.000525, -0.000916, 0.0, 0.000525, 0.000916, -0.0, 0.00111, -0.000371, -0.0, -0.00111, 0.000371, -0.0, 0.000892, -0.000181, 0.0, -0.000892, 0.000181, -0.0, 0.001399, 0.000307, -0.0, -0.001399, -0.000307, -0.0, 0.000403, -0.001014, -0.001195, 0.000403, -0.001014, 0.001195, -0.000403, 0.001014, 0.001195, -0.000403, 0.001014, -0.001195, -0.000719, -0.000305, 0.00053, -0.000719, -0.000305, -0.00053, 0.000719, 0.000305, 0.00053, 0.000719, 0.000305, -0.00053, 0.000228, -0.000105, -9.1e-05, 0.000228, -0.000105, 9.1e-05, -0.000228, 0.000105, 9.1e-05, -0.000228, 0.000105, -9.1e-05]",5.79,22.2
pyridine,-246.723810677526,6,0.922667,"[-15.5767, -11.2834, -11.2834, -11.2681, -11.2502, -11.2502, -1.258207, -1.091882, -1.035545, -0.8603341, -0.8568275, -0.7210218, -0.660725, -0.6538703, -0.5981651, -0.576691, -0.5400196, -0.519275, -0.4198609, -0.3833205, -0.3478064]","[0.0, -0.0, 0.024505, -0.0, 0.0, -0.004686, -0.0, 0.014401, -0.008145, -0.0, -0.014401, -0.008145, -0.0, -0.000511, -0.000209, -0.0, 0.000511, -0.000209, 0.0, -0.0, -0.004586, 0.0, 0.00436, 0.003282, 0.0, -0.00436, 0.003282, 0.0, -0.00404, -0.002544, 0.0, 0.00404, -0.002544]",2.41,13.1
silane,-291.243181067206,4,0.0,"[-68.784, -6.132555, -4.238565, -4.238565, -4.238565, -0.7331701, -0.4849166, -0.4849166, -0.4849166]","[-0.0, 0.0, 0.0, -0.001503, -0.001503, -0.001503, 0.001503, 0.001503, -0.001503, 0.001503, -0.001503, 0.001503, -0.001503, 0.001503, 0.001503]",0.09,1.3
isobutylene,-156.129367356427,5,0.234084,"[-11.2448, -11.227, -11.2269, -11.2164, -1.090628, -0.9424778, -0.9267703, -0.7188503, -0.6181716, -0.6095927, -0.5898146, -0.5365203, -0.5197812, -0.5141994, -0.4793109, -0.3449028]","[0.0, -0.0, 0.010853, -0.0, -0.0, -0.017336, 0.0, -0.005842, 0.001693, -0.0, 0.005842, 0.001693, -0.0, 0.002413, 0.00213, -0.0, -0.002413, 0.00213, -0.0, 0.002325, 0.001988, 0.001539, 0.000372, -0.001285, -0.001539, 0.000372, -0.001285, -0.0, -0.002325, 0.001988, -0.001539, -0.000372, -0.001285, 0.001539, -0.000372, -0.001285]",1.17,6.2
fluorine_diatomic,-198.698792752492,4,0.0,"[-26.4468, -26.44655, -1.775094, -1.507715, -0.8140266, -0.8140266, -0.7573143, -0.669508, -0.669508]","[0.0, -0.0, -0.059553, -0.0, 0.0, 0.059553]",0.02,0.4
ethylamine,-134.271990183305,5,0.571907836426,"[-15.5476, -11.2528, -11.2219, -1.177627, -0.9880181, -0.8300073, -0.6706008, -0.5958848, -0.5682214, -0.5657368, -0.5047265, -0.4814742, -0.3896333]","[-0.000526, 0.002172, 0.0, 0.003752, -0.004797, 0.0, -0.005583, 0.015832, -0.0, 0.002274, 0.000287, -0.0, -0.000558, -0.000652, 0.001237, -0.000558, -0.000652, -0.001237, -0.000412, 0.001513, -0.002077, -0.000412, 0.001513, 0.002077, 0.001012, -0.007607, 0.010553, 0.001012, -0.007607, -0.010553]",0.79,5.2
aluminum_diatomic,-483.761342251908,60,0.0,"[-58.5153, -4.92346, -4.923434, -3.233657, -3.233657, -3.233615, -3.233615, -3.231464, -3.231007, -0.5280137, -0.3512914, -0.2271901, -0.227189]","[-0.0, -0.0, -0.009936, 0.0, 0.0, 0.009936]",0.19,5.2
methyl_nitrite,-243.700278872366,5,0.848953827374,"[-20.6596, -20.6519, -15.7989, -11.3067, -1.5848, -1.404406, -1.028119, -0.8806831, -0.7589899, -0.721692, -0.7007105, -0.5976256, -0.5923764, -0.5532759, -0.4885002, -0.4642056]","[-0.006654, -0.004252, -0.0, -0.024469, 0.045108, 0.0, -0.030112, -0.098836, -0.0, -0.000933, 0.002159, 0.0, -0.000778, -0.003512, 0.00275, -0.000778, -0.003512, -0.00275, 0.063723, 0.062846, -0.0]",0.71,3.4
isobutane,-157.315726330562,5,0.0520880000096,"[-11.2274, -11.2148, -11.2148, -11.2148, -1.082642, -0.9263934, -0.9263934, -0.7649318, -0.6306901, -0.5887711, -0.588771, -0.5311267, -0.5311267, -0.507719, -0.4611087, -0.4611086, -0.4568463]","[-0.0, 0.0, -0.004102, -0.0, -0.004142, 0.000805, -0.003587, 0.002072, 0.000805, 0.003587, 0.002072, 0.000805, -0.0, 0.0, 0.002737, 0.0, -0.000865, -0.001862, -0.001904, 0.000659, 0.000757, 0.001904, 0.000659, 0.000757, -0.000749, 0.000432, -0.001862, 0.001522, 0.001319, 0.000756, -0.000382, -0.001978, 0.000756, 0.000749, 0.000432, -0.001862, 0.000382, -0.001978, 0.000756, -0.001522, 0.001319, 0.000756]",1.68,8.7
boron_trifluoride,-323.222690163064,4,4e-06,"[-26.3533, -26.3533, -26.3533, -7.8035, -1.6975, -1.6536, -1.65361, -0.8657073, -0.819924, -0.819924, -0.7671063, -0.7028506, -0.7028502, -0.6887341, -0.6887336, -0.6646656]","[-0.0, 3e-06, 0.0, 0.0, -0.003524, -0.0, -0.003048, 0.001761, -0.0, 0.003048, 0.001761, -0.0]",0.23,1.2
nitrosyl_chloride,-588.727520186287,5,0.817237853931,"[-104.8339, -20.771, -15.8699, -10.559, -8.026, -8.023, -8.022832, -1.692871, -1.108114, -0.9732156, -0.7748295, -0.7669918, -0.7293465, -0.458753, -0.4584378, -0.4328933]","[-0.006149, -0.014598, -0.0, -0.078354, -0.000319, 0.0, 0.084504, 0.014917, -0.0]",0.63,2.5
silicon_monophosphide,-629.611127480765,8,0.336611,"[-79.7254, -68.5987, -7.2645, -5.9431, -5.1568, -5.156673, -5.156673, -4.045275, -4.045275, -4.044441, -0.5702443, -0.3096741, -0.1311701, -0.1009896, -0.1009896, -79.9598, -68.8217, -7.5031, -6.1667, -5.403312, -5.399083, -5.391539, -4.270972, -4.267282, -4.261687, -0.8509636, -0.5336751, -0.3914282, -0.3655631, -0.3482453]","[]",-1,0.9
pyrrole,-208.838224177850,5,0.732771,"[-15.614, -11.2586, -11.2586, -11.2158, -11.2148, -1.295952, -1.046253, -0.9783231, -0.7979401, -0.7687138, -0.7376644, -0.5946957, -0.5838369, -0.5670503, -0.5463262, -0.5296292, -0.3473605, -0.2959363]","[-0.0, -0.0, 0.006222, 0.0, 0.0, 0.002629, 0.0, 0.010972, 0.011476, -0.0, -0.010972, 0.011476, -0.0, -0.013198, -0.01653, 0.0, 0.013198, -0.01653, 0.0, 0.000814, 0.000378, 0.0, -0.000814, 0.000378, -0.0, -0.000319, 0.00025, 0.0, 0.000319, 0.00025]",1.57,13.2
aluminum_monoxide,-316.746391832847,3,1.001857,"[-58.5058, -20.58304, -4.919028, -3.235201, -3.22671, -3.22671, -1.309561, -0.6537148, -0.5158609, -0.5158609, -0.359621]","[0.0, -0.0, 0.055886, -0.0, 0.0, -0.055886]",0.22,3.2
trifluoromethane,-336.813546878721,5,0.647572011492,"[-26.3616, -26.3616, -26.3615, -11.5212, -1.7448, -1.653, -1.653, -0.9967339, -0.8502631, -0.8346503, -0.8346436, -0.7173571, -0.717349, -0.6766299, -0.6766201, -0.6593956, -0.5886246]","[0.0, 3.3e-05, -0.026816, -0.0, 1e-06, 0.01091, 0.0, 0.017474, 0.005311, 0.015155, -0.008755, 0.005297, -0.015155, -0.008755, 0.005297]",0.33,1.8
silicon_monofluoride,-388.376497831005,4,0.375434,"[-68.8553, -26.31412, -6.19489, -4.303333, -4.294885, -4.294395, -1.608677, -0.7701157, -0.6893688, -0.6670412, -0.5016053, -0.283948]","[-0.0, -0.0, 0.02309, 0.0, 0.0, -0.02309]",0.21,1.4
ethyl_chloride,-538.164952959748,4,0.923094878125,"[-104.8178, -11.2992, -11.2401, -10.5444, -8.012, -8.0089, -8.0089, -1.139763, -1.002931, -0.844174, -0.6515624, -0.6134469, -0.5614866, -0.5284966, -0.5079669, -0.4312307, -0.4304627]","[0.007814, 0.002779, 0.000906, -0.000283, 0.003813, 0.000118, -0.004905, -0.007135, -0.001553, -0.001045, 0.000245, -2.1e-05, -0.001328, -0.000457, -5.1e-05, -0.001286, -0.000408, 7.2e-05, 0.00129, 0.00092, -0.000175, -0.000257, 0.000243, 0.000705]",0.77,4.5
bicyclo[1.1.0]butane,-154.886401731265,5,0.286617,"[-11.2477, -11.2476, -11.2394, -11.2388, -1.216497, -0.9283959, -0.7873473, -0.7836548, -0.6916235, -0.5846692, -0.5821571, -0.5167649, -0.4608721, -0.4347485, -0.3481855]","[0.01206, -0.0, 0.002241, -0.01206, -0.0, 0.002241, 0.0, 0.009343, -0.00048, -0.0, -0.009343, -0.00048, 0.0, 0.009851, 0.004263, 0.0, -0.009851, 0.004263, -0.0, -0.004942, -0.007968, -0.0, 0.004942, -0.007968, -0.002134, -0.0, 0.001943, 0.002134, 0.0, 0.001943]",0.9,4.4
silyl_radical,-290.625488230133,4,0.011742,"[-68.7914, -6.141467, -4.253589, -4.244286, -4.244286, -0.735321, -0.4938004, -0.4938004, -0.3382719]","[0.0, -0.0, -0.004763, -0.0, -0.007269, 0.001588, -0.006296, 0.003635, 0.001588, 0.006296, 0.003635, 0.001588]",0.08,1.7
Ar,-526.800972402297,1,0.0,"[-118.6106, -12.3228, -9.571364, -9.571364, -9.571364, -1.278899, -0.5922671, -0.5922671, -0.5922671]","[0.0, 0.0, 0.0]",0.0,0.5
Br,-2572.370779899876,3,0.0,"[-490.111, -65.2455, -58.6075, -58.6001, -58.6001, -9.8977, -7.522, -7.497514, -7.497514, -3.250385, -3.244501, -3.244501, -3.227045, -3.227045, -1.051265, -0.5227029, -0.4559546, -0.4559546]","[0.0, -0.0, 0.0]",0.0,4.8
cyclopentane,-195.183497688310,7,0.00644743980197,"[-11.2159, -11.2155, -11.2155, -11.2148, -11.2148, -1.118005, -0.9576614, -0.9570553, -0.7775207, -0.7677086, -0.6492755, -0.6445134, -0.5690996, -0.5672773, -0.4747269, -0.4737873, -0.4626338, -0.4596785, -0.4582116, -0.4477998]","[-0.000932, 0.00133, 0.000462, 0.000274, -0.00147, 0.000319, 0.001333, -0.000409, 5e-05, 0.001061, 0.001164, -0.000346, -0.001486, -0.000708, -0.000428, 4.2e-05, -0.000793, -0.000426, 4e-06, -0.000874, 0.000331, 0.000747, -0.000257, 0.000493, 0.000793, -0.000164, -0.000508, 0.000486, 0.000649, 0.00041, 0.000455, 0.000766, -0.000287, -0.000583, 0.000675, 0.000107, -0.000521, 0.000748, -0.000534, -0.000811, -0.000391, 0.000486, -0.000862, -0.000267, -0.000128]",2.83,19.2
dimethyl_sulfoxide,-551.578462595757,5,1.83630799115,"[-92.0762, -20.5103, -11.2671, -11.2671, -9.0657, -6.7483, -6.7473, -6.7453, -1.347003, -1.070972, -0.9831461, -0.8203759, -0.6554055, -0.6269186, -0.6238677, -0.5882876, -0.5644819, -0.5524059, -0.515577, -0.4173242, -0.3642506]","[0.0, 0.022109, -0.017693, -0.0, -0.021995, 0.01464, 0.019237, 0.01822, 0.007463, -0.019237, 0.01822, 0.007463, -0.021829, -0.01531, -0.001215, 0.021829, -0.01531, -0.001215, 0.003834, -0.000838, 0.001547, -0.00541, -0.002129, -0.006269, -0.003834, -0.000838, 0.001547, 0.00541, -0.002129, -0.006269]",1.89,12.6
trifluoroacetic_acid,-524.446778315676,5,0.732188360818,"[-26.3841, -26.3841, -26.3785, -20.6567, -20.6122, -11.5563, -11.4465, -1.7739, -1.6779, -1.6739, -1.515, -1.413457, -1.055663, -0.9284318, -0.8633679, -0.8625823, -0.8200959, -0.7465755, -0.7432399, -0.7378394, -0.6992586, -0.6969427, -0.6899184, -0.6776533, -0.6582058, -0.6181572, -0.5248388, -0.5030017]","[0.011652, 0.005768, -0.0, 0.000799, 0.042134, 0.0, 0.022945, -0.01286, -0.0, -0.024654, -0.025913, 0.0, -0.017509, 0.005505, 0.0, 0.005798, -0.001545, 0.011016, 0.005798, -0.001545, -0.011016, -0.004828, -0.011543, 0.0]",1.51,9.7
nitric_oxide,-129.269951741301,5,0.098455,"[-20.7124, -15.74741, -1.622352, -0.9740749, -0.7909685, -0.7022782, -0.649304, -0.4271588]","[-0.0, -0.0, -0.061384, 0.0, 0.0, 0.061384]",0.07,0.8
hydrazine,-111.193760446798,4,1.120614,"[-15.5838, -15.58335, -1.267126, -1.014751, -0.6893076, -0.6550117, -0.5918025, -0.4569198, -0.3934805]","[-0.002591, 0.004022, -0.018781, 0.002591, -0.004022, -0.018781, -0.001514, -0.005988, 0.008737, 0.001514, 0.005988, 0.008737, 0.008474, 0.002518, 0.010044, -0.008474, -0.002518, 0.010044]",0.11,0.7
aluminum_carbide,-279.652051997558,2,0.378745,"[-58.5108, -11.27181, -4.919925, -3.230959, -3.229043, -3.229043, -0.8856897, -0.4974644, -0.4025887, -0.4025887, -0.3142592]","[0.0, 0.0, 0.011738, -0.0, -0.0, -0.011738]",0.21,2.1
sulfur_monoxide,-472.363841741020,5,0.712085,"[-92.0742, -20.66668, -9.070661, -6.758276, -6.758276, -6.746835, -1.473104, -0.9556836, -0.6856087, -0.6856087, -0.645449, -0.4268983, -0.4268983]","[-0.0, -0.0, -0.001971, 0.0, 0.0, 0.001971]",0.22,1.8
hydroxymethyl_radical,-114.435368547876,4,0.626330628964,"[-20.5986, -11.28971, -1.400163, -0.9254057, -0.7173954, -0.6272409, -0.6060546, -0.524434, -0.3469692]","[0.007009, 0.004721, -0.002952, 0.002003, -0.032657, 0.005327, -0.009721, 0.027636, -0.004002, 0.001686, 0.001163, 0.000706, -0.000977, -0.000863, 0.000921]",0.16,0.9
dimethyl_sulfide,-476.764448189927,4,0.701875,"[-91.9458, -11.2578, -11.2577, -8.9477, -6.6298, -6.6283, -6.6262, -1.064192, -0.9517466, -0.8084567, -0.6028316, -0.6015503, -0.576464, -0.5623021, -0.4932412, -0.4356971, -0.3353315]","[0.0, -0.008176, 0.003158, 0.0, 0.008176, 0.003158, -0.0, -0.0, -0.000919, -0.0, 0.001749, 0.001032, 0.001541, 0.000602, -0.001865, -0.001541, 0.000602, -0.001865, -0.0, -0.001749, 0.001032, -0.001541, -0.000602, -0.001865, 0.001541, -0.000602, -0.001865]",0.97,5.2
Mg,-199.608339671990,1,0.0,"[-49.0322, -3.767527, -2.28192, -2.28192, -2.28192, -0.2531197]","[-0.0, -0.0, 0.0]",0.0,0.6
beryllium_monochloride,-474.177295700507,5,0.423724,"[-104.8234, -10.55305, -8.02044, -8.017499, -8.017499, -4.758969, -1.089613, -0.5561628, -0.4742451, -0.4742451, -0.3368637]","[-0.0, -0.0, 0.010273, 0.0, 0.0, -0.010273]",0.23,2.2
n_propyl_chloride,-577.201573852260,4,0.953672203388,"[-104.8177, -11.3034, -11.2496, -11.2422, -10.544, -8.0116, -8.0085, -8.0084, -1.137713, -1.043625, -0.9072845, -0.8114975, -0.6567273, -0.5995787, -0.5795652, -0.5690551, -0.5075953, -0.4967369, -0.4892296, -0.4289146, -0.4276679]","[-0.003739, 5.3e-05, 0.0, 0.010544, -0.016673, 0.0, -0.007496, 0.012896, -0.0, 0.016147, -0.002343, -0.0, -0.003059, 0.010283, 0.014772, -0.003059, 0.010283, -0.014772, 0.002649, -0.008516, 0.012209, 0.002649, -0.008516, -0.012209, -0.003019, 0.007614, 0.011484, -0.003019, 0.007614, -0.011484, -0.008597, -0.012695, 0.0]",1.58,8.8
chloroform,-1416.947988542739,4,0.509993000098,"[-104.864, -104.864, -104.864, -11.4404, -10.5909, -10.5909, -10.5909, -8.0586, -8.0586, -8.0586, -8.0549, -8.0549, -8.0549, -8.0548, -8.0548, -8.0548, -1.250293, -1.116451, -1.116451, -0.8818277, -0.6896837, -0.6281282, -0.628128, -0.5067057, -0.5067053, -0.4749518, -0.4645199, -0.4645196, -0.4484309]","[0.0, -2e-06, 0.022106, -0.0, -0.0, -0.003666, 0.0, -0.006481, -0.006147, -0.005617, 0.003242, -0.006146, 0.005617, 0.003242, -0.006146]",1.36,6.9
phosphorus_monosulfide,-738.266012993506,3,0.306293,"[-91.9835, -80.0105, -8.9869, -7.5518, -6.6693, -6.668015, -6.657897, -5.451581, -5.447265, -5.440365, -1.018719, -0.7261581, -0.4843415, -0.4698352, -0.4188704, -0.3144599]","[-0.0, -0.0, 0.023338, 0.0, 0.0, -0.023338]",0.58,4.3
cyclopropane,-117.071348693652,4,1.5e-05,"[-11.2285, -11.2275, -11.22747, -1.13526, -0.8176013, -0.8175921, -0.667578, -0.6271764, -0.5103051, -0.5102946, -0.4190189, -0.419011]","[-0.0, -0.002636, -0.0, -0.002267, 0.001303, -0.0, 0.002267, 0.001303, -0.0, 0.0, 0.000614, 0.001619, 0.000526, -0.0003, 0.001612, -0.000526, -0.0003, 0.001612, 0.0, 0.000614, -0.001619, 0.000526, -0.0003, -0.001612, -0.000526, -0.0003, -0.001612]",0.45,2.0
formyl_radical,-113.262892941115,5,0.873060912648,"[-20.6349, -11.3684, -1.456525, -0.874169, -0.715199, -0.64669, -0.5703325, -0.4072554]","[0.047709, -0.079237, 0.0, -0.021156, 0.011411, 0.0, -0.026554, 0.067826, -0.0]",0.12,0.8
spiropentane,-193.936738602532,5,0.0,"[-11.2377, -11.2285, -11.2284, -11.2279, -11.2279, -1.174111, -1.062245, -0.8251581, -0.8251581, -0.7394118, -0.6518055, -0.6391822, -0.6391822, -0.5226574, -0.5066516, -0.4837745, -0.4114784, -0.4114784, -0.3852979]","[-0.0, -0.0, -0.0, -0.0, 0.003689, 0.000958, -0.0, -0.003689, 0.000958, -0.003689, 0.0, -0.000958, 0.003689, -0.0, -0.000958, 2e-06, -0.001114, -0.000596, -2e-06, -0.001114, -0.000596, -2e-06, 0.001114, -0.000596, 2e-06, 0.001114, -0.000596, 0.001114, -2e-06, 0.000596, 0.001114, 2e-06, 0.000596, -0.001114, 2e-06, 0.000596, -0.001114, -2e-06, 0.000596]",2.05,10.6
acetonitrile,-131.781341386028,5,1.94172337056,"[-15.5818, -11.3009, -11.29409, -1.226886, -1.120992, -0.7754354, -0.6619537, -0.5615838, -0.5187693, -0.4657851, -0.4077759]","[-0.003061, 0.001742, -0.009269, -0.010852, 0.006265, -0.046787, 0.003914, -0.00226, 0.05115, 0.050558, 0.009949, 0.015185, 0.016684, -0.048745, 0.015175, -0.057242, 0.033049, -0.025453]",0.28,1.8
P,-340.709957543049,3,0.0,"[-79.9822, -7.524142, -5.422513, -5.422513, -5.422513, -0.8374452, -0.3922851, -0.3922851, -0.3922851]","[0.0, 0.0, -0.0]",0.0,0.9
disilane,-581.339166033603,4,0.0,"[-68.7746, -68.7746, -6.1257, -6.1256, -4.2318, -4.2315, -4.2315, -4.231413, -4.231413, -4.231022, -0.763891, -0.6818465, -0.5029578, -0.5029466, -0.4734853, -0.4734733, -0.4009859]","[0.0, 2.5e-05, -0.001607, 0.0, -2.5e-05, 0.001607, -0.0, -0.006676, -0.004041, 0.00576, 0.003326, -0.004032, -0.00576, 0.003326, -0.004032, -0.0, 0.006676, 0.004041, 0.00576, -0.003326, 0.004032, -0.00576, -0.003326, 0.004032]",0.51,6.3
methylene_chloride,-958.039423445708,5,0.745835,"[-104.8483, -104.8483, -11.3705, -10.5748, -10.5748, -8.0425, -8.0425, -8.0391, -8.0391, -8.039, -8.039, -1.197327, -1.098989, -0.903469, -0.6840433, -0.6194941, -0.5866263, -0.4743691, -0.4734199, -0.4488394, -0.4478021]","[0.0, 0.0, 0.008736, 0.008179, 0.0, -0.004636, -0.008179, -0.0, -0.004636, -0.0, -0.002131, 0.000268, -0.0, 0.002131, 0.000268]",0.78,5.7
methlidyne_radical,-38.275222825474,4,0.615541,"[-11.3361, -0.876763, -0.4718333, -0.4240888]","[0.0, -0.0, -0.011463, -0.0, 0.0, 0.011463]",0.01,0.3
trifluoro_acetonitrile,-428.529908820962,5,0.603867000007,"[-26.4034, -26.4034, -26.4034, -15.6475, -11.5996, -11.3357, -1.7932, -1.6963, -1.6963, -1.277009, -1.069407, -0.9236548, -0.8824333, -0.8824332, -0.7599465, -0.7599465, -0.7159984, -0.7159984, -0.6981334, -0.6918825, -0.6066527, -0.5266905, -0.5266905]","[0.0, 1e-06, -0.00176, -0.0, 0.0, -0.057235, -0.0, -0.0, 0.059248, -0.0, 0.020449, -8.4e-05, 0.017712, -0.010225, -8.4e-05, -0.017712, -0.010225, -8.4e-05]",0.88,4.5
acetyl_radical,-152.319410280537,5,1.21151333785,"[-20.6083, -11.3567, -11.27354, -1.437219, -1.039521, -0.7794667, -0.6725208, -0.6514614, -0.6207666, -0.5651746, -0.5305721, -0.3708848]","[0.004099, -0.001218, -0.0, -0.064383, 0.012672, 0.0, -0.000192, -0.003756, 0.0, -0.001149, -0.000137, 0.001348, -0.001149, -0.000137, -0.001348, 0.062774, -0.007423, -0.0]",0.28,2.4
silylene_t,-290.011844048412,4,0.031566,"[-68.8081, -6.156643, -4.267924, -4.264447, -4.256254, -0.7256199, -0.5065126, -0.3886403, -0.3068224]","[-0.0, 0.0, 0.008231, 0.0, 0.008952, -0.004115, 0.0, -0.008952, -0.004115]",0.06,1.2
oxygen_water,-152.088147693578,4,1.00184734543,"[-20.6028, -20.5461, -1.38255, -1.323836, -0.7449197, -0.6968562, -0.6134368, -0.5595115, -0.5290835, -0.4803525]","[0.016256, -0.015847, -0.003502, 0.008827, 0.01964, 0.009638, -0.006635, 0.005025, 0.015264, -0.006798, 0.01112, -0.011703, -0.021586, -0.007389, -0.002051, 0.009937, -0.012549, -0.007646]",0.09,0.7
chlorine_monofluoride,-558.860568354293,4,0.44279,"[-104.9424, -26.3731, -10.6601, -8.128573, -8.122701, -8.122701, -1.648656, -1.11007, -0.72785, -0.72785, -0.702266, -0.4950377, -0.4950377]","[-0.0, 0.0, -0.00589, 0.0, -0.0, 0.00589]",0.19,1.3
sodium_hydride,-162.384559357948,4,2.772613,"[-40.4627, -2.787272, -1.5086, -1.5086, -1.507032, -0.2731074]","[-0.0, 0.0, 0.003216, 0.0, -0.0, -0.003216]",0.04,0.9
nitrogen_tribromide,-7771.486611565892,6,0.257746,"[-490.1179, -490.1179, -490.1179, -65.2532, -65.2532, -65.2532, -58.6106, -58.6106, -58.6106, -58.6083, -58.6083, -58.6083, -58.6083, -58.6083, -58.6083, -15.7477, -9.9037, -9.9037, -9.9037, -7.5185, -7.5185, -7.5185, -7.5066, -7.5066, -7.5066, -7.5063, -7.5063, -7.5063, -3.2567, -3.2567, -3.2567, -3.2511, -3.2511, -3.2511, -3.2509, -3.2509, -3.2509, -3.2364, -3.2364, -3.2364, -3.2364, -3.2364, -3.2363, -1.256746, -1.038713, -1.038713, -0.8988139, -0.6017381, -0.6017381, -0.589993, -0.4701431, -0.4701431, -0.4281401, -0.4281401, -0.4155991, -0.4011929]","[-0.0, -0.0, 0.020748, -0.0, 0.006103, -0.006916, 0.005285, -0.003052, -0.006916, -0.005285, -0.003052, -0.006916]",4.98,34.4
phosphorus_pentafluoride,-838.115249563151,4,1.4e-05,"[-80.3068, -26.3931, -26.3931, -26.3931, -26.344, -26.344, -7.8048, -5.7062, -5.7062, -5.7037, -1.7714, -1.7034, -1.7034, -1.6607, -1.6256, -0.984641, -0.8655517, -0.8655506, -0.858163, -0.8005802, -0.8005778, -0.7597018, -0.7596997, -0.7207642, -0.7087761, -0.6958963, -0.6833723, -0.6833719, -0.6608715, -0.660871]","[-0.0, 1.1e-05, 0.0, -0.0, -0.015018, -0.0, -0.012993, 0.007502, 0.0, 0.012993, 0.007502, 0.0, 0.0, 1e-06, -0.00923, 0.0, 1e-06, 0.00923]",0.91,6.8
aminyl_radical,-55.575090265823,4,0.745953,"[-15.6065, -1.167655, -0.6479221, -0.5143695, -0.5076554]","[0.0, 0.0, -0.010462, -0.0, 0.005012, 0.005231, 0.0, -0.005012, 0.005231]",0.02,0.3
allene,-115.876691844656,5,0.0,"[-11.272, -11.24675, -11.24665, -1.076843, -0.9604352, -0.7150391, -0.6273853, -0.607929, -0.607929, -0.3780453, -0.3780453]","[0.0, 0.0, -0.0, -0.0, -0.0, 0.003953, -0.0, -0.0, -0.003953, 0.0, 0.003775, 0.002524, 0.0, -0.003775, 0.002524, 0.003775, 0.0, -0.002524, -0.003775, 0.0, -0.002524]",0.26,2.0
methane,-40.199618076504,4,0.0,"[-11.2144, -0.944561, -0.5444434, -0.5444434, -0.5444434]","[0.0, -0.0, 0.0, -0.000982, -0.000982, -0.000982, -0.000982, 0.000982, 0.000982, 0.000982, -0.000982, 0.000982, 0.000982, 0.000982, -0.000982]",0.03,0.3
carbon_monosulfide,-435.334076041119,4,0.613804,"[-92.0055, -11.36523, -9.013246, -6.694236, -6.691943, -6.691943, -1.1079, -0.6942406, -0.4721202, -0.4648447, -0.4648447]","[0.0, 0.0, -0.010002, -0.0, -0.0, 0.010002]",0.23,1.4
sulfur_hexafluoride,-994.082530265264,6,0.0,"[-92.4905, -26.393, -26.393, -26.3929, -26.3929, -26.3929, -26.3929, -9.42, -7.1091, -7.1091, -7.1091, -1.8484, -1.7162, -1.7162, -1.7162, -1.6602, -1.6602, -1.104426, -0.9261888, -0.9261888, -0.9261888, -0.8300974, -0.8300974, -0.8300974, -0.7327821, -0.7327821, -0.7258751, -0.7258751, -0.7258751, -0.7127576, -0.7127576, -0.7127576, -0.6770392, -0.6770392, -0.6770392]","[-0.0, -0.0, -0.0, 0.0, 0.0, -0.001176, -0.0, -0.001176, 0.0, -0.001176, -0.0, 0.0, -0.0, 0.001176, 0.0, 0.001176, -0.0, 0.0, 0.0, 0.0, 0.001176]",1.42,7.9
nonane,-352.508911600051,4,0.033962,"[-11.2178, -11.2178, -11.2156, -11.2154, -11.2151, -11.2148, -11.2146, -11.2136, -11.2136, -1.096178, -1.071691, -1.031368, -0.9776054, -0.9143116, -0.8485968, -0.797832, -0.7858659, -0.7814377, -0.658909, -0.6372615, -0.6034714, -0.593747, -0.5867789, -0.5623194, -0.5527866, -0.5515719, -0.5207386, -0.5138837, -0.4864951, -0.4863671, -0.4781317, -0.4652016, -0.4633962, -0.4567971, -0.4563075, -0.4546859, -0.422871]","[0.0, -0.0, -0.001136, 0.0, 2e-06, 0.001118, -0.0, -2e-06, 0.001118, -0.0, 0.000321, -0.001153, 0.0, -0.000321, -0.001153, 0.0, -0.000363, 0.000858, -0.0, 0.000363, 0.000858, 0.0, -0.001021, -0.000145, -0.0, 0.001021, -0.000145, 2e-05, 0.0, -0.000202, -2e-05, 0.0, -0.000202, -1.8e-05, -2e-06, 0.000224, 1.8e-05, -2e-06, 0.000224, 1.8e-05, 2e-06, 0.000224, -1.8e-05, 2e-06, 0.000224, -7.7e-05, 4e-06, -0.000226, 7.7e-05, 4e-06, -0.000226, 7.7e-05, -4e-06, -0.000226, -7.7e-05, -4e-06, -0.000226, 0.000498, -0.000671, 0.000418, -0.000498, -0.000671, 0.000418, -0.000498, 0.000671, 0.000418, 0.000498, 0.000671, 0.000418, -0.0, -0.001041, 0.000975, 0.001189, -0.000597, -0.000857, -0.001189, -0.000597, -0.000857, 0.0, 0.001041, 0.000975, -0.001189, 0.000597, -0.000857, 0.001189, 0.000597, -0.000857]",22.9,100.6
furan,-228.653907339209,5,0.325188,"[-20.6344, -11.2961, -11.296, -11.2384, -11.2374, -1.463688, -1.087483, -1.006873, -0.8086338, -0.7847667, -0.7413525, -0.6335973, -0.6111749, -0.5787858, -0.566552, -0.5396246, -0.3979124, -0.3198682]","[-0.0, -0.0, 0.022643, -0.0, 0.012165, 0.007527, 0.0, -0.012165, 0.007527, 0.0, -0.008124, -0.018166, -0.0, 0.008124, -0.018166, 0.0, 0.001231, 0.001668, -0.0, -0.001231, 0.001668, 0.0, -0.002634, -0.00235, -0.0, 0.002634, -0.00235]",1.34,9.5
methanol_radical,-114.439252343859,5,0.765622526553,"[-20.6311, -11.2909, -1.404665, -0.9257368, -0.7043241, -0.6519255, -0.6233663, -0.5221429, -0.4811206]","[-0.005942, 0.002388, -0.0, 0.002511, 0.003606, -0.0, 0.003698, -0.00013, 0.0, -0.000133, -0.002932, 0.002606, -0.000133, -0.002932, -0.002606]",0.16,1.0
sodium_lithium,-169.286781862705,3,0.253654,"[-40.4604, -2.781364, -2.453176, -1.501929, -1.501645, -1.501645, -0.1729747]","[0.0, 0.0, 0.002987, -0.0, -0.0, -0.002987]",0.2,1.2
O,-74.796600752825,4,0.0,"[-20.7208, -1.422255, -0.7102422, -0.7102422, -0.6125679]","[-0.0, 0.0, -0.0]",0.0,0.2
ethylene_oxide,-152.889218129257,5,0.865501,"[-20.5814, -11.2921, -11.29128, -1.419186, -0.9363823, -0.8638361, -0.7085947, -0.6619926, -0.5492554, -0.5442312, -0.4522958, -0.4512044]","[-0.0, 0.0, 0.017537, -0.0, 0.00783, -0.007306, 0.0, -0.00783, -0.007306, -0.002392, -0.000633, -0.000731, 0.002392, -0.000633, -0.000731, 0.002392, 0.000633, -0.000731, -0.002392, 0.000633, -0.000731]",0.35,2.2
chlorine_diatomic,-918.966003989347,4,0.0,"[-104.8986, -104.8986, -10.6226, -10.6225, -8.0908, -8.0906, -8.0855, -8.085504, -8.085492, -8.085492, -1.225754, -1.018946, -0.6009342, -0.5718631, -0.5718631, -0.4461777, -0.4461777]","[0.0, -0.0, 0.008545, -0.0, 0.0, -0.008545]",0.19,1.4
aziridine,-133.057960747476,5,0.730458383753,"[-15.5666, -11.2623, -11.26114, -1.258171, -0.8967177, -0.8397155, -0.6970209, -0.6372644, -0.5302852, -0.4832879, -0.4763883, -0.3898579]","[-0.001935, 0.012124, -0.005286, -0.009092, -0.007623, -0.001467, 0.00886, -0.0078, -0.005415, 0.001578, 0.005719, 0.0109, -0.001335, 0.007291, 0.001149, 0.002276, -0.008462, -0.0002, 0.001096, 9.5e-05, -0.002261, -0.001447, -0.001344, 0.00258]",0.44,2.3
methoxyethane,-193.130464379403,5,0.546759478868,"[-20.5632, -11.279, -11.2758, -11.219, -1.373754, -1.025021, -0.913589, -0.8305558, -0.6670673, -0.6519553, -0.6235745, -0.5804856, -0.5336557, -0.5039234, -0.5000769, -0.4770651, -0.420288]","[-0.021012, -0.011842, -0.0, 0.001121, 0.00759, 0.0, 0.009126, 0.001667, -0.0, 0.001947, -0.002054, 0.0, 0.00243, 0.002715, 0.003129, 0.00243, 0.002715, -0.003129, -0.001577, -0.002345, 0.0, 0.00295, 0.000949, -0.002559, 0.00295, 0.000949, 0.002559, -0.000139, -0.000958, -0.001275, -0.000139, -0.000958, 0.001275, -8.5e-05, 0.001571, 0.0]",1.36,8.2
ethane,-79.237225133908,4,0.0,"[-11.2191, -11.21854, -1.016726, -0.8418472, -0.59553, -0.5955286, -0.5049943, -0.4868149, -0.4868139]","[2.2e-05, 0.0, 0.005856, -2.2e-05, -0.0, -0.005856, -0.000119, 0.0, -0.000392, 4.9e-05, 7.5e-05, -0.000399, 4.9e-05, -7.5e-05, -0.000399, 0.000119, -0.0, 0.000392, -4.9e-05, -7.5e-05, 0.000399, -4.9e-05, 7.5e-05, 0.000399]",0.18,1.1
carbon_tetrabromide,-10327.373988723457,4,0.0,"[-490.1041, -490.1041, -490.1041, -490.1041, -65.2404, -65.2404, -65.2404, -65.2404, -58.5974, -58.5974, -58.5974, -58.5974, -58.5956, -58.5956, -58.5956, -58.5956, -58.5956, -58.5956, -58.5956, -58.5956, -11.4751, -9.892, -9.892, -9.892, -9.8919, -7.5058, -7.5058, -7.5058, -7.5058, -7.4956, -7.4956, -7.4956, -7.4956, -7.4956, -7.4956, -7.4956, -7.4956, -3.2434, -3.2434, -3.2434, -3.2434, -3.2386, -3.2386, -3.2386, -3.2386, -3.2386, -3.2386, -3.2386, -3.2386, -3.2265, -3.2265, -3.2265, -3.2265, -3.2265, -3.2265, -3.2265, -3.2265, -1.186454, -1.039382, -1.039382, -1.039382, -0.7992331, -0.6003203, -0.6003203, -0.6003203, -0.4803837, -0.4803837, -0.4406197, -0.4406197, -0.4406197, -0.4144896, -0.4144896, -0.4144896]","[0.0, -0.0, 0.0, 0.001052, 0.001052, 0.001052, -0.001052, -0.001052, 0.001052, -0.001052, 0.001052, -0.001052, 0.001052, -0.001052, -0.001052]",10.13,52.6
beryllium_diatomic,-29.132851261934,3,0.0,"[-4.7316, -4.731604, -0.3951592, -0.2432851]","[0.0, 0.0, 0.012496, -0.0, -0.0, -0.012496]",0.02,0.4
tetrachloroethylene,-1913.704995310989,5,0.0,"[-104.878, -104.878, -104.878, -104.878, -11.3954, -11.3939, -10.6044, -10.6044, -10.6044, -10.6044, -8.0723, -8.0723, -8.0723, -8.0723, -8.0685, -8.0685, -8.0685, -8.0685, -8.0684, -8.0684, -8.0684, -8.0684, -1.27202, -1.201264, -1.14781, -1.121291, -0.9868672, -0.7565473, -0.6840943, -0.6701888, -0.6194192, -0.5823415, -0.5369367, -0.5140974, -0.5060514, -0.5012705, -0.4939904, -0.4862001, -0.4532094, -0.36507]","[0.0, -0.0, 0.037287, 0.0, 0.0, -0.037287, -0.0, -0.002837, -0.003628, -0.0, 0.002837, -0.003628, 0.0, 0.002837, 0.003628, -0.0, -0.002837, 0.003628]",2.21,15.5
silicon_monoxide,-363.802272853457,4,1.431048,"[-68.8368, -20.54568, -6.184062, -4.285604, -4.285074, -4.285074, -1.27233, -0.6146725, -0.4764565, -0.4764565, -0.4374451]","[-0.0, -0.0, 0.001086, 0.0, 0.0, -0.001086]",0.22,1.4
trimethylamine,-173.288876858184,4,0.321582023678,"[-15.552, -11.2488, -11.2488, -11.2487, -1.228264, -0.9481801, -0.9481598, -0.8047697, -0.6427529, -0.6264717, -0.6264662, -0.543378, -0.5433683, -0.5104466, -0.4984648, -0.4984574, -0.3527023]","[-4.3e-05, 4.5e-05, 0.001266, 0.005746, 0.005824, 0.014866, -0.007846, 0.002099, 0.014869, 0.002118, -0.007983, 0.014878, 0.00174, 0.001739, -0.008301, -0.002376, 0.000637, -0.008299, 0.00064, -0.00238, -0.008304, -0.012136, 0.003965, -0.003486, 0.003973, -0.012172, -0.0035, 0.002642, -0.012502, -0.003488, 0.00854, 0.009517, -0.003491, 0.009541, 0.008567, -0.003506, -0.012537, 0.002644, -0.003504]",1.74,6.9
carbonyl_fluoride,-311.654503641693,5,0.473631,"[-26.405, -26.405, -20.6325, -11.5492, -1.7691, -1.6926, -1.483733, -0.962505, -0.8690444, -0.818942, -0.8080547, -0.7278532, -0.706672, -0.7061143, -0.5766728, -0.5582639]","[0.0, 0.0, 0.044234, -0.0, 0.0, -0.017769, 0.0, 0.018299, -0.013232, 0.0, -0.018299, -0.013232]",0.39,1.7
phosphorus_mononitride,-395.150687497265,4,1.241685,"[-80.0055, -15.62818, -7.550816, -5.44293, -5.441787, -5.441787, -1.145772, -0.6675428, -0.4868405, -0.4451707, -0.4451707]","[0.0, 0.0, -0.04006, -0.0, -0.0, 0.04006]",0.22,1.5
carbon_tetrachloride,-1875.850700123255,4,0.0,"[-104.877, -104.877, -104.877, -104.877, -11.5009, -10.604, -10.604, -10.604, -10.6039, -8.0717, -8.0717, -8.0717, -8.0717, -8.0677, -8.0677, -8.0677, -8.0677, -8.0677, -8.0677, -8.0677, -8.0677, -1.289003, -1.132394, -1.132394, -1.132394, -0.8368275, -0.6620377, -0.6620377, -0.6620377, -0.5338579, -0.5338579, -0.4908483, -0.4908483, -0.4908483, -0.4609825, -0.4609825, -0.4609825]","[0.0, 0.0, 0.0, -0.001383, -0.001383, -0.001383, 0.001383, 0.001383, -0.001383, 0.001383, -0.001383, 0.001383, -0.001383, 0.001383, 0.001383]",1.77,8.8
acrylonitrile,-169.784178032318,6,1.76351522918,"[-15.5971, -11.3033, -11.2993, -11.294, -1.218321, -1.102575, -0.8898226, -0.7312638, -0.6621276, -0.5893532, -0.5553665, -0.5151621, -0.4643, -0.3956955]","[-0.007774, -0.013159, -0.0, 0.002468, 0.024799, 0.0, 0.046279, -0.107007, 0.0, -0.003253, -0.0002, -0.0, 0.000759, -0.003041, -0.0, 0.004753, -0.001166, 0.0, -0.043232, 0.099775, -0.0]",0.55,3.3
Be,-14.572379149347,1,0.0,"[-4.7333, -0.3093786]","[-0.0, -0.0, 0.0]",0.0,0.2
Li,-7.432425720560,3,0.0,"[-2.4849, -0.1963097]","[0.0, -0.0, 0.0]",0.0,0.2
sodium_hydroxide,-237.316441887655,5,2.754855,"[-40.4498, -20.40175, -2.776925, -1.500318, -1.49981, -1.49981, -1.133359, -0.5005473, -0.3348255, -0.3348255]","[-0.0, 0.0, 0.007505, 0.0, 0.0, -0.001175, -0.0, -0.0, -0.00633]",0.35,1.7
methylene_t,-38.928001328385,4,0.22686,"[-11.273, -0.948104, -0.6179851, -0.4478011, -0.4083046]","[-0.0, 0.0, -0.001468, 0.0, 0.005959, 0.000734, 0.0, -0.005959, 0.000734]",0.02,0.3
carbon_monophosphide,-378.488067515982,2,0.048191,"[-79.9655, -11.32439, -7.509744, -5.408544, -5.393472, -5.393472, -1.019102, -0.6494072, -0.4667367, -0.4575868, -0.4575868]","[-0.0, -0.0, 0.045292, 0.0, 0.0, -0.045292]",0.23,2.8
formic_acid,-188.788482065370,5,0.641338875344,"[-20.6438, -20.5722, -11.40579, -1.484206, -1.383118, -0.888974, -0.7409693, -0.7177423, -0.6403156, -0.601739, -0.4962521, -0.4667463]","[-0.04523, 0.004514, 0.0, -0.02654, -0.005093, -0.0, 0.027025, 0.013561, -0.0, 0.035316, 0.008264, 0.0, 0.009429, -0.021246, 0.0]",0.24,1.3
aluminum_trifluoride,-540.505998981980,4,7e-06,"[-58.5769, -26.3021, -26.3021, -26.3021, -4.9856, -3.3037, -3.3014, -3.3014, -1.5893, -1.5764, -1.576415, -0.7409768, -0.696036, -0.6960347, -0.6695006, -0.6592493, -0.6592474, -0.6501219, -0.6501198, -0.6355683]","[0.0, -1.1e-05, -0.0, -0.0, -0.001376, -0.0, -0.001202, 0.000693, 0.0, 0.001202, 0.000693, 0.0]",0.4,2.3
vinyl_radical,-77.401316663670,3,0.24190944778,"[-11.2661, -11.23446, -1.05001, -0.7914026, -0.6375609, -0.6000091, -0.4086087, -0.4041184]","[-0.002384, -0.016483, 0.0, -0.000231, 0.01349, -0.0, 0.000267, 0.002839, 0.0, 0.001016, 0.001065, 0.0, 0.001332, -0.00091, -0.0]",0.09,1.1
nitrous_oxide,-183.709309994661,4,0.245878,"[-20.6691, -15.85703, -15.71174, -1.621036, -1.430269, -0.8368611, -0.763804, -0.763804, -0.6993884, -0.4925934, -0.4925934]","[-0.0, 0.0, -0.105464, 0.0, -0.0, 0.082214, 0.0, 0.0, 0.023251]",0.13,0.7
2_butyne,-154.922536279026,4,1.8e-05,"[-11.259, -11.259, -11.2296, -11.2262, -1.059283, -0.9958713, -0.9103632, -0.6483944, -0.5918704, -0.5837857, -0.5837854, -0.5668345, -0.5668342, -0.359947, -0.3599468]","[0.0, 0.0, 0.045122, -0.0, 0.0, -0.045122, -0.0, -1e-05, -0.019229, 0.0, -1e-05, 0.019229, 0.0, 0.016505, 0.006192, -0.014279, -0.008247, 0.006189, 0.014279, -0.008247, 0.006189, 0.0, 0.016505, -0.006192, 0.014279, -0.008247, -0.006189, -0.014279, -0.008247, -0.006189]",0.72,3.8
hydrogen_diatomic,-1.128793348116,3,0.0,"[-0.5923655]","[-0.0, -0.0, 0.00515, 0.0, 0.0, -0.00515]",0.0,0.2
beryllium_dihydride,-15.768463801013,4,0.0,"[-4.676, -0.4893448, -0.4479694]","[0.0, 0.0, -0.0, -0.0, -0.0, -0.002808, -0.0, -0.0, 0.002808]",0.01,0.3
beryllium_monohydride,-15.150510184834,4,0.110809,"[-4.7177, -0.4870929, -0.3112171]","[-0.0, 0.0, -0.000153, 0.0, -0.0, 0.000153]",0.01,0.3
sodium_monoxide,-236.682514205712,5,3.454905,"[-40.4681, -20.45154, -2.793914, -1.517171, -1.516434, -1.515266, -1.138687, -0.4594588, -0.3802702, -0.3677035]","[-0.0, -0.0, 0.000968, 0.0, 0.0, -0.000968]",0.19,1.8
N,-54.393183389611,5,0.0,"[-15.6797, -1.165013, -0.5705311, -0.5705311, -0.5705311]","[-0.0, 0.0, 0.0]",0.0,0.2
phosphino_radical,-341.874142403662,4,0.262216,"[-79.9679, -7.508719, -5.412899, -5.39967, -5.39796, -0.8572441, -0.5206834, -0.4303319, -0.37604]","[-0.0, 0.0, -0.006999, -0.0, -0.000309, 0.0035, 0.0, 0.000309, 0.0035]",0.07,1.2
boron_monochloride,-484.139317449111,4,0.547307,"[-104.8779, -10.60808, -8.074767, -8.072418, -8.072418, -7.726942, -1.163876, -0.6724627, -0.5252192, -0.5252192, -0.381542]","[0.0, 0.0, 0.009475, -0.0, -0.0, -0.009475]",0.22,1.4
ozone,-224.288204846121,5,0.302386,"[-20.928, -20.7218, -20.72172, -1.756287, -1.438435, -1.101713, -0.8346901, -0.8040771, -0.7818061, -0.5662086, -0.5561472, -0.4902492]","[-0.0, -0.0, -0.110185, 0.0, 0.088599, 0.055093, 0.0, -0.088599, 0.055093]",0.07,0.6
water,-76.041393523771,4,0.786701,"[-20.5774, -1.356386, -0.7189385, -0.5856068, -0.5094073]","[-0.0, 0.0, 0.021168, 0.0, 0.011032, -0.010584, 0.0, -0.011032, -0.010584]",0.02,0.3
acetate_anion,-227.272239999419,5,1.67430869133,"[-20.3006, -20.2979, -11.1461, -11.0587, -1.156152, -1.058538, -0.790364, -0.5130507, -0.4142286, -0.4104492, -0.4077533, -0.35717, -0.3125636, -0.2014015, -0.1936122, -0.1868613]","[-0.000214, -0.003013, -0.0, 0.000346, -0.028801, 0.0, 0.007369, -0.00302, 0.0, -0.00351, -0.002771, 0.00591, -0.00351, -0.002771, -0.00591, -0.045235, 0.017982, -0.0, 0.044755, 0.022395, -0.0]",0.48,2.8
tetrachlorosilane,-2127.160709107957,4,0.0,"[-104.8617, -104.8617, -104.8617, -104.8617, -68.967, -10.5906, -10.5906, -10.5906, -10.5906, -8.0579, -8.0579, -8.0579, -8.0579, -8.055, -8.055, -8.055, -8.055, -8.055, -8.055, -8.055, -8.055, -6.2983, -4.4056, -4.4056, -4.4056, -1.183481, -1.124293, -1.124293, -1.124293, -0.7285226, -0.60382, -0.60382, -0.60382, -0.5261843, -0.5261843, -0.5052771, -0.5052771, -0.5052771, -0.4749839, -0.4749839, -0.4749839]","[0.0, 0.0, -0.0, -0.00843, -0.00843, -0.00843, 0.00843, 0.00843, -0.00843, 0.00843, -0.00843, 0.00843, -0.00843, 0.00843, 0.00843]",2.08,10.6
oxygen_diatomic,-149.642447335555,5,0.0,"[-20.7668, -20.76619, -1.726842, -1.212706, -0.8461853, -0.8461853, -0.7717937, -0.5595685, -0.5595685]","[0.0, -0.0, -0.086299, -0.0, 0.0, 0.086299]",0.02,0.5
F,-99.381091792914,4,0.0,"[-26.4245, -1.679134, -0.8447031, -0.7331879, -0.7331879]","[0.0, 0.0, 0.0]",0.0,0.2
heptane,-274.430154538521,8,0.033948,"[-11.21956, -1.086281, -1.04843, -0.9882563, -0.9123759, -0.8333353, -0.7834751, -0.7807317, -0.6501304, -0.6176616, -0.5879777, -0.5792716, -0.5703157, -0.5487828, -0.5196999, -0.5104029, -0.4995017, -0.4796852, -0.47062, -0.4592069, -0.4553306, -0.4552658, -0.4307846]","[-0.0, -0.0, -0.004356, -0.0, 0.000204, 0.004339, 0.0, -0.000204, 0.004339, -0.0, -0.000217, -0.003896, 0.0, 0.000217, -0.003896, 0.0, -0.003436, 0.001684, -0.0, 0.003436, 0.001684, -0.006637, 0.0, 0.004741, 0.006637, 0.0, 0.004741, -0.006608, -5.7e-05, -0.004768, 0.006608, -5.7e-05, -0.004768, 0.006608, 5.7e-05, -0.004768, -0.006608, 5.7e-05, -0.004768, 0.00629, -0.000658, 0.004616, -0.00629, -0.000658, 0.004616, -0.00629, 0.000658, 0.004616, 0.00629, 0.000658, 0.004616, -0.0, 0.006141, 0.003988, 0.005915, -0.000189, -0.004187, -0.005915, -0.000189, -0.004187, 0.0, -0.006141, 0.003988, -0.005915, 0.000189, -0.004187, 0.005915, 0.000189, -0.004187]",8.91,34.0
methylene_s,-38.884395448289,4,0.748771,"[-11.3015, -0.8944959, -0.56565, -0.395137]","[-0.0, 0.0, 0.002681, 0.0, -0.00027, -0.001341, 0.0, 0.00027, -0.001341]",0.02,0.3
octane,-313.469964124952,11,0.0,"[-11.2165, -1.090054, -1.060964, -1.013165, -0.9505374, -0.8795337, -0.8138904, -0.7827547, -0.7820172, -0.6543622, -0.628602, -0.5939982, -0.5894525, -0.570639, -0.5670671, -0.5440197, -0.5300282, -0.5017093, -0.497072, -0.4904365, -0.4713764, -0.4631529, -0.4571636, -0.4546403, -0.4508209, -0.4328077]","[-0.006119, -0.003812, -0.0, 0.006119, 0.003812, 0.0, 0.005664, 0.004806, -0.0, -0.005664, -0.004806, -0.0, -0.00725, -0.001716, -0.0, 0.00725, 0.001716, 0.0, 0.003575, 0.001117, -0.0, -0.003575, -0.001117, -0.0, 0.000621, 0.00036, 0.001721, 0.000621, 0.00036, -0.001721, -0.000621, -0.00036, 0.001721, -0.000621, -0.00036, -0.001721, -0.000705, -0.000321, -0.001778, -0.000705, -0.000321, 0.001778, 0.000705, 0.000321, -0.001778, 0.000705, 0.000321, 0.001778, 0.001319, 0.000123, 0.001782, 0.001319, 0.000123, -0.001782, -0.001319, -0.000123, 0.001782, -0.001319, -0.000123, -0.001782, -0.001837, 0.001956, -0.0, -0.000805, -0.000133, -0.000643, -0.000805, -0.000133, 0.000643, 0.001837, -0.001956, -0.0, 0.000805, 0.000133, -0.000643, 0.000805, 0.000133, 0.000643]",12.91,62.9
beryllium_difluoride,-213.702499522257,4,0.0,"[-26.289, -26.28897, -4.743124, -1.570957, -1.564659, -0.7010549, -0.6918976, -0.6528857, -0.6528857, -0.6317525, -0.6317525]","[-0.0, 0.0, -0.0, 0.0, 0.0, 0.004549, 0.0, -0.0, -0.004549]",0.11,0.7
dilithium_oxide,-89.789612179502,6,0.0,"[-20.3539, -2.352295, -2.352034, -1.020067, -0.3381177, -0.2734662, -0.2734662]","[-0.0, -0.0, -0.0, 0.0, -0.0, -0.00212, -0.0, 0.0, 0.00212]",0.13,0.8
thiophene,-551.327446680186,5,0.291838,"[-91.9868, -11.2695, -11.2695, -11.2468, -11.2458, -8.9897, -6.6714, -6.6705, -6.6687, -1.175912, -0.9903965, -0.9847718, -0.7685591, -0.7526738, -0.6983543, -0.575038, -0.553093, -0.5297767, -0.5235664, -0.4769802, -0.3473586, -0.3258947]","[-0.0, 0.0, -0.004182, 0.0, 5.6e-05, 0.019259, 0.0, -5.6e-05, 0.019259, -0.0, -0.019684, -0.015888, 0.0, 0.019684, -0.015888, 0.0, 0.00365, 0.002109, -0.0, -0.00365, 0.002109, 0.0, 0.002464, -0.00339, -0.0, -0.002464, -0.00339]",1.84,10.6
ketene,-151.748469023724,5,0.692771,"[-20.6419, -11.39652, -11.24925, -1.483005, -1.056179, -0.7626171, -0.68042, -0.6591059, -0.6452152, -0.5644997, -0.3659821]","[-0.0, 0.0, -0.004762, -0.0, -0.0, -0.03368, 0.0, -0.0, 0.040373, -0.0, 0.001961, -0.000966, 0.0, -0.001961, -0.000966]",0.23,1.3
phosphorus_monofluoride,-440.180726076543,4,0.407408,"[-80.0364, -26.3353, -7.571314, -5.471835, -5.471835, -5.458125, -1.6403, -0.8801309, -0.7157564, -0.7157564, -0.6343126, -0.3797839, -0.3797839]","[-0.0, -0.0, 0.024762, 0.0, 0.0, -0.024762]",0.21,1.5
boron_diatomic,-49.086744285704,4,0.0,"[-7.714, -7.71292, -0.7776897, -0.3962881, -0.3619771, -0.3619771]","[-0.0, -0.0, 0.024685, 0.0, 0.0, -0.024685]",0.02,0.6
nitrogen_dioxide,-204.066068964049,5,0.262233,"[-20.7007, -20.70062, -15.89107, -1.688539, -1.507957, -0.9758826, -0.839737, -0.8097717, -0.7689736, -0.5989152, -0.532236, -0.5056145]","[-0.0, -0.0, -0.055028, 0.0, 0.055708, 0.027514, 0.0, -0.055708, 0.027514]",0.13,1.0
argon_dimer,-1053.601586905083,2,0.0,"[-118.6103, -118.6103, -12.3225, -12.3224, -9.571, -9.571, -9.571, -9.571, -9.571028, -9.571027, -1.279464, -1.277933, -0.5997745, -0.5931075, -0.5931075, -0.5909688, -0.5909688, -0.584536]","[-0.0, 0.0, 0.000804, 0.0, -0.0, -0.000804]",0.11,1.0
sodium_diatomic,-323.704640432018,3,0.0,"[-40.4624, -40.46236, -2.782992, -2.782887, -1.504568, -1.503349, -1.503349, -1.503057, -1.503057, -1.502671, -0.1659209]","[-0.0, -0.0, 0.002801, 0.0, 0.0, -0.002801]",0.19,1.3
dimethylamine,-134.259325236777,4,0.456726500041,"[-15.5502, -11.2469, -11.2469, -1.196534, -0.9458142, -0.8526961, -0.6587823, -0.6107263, -0.5884049, -0.5359842, -0.5080775, -0.5062788, -0.368842]","[0.017511, 0.001984, 0.0, -0.006761, -0.002249, 0.010487, -0.006761, -0.002249, -0.010487, -0.011195, -0.009935, 0.0, 0.001006, 0.001574, 0.000139, 0.001006, 0.001574, -0.000139, 0.003429, 0.003532, -0.002524, 0.003429, 0.003532, 0.002524, -0.000832, 0.001119, -0.002928, -0.000832, 0.001119, 0.002928]",0.78,3.1
cyclobutene,-154.916924838727,4,0.039524,"[-11.2333, -11.2322, -11.232, -11.2314, -1.147252, -0.8972184, -0.8779583, -0.7059793, -0.6725642, -0.625059, -0.5297605, -0.5082544, -0.4647045, -0.4515257, -0.3482112]","[-0.0, 0.016132, -0.002183, 0.0, -0.016132, -0.002183, -0.0, -0.00183, -0.001942, -0.0, 0.00183, -0.001942, 0.0, 0.001048, 0.000722, 0.0, -0.001048, 0.000722, 0.003628, 0.000571, 0.001702, -0.003628, -0.000571, 0.001702, -0.003628, 0.000571, 0.001702, 0.003628, -0.000571, 0.001702]",0.88,3.6
acetic_acid,-227.847620921451,5,0.80090741028,"[-20.6262, -20.5647, -11.4027, -11.2562, -1.466559, -1.363513, -1.031422, -0.8225784, -0.708801, -0.6809655, -0.6503198, -0.5862976, -0.5740818, -0.5620102, -0.4838479, -0.4569598]","[0.010715, -0.031681, -0.0, -0.005314, -0.002145, 0.0, 0.009992, 0.054362, -0.0, -0.001977, -0.044722, 0.0, -0.01686, 0.026423, -0.0, 0.002036, 0.001556, 0.0, 0.000704, -0.001896, 0.001451, 0.000704, -0.001896, -0.001451]",0.58,3.8
hydrogen_fluoride,-100.033379992945,4,0.761297,"[-26.311, -1.60685, -0.7705162, -0.6505638, -0.6505638]","[-0.0, -0.0, -0.023975, 0.0, 0.0, 0.023975]",0.01,0.3
phosphorus_diatomic,-681.469995401267,3,0.0,"[-79.9837, -79.9837, -7.5252, -7.5246, -5.4178, -5.416174, -5.416174, -5.415911, -5.415911, -5.415558, -0.9083167, -0.6092318, -0.4100238, -0.3730163, -0.3730163]","[0.0, 0.0, -0.019685, -0.0, -0.0, 0.019685]",0.21,1.3
sodium_fluoride,-261.341980339362,44,3.357886,"[-40.46293, -26.08151, -2.789236, -1.514146, -1.512172, -1.512172, -1.325508, -0.439067, -0.4260206, -0.4260206]","[-0.0, -0.0, 0.059339, 0.0, 0.0, -0.059339]",0.16,2.5
lithium_diatomic,-14.869843312073,3,0.0,"[-2.4503, -2.449993, -0.181065]","[0.0, 0.0, 0.004199, -0.0, -0.0, -0.004199]",0.02,0.4
difluoromethane,-237.931866780728,5,0.861073,"[-26.326, -26.326, -11.4154, -1.671299, -1.609576, -0.9764392, -0.7824625, -0.7750916, -0.7602536, -0.668979, -0.6341308, -0.6236889, -0.5368484]","[0.0, -0.0, 0.003134, 0.001402, 0.0, 0.000652, -0.001402, 0.0, 0.000652, -0.0, 0.005972, -0.002219, 0.0, -0.005972, -0.002219]",0.22,1.2
propene,-117.086454685458,4,0.164123163889,"[-11.2421, -11.2295, -11.22624, -1.065589, -0.9332386, -0.7583015, -0.6383005, -0.5822562, -0.5667065, -0.5221287, -0.4909527, -0.3575968]","[0.011159, -0.004028, -0.0, -0.015992, 0.000613, 0.0, 0.003881, 0.004194, 0.0, 0.001207, -0.002394, 0.0, 0.002473, 0.001153, 0.0, -0.001297, 0.003032, -0.0, 0.001116, -0.002153, -0.0, -0.001273, -0.000209, 0.00137, -0.001273, -0.000209, -0.00137]",0.43,2.0
difluorine_monoxide,-273.487686166901,5,0.170077,"[-26.4171, -26.417, -20.8353, -1.76228, -1.645516, -1.294062, -0.8223953, -0.8056797, -0.8040983, -0.7249279, -0.681909, -0.6583636, -0.5840196]","[-0.0, -0.0, 0.059523, -0.0, 0.042954, -0.029761, 0.0, -0.042954, -0.029761]",0.11,0.7
phosphorus_monoxide,-415.579829650282,5,0.99012,"[-80.0451, -20.6046, -7.582057, -5.481762, -5.472479, -5.472114, -1.373568, -0.771117, -0.6093507, -0.5573159, -0.531615, -0.3365952]","[0.0, 0.0, -0.003512, -0.0, -0.0, 0.003512]",0.22,2.3
tert_butyl_radical,-156.691828730899,24,0.084007,"[-11.21815, -1.091803, -0.9356007, -0.9356006, -0.7430605, -0.6201584, -0.600188, -0.6001879, -0.5358194, -0.5358193, -0.5125782, -0.4813381, -0.4813378, -0.3126672]","[0.00015, 0.01321, -0.077211, 8e-06, -0.126741, 0.0122, -0.089099, 0.056934, 0.00821, 0.088965, 0.05696, 0.008142, 1e-06, -0.003773, 0.018749, 0.000801, -0.000777, -0.001153, -0.0008, -0.000778, -0.001154, -0.003242, 0.001938, 0.018646, -0.001553, -0.000415, -0.001417, -0.000369, 0.000964, -0.001122, 0.003232, 0.001939, 0.01865, 0.000352, 0.000959, -0.001118, 0.001557, -0.000421, -0.001422]",0.96,9.7
lithium_fluoride,-106.957099681831,4,2.560648,"[-26.1269, -2.442885, -1.382387, -0.4992863, -0.4742737, -0.4742737]","[-0.0, 0.0, 0.003659, 0.0, -0.0, -0.003659]",0.06,0.4
acetyl_fluoride,-251.832855638085,5,1.28100340576,"[-26.3448, -20.5942, -11.4379, -11.2718, -1.665, -1.440418, -1.04964, -0.8549081, -0.7406244, -0.7278012, -0.7238963, -0.623566, -0.6078134, -0.5878499, -0.5339297, -0.4911769]","[-0.003886, -0.014178, 0.0, -0.001808, -0.002918, -0.0, 0.010807, 0.029769, -0.0, -0.011331, -0.009474, -0.0, 0.00046, -0.002803, 0.0, 0.002879, -0.000198, -0.00446, 0.002879, -0.000198, 0.00446]",0.7,3.2
lithium_hydroxide,-82.932207658962,4,1.837028,"[-20.4416, -2.423046, -1.170915, -0.5489871, -0.376939, -0.376939]","[-0.0, -0.0, -0.044477, -0.0, 0.0, 0.004254, 0.0, 0.0, 0.040223]",0.12,0.5
propyne,-115.877099417928,4,0.315187000159,"[-11.2634, -11.24394, -11.22741, -1.059872, -0.9576463, -0.7182674, -0.6153806, -0.5929055, -0.592888, -0.3831445, -0.3831426]","[0.0, -2e-05, 0.007931, -0.0, -0.0, -0.038617, -0.0, 0.0, 0.032769, 0.0, 0.0, -0.004632, 0.0, 0.012197, 0.000845, 0.010558, -0.006089, 0.000852, -0.010558, -0.006089, 0.000852]",0.26,1.6
aluminum_monosulfide,-639.458399315437,19,1.95474,"[-6.603498, -6.594271, -6.594271, -4.957634, -3.271646, -3.265932, -3.265932, -0.8935006, -0.4980722, -0.3741419, -0.3500519, -0.3500519]","[0.0, 0.0, 0.046569, -0.0, -0.0, -0.046569]",0.42,2.0
boron_monocarbide,-62.328801060270,3,1.018757,"[-11.3158, -7.712956, -0.9541742, -0.5585691, -0.4317844, -0.4155569, -0.4155569]","[-0.0, -0.0, -0.03665, 0.0, 0.0, 0.03665]",0.07,0.8
boron_trichloride,-1403.330103287513,4,8e-05,"[-104.8613, -104.8613, -104.8613, -10.5898, -10.5898, -10.5898, -8.0571, -8.0571, -8.0571, -8.0546, -8.0546, -8.0546, -8.0542, -8.0542, -8.0542, -7.7846, -1.185449, -1.123734, -1.123725, -0.7092695, -0.6147914, -0.614786, -0.5580628, -0.4951523, -0.4951485, -0.4854256, -0.4854202, -0.4592218]","[-0.0, 1.3e-05, 0.0, 0.0, -0.007019, -0.0, -0.006075, 0.003503, -0.0, 0.006075, 0.003503, 0.0]",0.97,5.3
ethyl_radical,-78.606991492101,4,0.0917846379848,"[-11.2337, -11.2234, -1.032335, -0.8416208, -0.6189581, -0.5768583, -0.5420438, -0.5042901, -0.3480996]","[-0.001796, 0.006698, 0.0, 0.001693, -0.004854, -0.0, -0.000923, 0.000259, 0.0, 0.001092, 0.000368, -0.000957, 0.001092, 0.000368, 0.000957, -0.000579, -0.001419, 0.001988, -0.000579, -0.001419, -0.001988]",0.14,1.2
magnesium_hydroxide,-275.094552677186,5,0.416716,"[-49.0349, -20.48819, -3.778207, -2.296301, -2.294383, -2.294383, -1.236784, -0.6296397, -0.4340268, -0.4340268, -0.2735695]","[-0.0, -0.0, 0.013719, -0.0, 0.0, -0.004251, 0.0, -0.0, -0.009468]",0.36,2.0
hydrogen_peroxide,-150.798190973942,4,0.668168,"[-20.6444, -20.64411, -1.482233, -1.228944, -0.7266672, -0.7037041, -0.6083829, -0.5348867, -0.4890442]","[-0.020314, 0.048858, -0.003296, 0.020314, -0.048858, -0.003296, 0.004849, -0.013449, 0.003296, -0.004849, 0.013449, 0.003296]",0.06,0.5
Al,-241.874158134052,4,0.0,"[-58.5024, -4.911792, -3.224872, -3.219231, -3.219231, -0.4262017, -0.2172501]","[-0.0, 0.0, 0.0]",0.0,1.4
propane,-118.276147454622,5,0.0306020421704,"[-11.2233, -11.215, -11.215, -1.053533, -0.9263739, -0.8003044, -0.6226584, -0.5944557, -0.5503668, -0.5312268, -0.4759598, -0.4709709, -0.4670536]","[3.6e-05, 0.000771, 1e-06, 0.006169, -0.005967, -2e-06, -0.006203, -0.006016, 2.8e-05, 1e-06, 0.001991, 0.001484, -3.7e-05, 0.002044, -0.001518, -0.000712, 0.001252, -1e-06, 0.000738, 0.001281, 4e-06, -0.001359, 0.001164, -0.001779, -0.001358, 0.001163, 0.00178, 0.001353, 0.001162, 0.00178, 0.001372, 0.001155, -0.001778]",0.66,3.3
butane,-157.315095802297,7,0.0,"[-11.2205, -11.2199, -11.2161, -11.2161, -1.071521, -0.9807714, -0.8601909, -0.7865208, -0.6372244, -0.5831656, -0.5743501, -0.5657458, -0.5128224, -0.4926769, -0.4682193, -0.4595125, -0.4554239]","[-0.000623, -0.002771, -0.0, -0.003257, 0.001919, 0.0, 0.003257, -0.001919, -0.0, 0.000623, 0.002771, -0.0, 0.001752, 0.000755, -0.0, -0.001752, -0.000755, 0.0, -0.0009, 5.4e-05, 0.001244, -0.0009, 5.4e-05, -0.001244, 0.0009, -5.4e-05, 0.001244, 0.0009, -5.4e-05, -0.001244, 0.000926, -0.001214, -0.001852, 0.000926, -0.001214, 0.001852, -0.000926, 0.001214, -0.001852, -0.000926, 0.001214, 0.001852]",1.55,11.0
carbon_dioxide,-187.662457656421,4,0.0,"[-20.6638, -20.6638, -11.47786, -1.536986, -1.484041, -0.8039187, -0.7459642, -0.7155659, -0.7155659, -0.5446398, -0.5446398]","[0.0, 0.0, 0.0, 0.0, 0.0, 0.048458, -0.0, -0.0, -0.048458]",0.13,0.6
Cl,-459.472781296949,3,0.0,"[-104.891, -10.6143, -8.100144, -8.074555, -8.074555, -1.13775, -0.5799373, -0.504257, -0.504257]","[-0.0, -0.0, -0.0]",0.0,0.9
magnesium_monohydride,-200.149432358908,4,0.559323,"[-49.0459, -3.786036, -2.302372, -2.301957, -2.301957, -0.4170242, -0.2595112]","[0.0, 0.0, 0.0017, -0.0, -0.0, -0.0017]",0.05,1.3
cyclopropene,-115.836282489657,4,0.18485,"[-11.252, -11.24988, -11.24575, -1.159361, -0.8251961, -0.7689703, -0.6812955, -0.5972394, -0.4913927, -0.4205133, -0.356995]","[-0.0, -0.0, 0.007307, 0.0, 0.020391, -0.002938, -0.0, -0.020391, -0.002938, -0.0, -0.000877, 0.000579, 0.0, 0.000877, 0.000579, 0.001355, 0.0, -0.001294, -0.001355, 0.0, -0.001294]",0.28,1.7
cyclobutane,-156.112799478310,5,0.0,"[-11.2219, -11.2213, -11.2213, -11.2208, -1.128065, -0.8910379, -0.8910379, -0.7499207, -0.6456277, -0.6413757, -0.5319014, -0.5319014, -0.4832621, -0.4502373, -0.4353139, -0.4353139]","[0.0, -0.005555, -0.000613, -0.0, 0.005555, -0.000613, 0.005555, -0.0, 0.000613, -0.005555, -0.0, 0.000613, -0.0, 0.002632, -0.001331, -0.0, 0.000228, 0.002578, 0.0, -0.002632, -0.001331, -0.0, -0.000228, 0.002578, -0.002632, 0.0, 0.001331, -0.000228, 0.0, -0.002578, 0.002632, 0.0, 0.001331, 0.000228, 0.0, -0.002578]",1.26,5.9
silylene_s,-290.019150113588,4,0.134734644071,"[-68.8078, -6.151563, -4.255248, -4.252992, -4.251931, -0.6778566, -0.4580563, -0.3376956]","[0.0, 0.001125, -0.001093, -0.0, 0.001916, 0.003116, 0.0, -0.003041, -0.002023]",0.06,1.1
aluminum_monohydride,-242.454354673221,4,0.057887,"[-58.4948, -4.904294, -3.213875, -3.213875, -3.211716, -0.4979886, -0.2879192]","[0.0, 0.0, 0.002379, -0.0, -0.0, -0.002379]",0.05,1.0
beryllium_oxide,-89.419813172527,7,2.946811,"[-20.4693, -4.734108, -1.158269, -0.4639865, -0.3900384, -0.3900384]","[0.0, 0.0, -0.023781, -0.0, -0.0, 0.023781]",0.08,0.7
