,Energy,Iterations,Dipole Moment,Eigens,Derivatives,Derivative Time,Wall Time
bicyclo[3.1.0]hexane,-233.092130743353,4,0.0701115926577,"[-11.2188, -11.2181, -11.2139, -11.2138, -11.2138, -11.2123, -1.170438, -1.022171, -0.957113, -0.8442563, -0.7568703, -0.7462034, -0.6857656, -0.6286153, -0.5906608, -0.5613356, -0.5458188, -0.4942849, -0.4756371, -0.4694897, -0.4634105, -0.399422, -0.3847597]","[0.001231, -0.004961, -0.0, -0.002559, 0.000507, -0.0, -0.000676, -0.002171, -0.004891, -0.000676, -0.002171, 0.004891, 0.000981, 0.005201, 0.007393, 0.000981, 0.005201, -0.007393, -0.000366, -0.005332, 0.0, -0.004231, 0.005141, 0.0, -0.005521, -0.001054, -0.0, 0.001957, 0.004826, -0.0, -0.003645, 0.000555, 0.00364, -0.003645, 0.000555, -0.00364, 0.004846, 0.000974, -0.000442, 0.004846, 0.000974, 0.000442, 0.003239, -0.004122, 0.002347, 0.003239, -0.004122, -0.002347]",1016.97,4250.1
phosphine,-342.492266194692,4,0.261794000069,"[-79.9449, -7.488007, -5.381719, -5.381719, -5.380752, -0.8539137, -0.5203579, -0.5203569, -0.3887656]","[-0.0, 8e-06, 0.017689, -0.0, -0.003263, -0.0059, 0.002815, 0.001628, -0.005895, -0.002815, 0.001628, -0.005895]",1.39,15.5
beryllium_sulfide,-412.146522836164,5,2.548979,"[-91.8927, -8.895779, -6.576615, -6.575637, -6.575637, -4.768139, -0.8589931, -0.416155, -0.3364591, -0.3364591]","[0.0, -0.0, -0.008931, -0.0, 0.0, 0.008931]",1.96,14.9
C,-37.693351535144,4,0.0,"[-11.346, -0.8293344, -0.4390192, -0.4390192]","[0.0, 0.0, -0.0]",0.01,0.8
lithium_oxide,-82.317100526484,5,2.68761,"[-20.4709, -2.438966, -1.176695, -0.4977344, -0.4273189, -0.4047267]","[-0.0, 0.0, -0.00291, 0.0, -0.0, 0.00291]",0.78,9.1
carbon_monoxide,-112.789039465823,5,0.104525,"[-20.6653, -11.36045, -1.521764, -0.8046184, -0.6403448, -0.6403448, -0.554929]","[0.0, -0.0, -0.069348, -0.0, 0.0, 0.069348]",1.23,7.9
magnesium_oxide,-274.386378495115,7,3.555318,"[-49.0495, -20.44189, -3.790956, -2.308396, -2.308396, -2.305819, -1.082785, -0.3547515, -0.3547515, -0.3200175]","[-0.0, 0.0, -0.011532, 0.0, -0.0, 0.011532]",2.49,19.8
aluminum_nitride,-296.305820322026,3,0.581307,"[-58.5014, -15.60531, -4.912717, -3.226463, -3.222158, -3.219922, -1.114752, -0.592145, -0.5246925, -0.4551722, -0.3386124]","[0.0, -0.0, 0.014205, -0.0, 0.0, -0.014205]",1.94,26.3
imidogen,-54.985572567475,4,0.642394,"[-15.639, -1.173358, -0.5867579, -0.5470213, -0.5470213]","[-0.0, -0.0, -0.013017, 0.0, 0.0, 0.013017]",0.22,2.9
methyl_formate,-227.892119041707,5,0.800243437324,"[-20.6154, -20.5575, -11.3879, -11.2922, -1.464518, -1.365475, -0.9889801, -0.8226373, -0.737776, -0.6801994, -0.6756949, -0.5952039, -0.5529543, -0.5406983, -0.4715307, -0.4669101]","[-0.022236, 0.03297, 0.0, 0.00424, -0.006417, -0.0, 0.013031, -0.071268, -0.0, 0.006275, 0.040809, 0.0, -0.008251, 0.007858, 0.0, 0.003438, 0.006958, 0.0, 0.001751, -0.005455, 0.006805, 0.001751, -0.005455, -0.006805]",111.3,599.5
hypochlorite,-534.315234326675,6,0.316552,"[-104.9183, -20.6974, -10.63902, -8.107455, -8.10435, -8.102946, -1.484915, -1.064744, -0.7423664, -0.6707366, -0.6687951, -0.4901526, -0.4567837]","[0.0, -0.0, 0.009365, -0.0, 0.0, -0.009365]",2.25,23.8
methanol,-115.098950316536,7,0.710606721081,"[-20.5546, -11.27341, -1.354792, -0.9246186, -0.6884053, -0.6198936, -0.5957451, -0.5025153, -0.4505434]","[-0.007176, 0.010316, 0.0, -0.012431, -0.012944, 0.0, -0.010251, 0.009058, -0.0, 0.005358, 7e-06, 0.006964, 0.005358, 7e-06, -0.006964, 0.019141, -0.006445, -0.0]",4.91,104.3
vinyl_fluoride,-176.967046556943,5,0.628266671597,"[-26.3043, -11.3291, -11.23753, -1.623072, -1.049326, -0.8385442, -0.7362394, -0.6881784, -0.6801162, -0.5903088, -0.5602298, -0.3843229]","[-0.004192, 0.017321, 0.0, 0.026275, -0.006436, -0.0, -0.01793, -0.00977, -0.0, -0.007559, 0.007794, 0.0, -0.001938, -0.011053, -0.0, 0.005344, 0.002145, 0.0]",42.14,187.2
formaldehyde,-113.920951705890,5,1.116338,"[-20.5768, -11.34334, -1.406929, -0.8682345, -0.6930113, -0.6529118, -0.538232, -0.4430498]","[0.0, -0.0, 0.054209, 0.0, 0.0, -0.038064, -0.0, 0.011109, -0.008073, -0.0, -0.011109, -0.008073]",3.31,30.5
sulfur_diatomic,-795.106029618703,37,0.0,"[-6.706677, -6.706677, -6.706611, -6.70661, -6.696304, -6.695288, -1.113964, -0.867979, -0.5370932, -0.5370915, -0.5347464, -0.3813864, -0.3813841]","[-0.0, 0.0, 0.177289, 0.0, -0.0, -0.177289]",2.23,28.7
acetaldehyde,-152.984743191582,4,1.31225474428,"[-20.5588, -11.3389, -11.2437, -1.385498, -1.023232, -0.8036225, -0.6737148, -0.6225979, -0.6053472, -0.5615933, -0.5014011, -0.429261]","[0.072866, -0.006825, -0.0, -0.060323, -0.000675, -0.0, -0.001091, 0.00558, 0.0, -0.007339, 0.008741, 0.0, 0.005116, -0.005881, -0.0, -0.004615, -0.00047, 0.005419, -0.004615, -0.00047, -0.005419]",61.62,249.2
boron_monosulfide,-422.194657273077,5,0.540842,"[-91.9546, -8.960009, -7.716688, -6.64372, -6.636668, -6.636668, -0.9776344, -0.5925561, -0.4634024, -0.404989, -0.404989]","[-0.0, 0.0, -0.009738, 0.0, -0.0, 0.009738]",2.37,21.7
beryllium_monofluoride,-114.170569043348,4,0.501746,"[-26.2636, -4.727391, -1.556167, -0.6948042, -0.631971, -0.631971, -0.3383158]","[-0.0, -0.0, -0.006604, 0.0, 0.0, 0.006604]",0.85,7.3
phosphorus_tribromide,-8058.219802179436,8,0.186011000011,"[-3.204732, -1.101507, -1.027602, -1.027601, -0.7776535, -0.553707, -0.553707, -0.5250257, -0.4656529, -0.4656529, -0.4279482, -0.4279481, -0.4196769, -0.3812156]","[-0.0, 0.0, 0.001155, 0.0, -0.001107, -0.000385, -0.000958, 0.000553, -0.000385, 0.000958, 0.000553, -0.000385]",91.46,389.3
sulfur_dioxide,-547.314068412830,6,0.793096,"[-92.1774, -20.6251, -20.625, -9.1564, -6.8385, -6.8374, -6.835902, -1.505044, -1.402332, -0.8697574, -0.7011676, -0.6952002, -0.6658462, -0.5462323, -0.5240757, -0.4964976]","[0.0, -0.0, -0.047388, -0.0, 0.049959, 0.023694, -0.0, -0.049959, 0.023694]",5.73,49.7
decane,-391.667074365288,4,0.0,"[-11.2112, -11.2112, -11.2092, -11.2091, -11.2088, -11.2085, -11.2083, -11.208, -11.2059, -11.2059, -1.095579, -1.075351, -1.041773, -0.9963652, -0.9415925, -0.8814362, -0.8241836, -0.7890406, -0.7841026, -0.7802334, -0.66048, -0.6424404, -0.6138192, -0.5941799, -0.5858119, -0.5778417, -0.5702924, -0.5392747, -0.5387558, -0.5332974, -0.5039969, -0.5023564, -0.4774887, -0.4765721, -0.4721137, -0.4625753, -0.4611349, -0.4574956, -0.4573373, -0.4550004, -0.420075]","[-0.003144, -0.002081, 0.0, 0.003144, 0.002081, 0.0, 0.00313, 0.00214, 0.0, -0.00313, -0.00214, -0.0, -0.003436, -0.001906, 0.0, 0.003436, 0.001906, -0.0, 0.003304, 0.001804, -0.0, -0.003304, -0.001804, 0.0, 0.000567, -0.00371, 0.0, -0.000567, 0.00371, 0.0, 0.002308, 0.001519, 0.00445, 0.002308, 0.001519, -0.00445, -0.002308, -0.001519, 0.00445, -0.002308, -0.001519, -0.00445, -0.002287, -0.001537, -0.004439, -0.002287, -0.001537, 0.004439, 0.002287, 0.001537, -0.004439, 0.002287, 0.001537, 0.004439, 0.002341, 0.001496, 0.004417, 0.002341, 0.001496, -0.004417, -0.002341, -0.001496, 0.004417, -0.002341, -0.001496, -0.004417, -0.001802, -0.002008, -0.004081, -0.001802, -0.002008, 0.004081, 0.001802, 0.002008, -0.004081, 0.001802, 0.002008, 0.004081, -0.004095, 0.001557, -0.0, 0.00234, 0.000817, 0.003611, 0.00234, 0.000817, -0.003611, 0.004095, -0.001557, -0.0, -0.00234, -0.000817, 0.003611, -0.00234, -0.000817, -0.003611]",3916.93,22504.9
methanethiol_radical,-437.159142310406,6,0.67535528837,"[-91.9694, -11.2601, -8.971157, -6.667093, -6.648636, -6.647147, -1.051659, -0.8593208, -0.6078958, -0.5998596, -0.5002206, -0.4313537, -0.368328]","[0.011065, -0.000349, 0.006291, -0.004619, 0.000118, -0.003158, -0.005088, 4e-05, 0.004079, -0.000628, 0.006784, -0.003558, -0.00073, -0.006593, -0.003654]",5.77,102.2
hydroxyl_radical,-75.426637406617,4,0.691489,"[-20.6386, -1.389325, -0.6828849, -0.6588658, -0.56176]","[-0.0, -0.0, -0.020081, 0.0, 0.0, 0.020081]",0.25,2.9
lithium_monosulfide,-405.020775744664,4,2.895046,"[-91.8839, -8.886164, -6.581433, -6.563371, -6.563348, -2.475361, -0.8545764, -0.3843672, -0.3456618, -0.3177239]","[0.0, 0.0, 0.002593, -0.0, -0.0, -0.002593]",1.88,14.4
B,-24.532984073856,4,0.0,"[-7.7015, -0.5452863, -0.3187557]","[-0.0, 0.0, -0.0]",0.01,1.0
phosphorus_dioxide,-490.546071587115,18,0.761796,"[-5.529088, -5.525187, -5.520235, -1.429991, -1.37976, -0.7933692, -0.6779623, -0.6459038, -0.6137686, -0.551381, -0.5305591, -0.4791784]","[-0.0, 0.0, 0.022971, 0.0, 0.0202, -0.01137, 0.0, -0.0202, -0.011601]",5.68,37.7
formaldoxime_zwitterion,-168.892858817069,5,1.7632848703,"[-20.5251, -15.7383, -11.3016, -1.450888, -1.154786, -0.8948273, -0.753644, -0.6735803, -0.6176252, -0.5933789, -0.4329329, -0.3530383]","[0.047781, -0.017289, -0.00017, -0.03367, 0.004014, 0.001427, -0.023778, -0.010644, -0.000106, 0.001768, -0.011892, -3e-06, 0.00942, 0.007281, 0.000268, -0.001521, 0.02853, -0.001416]",51.36,219.9
tetrafluoroethylene,-473.642744817070,5,0.0,"[-26.3672, -26.3672, -26.3672, -26.3672, -11.4465, -11.4447, -1.7299, -1.7145, -1.6668, -1.6564, -1.108275, -0.9190809, -0.8671414, -0.8441703, -0.8070395, -0.7901213, -0.7649456, -0.74071, -0.7175022, -0.7108082, -0.6970593, -0.6811908, -0.6798205, -0.4098633]","[-0.0, -0.0, -0.013945, 0.0, 0.0, 0.013945, 0.0, 0.025836, 0.017677, 0.0, -0.025836, 0.017677, 0.0, -0.025836, -0.017677, -0.0, 0.025836, -0.017677]",98.64,507.8
boron_dioxide,-174.509379669380,5,0.0,"[-20.6631, -20.66308, -7.675437, -1.434606, -1.432772, -0.719944, -0.7032861, -0.7032597, -0.6497167, -0.6468398, -0.5788013]","[0.0, -0.0, 0.0, -0.0, 0.0, 0.022639, -0.0, 0.0, -0.022639]",2.62,35.4
cyano_radical,-92.241251120271,3,0.858147,"[-15.6041, -11.35729, -1.243154, -0.7424085, -0.5676893, -0.5200737, -0.5200737]","[-0.0, -0.0, -0.039784, 0.0, 0.0, 0.039784]",1.23,18.6
boron_nitride,-79.020354400308,6,1.104228,"[-15.6009, -7.706399, -1.135174, -0.5951984, -0.5114409, -0.4939996, -0.4300868]","[-0.0, -0.0, -0.045062, 0.0, 0.0, 0.045062]",1.04,15.2
acetyl_chloride,-611.941257854367,5,1.21365819946,"[-104.8478, -20.5935, -11.4131, -11.2729, -10.5738, -8.0407, -8.0391, -8.039, -1.447946, -1.136417, -1.026375, -0.7775568, -0.6779302, -0.6712107, -0.6414385, -0.5788801, -0.5531355, -0.4697338, -0.4689283, -0.4549397]","[0.032531, -0.029228, -0.0, -0.016337, -0.009178, -0.0, -0.040624, 0.040736, 0.0, -0.000287, -0.009631, 0.0, 0.007841, 0.015549, 0.0, 0.008438, -0.004123, 0.013734, 0.008438, -0.004123, -0.013734]",97.79,493.0
magnesium_diatomic,-399.225770148962,5,0.0,"[-49.0312, -49.0312, -3.767392, -3.767391, -2.28192, -2.281913, -2.281913, -2.281912, -2.281912, -2.281885, -0.2829923, -0.2268643]","[0.0, 0.0, 0.002623, -0.0, -0.0, -0.002623]",0.74,15.2
methyl_chloride,-499.151886529420,7,0.808424000075,"[-104.8279, -11.2978, -10.5531, -8.020228, -8.0185, -8.0185, -1.126517, -0.9086068, -0.6060791, -0.606079, -0.5509049, -0.4363416, -0.4363415]","[-1.5e-05, -0.0, 0.03268, 0.0, -0.0, 0.006383, 0.020504, 0.0, -0.013024, -0.010245, 0.017736, -0.013019, -0.010245, -0.017736, -0.013019]",5.62,89.5
dimethyl_ether,-154.137491459260,5,0.571731,"[-20.5514, -11.2693, -11.2693, -1.371958, -0.9664682, -0.8736485, -0.6626032, -0.6508052, -0.6343252, -0.5512904, -0.5295926, -0.478696, -0.4238147]","[0.0, 0.0, 0.010844, 0.0, 0.008475, -0.005589, -0.0, -0.008475, -0.005589, -0.0, 0.011195, 0.004974, -0.0, -0.011195, 0.004974, 0.006436, -0.003523, -0.002404, -0.006436, -0.003523, -0.002404, -0.006436, 0.003523, -0.002404, 0.006436, 0.003523, -0.002404]",110.75,516.4
methyl_ketene,-190.844685853248,5,0.881805817119,"[-20.6171, -11.3706, -11.2433, -11.2411, -1.460383, -1.082726, -0.9327976, -0.7435995, -0.6828155, -0.6384643, -0.6182725, -0.5798952, -0.5568144, -0.5335504, -0.3464423]","[0.035527, 0.014973, -3.8e-05, 0.021463, 0.000814, -1.3e-05, -0.002903, 0.004318, 1.2e-05, -0.059044, -0.022948, 2.9e-05, 0.001903, 0.006025, 1.1e-05, -0.001912, -0.004428, -3e-06, 0.002482, 0.000627, -0.003995, 0.002484, 0.000619, 0.003997]",112.19,596.6
tetrafluorosilane,-687.200143531870,6,0.0,"[-1.637528, -0.8602525, -0.7837574, -0.7837574, -0.7837574, -0.7311192, -0.7311192, -0.714189, -0.714189, -0.714189, -0.6796797, -0.6796797, -0.6796797]","[0.0, -0.0, -0.0, 0.007256, 0.007256, 0.007256, -0.007256, -0.007256, 0.007256, -0.007256, 0.007256, -0.007256, 0.007256, -0.007256, -0.007256]",22.38,96.6
silicon_monosulfide,-686.513564373059,5,0.896793,"[-91.9386, -68.8378, -8.9431, -6.6234, -6.6228, -6.622826, -6.18308, -4.284159, -4.284159, -4.28343, -0.9416177, -0.5734533, -0.3904802, -0.3893573, -0.3893573]","[0.0, -0.0, -0.011844, -0.0, 0.0, 0.011844]",4.2,20.7
sulfur_monochloride,-857.046689589893,20,0.15242,"[-8.067796, -8.06614, -6.72821, -6.710958, -6.708247, -1.177975, -0.9272259, -0.5697861, -0.5638232, -0.5410938, -0.4339124, -0.3845529]","[-0.0, 0.0, 0.13698, 0.0, -0.0, -0.13698]",4.2,19.4
neon_dimer,-257.087438117686,2,0.0,"[-32.7741, -32.77406, -1.931412, -1.93083, -0.8542792, -0.8510427, -0.8510427, -0.8500616, -0.8500616, -0.8469485]","[-0.0, 0.0, 0.000222, 0.0, -0.0, -0.000222]",0.07,1.4
formaldoxime,-168.923550567115,4,0.276048264222,"[-20.5998, -15.637, -11.27716, -1.427387, -1.158626, -0.8277968, -0.72673, -0.6525055, -0.5958066, -0.5947506, -0.4551648, -0.407251]","[0.036417, -0.025919, -0.0, -0.024199, 0.046064, -0.0, -0.003276, -0.03442, 0.0, -0.001286, -0.007588, -0.0, 0.006239, 0.008867, 0.0, -0.013895, 0.012997, -0.0]",49.25,185.2
lithium_chloride,-467.055367746277,4,2.861184,"[-104.7283, -10.45497, -7.921447, -7.921179, -7.921179, -2.479023, -0.9728828, -0.4079955, -0.3801194, -0.3801194]","[-0.0, -0.0, 0.002833, 0.0, 0.0, -0.002833]",1.72,11.1
isopropyl_radical,-117.687320151347,4,0.09255737815,"[-11.226, -11.2128, -11.2128, -1.063028, -0.9347854, -0.7889294, -0.6186914, -0.5992415, -0.5628366, -0.5370971, -0.496372, -0.4909947, -0.3291223]","[0.001953, -0.008674, -0.0, -5.1e-05, 0.004759, -0.008558, -5.1e-05, 0.004759, 0.008558, -0.001911, 0.006948, -0.0, 0.001282, 0.004389, 0.005349, 0.001282, 0.004389, -0.005349, -0.00587, -0.003221, 0.001302, 0.004617, -0.005065, -0.000544, 0.004617, -0.005065, 0.000544, -0.00587, -0.003221, -0.001302]",138.17,783.3
cyanogen,-184.662645344015,5,0.0,"[-15.6522, -15.6522, -11.353, -11.35189, -1.30394, -1.279216, -0.9775347, -0.6398298, -0.6242936, -0.6018003, -0.6018003, -0.5003448, -0.5003448]","[-0.0, 0.0, -0.070295, -0.0, 0.0, 0.070295, 0.0, -0.0, 0.069105, 0.0, -0.0, -0.069105]",28.95,115.6
boron_monohydride,-25.131374339053,4,0.68541,"[-7.6858, -0.6492647, -0.3482786]","[0.0, 0.0, -0.004744, -0.0, -0.0, 0.004744]",0.17,2.0
thiirane,-475.620416806149,5,0.852248,"[-91.9428, -11.2749, -11.2741, -8.9449, -6.6262, -6.6252, -6.623858, -1.141268, -0.8452889, -0.8314574, -0.6724099, -0.6090654, -0.5452625, -0.4408156, -0.4275919, -0.3464488]","[0.0, -0.0, 0.005961, -0.0, 0.003004, -0.000122, -0.0, -0.003004, -0.000122, -0.007541, 0.003039, -0.00143, 0.007541, 0.003039, -0.00143, 0.007541, -0.003039, -0.00143, -0.007541, -0.003039, -0.00143]",77.4,316.3
sodium_chloride,-621.458781176256,4,3.66061,"[-104.7023, -40.4987, -10.4284, -7.8949, -7.894597, -7.894597, -2.820309, -1.543258, -1.543258, -1.54304, -0.94204, -0.3698862, -0.3534971, -0.3534971]","[-0.0, -0.0, 0.004625, 0.0, 0.0, -0.004625]",5.16,22.5
magnesium_sulfide,-597.138896747307,5,3.672978,"[-91.868, -49.0909, -8.8689, -6.55, -6.548227, -6.548227, -3.829553, -2.346695, -2.346695, -2.346116, -0.8035489, -0.3348519, -0.2981976, -0.2981976]","[0.0, -0.0, -0.001683, -0.0, 0.0, 0.001683]",5.33,26.9
methyl_silane,-330.330377911987,4,0.283550009141,"[-68.7618, -11.2093, -6.1116, -4.217924, -4.217923, -4.217561, -0.948448, -0.6976124, -0.5640466, -0.5640312, -0.4682056, -0.4681962, -0.4562892]","[-0.0, -3.8e-05, 0.010772, -0.0, -2.7e-05, -0.004366, -0.0, -0.007549, -0.002474, -0.006569, 0.003794, -0.002489, 0.006569, 0.003794, -0.002489, 0.0, 0.001606, 0.000355, -0.001368, -0.00079, 0.000345, 0.001368, -0.00079, 0.000345]",60.06,269.0
aluminum_trichloride,-1620.734772839345,6,1.2e-05,"[-3.295228, -1.116409, -1.096282, -1.096281, -0.6170451, -0.5462787, -0.5462784, -0.5107354, -0.492878, -0.4928772, -0.4849973, -0.4849966, -0.4669807]","[-0.0, -4e-06, 0.0, 0.0, -0.004851, 0.0, -0.004205, 0.002427, -0.0, 0.004205, 0.002427, -0.0]",24.63,86.7
methanethiol,-437.762635432498,6,0.67078816292,"[-91.9486, -11.2633, -8.9514, -6.633044, -6.632145, -6.631162, -1.036419, -0.8645445, -0.6061815, -0.59122, -0.5381093, -0.451369, -0.3554915]","[0.00488, -0.00955, -0.00319, -0.002334, 0.008692, 0.003465, 0.004136, -0.001752, -9.2e-05, 0.004071, 0.013339, -0.008019, -0.011311, -0.013635, -0.007499, 0.000558, 0.002907, 0.015335]",7.29,123.1
hypochlorous_acid,-534.931539579608,5,0.635504980158,"[-104.8904, -20.6415, -10.6107, -8.078056, -8.075235, -8.075083, -1.414242, -1.06148, -0.7225247, -0.6147936, -0.6051048, -0.4687506, -0.4444022]","[0.025087, 0.020277, -0.0, -0.022632, 0.000588, 0.0, -0.002455, -0.020864, 0.0]",3.91,24.7
lithium_hydride,-7.987219167014,4,2.363463,"[-2.4455, -0.3016137]","[-0.0, 0.0, 0.001171, 0.0, -0.0, -0.001171]",0.13,1.8
monosulfur_monofluoride,-496.982456059753,4,0.440814,"[-92.0635, -26.3377, -9.057518, -6.752772, -6.734719, -6.731975, -1.642088, -0.9862223, -0.7317649, -0.7174811, -0.682182, -0.4737555, -0.4065241]","[-0.0, -0.0, -0.020979, 0.0, 0.0, 0.020979]",2.09,16.2
ammonia,-56.223943073685,4,0.636272000453,"[-15.5403, -1.142186, -0.6286877, -0.6286646, -0.4298196]","[0.0, -4.2e-05, 0.016093, 0.0, -0.010703, -0.005353, 0.009297, 0.005373, -0.00537, -0.009297, 0.005373, -0.00537]",0.79,10.9
boron_monofluoride,-124.166135402655,5,0.333141,"[-26.3758, -7.709512, -1.697389, -0.8529302, -0.7441176, -0.7441176, -0.4056805]","[-0.0, 0.0, -0.022332, 0.0, -0.0, 0.022332]",1.01,8.2
carbon_tetrafluoride,-435.852501047908,6,0.0,"[-26.3725, -26.3725, -26.3725, -26.3724, -11.6071, -1.8075, -1.6805, -1.6805, -1.6805, -1.011461, -0.8914874, -0.8914874, -0.8914874, -0.7656074, -0.7656074, -0.7130518, -0.7130518, -0.7130518, -0.6847391, -0.6847391, -0.6847391]","[0.0, -0.0, -0.0, 0.015301, 0.015301, 0.015302, -0.015301, -0.015301, 0.015302, -0.015301, 0.015301, -0.015302, 0.015301, -0.015301, -0.015302]",11.76,186.3
silicon_diatomic,-577.783483799532,34,0.0,"[-6.151015, -6.150725, -4.255732, -4.255731, -4.255613, -4.255613, -4.249322, -4.24827, -0.7265733, -0.4921665, -0.317722, -0.3177204, -0.2988808]","[-0.0, -0.0, 0.058332, 0.0, 0.0, -0.058332]",1.77,26.2
H,-0.499948321469,1,0.0,"[-0.4999483]","[0.0, 0.0, -0.0]",0.0,0.2
acetylene,-76.854567162123,4,0.0,"[-11.2427, -11.23884, -1.030432, -0.7673649, -0.6812747, -0.4111879, -0.4111879]","[-0.0, -0.0, 0.045359, -0.0, -0.0, -0.045359, 0.0, 0.0, 0.007196, 0.0, 0.0, -0.007196]",9.48,28.7
phosphorus_trichloride,-1719.397594134659,6,0.242060007436,"[-104.8627, -104.8627, -104.8627, -80.1033, -10.5893, -10.5893, -10.5893, -8.0561, -8.0561, -8.0561, -8.0545, -8.0545, -8.0545, -8.0545, -8.0545, -8.0545, -7.6309, -5.5228, -5.5228, -5.521, -1.190139, -1.115342, -1.115336, -0.8003639, -0.6030799, -0.6030753, -0.5723449, -0.5161258, -0.516123, -0.4751086, -0.4751044, -0.4650066, -0.401449]","[-0.0, 7e-06, 0.002029, 0.0, -0.000994, -0.000674, -0.00086, 0.000494, -0.000678, 0.00086, 0.000494, -0.000678]",16.31,199.1
magnesium_monochloride,-659.209914143462,16,1.344511,"[-7.969835, -7.968059, -7.968059, -3.817876, -2.334995, -2.333611, -2.333611, -1.026392, -0.4770914, -0.4263505, -0.4263505, -0.2891525]","[0.0, 0.0, 0.008064, -0.0, -0.0, -0.008064]",4.66,18.3
carbon_disulfide,-832.978161054337,6,0.0,"[-91.9901, -91.9901, -11.4005, -8.9942, -8.9942, -6.6755, -6.6755, -6.6737, -6.6737, -6.673679, -6.673679, -1.142921, -1.020236, -0.6791029, -0.5827327, -0.5258115, -0.5258115, -0.3728176, -0.3728176]","[-0.0, 0.0, 0.0, 0.0, 0.0, 0.016808, -0.0, -0.0, -0.016808]",6.98,63.6
magnesium_monofluoride,-299.155888054174,5,1.228769,"[-49.0514, -26.17452, -3.793099, -2.310833, -2.309596, -2.309596, -1.448912, -0.5774921, -0.5418568, -0.5418568, -0.2875601]","[-0.0, 0.0, -0.003077, 0.0, -0.0, 0.003077]",2.2,15.8
methyl_radical,-39.580382080823,4,7e-06,"[-11.234, -0.9477035, -0.5809862, -0.5809843, -0.3845496]","[-2e-05, 0.0, -0.0, 0.006271, -0.0, 0.0, -0.003125, -0.005406, -0.0, -0.003125, 0.005406, 0.0]",0.69,12.8
ethylene,-78.068789431644,4,0.0,"[-11.2328, -11.2311, -1.031989, -0.7918732, -0.6431993, -0.5856047, -0.5086176, -0.3759995]","[-0.0, -0.0, 0.02311, -0.0, -0.0, -0.02311, -0.0, 0.008282, 0.00404, 0.0, -0.008282, 0.00404, -0.0, 0.008282, -0.00404, 0.0, -0.008282, -0.00404]",27.88,85.2
trifluoroacetate_anion,-524.082908468594,8,1.96998099379,"[-1.559406, -1.465414, -1.464871, -1.207744, -1.112384, -0.8234619, -0.6881163, -0.6534894, -0.6512915, -0.5476289, -0.5468153, -0.5294487, -0.4997477, -0.4982235, -0.4856389, -0.4518135, -0.4329794, -0.3875683, -0.2539194, -0.2450802, -0.2279755]","[-0.006422, -0.027358, -0.0, 0.006521, 0.035058, -0.0, -0.025021, 0.016979, -0.0, 0.016532, 0.007597, 0.023881, 0.016532, 0.007597, -0.023881, -0.052038, -0.012038, 0.0, 0.043897, -0.027834, 0.0]",70.67,374.6
bromoform,-7755.836598656521,4,0.396113001823,"[-490.048, -490.048, -490.048, -65.1883, -65.1883, -65.1883, -58.5438, -58.5438, -58.5438, -58.5422, -58.5422, -58.5422, -58.5422, -58.5422, -58.5422, -11.4156, -9.8617, -9.8617, -9.8617, -7.4736, -7.4736, -7.4736, -7.4661, -7.4661, -7.4661, -7.4661, -7.4661, -7.4661, -3.2176, -3.2176, -3.2176, -3.2136, -3.2136, -3.2136, -3.2136, -3.2136, -3.2136, -3.2038, -3.2038, -3.2038, -3.2038, -3.2038, -3.2038, -1.155764, -1.027164, -1.027162, -0.8436642, -0.6388299, -0.5737438, -0.5737433, -0.4560252, -0.4560236, -0.4281021, -0.4230858, -0.4230846, -0.4071812]","[0.0, -9e-06, -0.025772, -0.0, -2e-06, 0.02775, -0.0, 0.000402, -0.000662, 0.000331, -0.000195, -0.000658, -0.000331, -0.000195, -0.000658]",175.58,838.4
nitrogen_trifluoride,-352.708357250556,6,0.139345018601,"[-26.3888, -26.3888, -26.3888, -15.9049, -1.7971, -1.6588, -1.6588, -1.119975, -0.8546745, -0.8546687, -0.8480625, -0.7433845, -0.7433751, -0.6864465, -0.6864372, -0.6841642, -0.5571857]","[0.0, 2.1e-05, 0.052393, 0.0, 0.041153, -0.017458, 0.03564, -0.020587, -0.017467, -0.03564, -0.020587, -0.017467]",4.97,86.1
phosphorus_tetramer,-1363.060475245348,5,1.61245154966e-05,"[-79.9787, -79.9787, -79.9787, -79.9787, -7.5184, -7.518, -7.518, -7.518, -5.4106, -5.4101, -5.4101, -5.4101, -5.4097, -5.4097, -5.4096, -5.4096, -5.4096, -5.4095, -5.4095, -5.4095, -1.045434, -0.7143416, -0.7143415, -0.714333, -0.4603271, -0.3900591, -0.3900558, -0.39005, -0.3545559, -0.3545523]","[5e-06, 0.0, 0.019297, 0.018206, 0.0, -0.006428, -0.009106, -0.015774, -0.006435, -0.009106, 0.015774, -0.006435]",21.81,180.1
phosphorus_monochloride,-800.278125147939,41,0.325632,"[-8.046676, -8.045692, -7.552639, -5.453532, -5.45353, -5.438546, -1.139075, -0.819444, -0.5301507, -0.5301456, -0.5194194, -0.3702735, -0.370256]","[0.0, 0.0, 0.112777, -0.0, -0.0, -0.112777]",4.19,34.0
mercapto_radical,-398.109510988733,4,0.334014,"[-91.9896, -8.991268, -6.687188, -6.668684, -6.667139, -0.9885738, -0.5524381, -0.47171, -0.401969]","[-0.0, -0.0, -0.005511, 0.0, 0.0, 0.005511]",0.64,5.6
pentane,-196.416208025677,4,0.033104,"[-11.2115, -11.2114, -11.209, -11.206, -11.206, -1.080986, -1.015172, -0.9188076, -0.819756, -0.7849625, -0.647531, -0.5984702, -0.5930869, -0.5538712, -0.5475661, -0.5258633, -0.4945882, -0.4761852, -0.461838, -0.4594475, -0.4467935]","[0.0, 0.0, -0.004209, -0.0, -0.00026, 0.003873, 0.0, 0.00026, 0.003873, 0.0, -0.003326, -0.001786, -0.0, 0.003326, -0.001786, 0.003786, 0.0, 0.002512, -0.003786, -0.0, 0.002512, 0.003509, -0.000653, -0.002314, -0.003509, -0.000653, -0.002314, -0.003509, 0.000653, -0.002314, 0.003509, 0.000653, -0.002314, 0.0, 0.003156, -0.002113, -0.0, -0.003156, -0.002113, -0.003105, -0.000539, 0.002123, 0.003105, -0.000539, 0.002123, 0.003105, 0.000539, 0.002123, -0.003105, 0.000539, 0.002123]",703.31,3390.2
isopropyl_alcohol,-193.208719588561,4,0.696367078933,"[-20.5514, -11.2781, -11.2165, -11.209, -1.353248, -1.042738, -0.9387837, -0.7964209, -0.6939109, -0.6270977, -0.6045394, -0.5459938, -0.5339237, -0.5266359, -0.5101537, -0.4730729, -0.4375699]","[-0.035312, 0.001175, -0.021639, 0.003699, -0.010468, -3.3e-05, 0.005225, 0.002784, 0.001273, -0.004791, 0.001409, 0.002413, 0.030807, 0.010985, 0.012355, -8.7e-05, -0.001703, 0.00954, 0.001069, 0.000354, -0.006882, -0.001217, 0.000707, -0.006869, -0.004984, 0.004671, 0.002325, 0.005666, 0.003287, 0.002275, -0.000234, -0.006312, 0.002734, 0.00016, -0.006889, 0.002509]",294.42,1464.6
glyoxal_trans,-226.689391705967,6,0.0,"[-20.6087, -20.6087, -11.3712, -11.3705, -1.442421, -1.425839, -0.9680706, -0.8195785, -0.7104462, -0.7008757, -0.6599974, -0.5961635, -0.5347269, -0.5276075, -0.4405423]","[0.025076, -0.029709, -0.0, -0.025076, 0.029709, -0.0, 0.02768, 0.001499, 0.0, -0.02768, -0.001499, 0.0, -0.061845, 0.034291, 0.0, 0.061845, -0.034291, 0.0]",14.88,215.3
ethanol,-154.152612212547,5,0.703755890915,"[-20.5511, -11.2699, -11.2126, -1.351995, -1.012909, -0.8322509, -0.6925757, -0.6498371, -0.571327, -0.5328226, -0.5276743, -0.4884871, -0.4427301]","[0.006097, -0.010513, -0.0, 0.019264, 0.01209, -0.0, 0.015127, -0.036038, 0.0, -0.020565, 0.02786, -0.0, 0.004263, 0.012727, -0.0, -0.006955, -0.001748, 0.004081, -0.006955, -0.001748, -0.004081, -0.005137, -0.001315, 0.001653, -0.005137, -0.001315, -0.001653]",114.71,549.7
nitrogen_monofluoride,-153.849845143444,5,0.125537,"[-26.3752, -15.74077, -1.71888, -1.140176, -0.797236, -0.797236, -0.7084754, -0.5436596, -0.5436596]","[0.0, 0.0, -0.02251, -0.0, -0.0, 0.02251]",0.87,9.4
vinyl_chloride,-537.010137383537,5,0.634971896016,"[-104.8409, -11.3032, -11.2467, -10.5665, -8.0336, -8.0319, -8.031847, -1.159389, -1.013778, -0.7926472, -0.6635815, -0.6146131, -0.5330769, -0.5127711, -0.4549455, -0.3706312]","[-0.0, 0.012409, 0.024327, 0.0, 2.1e-05, -0.026883, 0.0, -0.000745, -0.002288, -0.0, -0.012533, 0.008102, 0.0, 0.005814, -0.001298, -0.0, -0.004966, -0.001959]",50.9,210.5
ammonia_oxide,-131.015245228373,4,2.182167,"[-20.4733, -15.70656, -1.37943, -1.08619, -0.7542581, -0.7542577, -0.5895418, -0.3887256, -0.3887256]","[0.0, -1.4e-05, 0.018197, -0.0, 1e-06, 0.002055, 0.0, 0.013508, -0.006754, 0.011679, -0.006747, -0.006749, -0.011679, -0.006747, -0.006749]",20.77,69.0
methylenecyclopropane,-154.950238562944,4,0.175121,"[-11.244, -11.2371, -11.2366, -11.2238, -1.153121, -0.9688742, -0.8382147, -0.7276729, -0.6450807, -0.6415368, -0.5885464, -0.523142, -0.4422935, -0.4240161, -0.3574548]","[-0.0, 0.0, 0.017195, 0.0, -0.0, -0.038749, -0.0, -0.006036, 0.000495, 0.0, 0.006036, 0.000495, 0.0, 0.00534, 0.009961, -0.0, -0.00534, 0.009961, 0.008164, 0.008141, 0.00016, -0.008164, 0.008141, 0.00016, -0.008164, -0.008141, 0.00016, 0.008164, -0.008141, 0.00016]",195.12,782.6
oxygen_monofluoride,-174.207077320922,5,0.163504,"[-26.3871, -20.76539, -1.722204, -1.330303, -0.8291145, -0.7816597, -0.7352876, -0.6437794, -0.5808765]","[0.0, -0.0, -0.033311, -0.0, 0.0, 0.033311]",0.83,11.3
methylamine,-95.261472646035,7,0.53386443558,"[-15.5374, -11.2407, -1.168067, -0.8957064, -0.6624509, -0.6026336, -0.5577147, -0.5173705, -0.3895153]","[-0.001209, -6e-06, 0.0, 0.01355, 0.001917, 0.0, -0.005482, 0.004229, -0.0, 0.002997, 0.002213, 0.004398, 0.002997, 0.002213, -0.004398, -0.006426, -0.005283, -0.011199, -0.006426, -0.005283, 0.011199]",14.18,78.5
hydrogen_chloride,-460.111377161628,4,0.468335,"[-104.8488, -10.57454, -8.041848, -8.039909, -8.039909, -1.116945, -0.6254082, -0.4770852, -0.4770852]","[0.0, 0.0, -0.007007, -0.0, -0.0, 0.007007]",0.65,4.5
ethanethiol,-476.814740093940,4,0.686122376645,"[-91.945, -11.2604, -11.227, -8.9482, -6.6298, -6.6288, -6.6279, -1.071074, -0.9437618, -0.8175382, -0.631353, -0.6177517, -0.5410417, -0.5148926, -0.4990185, -0.4511513, -0.3549401]","[0.002334, -0.000707, -0.0, 0.00641, -0.000381, 0.0, 0.001423, -0.003265, 0.0, -0.006513, 0.005275, 0.0, 0.001913, -0.003978, 0.005261, 0.001913, -0.003978, -0.005261, -0.001299, 0.003834, 0.006182, -0.001299, 0.003834, -0.006182, -0.004883, -0.000634, 0.0]",123.5,567.5
acetamide,-208.070786260130,5,1.63896710916,"[-20.5195, -15.5864, -11.3564, -11.2508, -1.378698, -1.203238, -0.996478, -0.7913849, -0.7142694, -0.6617011, -0.6112463, -0.5853421, -0.5539393, -0.5220339, -0.4274269, -0.4159352]","[0.018083, 0.002898, 0.001789, -0.019958, -0.028798, -0.000742, -0.004885, 0.002234, -0.006694, 0.011601, 0.051518, 0.000515, -0.019418, 0.023203, -0.002338, -0.003222, -0.014943, -0.021029, -0.003884, -0.013065, 0.02191, 0.027526, 0.007145, 0.002554, -0.005843, -0.030191, 0.004037]",153.2,826.3
S,-397.512691367079,4,0.0,"[-92.0127, -9.013146, -6.705899, -6.705899, -6.685298, -0.9898861, -0.4869975, -0.4869975, -0.4156214]","[0.0, -0.0, -0.0]",0.01,2.7
nitromethane,-243.776157663220,40,1.61831231495,"[-20.6088, -20.6054, -15.8528, -11.3127, -1.6078, -1.403052, -1.104785, -0.8710051, -0.7559806, -0.7387324, -0.7375758, -0.6261615, -0.6060905, -0.498522, -0.4971851, -0.4583771]","[0.001439, 0.006007, 0.0, 0.052144, 0.001975, -0.0, 0.002521, -0.009905, -0.0, 0.002338, 0.001766, 0.007961, 0.002338, 0.001766, -0.007961, -0.031109, 0.061223, 0.0, -0.02967, -0.062831, 0.0]",19.72,4445.8
hydrogen_sulfide,-398.718260997325,4,0.424391,"[-91.9634, -8.966915, -6.648494, -6.647734, -6.646578, -0.98429, -0.5926218, -0.5026217, -0.3854924]","[-0.0, 0.0, -0.003998, 0.0, -0.001996, 0.001999, 0.0, 0.001996, 0.001999]",0.98,8.0
monosodium_sulfide,-559.425734628973,23,3.620936,"[-8.867478, -6.562736, -6.544868, -6.544578, -2.816682, -1.539807, -1.539267, -1.538568, -0.8314405, -0.3649552, -0.314736, -0.29772]","[0.0, -0.0, -0.008011, -0.0, 0.0, 0.008011]",5.14,28.4
silicon_nitride,-343.310082865801,3,0.729166,"[-68.8095, -15.6281, -6.156776, -4.265819, -4.253956, -4.253956, -1.158821, -0.6647882, -0.5062461, -0.5062461, -0.436032]","[0.0, -0.0, 0.002589, -0.0, 0.0, -0.002589]",2.33,30.4
hydrogen_cyanide,-92.914134436610,4,1.295144,"[-15.5995, -11.29214, -1.235244, -0.8142623, -0.5824931, -0.4961453, -0.4961453]","[0.0, 0.0, 0.081116, -0.0, 0.0, 0.005005, -0.0, -0.0, -0.086121]",2.57,14.7
Si,-288.858432537860,3,0.0,"[-68.8158, -6.160871, -4.268205, -4.268205, -4.258438, -0.6198758, -0.3013338, -0.3013338]","[-0.0, 0.0, -0.0]",0.01,2.2
carbonyl_sulfide,-510.352160991609,4,0.324505,"[-91.9907, -20.6558, -11.4363, -8.9952, -6.677, -6.674435, -6.674435, -1.503401, -1.09182, -0.77811, -0.6585446, -0.6585446, -0.6375293, -0.4215739, -0.4215739]","[0.0, 0.0, -0.077516, -0.0, -0.0, 0.080977, 0.0, -0.0, -0.003461]",8.08,40.3
chlorine_trifluoride,-757.696649424019,5,0.251948,"[-105.1425, -26.4218, -26.308, -26.308, -10.8375, -8.3038, -8.3016, -8.2991, -1.734, -1.5982, -1.596, -1.183294, -0.8356608, -0.816026, -0.815099, -0.7462996, -0.6986546, -0.6732858, -0.6475016, -0.6457786, -0.5555814, -0.5359995]","[-0.0, 0.0, 0.035517, 0.0, 0.0, -0.041218, -0.0, 0.022674, 0.002851, 0.0, -0.022674, 0.002851]",7.42,84.6
ethanol_radical,-153.526528526624,5,0.746573860794,"[-20.6143, -11.2838, -11.217, -1.399557, -1.009798, -0.8438322, -0.7124394, -0.6511448, -0.5988441, -0.5756771, -0.5376605, -0.499634, -0.4599161]","[-0.012028, -0.010842, -0.0, -0.015133, 0.029046, -0.0, 0.008061, -0.020804, 0.0, 0.009374, 0.001707, 0.008697, 0.009374, 0.001707, -0.008697, 0.001943, 0.006063, -0.0, -0.000795, -0.003438, 0.00543, -0.000795, -0.003438, -0.00543]",86.12,523.4
Ne,-128.543755937259,1,0.0,"[-32.7742, -1.931207, -0.8506537, -0.8506537, -0.8506537]","[0.0, -0.0, 0.0]",0.01,0.4
phosphorus_trifluoride,-639.335959494530,5,0.225330000375,"[-80.1125, -26.348, -26.348, -26.348, -7.6354, -5.5295, -5.5295, -5.5265, -1.7115, -1.6557, -1.6557, -0.9286153, -0.8092993, -0.8092991, -0.7817017, -0.7399871, -0.7399865, -0.6954067, -0.695406, -0.6792112, -0.4438305]","[0.0, 4e-06, -0.030373, -0.0, 0.002096, 0.010126, 0.001821, -0.00105, 0.010123, -0.001821, -0.00105, 0.010123]",8.27,92.5
nitrogen_diatomic,-108.991574746631,4,0.0,"[-15.6836, -15.68006, -1.471371, -0.7793074, -0.6345073, -0.6142939, -0.6142939]","[-0.0, 0.0, -0.107293, 0.0, -0.0, 0.107293]",0.76,6.1
acetone,-192.046541339397,5,1.377265,"[-20.5435, -11.3344, -11.2365, -11.2364, -1.37611, -1.043714, -0.9682704, -0.7422895, -0.6435239, -0.6355049, -0.6235695, -0.5615482, -0.5613588, -0.5367365, -0.4847978, -0.4163323]","[0.0, 0.0, 0.069218, -0.0, -0.0, -0.058233, 0.0, -0.005764, -0.002215, -0.0, 0.005764, -0.002215, -0.0, 0.005456, 0.005885, -0.0, -0.005456, 0.005885, -0.005645, 0.000922, -0.004581, 0.005645, 0.000922, -0.004581, 0.005645, -0.000922, -0.004581, -0.005645, -0.000922, -0.004581]",190.13,1063.4
Na,-161.858718027556,3,0.0,"[-40.48, -2.800537, -1.519151, -1.519151, -1.519151, -0.1821892]","[-0.0, -0.0, -0.0]",0.01,3.7
glycine_zwitterion,-282.920359273853,5,4.36403012399,"[-20.4778, -20.4691, -15.7237, -11.3243, -11.3057, -1.371695, -1.332155, -1.262459, -0.9957724, -0.8219916, -0.7973197, -0.7152644, -0.6735682, -0.6191741, -0.6069597, -0.5755402, -0.5240377, -0.4051055, -0.3823457, -0.3774672]","[-0.012843, -0.018356, -0.0, -0.002906, -0.00077, -0.0, 0.038886, -0.010905, -0.0, -0.019038, 0.037206, 0.0, -0.008729, 0.001044, 0.0, -0.003625, -0.000432, 0.005298, -0.003625, -0.000432, -0.005298, 0.009816, 0.003419, 0.010732, 0.009816, 0.003419, -0.010732, -0.007754, -0.014191, 0.0]",248.26,1393.5
hexane,-235.466420956982,4,0.0,"[-11.2113, -11.2113, -11.2092, -11.2086, -11.2058, -11.2058, -1.086645, -1.037452, -0.9612514, -0.8711346, -0.7973499, -0.784633, -0.6524789, -0.6106563, -0.595567, -0.5776702, -0.5531021, -0.5281142, -0.5252765, -0.4992784, -0.4805815, -0.4668713, -0.4595198, -0.4584257, -0.4384256]","[-0.000492, -0.003737, 0.0, 0.000492, 0.003737, 0.0, 0.003476, -0.00203, 0.0, -0.003476, 0.00203, -0.0, 0.003279, -0.001981, 0.0, -0.003279, 0.001981, 0.0, -0.003551, -0.001446, 0.0, 0.003551, 0.001446, -0.0, -0.002037, 0.000705, 0.003108, -0.002037, 0.000705, -0.003108, 0.002037, -0.000705, -0.003108, 0.002037, -0.000705, 0.003108, 0.001563, -0.001831, -0.003502, 0.001563, -0.001831, 0.003502, -0.001563, 0.001831, -0.003502, -0.001563, 0.001831, 0.003502, -0.002044, 0.001403, 0.00384, -0.002044, 0.001403, -0.00384, 0.002044, -0.001403, -0.00384, 0.002044, -0.001403, 0.00384]",1118.06,5737.6
pyridine,-246.791819377001,5,0.91736,"[-15.5662, -11.276, -11.276, -11.2612, -11.243, -11.243, -1.254408, -1.08883, -1.032692, -0.8584816, -0.8547015, -0.7203377, -0.659886, -0.653219, -0.5976946, -0.5764577, -0.5405374, -0.5194382, -0.4204206, -0.3839031, -0.348214]","[0.0, -0.0, 0.032675, 0.0, -0.0, -0.006823, 0.0, 0.016, -0.007614, -0.0, -0.016, -0.007614, 0.0, -0.002172, -0.001142, -0.0, 0.002172, -0.001142, -0.0, -0.0, -0.010365, 0.0, 0.009008, 0.006227, 0.0, -0.009008, 0.006227, 0.0, -0.009134, -0.005215, 0.0, 0.009134, -0.005215]",439.34,2151.9
silane,-291.266121522559,3,0.0,"[-68.7714, -6.121416, -4.227623, -4.227623, -4.227623, -0.7301394, -0.4864638, -0.4864638, -0.4864638]","[0.0, -0.0, -0.0, 0.000988, 0.000988, 0.000988, -0.000988, -0.000988, 0.000988, -0.000988, 0.000988, -0.000988, 0.000988, -0.000988, -0.000988]",7.6,29.3
isobutylene,-156.178458231032,4,0.232233,"[-11.2386, -11.2192, -11.2192, -11.2087, -1.088405, -0.9411248, -0.9251218, -0.7183256, -0.6183011, -0.6097337, -0.5905834, -0.5374286, -0.5204847, -0.514806, -0.4798947, -0.3457558]","[0.0, 0.0, 0.01631, 0.0, 0.0, -0.025305, 0.0, -0.007623, 0.002737, -0.0, 0.007623, 0.002737, -0.0, 0.00715, 0.005093, 0.0, -0.00715, 0.005093, -0.0, 0.006349, 0.005172, 0.005668, 0.0005, -0.004252, -0.005668, 0.0005, -0.004252, -0.0, -0.006349, 0.005172, -0.005668, -0.0005, -0.004252, 0.005668, -0.0005, -0.004252]",279.74,1240.7
fluorine_diatomic,-198.768995637074,4,0.0,"[-26.4293, -26.42909, -1.765301, -1.498082, -0.8116187, -0.8116187, -0.75215, -0.667105, -0.667105]","[0.0, 0.0, -0.072068, -0.0, -0.0, 0.072068]",0.35,5.8
ethylamine,-134.313903857500,5,0.570306190554,"[-15.5373, -11.2457, -11.214, -1.175307, -0.986626, -0.8291332, -0.6706156, -0.5961927, -0.5688117, -0.5661174, -0.5055985, -0.4824787, -0.3908257]","[-0.002764, 0.0039, 0.0, 0.004554, -0.008277, 0.0, -0.008046, 0.021008, -0.0, 0.00652, 0.003129, -0.0, -0.00069, -0.003609, 0.005459, -0.00069, -0.003609, -0.005459, -0.000364, 0.004371, -0.006175, -0.000364, 0.004371, 0.006175, 0.000922, -0.010642, 0.013893, 0.000922, -0.010642, -0.013893]",148.33,707.5
aluminum_diatomic,-483.790129527583,27,0.0,"[-58.49317, -4.903956, -4.903861, -3.216849, -3.216343, -3.214562, -3.214497, -3.212078, -3.212021, -0.5231886, -0.3742593, -0.2460202, -0.2232888]","[-0.0, 0.0, 0.024894, 0.0, -0.0, -0.024894]",1.48,19.8
methyl_nitrite,-243.772862952254,21,0.840263443324,"[-20.6466, -20.6403, -15.7882, -11.2979, -1.5775, -1.398405, -1.024664, -0.8782645, -0.7569432, -0.7202197, -0.7003867, -0.5974521, -0.5922821, -0.5530154, -0.4894148, -0.4641878]","[-0.006565, -0.005361, 0.0, -0.023317, 0.050363, -0.0, -0.0342, -0.110101, 0.0, -0.004193, 0.006864, -0.0, -0.001125, -0.006485, 0.007255, -0.001125, -0.006485, -0.007255, 0.070526, 0.071204, -0.0]",17.66,1960.3
isobutane,-157.366021039315,4,0.0507490000099,"[-11.2213, -11.2071, -11.2071, -11.2071, -1.081085, -0.925237, -0.925237, -0.764542, -0.631112, -0.589289, -0.5892889, -0.5320355, -0.5320355, -0.5087055, -0.4619306, -0.4619305, -0.4580347]","[0.0, 0.0, -0.006746, 0.0, -0.006568, 0.00164, -0.005688, 0.003284, 0.00164, 0.005688, 0.003284, 0.00164, -0.0, -0.0, 0.007304, 0.0, -0.000766, -0.006803, -0.005968, 0.003036, 0.002489, 0.005968, 0.003036, 0.002489, -0.000664, 0.000383, -0.006803, 0.005613, 0.00365, 0.002489, -0.000354, -0.006687, 0.002489, 0.000664, 0.000383, -0.006803, 0.000354, -0.006687, 0.002489, -0.005613, 0.00365, 0.002489]",410.32,1853.1
boron_trifluoride,-323.353905277427,5,4e-06,"[-26.3373, -26.3373, -26.3373, -7.7745, -1.6878, -1.6444, -1.644394, -0.85893, -0.814314, -0.8143139, -0.7644027, -0.7010615, -0.7010612, -0.6874822, -0.6874818, -0.6629962]","[0.0, 3e-06, 0.0, -0.0, 0.015882, -0.0, 0.013757, -0.007943, -0.0, -0.013757, -0.007943, -0.0]",6.01,74.9
nitrosyl_chloride,-588.781099256258,5,0.793811619807,"[-104.8345, -20.7556, -15.8534, -10.5589, -8.0255, -8.0238, -8.023713, -1.681922, -1.105222, -0.9687279, -0.7722272, -0.7637619, -0.725948, -0.4589557, -0.458584, -0.4312794]","[-0.007482, -0.019225, 0.0, -0.094264, 0.001889, -0.0, 0.101746, 0.017335, -0.0]",6.32,50.8
silicon_monophosphide,-629.634313289066,8,0.34859,"[-79.718, -68.5934, -7.259, -5.9386, -5.1515, -5.151462, -5.151067, -4.041069, -4.041069, -4.039748, -0.5667412, -0.3085931, -0.1306692, -0.1004915, -0.1004915, -79.953, -68.8153, -7.4975, -6.1611, -5.397874, -5.394099, -5.385645, -4.265315, -4.261677, -4.256285, -0.8458801, -0.5316003, -0.3910518, -0.3637488, -0.3474762]","[]",-1,5.5
pyrrole,-208.898849710336,5,0.730185,"[-15.6049, -11.2515, -11.2514, -11.2088, -11.2077, -1.292069, -1.043336, -0.9754904, -0.7962989, -0.7671034, -0.7368358, -0.5941373, -0.5835584, -0.5680981, -0.5460963, -0.5294631, -0.3484565, -0.2963852]","[0.0, -0.0, 0.007843, -0.0, -0.0, 0.007804, 0.0, 0.013138, 0.013741, -0.0, -0.013138, 0.013741, -0.0, -0.013203, -0.01951, -0.0, 0.013203, -0.01951, 0.0, 0.00638, 0.002712, 0.0, -0.00638, 0.002712, 0.0, 0.003514, -0.004767, 0.0, -0.003514, -0.004767]",290.58,1353.3
aluminum_monoxide,-316.786122921800,3,0.896383,"[-58.4924, -20.57621, -4.906586, -3.222973, -3.214675, -3.214675, -1.311791, -0.6642489, -0.5232158, -0.5232158, -0.3543426]","[-0.0, 0.0, 0.037289, 0.0, -0.0, -0.037289]",2.11,31.7
trifluoromethane,-336.933732379994,5,0.640862011612,"[-26.3455, -26.3455, -26.3455, -11.5084, -1.7366, -1.6455, -1.6455, -0.9915619, -0.8478617, -0.8311749, -0.8311683, -0.716304, -0.7162959, -0.6763412, -0.6763313, -0.6593885, -0.58868]","[0.0, 3.3e-05, -0.019871, -0.0, 1e-06, 0.0158, 0.0, 0.02907, 0.001365, 0.025196, -0.014552, 0.001353, -0.025196, -0.014552, 0.001353]",8.8,122.0
silicon_monofluoride,-388.430396181343,4,0.359543,"[-68.8403, -26.29916, -6.181882, -4.291077, -4.281932, -4.280794, -1.602383, -0.7678705, -0.6902152, -0.6682008, -0.5013783, -0.2844926]","[-0.0, 0.0, -0.009292, 0.0, -0.0, 0.009292]",2.07,15.7
ethyl_chloride,-538.208616445231,4,0.902417369142,"[-104.8177, -11.2912, -11.2313, -10.5436, -8.0107, -8.0091, -8.0091, -1.136939, -1.000954, -0.8428278, -0.6513032, -0.6131143, -0.5611932, -0.5290108, -0.5074817, -0.4311713, -0.4305632]","[0.00316, 0.000436, 0.000904, -0.002272, 0.005048, 0.000123, -0.001844, -0.008823, -0.00159, 0.0034, 0.003057, -2e-05, -0.001747, -0.00336, -0.004426, -0.001708, -0.003312, 0.004446, 0.001313, 0.00386, -0.004958, -0.0003, 0.003092, 0.005522]",94.94,429.2
bicyclo[1.1.0]butane,-154.932778560049,4,0.283337,"[-11.2406, -11.2405, -11.2333, -11.2326, -1.212756, -0.9267823, -0.7868164, -0.7832775, -0.691469, -0.585385, -0.5826096, -0.5173518, -0.4616944, -0.4351347, -0.3491349]","[0.017151, -0.0, 0.003773, -0.017151, 0.0, 0.003773, -0.0, 0.01103, 0.000584, 0.0, -0.01103, 0.000584, -0.0, 0.009795, 0.009587, -0.0, -0.009795, 0.009587, 0.0, -0.009554, -0.010805, -0.0, 0.009554, -0.010805, 0.001602, 0.0, -0.00314, -0.001602, -0.0, -0.00314]",224.79,794.6
silyl_radical,-290.645130839916,4,0.003201,"[-68.7812, -6.132535, -4.245283, -4.235302, -4.235302, -0.7324433, -0.495199, -0.495199, -0.3396102]","[0.0, -0.0, -0.00155, 0.0, -0.003154, 0.000517, -0.002731, 0.001577, 0.000517, 0.002731, 0.001577, 0.000517]",1.39,20.7
Ar,-526.816804869678,1,0.0,"[-118.6105, -12.32227, -9.571563, -9.571563, -9.571563, -1.27743, -0.5910752, -0.5910752, -0.5910752]","[-0.0, -0.0, 0.0]",0.01,1.1
Br,-2572.448087207270,3,0.0,"[-490.0619, -65.2005, -58.5609, -58.5536, -58.5536, -9.8755, -7.4988, -7.475546, -7.475546, -3.233336, -3.227864, -3.227864, -3.211667, -3.211667, -1.048003, -0.5240458, -0.4542809, -0.4542809]","[-0.0, -0.0, -0.0]",0.02,26.2
cyclopentane,-195.241585373805,4,0.006364807774,"[-11.2093, -11.2089, -11.2089, -11.2083, -11.2082, -1.116267, -0.956298, -0.9557331, -0.7770292, -0.7671328, -0.6498427, -0.6449035, -0.569977, -0.5680918, -0.4754897, -0.4746021, -0.4634289, -0.460846, -0.4589977, -0.4490316]","[-0.00228, 0.002844, -0.000884, -0.000106, -0.004118, -0.000639, 0.004332, -0.001156, -8.8e-05, 0.002012, 0.003453, 0.000742, -0.003464, -0.001233, 0.000891, 0.000655, 0.000544, 0.004381, -0.000403, 0.003295, -0.002805, -0.002078, 0.001041, -0.003658, -0.002003, 3.5e-05, 0.003856, 0.000467, -0.000512, -0.004435, -0.002125, -0.002761, 0.002599, 0.002379, -0.0031, -0.001954, -0.000356, 0.00091, 0.004358, -0.000619, -0.00067, -0.004394, 0.003589, 0.001429, 0.002032]",689.36,2709.4
dimethyl_sulfoxide,-551.670235171672,5,1.80933658003,"[-92.0639, -20.4999, -11.258, -11.258, -9.0517, -6.7339, -6.7337, -6.7323, -1.340405, -1.067411, -0.9809844, -0.8166223, -0.6544625, -0.6262029, -0.6221894, -0.5882851, -0.5648719, -0.55201, -0.5167193, -0.4214968, -0.366924]","[-0.0, -0.012735, 0.012657, 0.0, 0.019635, -0.011333, 0.019543, 0.016609, 0.005755, -0.019543, 0.016609, 0.005755, -0.016085, -0.012354, 0.000901, 0.016085, -0.012354, 0.000901, 0.003583, -0.00547, 0.004032, -0.006185, -0.002235, -0.01135, -0.003583, -0.00547, 0.004032, 0.006185, -0.002235, -0.01135]",219.73,1126.2
trifluoroacetic_acid,-524.621574611932,5,0.728107506021,"[-26.3677, -26.3677, -26.362, -20.6448, -20.5984, -11.5448, -11.435, -1.7658, -1.6706, -1.6665, -1.5091, -1.407816, -1.05145, -0.9245263, -0.8600358, -0.8592381, -0.8177302, -0.7445674, -0.7423115, -0.736626, -0.699219, -0.696444, -0.6893551, -0.6779862, -0.6582536, -0.617424, -0.5253051, -0.5034302]","[0.008587, -0.006146, -0.0, 0.009233, 0.051458, -0.0, 0.029875, -0.012641, 0.0, -0.038662, -0.031413, 0.0, -0.027404, 0.012044, 0.0, 0.012291, 0.000734, 0.020663, 0.012291, 0.000734, -0.020663, -0.00621, -0.014771, -0.0]",213.43,1330.7
nitric_oxide,-129.306957945235,4,0.09464,"[-20.6996, -15.73501, -1.613531, -0.9709411, -0.7906471, -0.7006573, -0.6465919, -0.4282935]","[-0.0, -0.0, -0.078243, 0.0, 0.0, 0.078243]",1.33,20.4
hydrazine,-111.227047897668,5,1.113777,"[-15.5741, -15.57365, -1.264235, -1.012676, -0.6890873, -0.6547754, -0.5914708, -0.457582, -0.3943054]","[-0.00574, 0.00314, -0.024245, 0.00574, -0.00314, -0.024245, -0.003298, -0.004476, 0.013292, 0.003298, 0.004476, 0.013292, 0.01314, 0.003828, 0.010953, -0.01314, -0.003828, 0.010953]",4.53,77.6
aluminum_carbide,-279.669965395222,2,0.371617,"[-58.5022, -11.26899, -4.913075, -3.224221, -3.222347, -3.222347, -0.8842892, -0.4975328, -0.4030348, -0.4030348, -0.3142674]","[-0.0, -0.0, 0.003885, 0.0, 0.0, -0.003885]",1.82,22.6
sulfur_monoxide,-472.416929545388,5,0.737346,"[-92.0667, -20.65063, -9.062151, -6.75125, -6.75125, -6.736969, -1.46154, -0.9521674, -0.6805381, -0.6805381, -0.6441715, -0.4285496, -0.4285496]","[0.0, -0.0, -0.044994, -0.0, 0.0, 0.044994]",2.44,19.2
hydroxymethyl_radical,-114.472286690164,4,0.622228101874,"[-20.5869, -11.28177, -1.395518, -0.9233477, -0.716174, -0.6263777, -0.606808, -0.5243913, -0.3484402]","[0.008212, 0.0057, -0.006029, -0.002912, -0.036836, 0.006411, -0.011273, 0.031015, -0.004603, 0.00401, 0.006426, 0.002311, 0.001963, -0.006305, 0.00191]",4.23,68.6
dimethyl_sulfide,-476.812221938438,4,0.683169,"[-91.9423, -11.2491, -11.2491, -8.9439, -6.6256, -6.6246, -6.6237, -1.061154, -0.9499073, -0.8066229, -0.6032652, -0.6012161, -0.5762962, -0.5626536, -0.4934395, -0.4361964, -0.3358486]","[-0.0, -0.00844, 0.002716, 0.0, 0.00844, 0.002716, -0.0, 0.0, 0.006389, 0.0, 0.006442, 0.00389, 0.006203, 0.000489, -0.0049, -0.006203, 0.000489, -0.0049, 0.0, -0.006442, 0.00389, -0.006203, -0.000489, -0.0049, 0.006203, -0.000489, -0.0049]",118.32,522.9
Mg,-199.614234074694,1,0.0,"[-49.0318, -3.767729, -2.282207, -2.282207, -2.282207, -0.2530533]","[-0.0, -0.0, 0.0]",0.01,1.3
beryllium_monochloride,-474.196370704736,5,0.409926,"[-104.8244, -10.55247, -8.019749, -8.017923, -8.017923, -4.752971, -1.08714, -0.5538757, -0.473731, -0.473731, -0.3357768]","[0.0, -0.0, 0.004976, -0.0, 0.0, -0.004976]",1.95,15.1
n_propyl_chloride,-577.254977142040,4,0.932538654131,"[-104.8175, -11.2962, -11.2425, -11.2341, -10.5432, -8.0102, -8.0086, -8.0086, -1.134965, -1.041555, -0.9056246, -0.8103845, -0.656531, -0.5993618, -0.5790655, -0.5692093, -0.5077469, -0.4963419, -0.4899601, -0.4290442, -0.4276154]","[0.001304, -0.001281, 0.0, 0.007714, -0.018059, 0.0, -0.008177, 0.014496, -0.0, 0.018191, -0.002688, 0.0, -0.003471, 0.012674, 0.018827, -0.003471, 0.012674, -0.018827, 0.003469, -0.010675, 0.015858, 0.003469, -0.010675, -0.015858, -0.004026, 0.010027, 0.015288, -0.004026, 0.010027, -0.015288, -0.010976, -0.016519, 0.0]",246.95,1266.6
chloroform,-1417.014193023642,5,0.504074000099,"[-104.863, -104.863, -104.863, -11.4333, -10.5889, -10.5889, -10.5889, -8.0559, -8.0559, -8.0559, -8.0539, -8.0539, -8.0539, -8.0539, -8.0539, -8.0539, -1.244806, -1.112404, -1.112404, -0.8790282, -0.6871755, -0.6252829, -0.6252827, -0.5053276, -0.5053271, -0.4734511, -0.4632917, -0.4632913, -0.4477594]","[0.0, -2e-06, 0.021251, -0.0, -0.0, 0.003226, 0.0, -0.001409, -0.00816, -0.001224, 0.000706, -0.008159, 0.001224, 0.000706, -0.008159]",17.86,223.1
phosphorus_monosulfide,-738.296676522605,64,0.393483,"[-6.666652, -6.666494, -6.661775, -5.452112, -5.439908, -5.437611, -1.021908, -0.7213207, -0.4831755, -0.4709102, -0.4379003, -0.3192996]","[0.0, 0.0, 0.175413, -0.0, -0.0, -0.175413]",4.24,47.4
cyclopropane,-117.108820389848,4,1.5e-05,"[-11.2216, -11.2206, -11.22055, -1.132465, -0.8169451, -0.8169359, -0.6679067, -0.6273634, -0.5113483, -0.5113377, -0.4198325, -0.4198247]","[0.0, -0.001625, 0.0, -0.001393, 0.000798, 0.0, 0.001393, 0.000798, 0.0, 0.0, 0.003585, 0.006513, 0.003099, -0.001785, 0.006506, -0.003099, -0.001785, 0.006506, -0.0, 0.003585, -0.006513, 0.003099, -0.001785, -0.006506, -0.003099, -0.001785, -0.006506]",122.32,433.5
formyl_radical,-113.297536967459,5,0.872882053935,"[-20.6216, -11.35814, -1.449446, -0.8730491, -0.7136178, -0.6461938, -0.5688103, -0.4089631]","[0.048846, -0.092974, -0.0, -0.014687, 0.011531, 0.0, -0.034158, 0.081443, 0.0]",2.44,30.1
spiropentane,-193.995786196705,4,0.0,"[-11.2322, -11.2218, -11.2217, -11.2212, -11.2212, -1.171078, -1.059517, -0.8244259, -0.8244259, -0.7390105, -0.6516913, -0.6395599, -0.6395599, -0.5235514, -0.5078383, -0.4842559, -0.412351, -0.412351, -0.3860772]","[0.0, 0.0, 0.0, -0.0, 0.004603, 0.00178, 0.0, -0.004603, 0.00178, -0.004603, 0.0, -0.00178, 0.004603, 0.0, -0.00178, 0.004847, 0.001258, 0.000859, -0.004847, 0.001258, 0.000859, -0.004847, -0.001258, 0.000859, 0.004847, -0.001258, 0.000859, -0.001258, -0.004847, -0.000859, -0.001258, 0.004847, -0.000859, 0.001258, 0.004847, -0.000859, 0.001258, -0.004847, -0.000859]",471.92,1925.3
acetonitrile,-131.820309344333,5,1.93440769166,"[-15.569, -11.29256, -11.28312, -1.222189, -1.118933, -0.7751524, -0.6625272, -0.5618054, -0.5192486, -0.4660859, -0.408655]","[-0.011408, 0.006562, -0.009302, -0.010434, 0.006024, -0.069281, 0.003884, -0.002243, 0.077845, 0.048685, 0.004393, 0.013666, 0.020558, -0.044346, 0.013657, -0.051286, 0.029609, -0.026585]",45.29,214.8
P,-340.718741187154,4,0.0,"[-79.9793, -7.522144, -5.420888, -5.420888, -5.420888, -0.836248, -0.3920865, -0.3920865, -0.3920865]","[-0.0, -0.0, 0.0]",0.01,2.4
disilane,-581.379908525772,4,0.0,"[-68.7638, -68.7638, -6.1158, -6.1157, -4.2222, -4.2218, -4.2218, -4.221709, -4.221709, -4.221439, -0.7605904, -0.6795862, -0.5036583, -0.5036469, -0.4755206, -0.4755083, -0.4016766]","[-0.0, 2.5e-05, -0.003076, 0.0, -2.5e-05, 0.003076, 0.0, -0.002583, -0.002844, 0.002217, 0.001279, -0.002835, -0.002217, 0.001279, -0.002835, -0.0, 0.002583, 0.002844, 0.002217, -0.001279, 0.002835, -0.002217, -0.001279, 0.002835]",54.15,252.3
methylene_chloride,-958.089015785471,6,0.729151,"[-104.8477, -104.8477, -11.3619, -10.5733, -10.5733, -8.0403, -8.0403, -8.0385, -8.0385, -8.0384, -8.0384, -1.192909, -1.095558, -0.9010261, -0.6825216, -0.6175709, -0.5844454, -0.4736574, -0.4721953, -0.4479522, -0.4470736]","[-0.0, -0.0, 0.007974, 0.002066, 0.0, -0.001476, -0.002066, 0.0, -0.001476, -0.0, 0.001771, -0.002511, 0.0, -0.001771, -0.002511]",10.67,137.2
methlidyne_radical,-38.283558944206,4,0.611101,"[-11.3284, -0.8754956, -0.4720893, -0.4259338]","[0.0, 0.0, -0.017661, -0.0, -0.0, 0.017661]",0.21,2.9
trifluoro_acetonitrile,-428.672735371270,5,0.606232000007,"[-26.387, -26.387, -26.387, -15.634, -11.588, -11.3241, -1.7849, -1.6889, -1.6889, -1.271566, -1.06464, -0.9203364, -0.8789413, -0.8789412, -0.7588844, -0.7588844, -0.7158621, -0.7158619, -0.6983793, -0.6913018, -0.606632, -0.5265846, -0.5265846]","[-0.0, 1e-06, 0.009204, 0.0, 0.0, -0.08201, 0.0, -0.0, 0.085616, -0.0, 0.031744, -0.004269, 0.027494, -0.015873, -0.00427, -0.027494, -0.015873, -0.00427]",103.79,529.0
acetyl_radical,-152.365889508201,6,1.21007388646,"[-20.5952, -11.34753, -11.26545, -1.430465, -1.038158, -0.777635, -0.6724436, -0.6506652, -0.6210209, -0.5660682, -0.5301165, -0.3726636]","[0.006117, 0.000465, 0.0, -0.07857, 0.014923, -0.0, 0.002765, -0.008512, -0.0, -0.004334, 0.000603, 0.005816, -0.004334, 0.000603, -0.005816, 0.078356, -0.008082, 0.0]",8.33,277.1
silylene_t,-290.026698808191,4,0.032367,"[-68.802, -6.151398, -4.263334, -4.259348, -4.250646, -0.7233171, -0.5070909, -0.3898191, -0.3075528]","[-0.0, -0.0, 0.011391, -0.0, 0.012155, -0.005695, 0.0, -0.012155, -0.005695]",0.87,11.0
oxygen_water,-152.136847757160,5,0.99669363119,"[-20.59, -20.53359, -1.378891, -1.320091, -0.7436949, -0.6954582, -0.6129351, -0.5592692, -0.5297206, -0.4813511]","[0.019548, -0.019819, -0.004444, 0.01006, 0.024073, 0.011838, -0.008294, 0.006395, 0.0183, -0.008482, 0.013667, -0.013813, -0.024759, -0.008855, -0.002547, 0.011927, -0.015463, -0.009334]",2.84,54.2
chlorine_monofluoride,-558.915972288418,5,0.436708,"[-104.938, -26.356, -10.6556, -8.12309, -8.119392, -8.119392, -1.640211, -1.105673, -0.7265479, -0.7265479, -0.7008835, -0.493434, -0.493434]","[0.0, 0.0, -0.028633, -0.0, -0.0, 0.028633]",1.93,14.0
sodium_hydride,-162.392142893375,3,2.770942,"[-40.4622, -2.785864, -1.507855, -1.507855, -1.506512, -0.2742271]","[0.0, -0.0, 0.003159, -0.0, 0.0, -0.003159]",0.65,5.6
nitrogen_tribromide,-7771.735228215115,7,0.261064,"[-490.0696, -490.0696, -490.0696, -65.2089, -65.2089, -65.2089, -58.5649, -58.5649, -58.5649, -58.5625, -58.5625, -58.5625, -58.5625, -58.5625, -58.5625, -15.731, -9.8816, -9.8816, -9.8815, -7.4947, -7.4947, -7.4947, -7.4848, -7.4848, -7.4848, -7.4847, -7.4847, -7.4847, -3.2395, -3.2395, -3.2395, -3.2345, -3.2345, -3.2345, -3.2344, -3.2344, -3.2344, -3.2213, -3.2213, -3.2213, -3.2213, -3.2213, -3.2213, -1.249174, -1.03371, -1.03371, -0.8941796, -0.5980284, -0.5980284, -0.5885265, -0.4689795, -0.4689795, -0.4270524, -0.4270524, -0.4144373, -0.3999381]","[0.0, 0.0, 0.030191, -0.0, 0.012553, -0.010064, 0.010871, -0.006277, -0.010064, -0.010871, -0.006277, -0.010064]",64.42,944.3
phosphorus_pentafluoride,-838.367607489957,7,1.5e-05,"[-80.2553, -26.3766, -26.3766, -26.3766, -26.3279, -26.3279, -7.7549, -5.6564, -5.6564, -5.6539, -1.7589, -1.6936, -1.6936, -1.6514, -1.6182, -0.9726221, -0.8587764, -0.8587752, -0.8510056, -0.7998024, -0.7998, -0.7598796, -0.7598775, -0.7199222, -0.7137103, -0.6953677, -0.683591, -0.6835906, -0.6601212, -0.6601207]","[-0.0, 8e-06, 0.0, -0.0, 0.021753, 0.0, 0.018849, -0.010882, -0.0, -0.018849, -0.010882, -0.0, -0.0, 1e-06, 0.020115, -0.0, 1e-06, -0.020115]",25.19,720.7
aminyl_radical,-55.591398628503,4,0.740927,"[-15.5952, -1.165518, -0.6477857, -0.5160596, -0.5076526]","[-0.0, -0.0, -0.01758, -0.0, 0.009037, 0.00879, 0.0, -0.009037, 0.00879]",0.42,6.6
allene,-115.912953448755,5,0.0,"[-11.2632, -11.23772, -11.23761, -1.073838, -0.9582596, -0.7145804, -0.6278296, -0.6082306, -0.6082306, -0.378647, -0.378647]","[-0.0, -0.0, 0.0, -0.0, -0.0, 0.012542, -0.0, 0.0, -0.012542, 0.0, 0.008464, 0.005431, 0.0, -0.008464, 0.005431, 0.008464, -0.0, -0.005431, -0.008464, -0.0, -0.005431]",58.03,258.0
methane,-40.216265454121,4,0.0,"[-11.2049, -0.9435003, -0.5454529, -0.5454529, -0.5454529]","[0.0, -0.0, 0.0, 0.002343, 0.002343, 0.002343, 0.002343, -0.002343, -0.002343, -0.002343, 0.002343, -0.002343, -0.002343, -0.002343, 0.002343]",0.88,16.6
carbon_monosulfide,-435.359859797850,5,0.634407,"[-92.0006, -11.35507, -9.00762, -6.687772, -6.687081, -6.687081, -1.100884, -0.6925398, -0.470715, -0.4632414, -0.4632414]","[0.0, -0.0, -0.027624, -0.0, 0.0, 0.027624]",2.41,15.3
sulfur_hexafluoride,-994.372119782783,13,0.0,"[-92.4454, -26.3768, -26.3768, -26.3767, -26.3767, -26.3767, -26.3767, -9.3759, -7.0651, -7.0651, -7.0651, -1.8348, -1.7065, -1.7065, -1.7065, -1.6523, -1.6523, -1.09031, -0.9180047, -0.9180047, -0.9180047, -0.8288569, -0.8288569, -0.8288569, -0.7357721, -0.7357721, -0.7257811, -0.7257811, -0.7257811, -0.7132617, -0.7132617, -0.7132617, -0.6761959, -0.6761959, -0.6761959]","[-0.0, -0.0, -0.0, 0.0, 0.0, 0.028511, 0.0, 0.028506, 0.0, 0.028506, 0.0, 0.0, 0.0, -0.028506, 0.0, -0.028506, 0.0, 0.0, 0.0, 0.0, -0.028511]",58.02,3100.5
nonane,-352.617059922382,4,0.033234,"[-11.211, -11.211, -11.209, -11.2088, -11.2085, -11.2082, -11.2079, -11.2056, -11.2056, -1.094503, -1.070064, -1.029811, -0.9761544, -0.9130234, -0.8475344, -0.7970894, -0.7853801, -0.7808985, -0.6594456, -0.6377907, -0.6040451, -0.5940508, -0.5872095, -0.5630044, -0.5533857, -0.5518708, -0.5216013, -0.5146794, -0.4875667, -0.4870228, -0.4788947, -0.4664206, -0.4642984, -0.4580594, -0.457553, -0.4555074, -0.4235608]","[0.0, -0.0, -0.003866, -0.0, 5.9e-05, 0.00387, 0.0, -5.9e-05, 0.00387, 0.0, 0.000336, -0.003999, 0.0, -0.000336, -0.003999, 0.0, -0.000188, 0.003808, -0.0, 0.000188, 0.003808, 0.0, -0.003295, -0.001756, -0.0, 0.003295, -0.001756, 0.003896, 0.0, 0.002486, -0.003896, -0.0, 0.002486, 0.00388, -1.5e-05, -0.002474, -0.00388, -1.5e-05, -0.002474, -0.00388, 1.5e-05, -0.002474, 0.00388, 1.5e-05, -0.002474, 0.003843, -3.4e-05, 0.002497, -0.003843, -3.4e-05, 0.002497, -0.003843, 3.4e-05, 0.002497, 0.003843, 3.4e-05, 0.002497, -0.003533, -0.000665, -0.002325, 0.003533, -0.000665, -0.002325, 0.003533, 0.000665, -0.002325, -0.003533, 0.000665, -0.002325, -0.0, 0.00316, -0.002123, -0.003112, -0.000542, 0.002125, 0.003112, -0.000542, 0.002125, -0.0, -0.00316, -0.002123, 0.003112, 0.000542, 0.002125, -0.003112, 0.000542, 0.002125]",3022.57,17089.9
furan,-228.722736962640,5,0.318146,"[-20.6227, -11.2883, -11.2883, -11.231, -11.23, -1.458116, -1.084135, -1.00343, -0.8063725, -0.7833466, -0.7401959, -0.6342094, -0.6106182, -0.5783594, -0.5661007, -0.5392381, -0.3989499, -0.3200946]","[-0.0, -0.0, 0.030718, 0.0, 0.014966, 0.009853, -0.0, -0.014966, 0.009853, 0.0, -0.009123, -0.02233, 0.0, 0.009123, -0.02233, -0.0, 0.006653, 0.004498, -0.0, -0.006653, 0.004498, -0.0, 0.001118, -0.007381, -0.0, -0.001118, -0.007381]",269.54,1093.6
methanol_radical,-114.475593178613,5,0.758048141351,"[-20.6192, -11.28232, -1.40038, -0.9242943, -0.7052546, -0.6521966, -0.6226125, -0.5234926, -0.4821538]","[-0.006922, 0.001655, 0.0, 0.002636, 0.008915, -0.0, 0.008715, -0.001146, 0.0, -0.002214, -0.004712, 0.007172, -0.002214, -0.004712, -0.007172]",3.72,73.2
sodium_lithium,-169.293305221775,3,0.261817,"[-40.4629, -2.782913, -2.457135, -1.504, -1.503701, -1.503701, -0.1735978]","[0.0, 0.0, 0.002879, -0.0, -0.0, -0.002879]",1.65,11.4
O,-74.817625058233,4,0.0,"[-20.7086, -1.418672, -0.71108, -0.71108, -0.6116623]","[0.0, -0.0, -0.0]",0.01,0.9
ethylene_oxide,-152.938174880068,5,0.86427,"[-20.5689, -11.2842, -11.2834, -1.413405, -0.9344372, -0.8625711, -0.7087304, -0.6612451, -0.5489818, -0.5451686, -0.452729, -0.4525861]","[-0.0, 0.0, 0.02875, -0.0, 0.010904, -0.011132, -0.0, -0.010904, -0.011132, -0.007276, 0.001819, -0.001622, 0.007276, 0.001819, -0.001622, 0.007276, -0.001819, -0.001622, -0.007276, -0.001819, -0.001622]",68.25,306.8
chlorine_diatomic,-919.007696637682,4,0.0,"[-104.8982, -104.8982, -10.6202, -10.62, -8.0874, -8.0872, -8.0845, -8.084471, -8.084463, -8.084463, -1.219278, -1.014788, -0.5977032, -0.5702649, -0.5702649, -0.4438696, -0.4438696]","[0.0, 0.0, -0.004514, -0.0, -0.0, 0.004514]",1.74,13.2
aziridine,-133.098168177166,4,0.728260526036,"[-15.5565, -11.2552, -11.25405, -1.254419, -0.8954834, -0.838911, -0.6970724, -0.6373465, -0.5313028, -0.4838946, -0.4768392, -0.3907751]","[-0.001915, 0.015709, -0.011118, -0.010197, -0.008282, -0.001211, 0.009985, -0.00842, -0.004974, 0.001547, 0.00812, 0.015207, -0.004082, 0.00714, 0.006111, -0.00017, -0.010695, -0.004728, 0.003759, -0.001604, -0.006908, 0.001074, -0.001968, 0.007621]",97.6,402.6
methoxyethane,-193.193155542863,4,0.546428661951,"[-20.5512, -11.2719, -11.2674, -11.2109, -1.369345, -1.022997, -0.9120562, -0.8296007, -0.66772, -0.6514598, -0.6234892, -0.5810731, -0.5343605, -0.5043183, -0.5010933, -0.4775035, -0.4220404]","[-0.026363, -0.015602, 0.0, -0.000835, 0.009402, -0.0, 0.01034, 0.002162, -0.0, 0.00434, -0.002992, 0.0, 0.004556, 0.004235, 0.007057, 0.004556, 0.004235, -0.007057, -0.002276, -0.007504, 0.0, 0.005293, 0.002455, -0.006672, 0.005293, 0.002455, 0.006672, -0.002441, -0.002774, -0.005579, -0.002441, -0.002774, 0.005579, -2.1e-05, 0.006701, 0.0]",266.35,1284.3
ethane,-79.265111334964,4,0.0,"[-11.211, -11.21043, -1.015389, -0.8411437, -0.5962811, -0.5962798, -0.505625, -0.4879683, -0.4879674]","[2e-05, -0.0, 0.002373, -2e-05, 0.0, -0.002373, -0.005222, 0.0, 0.001331, 0.002601, 0.004495, 0.001325, 0.002601, -0.004495, 0.001325, 0.005222, 0.0, -0.001331, -0.002601, -0.004495, -0.001325, -0.002601, 0.004495, -0.001325]",57.07,192.3
carbon_tetrabromide,-10327.693194715184,5,0.0,"[-490.0567, -490.0567, -490.0567, -490.0567, -65.197, -65.197, -65.197, -65.197, -58.5526, -58.5526, -58.5526, -58.5526, -58.5507, -58.5507, -58.5507, -58.5507, -58.5507, -58.5507, -58.5507, -58.5507, -11.4688, -9.8703, -9.8703, -9.8703, -9.8703, -7.4825, -7.4825, -7.4825, -7.4825, -7.4744, -7.4744, -7.4744, -7.4744, -7.4744, -7.4744, -7.4744, -7.4744, -3.2267, -3.2266, -3.2266, -3.2266, -3.2224, -3.2224, -3.2224, -3.2224, -3.2224, -3.2224, -3.2224, -3.2224, -3.2118, -3.2118, -3.2118, -3.2118, -3.2118, -3.2118, -3.2118, -3.2118, -1.180493, -1.034568, -1.034568, -1.034568, -0.7951941, -0.5968208, -0.5968208, -0.5968208, -0.4791533, -0.4791533, -0.4390237, -0.4390237, -0.4390237, -0.4138742, -0.4138742, -0.4138742]","[0.0, 0.0, 0.0, 0.002433, 0.002433, 0.002433, -0.002433, -0.002433, 0.002433, -0.002433, 0.002433, -0.002433, 0.002433, -0.002433, -0.002433]",270.97,1868.5
beryllium_diatomic,-29.134205096271,3,0.0,"[-4.7316, -4.731597, -0.3951073, -0.2432981]","[-0.0, 0.0, 0.012256, 0.0, -0.0, -0.012256]",0.14,4.8
tetrachloroethylene,-1913.802185859513,5,0.0,"[-104.8763, -104.8763, -104.8763, -104.8763, -11.3888, -11.3873, -10.6016, -10.6016, -10.6016, -10.6016, -8.0687, -8.0687, -8.0687, -8.0687, -8.0667, -8.0667, -8.0667, -8.0667, -8.0666, -8.0666, -8.0666, -8.0666, -1.265501, -1.19523, -1.142612, -1.116259, -0.9817477, -0.7533147, -0.6807071, -0.6669337, -0.6178954, -0.5787311, -0.5353977, -0.5112914, -0.5035883, -0.4997543, -0.4919241, -0.4847108, -0.4511043, -0.3629599]","[-0.0, 0.0, 0.039147, -0.0, -0.0, -0.039147, 0.0, 0.002715, 0.000171, 0.0, -0.002715, 0.000171, 0.0, -0.002715, -0.000171, -0.0, 0.002715, -0.000171]",170.65,893.5
silicon_monoxide,-363.851004013082,4,1.465282,"[-68.8184, -20.53009, -6.167514, -4.269273, -4.269273, -4.26795, -1.262815, -0.6093257, -0.4745689, -0.4745689, -0.4375197]","[0.0, 0.0, -0.039382, -0.0, -0.0, 0.039382]",2.31,13.6
trimethylamine,-173.343487261875,4,0.320338024313,"[-15.543, -11.2411, -11.241, -11.241, -1.225493, -0.9465043, -0.9464837, -0.804342, -0.6433764, -0.6264885, -0.626483, -0.5441761, -0.5441662, -0.5110264, -0.4989287, -0.4989211, -0.354546]","[-4.1e-05, 4.3e-05, -0.003368, 0.006497, 0.006572, 0.014346, -0.008871, 0.002373, 0.014348, 0.002391, -0.009002, 0.014357, 0.001493, 0.001492, -0.002934, -0.002039, 0.000547, -0.002932, 0.00055, -0.002043, -0.002937, -0.016242, 0.005112, -0.005137, 0.005118, -0.016275, -0.00515, 0.003701, -0.016629, -0.005139, 0.011521, 0.012562, -0.005143, 0.012584, 0.011546, -0.005156, -0.016663, 0.003702, -0.005154]",355.16,1501.7
carbonyl_fluoride,-311.762752305140,8,0.48028,"[-1.685138, -1.475899, -0.9576945, -0.8654334, -0.8176519, -0.8057906, -0.7276761, -0.7061949, -0.7045182, -0.5759601, -0.5578651]","[0.0, -0.0, 0.059934, -0.0, -0.0, -0.017419, -0.0, 0.028779, -0.021257, 0.0, -0.028779, -0.021257]",14.51,58.5
phosphorus_mononitride,-395.184958539824,5,1.282442,"[-79.9944, -15.6143, -7.540706, -5.432289, -5.432289, -5.43161, -1.137263, -0.6652864, -0.4858545, -0.4435504, -0.4435504]","[-0.0, 0.0, -0.066548, 0.0, -0.0, 0.066548]",2.51,16.1
carbon_tetrachloride,-1875.933798035995,9,0.0,"[-104.876, -104.876, -104.876, -104.876, -11.4961, -10.6017, -10.6017, -10.6017, -10.6017, -8.0687, -8.0687, -8.0687, -8.0687, -8.0666, -8.0666, -8.0666, -8.0666, -8.0666, -8.0666, -8.0666, -8.0666, -1.282899, -1.127972, -1.127972, -1.127972, -0.8338314, -0.6587699, -0.6587699, -0.6587699, -0.5322952, -0.5322952, -0.4889034, -0.4889034, -0.4889034, -0.4602809, -0.4602809, -0.4602809]","[-0.0, -0.0, -0.0, 0.001777, 0.001777, 0.001777, -0.001777, -0.001777, 0.001777, -0.001777, 0.001777, -0.001777, 0.001777, -0.001777, -0.001777]",25.12,606.2
acrylonitrile,-169.831716654128,5,1.761663634,"[-15.5843, -11.2956, -11.2893, -11.286, -1.213483, -1.09983, -0.8883387, -0.7308364, -0.6621814, -0.5896195, -0.5556871, -0.5155531, -0.4642277, -0.3962097]","[-0.010571, -0.017264, -0.0, 0.005036, 0.029262, -0.0, 0.053071, -0.122804, -0.0, -0.009047, -7.2e-05, -0.0, 0.003305, -0.008319, 0.0, 0.010358, -0.001444, 0.0, -0.052152, 0.120641, 0.0]",86.86,414.8
Be,-14.572969176361,1,0.0,"[-4.7327, -0.3092713]","[0.0, -0.0, 0.0]",0.01,0.4
Li,-7.432718717040,3,0.0,"[-2.4866, -0.1963649]","[0.0, 0.0, -0.0]",0.01,0.6
sodium_hydroxide,-237.344860428972,5,2.729568,"[-40.4505, -20.38879, -2.7751, -1.498924, -1.49863, -1.49863, -1.130626, -0.5001395, -0.3367415, -0.3367415]","[0.0, -0.0, 0.010251, -0.0, 0.0, 0.000405, 0.0, 0.0, -0.010656]",5.07,29.7
methylene_t,-38.939864445880,4,0.223043,"[-11.2665, -0.9468367, -0.6175838, -0.4483893, -0.4092169]","[-0.0, 0.0, 0.003044, -0.0, 0.012397, -0.001522, 0.0, -0.012397, -0.001522]",0.37,6.1
carbon_monophosphide,-378.514024073998,2,0.062091,"[-79.956, -11.31918, -7.501044, -5.39958, -5.384892, -5.384892, -1.016443, -0.647443, -0.468053, -0.4579863, -0.4579863]","[-0.0, 0.0, 0.028416, 0.0, -0.0, -0.028416]",2.46,30.7
formic_acid,-188.847714787439,7,0.645636231283,"[-20.6324, -20.5589, -11.39409, -1.478812, -1.37756, -0.8868289, -0.7396378, -0.7156169, -0.640548, -0.6011168, -0.496797, -0.4675512]","[-0.053914, 0.008494, 0.0, -0.033761, -0.006187, -0.0, 0.041577, 0.009279, -0.0, 0.0351, 0.012828, -0.0, 0.010997, -0.024414, -0.0]",7.44,120.2
aluminum_trifluoride,-540.633693298628,5,8e-06,"[-58.5395, -26.2834, -26.2834, -26.2833, -4.9518, -3.2711, -3.2678, -3.2678, -1.5803, -1.5677, -1.567715, -0.7356641, -0.6926174, -0.6926162, -0.6673966, -0.6591644, -0.6591625, -0.6495617, -0.6495595, -0.6344237]","[-0.0, -1.1e-05, 0.0, 0.0, 0.012738, -0.0, 0.011021, -0.006364, -0.0, -0.011021, -0.006364, -0.0]",6.36,76.2
vinyl_radical,-77.425438329582,3,0.239689247546,"[-11.2587, -11.22589, -1.047487, -0.7905535, -0.6375851, -0.6006311, -0.409175, -0.4052512]","[0.001905, -0.008007, 0.0, 2.4e-05, 0.006245, -0.0, -0.004132, 0.007724, -0.0, -0.004085, -0.002006, -0.0, 0.006288, -0.003956, 0.0]",17.48,131.5
nitrous_oxide,-183.763315884346,5,0.242316,"[-20.6558, -15.84436, -15.69764, -1.613507, -1.423108, -0.8339664, -0.763092, -0.763092, -0.6988653, -0.4918343, -0.4918343]","[0.0, 0.0, -0.134194, 0.0, 0.0, 0.09893, -0.0, -0.0, 0.035264]",3.7,32.9
2_butyne,-154.970137605625,4,1.7e-05,"[-11.2511, -11.2511, -11.2207, -11.2171, -1.05663, -0.9943161, -0.9083825, -0.6482908, -0.5924044, -0.5845238, -0.5845236, -0.5674747, -0.5674745, -0.3604148, -0.3604146]","[-0.0, 0.0, 0.066198, 0.0, 0.0, -0.066198, 0.0, -9e-06, -0.019179, 0.0, -9e-06, 0.019179, 0.0, 0.020721, 0.007594, -0.017931, -0.010356, 0.007591, 0.017931, -0.010356, 0.007591, 0.0, 0.020721, -0.007594, 0.017931, -0.010356, -0.007591, -0.017931, -0.010356, -0.007591]",147.41,609.8
hydrogen_diatomic,-1.133467335218,3,0.0,"[-0.5944458]","[0.0, -0.0, -0.005671, -0.0, 0.0, 0.005671]",0.01,0.5
beryllium_dihydride,-15.772995068768,4,0.0,"[-4.6743, -0.4898551, -0.4492573]","[0.0, 0.0, -0.0, -0.0, 0.0, -0.001231, -0.0, -0.0, 0.001231]",0.2,3.6
beryllium_monohydride,-15.153431524903,4,0.112436,"[-4.7159, -0.487726, -0.3112755]","[0.0, -0.0, -0.002288, -0.0, 0.0, 0.002288]",0.13,2.9
sodium_monoxide,-236.708242246098,5,3.424979,"[-40.4678, -20.43779, -2.791675, -1.515704, -1.515015, -1.513714, -1.135953, -0.4621307, -0.3804408, -0.3688114]","[0.0, 0.0, 0.000719, -0.0, -0.0, -0.000719]",2.3,19.3
N,-54.403819520617,4,0.0,"[-15.6715, -1.163183, -0.5708987, -0.5708987, -0.5708987]","[-0.0, -0.0, 0.0]",0.01,0.6
phosphino_radical,-341.891204671812,3,0.244681,"[-79.9594, -7.502233, -5.406959, -5.392877, -5.391321, -0.8542336, -0.5216705, -0.4306819, -0.3773149]","[0.0, 0.0, -0.014426, 0.0, 0.003588, 0.007213, -0.0, -0.003588, 0.007213]",0.95,8.3
boron_monochloride,-484.161102776691,4,0.568316,"[-104.8787, -10.60727, -8.073578, -8.072637, -8.072637, -7.71885, -1.16041, -0.6695347, -0.5246367, -0.5246367, -0.3805255]","[0.0, 0.0, 0.001245, -0.0, -0.0, -0.001245]",2.14,11.6
ozone,-224.357647376503,5,0.309787,"[-20.9202, -20.7096, -20.70955, -1.746824, -1.429571, -1.096186, -0.8314933, -0.799713, -0.7798066, -0.5654338, -0.5545016, -0.4883576]","[-0.0, -0.0, -0.117918, 0.0, 0.091671, 0.058959, 0.0, -0.091671, 0.058959]",2.83,31.3
water,-76.065957494513,4,0.779549,"[-20.5649, -1.352631, -0.7174605, -0.5849641, -0.5104594]","[0.0, 0.0, 0.026547, 0.0, 0.013905, -0.013274, -0.0, -0.013905, -0.013274]",0.48,5.0
acetate_anion,-227.339482993433,8,1.66883134304,"[-11.05092, -1.150683, -1.053358, -0.7890618, -0.5111063, -0.4136265, -0.4092442, -0.4080903, -0.3567317, -0.3126147, -0.2024825, -0.1941509, -0.1873625]","[-0.000278, 0.000644, 0.0, 0.000778, -0.03774, 0.0, 0.012346, -0.004439, -0.0, -0.005974, -0.004266, 0.010013, -0.005974, -0.004266, -0.010013, -0.055642, 0.022463, 0.0, 0.054742, 0.027603, -0.0]",32.23,218.8
tetrachlorosilane,-2127.264418894352,14,0.0,"[-104.8601, -104.8601, -104.8601, -104.8601, -68.9411, -10.5878, -10.5878, -10.5878, -10.5878, -8.0546, -8.0546, -8.0546, -8.0546, -8.0533, -8.0533, -8.0533, -8.0533, -8.0533, -8.0533, -8.0533, -8.0533, -6.2724, -4.3801, -4.3801, -4.3801, -1.176368, -1.11977, -1.11977, -1.11977, -0.7209856, -0.5989457, -0.5989457, -0.5989457, -0.5243493, -0.5243492, -0.5049031, -0.5049031, -0.5049031, -0.4742321, -0.4742321, -0.4742321]","[0.0, 0.0, 0.0, -0.001578, -0.001578, -0.001577, 0.001578, 0.001578, -0.001577, 0.001578, -0.001578, 0.001577, -0.001578, 0.001578, 0.001577]",26.64,1217.9
oxygen_diatomic,-149.688479793771,5,0.0,"[-20.7562, -20.75555, -1.717445, -1.208062, -0.8450924, -0.8450924, -0.767272, -0.5594384, -0.5594384]","[0.0, -0.0, -0.09307, -0.0, 0.0, 0.09307]",0.68,7.6
F,-99.414085365893,4,0.0,"[-26.408, -1.673003, -0.845468, -0.7317402, -0.7317402]","[-0.0, 0.0, 0.0]",0.01,0.9
heptane,-274.513322152293,5,0.033341,"[-11.217, -11.217, -11.215, -11.2146, -11.2141, -11.2119, -11.2119, -1.084626, -1.046861, -0.9868145, -0.9111314, -0.8323905, -0.7828577, -0.780277, -0.6506451, -0.6181911, -0.5883751, -0.5795517, -0.5709524, -0.5494008, -0.520543, -0.5108716, -0.5002972, -0.4807641, -0.4714972, -0.460409, -0.4564762, -0.4561448, -0.4314483]","[0.0, 0.0, -0.006862, -0.0, 0.000199, 0.006887, 0.0, -0.000199, 0.006887, 0.0, -6.4e-05, -0.006549, -0.0, 6.4e-05, -0.006549, -0.0, -0.005524, 0.003105, -0.0, 0.005524, 0.003105, -0.010303, 0.0, 0.007249, 0.010303, 0.0, 0.007249, -0.010265, -8.3e-05, -0.007283, 0.010265, -8.3e-05, -0.007283, 0.010265, 8.3e-05, -0.007283, -0.010265, 8.3e-05, -0.007283, 0.010051, -0.000643, 0.007149, -0.010051, -0.000643, 0.007149, -0.010051, 0.000643, 0.007149, 0.010051, 0.000643, 0.007149, 0.0, 0.010048, 0.006914, 0.009933, -0.000129, -0.006954, -0.009933, -0.000129, -0.006954, -0.0, -0.010048, 0.006914, -0.009933, 0.000129, -0.006954, 0.009933, 0.000129, -0.006954]",1606.34,9991.6
methylene_s,-38.895468349431,4,0.743553,"[-11.2925, -0.8935087, -0.5668362, -0.3962088]","[0.0, 0.0, 0.011053, -0.0, 0.004634, -0.005526, -0.0, -0.004634, -0.005526]",0.37,4.5
octane,-313.565784784976,4,0.0,"[-11.2144, -11.2144, -11.2127, -11.2123, -11.2119, -11.2117, -11.2086, -11.2086, -1.088397, -1.05937, -1.011661, -0.9491711, -0.8783835, -0.8130363, -0.7823038, -0.7814515, -0.6548837, -0.6291375, -0.594339, -0.590067, -0.5711591, -0.5673397, -0.5447901, -0.5307156, -0.5026972, -0.4975649, -0.4913132, -0.4725439, -0.4640718, -0.458406, -0.4558792, -0.4516513, -0.4334645]","[-0.008585, -0.005368, -0.0, 0.008585, 0.005368, -0.0, 0.008156, 0.006363, -0.0, -0.008156, -0.006363, -0.0, -0.009791, -0.003248, 0.0, 0.009791, 0.003248, -0.0, 0.006189, -1e-06, 0.0, -0.006189, 1e-06, -0.0, 0.002867, 0.001802, 0.005568, 0.002867, 0.001802, -0.005568, -0.002867, -0.001802, 0.005568, -0.002867, -0.001802, -0.005568, -0.002942, -0.001783, -0.005627, -0.002942, -0.001783, 0.005627, 0.002942, 0.001783, -0.005627, 0.002942, 0.001783, 0.005627, 0.003567, 0.00158, 0.005708, 0.003567, 0.00158, -0.005708, -0.003567, -0.00158, 0.005708, -0.003567, -0.00158, -0.005708, -0.001469, 0.007025, -0.0, -0.003339, -0.001601, -0.004846, -0.003339, -0.001601, 0.004846, 0.001469, -0.007025, -0.0, 0.003339, 0.001601, -0.004846, 0.003339, 0.001601, 0.004846]",2228.98,12416.1
beryllium_difluoride,-213.784798266741,5,0.0,"[-26.2722, -26.27224, -4.721441, -1.562265, -1.555158, -0.6987638, -0.687241, -0.6504014, -0.6504014, -0.6294831, -0.6294831]","[-0.0, 0.0, 0.0, 0.0, -0.0, 0.027231, 0.0, -0.0, -0.027231]",1.89,24.7
dilithium_oxide,-89.816135002855,7,0.0,"[-20.3391, -2.342581, -2.342351, -1.015951, -0.3383238, -0.2745726, -0.2745726]","[0.0, -0.0, 0.0, -0.0, 0.0, 0.004262, -0.0, 0.0, -0.004262]",10.67,48.8
thiophene,-551.393629958766,5,0.278753,"[-91.983, -11.2619, -11.2619, -11.2396, -11.2385, -8.9847, -6.666, -6.6655, -6.6649, -1.1709, -0.9861356, -0.9811683, -0.7661484, -0.7505067, -0.6967015, -0.573806, -0.5522596, -0.5286092, -0.523709, -0.4759055, -0.3470485, -0.3262414]","[-0.0, -0.0, 0.008551, 0.0, 0.003266, 0.018536, -0.0, -0.003266, 0.018536, -0.0, -0.019722, -0.018692, 0.0, 0.019722, -0.018692, -0.0, 0.009634, 0.004102, 0.0, -0.009634, 0.004102, 0.0, 0.005933, -0.008222, -0.0, -0.005933, -0.008222]",259.03,1106.2
ketene,-151.796049825129,5,0.687745,"[-20.6286, -11.38384, -11.24029, -1.476362, -1.053643, -0.7605877, -0.680265, -0.6587952, -0.6456159, -0.5646947, -0.3671608]","[-0.0, -0.0, -0.011394, 0.0, 0.0, -0.040144, 0.0, -0.0, 0.059132, -0.0, 0.006857, -0.003798, 0.0, -0.006857, -0.003798]",28.99,127.4
phosphorus_monofluoride,-440.236977450358,4,0.395058,"[-80.0234, -26.32103, -7.560284, -5.461489, -5.461489, -5.446146, -1.634129, -0.8756264, -0.7161882, -0.7161882, -0.636646, -0.3793601, -0.3793601]","[0.0, 0.0, -0.012696, -0.0, -0.0, 0.012696]",2.04,15.5
boron_diatomic,-49.093970800323,4,0.0,"[-7.71, -7.708889, -0.7750192, -0.3953942, -0.3626727, -0.3626727]","[0.0, 0.0, 0.017815, -0.0, -0.0, -0.017815]",0.42,7.9
nitrogen_dioxide,-204.127091955291,5,0.259778,"[-20.6876, -20.68752, -15.88007, -1.680525, -1.500124, -0.9728548, -0.8378072, -0.8066943, -0.7671789, -0.5989171, -0.5310452, -0.5058034]","[0.0, 0.0, -0.063468, 0.0, 0.066764, 0.031734, -0.0, -0.066764, 0.031734]",3.53,44.3
argon_dimer,-1053.633189822900,2,0.0,"[-118.6101, -118.6101, -12.322, -12.322, -9.5713, -9.5713, -9.5713, -9.5713, -9.571254, -9.571254, -1.27808, -1.276557, -0.5986488, -0.5920089, -0.5920089, -0.5898594, -0.5898594, -0.5834798]","[-0.0, -0.0, 0.000832, 0.0, 0.0, -0.000832]",0.52,4.9
sodium_diatomic,-323.716309161522,3,0.0,"[-40.4655, -40.46547, -2.784972, -2.784855, -1.507063, -1.505826, -1.505826, -1.505535, -1.505535, -1.505165, -0.166394]","[0.0, 0.0, 0.002705, -0.0, -0.0, -0.002705]",3.95,19.1
dimethylamine,-134.302126341575,4,0.454695375569,"[-15.5405, -11.2388, -11.2388, -1.193913, -0.9441863, -0.8518913, -0.6587739, -0.6113781, -0.5886254, -0.5367394, -0.5086652, -0.5068455, -0.3704595]","[0.022465, 0.001216, -0.0, -0.007368, -0.00293, 0.008535, -0.007368, -0.00293, -0.008535, -0.014797, -0.012591, 0.0, -0.003201, 0.004435, 0.000258, -0.003201, 0.004435, -0.000258, 0.007443, 0.00644, -0.002413, 0.007443, 0.00644, 0.002413, -0.000709, -0.002258, 0.001386, -0.000709, -0.002258, -0.001386]",148.36,712.7
cyclobutene,-154.962758243817,4,0.03782,"[-11.2263, -11.2256, -11.2254, -11.2243, -1.144399, -0.8956862, -0.8766247, -0.7055755, -0.6723634, -0.625747, -0.5301132, -0.5092529, -0.465122, -0.4519309, -0.3490482]","[0.0, 0.023586, -0.003302, -0.0, -0.023586, -0.003302, 0.0, -0.003359, -0.001832, -0.0, 0.003359, -0.001832, -0.0, 0.005303, 0.00527, -0.0, -0.005303, 0.00527, 0.008029, 0.002596, -6.8e-05, -0.008029, -0.002596, -6.8e-05, -0.008029, 0.002596, -6.8e-05, 0.008029, -0.002596, -6.8e-05]",215.99,775.4
acetic_acid,-227.917948758593,5,0.802293149841,"[-20.6146, -20.5513, -11.3927, -11.248, -1.461294, -1.358124, -1.029791, -0.8204649, -0.7068233, -0.6801492, -0.6505996, -0.5859235, -0.5747178, -0.5631147, -0.4843894, -0.4578181]","[0.013711, -0.041094, -0.0, -0.007301, -0.000614, 0.0, 0.011852, 0.068258, 0.0, -0.006059, -0.050092, -0.0, -0.018732, 0.028801, 0.0, 0.00652, 0.00426, 0.0, 4e-06, -0.004759, 0.005657, 4e-06, -0.004759, -0.005657]",112.75,597.4
hydrogen_fluoride,-100.068459277432,4,0.757877,"[-26.2958, -1.60076, -0.767617, -0.6502459, -0.6502459]","[0.0, 0.0, -0.027574, -0.0, -0.0, 0.027574]",0.24,2.2
phosphorus_diatomic,-681.497363522476,4,0.0,"[-79.9751, -79.975, -7.5178, -7.5171, -5.4098, -5.40898, -5.40898, -5.40872, -5.40872, -5.407404, -0.9014641, -0.6074727, -0.4084848, -0.3715483, -0.3715483]","[-0.0, 0.0, -0.034255, 0.0, -0.0, 0.034255]",1.98,15.2
sodium_fluoride,-261.378348697819,44,3.31392,"[-40.46129, -26.06528, -2.786033, -1.511782, -1.509727, -1.509727, -1.32187, -0.4399463, -0.4278655, -0.4278655]","[-0.0, -0.0, 0.10721, 0.0, 0.0, -0.10721]",2.25,32.0
lithium_diatomic,-14.871484336519,3,0.0,"[-2.4532, -2.452871, -0.1819417]","[-0.0, -0.0, 0.00352, 0.0, 0.0, -0.00352]",0.12,4.3
difluoromethane,-238.016131150844,5,0.852581,"[-26.3103, -26.3103, -11.4039, -1.664012, -1.602762, -0.9727161, -0.7814488, -0.7734074, -0.7578876, -0.6686377, -0.6343157, -0.6238072, -0.5371856]","[0.0, 0.0, 0.011678, -0.003503, 0.0, 0.003481, 0.003503, 0.0, 0.003481, -0.0, 0.015568, -0.00932, 0.0, -0.015568, -0.00932]",5.58,82.0
propene,-117.123950446232,4,0.163250224076,"[-11.2347, -11.2215, -11.21807, -1.063363, -0.931695, -0.7576215, -0.6384134, -0.5825787, -0.5676112, -0.5228366, -0.4917039, -0.3583706]","[0.016598, -0.005387, -0.0, -0.023389, -0.000219, 0.0, 0.005154, 0.005684, 0.0, 0.002883, -0.007859, -0.0, 0.006703, 0.005141, -0.0, -0.002727, 0.008541, 0.0, 0.002992, -0.007026, 0.0, -0.004107, 0.000563, 0.005581, -0.004107, 0.000563, -0.005581]",110.14,423.3
difluorine_monoxide,-273.581494696518,5,0.168785,"[-26.4001, -26.4001, -20.8224, -1.752553, -1.635608, -1.285198, -0.820553, -0.8023368, -0.7987085, -0.7231119, -0.6794504, -0.6548008, -0.5819308]","[0.0, 0.0, 0.069793, -0.0, 0.048235, -0.034897, 0.0, -0.048235, -0.034897]",1.84,24.9
phosphorus_monoxide,-415.633161952837,5,1.013031,"[-80.029, -20.59043, -7.56718, -5.468226, -5.457897, -5.455792, -1.364758, -0.7658634, -0.6060325, -0.5582005, -0.5321846, -0.3399198]","[0.0, 0.0, -0.04989, -0.0, -0.0, 0.04989]",2.54,26.6
tert_butyl_radical,-156.741253076316,30,0.083801,"[-11.2105, -1.089952, -0.9343265, -0.9343265, -0.74259, -0.6209298, -0.6004447, -0.6004447, -0.5368548, -0.5368548, -0.5134892, -0.4818897, -0.4818894, -0.314403]","[0.0, -0.008307, 0.043404, 0.0, -0.012145, -0.012629, -0.017589, 0.010266, -0.011982, 0.017589, 0.010272, -0.012041, 0.0, 0.003272, -0.01152, -0.001002, 0.000143, 0.004656, 0.001002, 0.000143, 0.004656, 0.002761, -0.001528, -0.011578, -5.4e-05, 0.001035, 0.004369, -0.000896, -0.001328, 0.004937, -0.002761, -0.001528, -0.011578, 0.000896, -0.001328, 0.004937, 5.4e-05, 0.001035, 0.00437]",73.52,2438.3
lithium_fluoride,-106.991156938174,4,2.539406,"[-26.1113, -2.432146, -1.37811, -0.4999064, -0.4760541, -0.4760541]","[-0.0, 0.0, -0.002978, 0.0, -0.0, 0.002978]",0.7,6.1
acetyl_fluoride,-251.916150081930,5,1.27930494824,"[-26.3295, -20.5804, -11.4257, -11.2632, -1.6582, -1.433533, -1.047949, -0.8519994, -0.7399276, -0.7274667, -0.7219124, -0.6233353, -0.6085966, -0.5886764, -0.5338491, -0.4917858]","[0.004249, -0.024441, 0.0, -0.004184, -0.000262, -0.0, 0.013688, 0.045593, -0.0, -0.02321, -0.013944, -0.0, 0.005513, -0.000555, -0.0, 0.001972, -0.003195, -7.7e-05, 0.001972, -0.003195, 7.7e-05]",85.53,417.6
lithium_hydroxide,-82.957662758734,5,1.840128,"[-20.4294, -2.41468, -1.167597, -0.5478596, -0.3784995, -0.3784995]","[0.0, -0.0, -0.04124, 0.0, 0.0, -0.00211, -0.0, -0.0, 0.043351]",1.87,15.5
propyne,-115.914380448106,4,0.314196000129,"[-11.2552, -11.23455, -11.21712, -1.057079, -0.955347, -0.7182103, -0.6158931, -0.5935595, -0.5935419, -0.3834455, -0.3834436]","[-0.0, -2e-05, 0.007185, 0.0, 0.0, -0.060949, -0.0, 0.0, 0.053241, 0.0, 0.0, 0.001938, -0.0, 0.016798, -0.000476, 0.014543, -0.008389, -0.00047, -0.014543, -0.008389, -0.00047]",55.73,222.2
aluminum_monosulfide,-639.485113475156,19,1.919864,"[-6.600141, -6.591866, -6.591866, -4.949007, -3.262638, -3.257673, -3.257673, -0.8918247, -0.4966106, -0.3736138, -0.3506823, -0.3506823]","[-0.0, 0.0, 0.025924, 0.0, -0.0, -0.025924]",4.48,19.6
boron_monocarbide,-62.339271870364,3,1.020753,"[-11.3089, -7.709, -0.9515252, -0.5580182, -0.4319528, -0.4156654, -0.4156654]","[-0.0, 0.0, -0.043599, 0.0, -0.0, 0.043599]",0.89,14.1
boron_trichloride,-1403.388625177033,8,8e-05,"[-104.8598, -104.8598, -104.8598, -10.5874, -10.5874, -10.5874, -8.0542, -8.0542, -8.0542, -8.0531, -8.0531, -8.0531, -8.0528, -8.0528, -8.0528, -7.7732, -1.180783, -1.119974, -1.119965, -0.7061699, -0.6117513, -0.611746, -0.5563062, -0.4935579, -0.493554, -0.4842833, -0.484278, -0.4587665]","[-0.0, 1.2e-05, -0.0, -0.0, -0.001576, 0.0, -0.001363, 0.000782, 0.0, 0.001363, 0.000782, -0.0]",13.5,212.9
ethyl_radical,-78.633530209592,4,0.0904735710028,"[-11.2267, -11.21525, -1.030655, -0.840764, -0.6191845, -0.5779029, -0.5421455, -0.5051827, -0.3496292]","[-0.001665, 0.008732, 0.0, 0.000764, -0.007684, -0.0, 0.003987, -0.001535, -0.0, -0.001429, -0.001484, 0.003507, -0.001429, -0.001484, -0.003507, -0.000115, 0.001727, -0.003403, -0.000115, 0.001727, 0.003403]",40.44,198.9
magnesium_hydroxide,-275.126254513902,5,0.405943,"[-49.0325, -20.47583, -3.774746, -2.293186, -2.291461, -2.291461, -1.233461, -0.6283378, -0.4359293, -0.4359293, -0.272626]","[0.0, 0.0, 0.009818, -0.0, 0.0, 0.00329, 0.0, -0.0, -0.013108]",4.37,30.7
hydrogen_peroxide,-150.845689041382,4,0.660155,"[-20.6324, -20.63211, -1.476677, -1.223666, -0.7251359, -0.7021316, -0.606903, -0.5344732, -0.4894517]","[-0.024481, 0.053169, -0.005749, 0.024481, -0.053169, -0.005749, 0.008887, -0.01327, 0.005749, -0.008887, 0.01327, 0.005749]",1.86,21.5
Al,-241.880424766375,4,0.0,"[-58.5009, -4.910805, -3.224187, -3.218102, -3.218102, -0.4255515, -0.2183878]","[0.0, 0.0, -0.0]",0.01,3.1
propane,-118.315455694438,4,0.0302290424096,"[-11.2165, -11.207, -11.207, -1.052053, -0.925245, -0.7997667, -0.6232994, -0.5949532, -0.5511225, -0.5322174, -0.4769133, -0.4717559, -0.4683291]","[3.7e-05, -0.002401, -3e-06, 0.008669, -0.004172, -2e-06, -0.008702, -0.004221, 2.8e-05, 0.0, 0.004734, 0.005547, -3.9e-05, 0.004788, -0.005578, -0.004739, 0.004364, -0.0, 0.004763, 0.004392, 5e-06, -0.001591, -0.001868, 0.002606, -0.001591, -0.001869, -0.002604, 0.001586, -0.001871, -0.002605, 0.001606, -0.001877, 0.002607]",173.29,717.3
butane,-157.365593177977,4,0.0,"[-11.2138, -11.2132, -11.2082, -11.2082, -1.069956, -0.9794237, -0.8592424, -0.786052, -0.6378126, -0.5837291, -0.5747806, -0.5664862, -0.513724, -0.493778, -0.4690146, -0.4607912, -0.456256]","[-0.000587, -0.005521, 0.0, -0.005722, 0.003664, 0.0, 0.005722, -0.003664, -0.0, 0.000587, 0.005521, 0.0, 0.006553, 0.002434, -0.0, -0.006553, -0.002434, 0.0, -0.003281, 0.001781, 0.005474, -0.003281, 0.001781, -0.005474, 0.003281, -0.001781, 0.005474, 0.003281, -0.001781, -0.005474, 0.00317, -0.002692, -0.005788, 0.00317, -0.002692, 0.005788, -0.00317, 0.002692, -0.005788, -0.00317, 0.002692, 0.005788]",383.13,1751.4
carbon_dioxide,-187.721714938950,4,0.0,"[-20.6507, -20.65069, -11.4605, -1.530164, -1.477002, -0.8011369, -0.7434977, -0.7152032, -0.7152032, -0.5448857, -0.5448857]","[-0.0, -0.0, -0.0, 0.0, -0.0, 0.065319, -0.0, 0.0, -0.065319]",3.3,23.3
Cl,-459.489179554960,4,0.0,"[-104.8894, -10.6125, -8.098204, -8.073753, -8.073753, -1.13615, -0.5817807, -0.5025881, -0.5025881]","[0.0, 0.0, 0.0]",0.01,2.6
magnesium_monohydride,-200.157561182807,4,0.56452,"[-49.0438, -3.78428, -2.301122, -2.300403, -2.300403, -0.4172445, -0.2594573]","[0.0, 0.0, 0.000661, -0.0, -0.0, -0.000661]",0.6,7.0
cyclopropene,-115.872759404681,4,0.18455,"[-11.2439, -11.24168, -11.23788, -1.155171, -0.8242826, -0.7684536, -0.6812217, -0.5978093, -0.4920356, -0.4209858, -0.3577114]","[0.0, -0.0, 0.009294, -0.0, 0.032776, -0.003593, -0.0, -0.032776, -0.003593, 0.0, 0.004741, -0.00275, 0.0, -0.004741, -0.00275, 0.006303, 0.0, 0.001696, -0.006303, 0.0, 0.001696]",69.03,219.3
cyclobutane,-156.159672772567,4,0.0,"[-11.2157, -11.2151, -11.2151, -11.2146, -1.126031, -0.8899633, -0.8899633, -0.749607, -0.6462064, -0.6416326, -0.5328717, -0.5328717, -0.4838825, -0.4515509, -0.4360784, -0.4360784]","[0.0, -0.007123, -0.001852, 0.0, 0.007123, -0.001852, 0.007123, 0.0, 0.001852, -0.007123, 0.0, 0.001852, -0.0, 0.00696, -0.004422, -0.0, 0.001201, 0.007508, -0.0, -0.00696, -0.004422, -0.0, -0.001201, 0.007508, -0.00696, -0.0, 0.004422, -0.001201, -0.0, -0.007508, 0.00696, 0.0, 0.004422, 0.001201, -0.0, -0.007508]",324.75,1272.7
silylene_s,-290.033981902904,3,0.118298999679,"[-68.799, -6.144846, -4.248243, -4.246273, -4.245485, -0.6755958, -0.4597295, -0.3384473]","[-0.0, -0.003122, 0.003009, 0.0, 0.001821, -0.001232, -0.0, 0.001301, -0.001777]",0.9,6.7
aluminum_monohydride,-242.463804122985,4,0.040779,"[-58.4891, -4.900487, -3.209919, -3.209919, -3.208208, -0.4970845, -0.2887651]","[-0.0, -0.0, -8.7e-05, 0.0, 0.0, 8.7e-05]",0.55,4.6
beryllium_oxide,-89.451743569322,7,2.958805,"[-20.4571, -4.71263, -1.15147, -0.4606796, -0.3885187, -0.3885187]","[-0.0, -0.0, -0.043503, 0.0, 0.0, 0.043503]",0.93,10.3
