#Total energies (in Hartrees) calculated by NWChem using HF
          3-21g       6-31g*  aug-cc-pvdz  aug-cc-pvqz  aug-cc-pvtz      cc-pvdz      cc-pvqz      cc-pvtz  unc-aug-cc-pvdz  unc-aug-cc-pvqz  unc-aug-cc-pvtz     cc-pcvdz     cc-pcvtz     cc-pcvqz  aug-cc-pcvdz  aug-cc-pcvtz  aug-cc-pcvqz
Al  -240.551046  -241.856351  -241.874158  -241.880425  -241.879174  -241.873510  -241.880413  -241.879046      -241.874218      -241.880456      -241.879183  -241.873565  -241.879095  -241.880481   -241.874212   -241.879223   -241.880493
Ar  -524.342962  -526.772151  -526.800972  -526.816805  -526.813352  -526.799865  -526.816780  -526.813134      -526.801012      -526.816804      -526.813355  -526.799867  -526.813136  -526.816780   -526.800981   -526.813355   -526.816805
B    -24.389762   -24.521972   -24.530574   -24.532984   -24.532172   -24.529962   -24.532967   -24.532068       -24.530599       -24.532985       -24.532179   -24.529988   -24.532094   -24.532984    -24.530593    -24.532192    -24.533001
Be   -14.486820   -14.566764   -14.572379   -14.572969   -14.572875   -14.572338   -14.572968   -14.572873       -14.572380       -14.572969       -14.572876   -14.572338   -14.572873   -14.572968    -14.572379    -14.572876    -14.572969
Br -2560.035236 -2572.083809 -2572.370780 -2572.448087 -2572.445498 -2572.368374 -2572.448020 -2572.445085     -2572.372748     -2572.448131     -2572.445568 -2572.368374 -2572.445085 -2572.448020  -2572.370780  -2572.445498  -2572.448087
C    -37.481070   -37.680577   -37.687763   -37.693352   -37.691811   -37.686544   -37.693308   -37.691569       -37.687845       -37.693358       -37.691835   -37.686622   -37.691646   -37.693339    -37.687819    -37.691862    -37.693384
Cl  -457.276552  -459.446509  -459.472781  -459.489180  -459.485969  -459.471143  -459.489095  -459.485434      -459.472997      -459.489218      -459.486043  -459.471306  -459.485634  -459.489231   -459.472943   -459.486166   -459.489317
F    -98.845009   -99.363412   -99.381092   -99.414085   -99.406879   -99.375240   -99.413770   -99.405525       -99.381284       -99.414089       -99.406908   -99.375388   -99.405642   -99.413857    -99.381195    -99.407007    -99.414171
H     -0.496199    -0.498233    -0.499334    -0.499948    -0.499821    -0.499278    -0.499946    -0.499810        -0.499337        -0.499948        -0.499821    -0.499278    -0.499810    -0.499946     -0.499334     -0.499821     -0.499948
Li    -7.381513    -7.431236    -7.432426    -7.432719    -7.432705    -7.432421    -7.432718    -7.432702        -7.432449        -7.432719        -7.432706    -7.432440    -7.432703    -7.432719     -7.432446     -7.432706     -7.432719
Mg  -198.468103  -199.595219  -199.608340  -199.614234  -199.613351  -199.608297  -199.614233  -199.613347      -199.608340      -199.614234      -199.613351  -199.608298  -199.613347  -199.614233   -199.608341   -199.613351   -199.614234
N    -54.105390   -54.385008   -54.393183   -54.403820   -54.401162   -54.391115   -54.403718   -54.400686       -54.393362       -54.403837       -54.401212   -54.391269   -54.400821   -54.403754    -54.393296    -54.401236    -54.403857
Na  -160.854065  -161.841425  -161.853071  -161.858718  -161.858038  -161.853057  -161.858718  -161.858036      -161.853080      -161.858719      -161.858040  -161.853066  -161.858038  -161.858719   -161.853080   -161.858040   -161.858719
Ne  -127.803825  -128.473877  -128.496350  -128.543756  -128.533273  -128.488776  -128.543470  -128.531862      -128.496518      -128.543757      -128.533287  -128.488926  -128.531955  -128.543570   -128.496444   -128.533390   -128.543853
O    -74.393657   -74.783181   -74.796601   -74.817625   -74.812982   -74.792166   -74.817295   -74.811757       -74.796853       -74.817635       -74.813032   -74.792324   -74.811882   -74.817360    -74.796718    -74.813096    -74.817690
P   -339.000079  -340.689008  -340.709958  -340.718741  -340.716492  -340.709048  -340.718721  -340.716306      -340.710205      -340.718842      -340.716617  -340.709240  -340.716451  -340.718820   -340.710154   -340.716614   -340.718841
S   -395.551335  -397.474636  -397.498740  -397.512691  -397.509873  -397.496802  -397.512581  -397.509269      -397.499053      -397.512766      -397.509990  -397.497036  -397.509501  -397.512737   -397.498974   -397.510094   -397.512849
Si  -287.344431  -288.831013  -288.850936  -288.858433  -288.856628  -288.850077  -288.858418  -288.856428      -288.851086      -288.858496      -288.856669  -288.850210  -288.856541  -288.858533   -288.851071   -288.856735   -288.858549
