,Energy,Iterations,Dipole Moment,Eigens,Derivatives,Derivative Time,Wall Time
bicyclo[3.1.0]hexane,-233.077402309083,5,0.0697146174055,"[-11.2199, -11.2192, -11.2149, -11.2148, -11.2148, -11.2134, -1.170763, -1.022417, -0.9573019, -0.8443251, -0.7568905, -0.7462244, -0.6856514, -0.6284777, -0.5905222, -0.5611465, -0.5456409, -0.4941145, -0.4754122, -0.4693218, -0.4632163, -0.3992164, -0.3845491]","[0.000957, -0.004645, -0.0, -0.002327, 0.000684, -0.0, -0.000661, -0.002069, -0.004586, -0.000661, -0.002069, 0.004586, 0.000901, 0.005007, 0.007224, 0.000901, 0.005007, -0.007224, -0.000401, -0.005146, 0.0, -0.003879, 0.005064, 0.0, -0.005074, -0.001095, 0.0, 0.001804, 0.004642, 0.0, -0.003459, 0.000421, 0.003435, -0.003459, 0.000421, -0.003435, 0.00456, 0.00086, -0.000303, 0.00456, 0.00086, 0.000303, 0.003118, -0.00397, 0.002246, 0.003118, -0.00397, -0.002246]",5.57,36.8
phosphine,-342.487217282481,4,0.261611000094,"[-79.945, -7.488263, -5.381636, -5.381636, -5.380725, -0.8538821, -0.5194746, -0.5194735, -0.3882781]","[-0.0, 8e-06, 0.015477, 0.0, -0.002506, -0.005162, 0.002159, 0.001249, -0.005157, -0.002159, 0.001249, -0.005157]",0.16,2.0
beryllium_sulfide,-412.141865150296,5,2.504364,"[-91.8914, -8.89461, -6.575184, -6.574088, -6.574088, -4.767546, -0.858044, -0.4149169, -0.3354735, -0.3354735]","[-0.0, -0.0, -0.007395, 0.0, 0.0, 0.007395]",0.47,2.4
C,-37.691569172748,4,0.0,"[-11.3443, -0.828122, -0.4377086, -0.4377086]","[-0.0, 0.0, -0.0]",0.0,0.3
lithium_oxide,-82.309423636680,4,2.647496,"[-20.4687, -2.441041, -1.174057, -0.4939811, -0.4243467, -0.4014004]","[0.0, 0.0, -0.002381, -0.0, -0.0, 0.002381]",0.11,0.7
carbon_monoxide,-112.780343974136,5,0.096781,"[-20.6659, -11.35966, -1.521251, -0.8035973, -0.6389817, -0.6389817, -0.5536101]","[0.0, 0.0, -0.063432, -0.0, -0.0, 0.063432]",0.12,0.7
magnesium_oxide,-274.375166183796,7,3.298747,"[-49.0447, -20.44096, -3.787221, -2.304016, -2.304016, -2.301858, -1.082359, -0.3551679, -0.3551679, -0.3145179]","[0.0, 0.0, -0.008429, -0.0, -0.0, 0.008429]",0.4,3.0
aluminum_nitride,-296.298729756475,3,0.521033,"[-58.502, -15.60326, -4.913199, -3.227359, -3.22229, -3.220074, -1.112699, -0.5899621, -0.5220014, -0.4527464, -0.3371047]","[-0.0, -0.0, 0.016031, 0.0, 0.0, -0.016031]",0.35,3.2
imidogen,-54.981222145759,4,0.649273,"[-15.6341, -1.170211, -0.5828307, -0.5434536, -0.5434536]","[0.0, 0.0, -0.012028, -0.0, -0.0, 0.012028]",0.02,0.3
methyl_formate,-227.874173343654,5,0.790307638002,"[-20.6146, -20.5555, -11.3858, -11.2917, -1.462426, -1.363178, -0.9873898, -0.8207519, -0.7354193, -0.6774489, -0.673614, -0.5931425, -0.5508615, -0.538608, -0.4686715, -0.4640073]","[-0.021853, 0.032999, 0.0, 0.004614, -0.006171, 0.0, 0.012788, -0.069617, -0.0, 0.006055, 0.038988, 0.0, -0.008074, 0.007463, -0.0, 0.003309, 0.006681, 0.0, 0.00158, -0.005172, 0.006528, 0.00158, -0.005172, -0.006528]",0.93,6.7
hypochlorite,-534.303164893699,6,0.341407,"[-104.9156, -20.6948, -10.63658, -8.104411, -8.101779, -8.099995, -1.482868, -1.062639, -0.7393384, -0.6678887, -0.6653911, -0.4874554, -0.4542852]","[0.0, 0.0, 0.014942, -0.0, -0.0, -0.014942]",0.36,2.9
methanol,-115.088513209545,4,0.702914627138,"[-20.5496, -11.27207, -1.350825, -0.9223521, -0.6844655, -0.6172901, -0.5925545, -0.4992805, -0.4472582]","[-0.00778, 0.011434, -0.0, -0.010639, -0.012477, -0.0, -0.009584, 0.008724, 0.0, 0.005087, -0.00049, 0.006498, 0.005087, -0.00049, -0.006498, 0.01783, -0.0067, 0.0]",0.33,1.5
vinyl_fluoride,-176.952610063839,5,0.632409147743,"[-26.3024, -11.3279, -11.23599, -1.620604, -1.047555, -0.8364252, -0.7336435, -0.6849962, -0.6776308, -0.5877928, -0.5580109, -0.3824602]","[-0.004246, 0.018039, 0.0, 0.026031, -0.00688, -0.0, -0.017394, -0.009685, -0.0, -0.007532, 0.007299, -0.0, -0.001789, -0.0108, -0.0, 0.00493, 0.002027, 0.0]",0.49,2.8
formaldehyde,-113.911390051998,5,1.092635,"[-20.5751, -11.3415, -1.404896, -0.8662962, -0.6907646, -0.6504815, -0.5355579, -0.4406614]","[-0.0, 0.0, 0.052169, 0.0, 0.0, -0.036866, 0.0, 0.010944, -0.007651, 0.0, -0.010944, -0.007651]",0.25,1.2
sulfur_diatomic,-795.096662829988,23,0.0,"[-6.704961, -6.70496, -6.70489, -6.70489, -6.69485, -6.693854, -1.113245, -0.866394, -0.5360851, -0.5360824, -0.5325796, -0.379538, -0.3795269]","[-0.0, 0.0, -0.06085, 0.0, -0.0, 0.06085]",0.33,4.2
acetaldehyde,-152.972779540878,4,1.27520984378,"[-20.5574, -11.3374, -11.2434, -1.383713, -1.022075, -0.8020614, -0.6718628, -0.6207104, -0.6039404, -0.560138, -0.4991198, -0.4271808]","[0.071242, -0.006611, -0.0, -0.059601, -0.000657, 0.0, -0.000765, 0.005234, -0.0, -0.006932, 0.008511, 0.0, 0.004762, -0.005719, 0.0, -0.004353, -0.000379, 0.005152, -0.004353, -0.000379, -0.005152]",0.6,3.3
boron_monosulfide,-422.189322802785,5,0.54268,"[-91.9544, -8.959794, -7.716979, -6.643299, -6.636095, -6.636095, -0.9774414, -0.5920055, -0.4627759, -0.4045175, -0.4045175]","[0.0, 0.0, -0.007334, -0.0, -0.0, 0.007334]",0.42,2.8
beryllium_monofluoride,-114.159439115264,4,0.489955,"[-26.2632, -4.72779, -1.554796, -0.6924503, -0.6295366, -0.6295366, -0.3378539]","[-0.0, -0.0, -0.003994, 0.0, 0.0, 0.003994]",0.12,0.7
phosphorus_tribromide,-8058.205851781308,4,0.198879000023,"[-490.0462, -490.0462, -490.0462, -80.0972, -65.1867, -65.1867, -65.1867, -58.5417, -58.5417, -58.5417, -58.5405, -58.5405, -58.5405, -58.5405, -58.5405, -58.5405, -9.8603, -9.8603, -9.8603, -7.6264, -7.4713, -7.4713, -7.4713, -7.4653, -7.4653, -7.4653, -7.4651, -7.4651, -7.4651, -5.5174, -5.5174, -5.5159, -3.2145, -3.2145, -3.2145, -3.2116, -3.2116, -3.2116, -3.2114, -3.2114, -3.2114, -3.2038, -3.2038, -3.2038, -3.2038, -3.2038, -3.2038, -1.101753, -1.027442, -1.027442, -0.7779402, -0.5535709, -0.5535708, -0.5247243, -0.4651674, -0.4651673, -0.4274816, -0.4274816, -0.4192654, -0.3807245]","[0.0, 0.0, -0.000578, -0.0, -0.002256, 0.000193, -0.001954, 0.001128, 0.000193, 0.001954, 0.001128, 0.000193]",10.19,83.3
sulfur_dioxide,-547.287606549221,5,0.817309,"[-92.1762, -20.6208, -20.6208, -9.1569, -6.8382, -6.8376, -6.835758, -1.502131, -1.398682, -0.8667105, -0.6967529, -0.6915651, -0.6624999, -0.5409716, -0.5185699, -0.4913718]","[0.0, -0.0, -0.036194, -0.0, 0.041288, 0.018097, 0.0, -0.041288, 0.018097]",0.55,3.8
decane,-391.641844486683,10,0.0,"[-11.2123, -11.2123, -11.2103, -11.2102, -11.2099, -11.2097, -11.2094, -11.2091, -11.2069, -11.2069, -1.095938, -1.075698, -1.042105, -0.9966782, -0.9418807, -0.8816896, -0.8243939, -0.789163, -0.7842277, -0.7803493, -0.6604446, -0.6424038, -0.6137831, -0.5941288, -0.5857797, -0.5778051, -0.5702237, -0.5392237, -0.5387166, -0.5332284, -0.5039071, -0.5022664, -0.4773438, -0.4764876, -0.4720918, -0.4623805, -0.4610673, -0.4572787, -0.4571266, -0.4549531, -0.4200764]","[-0.00299, -0.0019, 0.0, 0.00299, 0.0019, -0.0, 0.002918, 0.002048, 0.0, -0.002918, -0.002048, 0.0, -0.003312, -0.001701, -0.0, 0.003312, 0.001701, -0.0, 0.003082, 0.001756, 0.0, -0.003082, -0.001756, -0.0, 0.00056, -0.003429, -0.0, -0.00056, 0.003429, 0.0, 0.002214, 0.00146, 0.004155, 0.002214, 0.00146, -0.004155, -0.002214, -0.00146, 0.004155, -0.002214, -0.00146, -0.004155, -0.002193, -0.001468, -0.00414, -0.002193, -0.001468, 0.00414, 0.002193, 0.001468, -0.00414, 0.002193, 0.001468, 0.00414, 0.002266, 0.001413, 0.004141, 0.002266, 0.001413, -0.004141, -0.002266, -0.001413, 0.004141, -0.002266, -0.001413, -0.004141, -0.001646, -0.002015, -0.003805, -0.001646, -0.002015, 0.003805, 0.001646, 0.002015, -0.003805, 0.001646, 0.002015, 0.003805, -0.003893, 0.001571, 0.0, 0.002215, 0.00068, 0.003327, 0.002215, 0.00068, -0.003327, 0.003893, -0.001571, -0.0, -0.002215, -0.00068, 0.003327, -0.002215, -0.00068, -0.003327]",17.3,211.7
methanethiol_radical,-437.152075262256,4,0.67043293634,"[-91.9674, -11.2606, -8.969077, -6.664586, -6.646251, -6.64459, -1.050806, -0.8582529, -0.6070404, -0.5989604, -0.4985906, -0.4295456, -0.366992]","[0.012114, -0.000353, 0.006331, -0.006212, 0.000122, -0.003154, -0.004881, 4.7e-05, 0.003594, -0.000459, 0.006369, -0.003339, -0.000562, -0.006186, -0.003434]",0.71,4.1
hydroxyl_radical,-75.419261540266,4,0.702861,"[-20.6305, -1.38317, -0.6763395, -0.6517585, -0.5556126]","[0.0, 0.0, -0.019261, -0.0, -0.0, 0.019261]",0.02,0.4
lithium_monosulfide,-405.016760146047,4,2.859423,"[-91.8816, -8.883654, -6.578591, -6.560505, -6.560497, -2.475507, -0.8526069, -0.3821981, -0.3439809, -0.3160962]","[0.0, -0.0, 0.002523, -0.0, 0.0, -0.002523]",0.41,2.2
B,-24.532067803702,4,0.0,"[-7.7006, -0.5447289, -0.3180354]","[-0.0, -0.0, -0.0]",0.0,0.3
phosphorus_dioxide,-490.522854718524,17,0.76016,"[-5.528963, -5.524758, -5.520493, -1.427343, -1.37708, -0.790572, -0.6747088, -0.6427133, -0.6106939, -0.547241, -0.5263517, -0.474374]","[-0.0, 2e-06, 0.027094, 0.0, 0.037089, -0.013605, 0.0, -0.037091, -0.013489]",0.53,3.6
formaldoxime_zwitterion,-168.877392579838,5,1.73965774232,"[-20.518, -15.7369, -11.29751, -1.446783, -1.151221, -0.8916962, -0.7499573, -0.6688255, -0.6138691, -0.5890333, -0.427915, -0.3480093]","[0.045947, -0.01776, -0.000148, -0.030538, 0.006061, 0.001393, -0.024524, -0.011657, -9.6e-05, 0.00192, -0.011701, -1.2e-05, 0.009068, 0.00721, 0.000259, -0.001873, 0.027847, -0.001398]",0.9,3.6
tetrafluoroethylene,-473.602721013735,5,0.0,"[-26.3666, -26.3666, -26.3666, -26.3666, -11.4447, -11.4428, -1.7281, -1.7128, -1.6651, -1.6547, -1.106262, -0.9169432, -0.8646153, -0.841695, -0.8045007, -0.7875437, -0.7624314, -0.7377993, -0.7147962, -0.7082258, -0.6938765, -0.6781062, -0.6768527, -0.4067699]","[-0.0, -0.0, -0.012808, 0.0, -0.0, 0.012808, 0.0, 0.024383, 0.016854, 0.0, -0.024383, 0.016854, -0.0, -0.024383, -0.016854, -0.0, 0.024383, -0.016854]",1.02,5.6
boron_dioxide,-174.495865654032,5,0.0,"[-20.6633, -20.66331, -7.67556, -1.433544, -1.431795, -0.7184062, -0.7016153, -0.7012984, -0.6474549, -0.6451798, -0.5768856]","[-0.0, 0.0, -0.0, 0.0, -0.0, 0.019272, 0.0, -0.0, -0.019272]",0.22,1.4
cyano_radical,-92.234685465072,3,0.845436,"[-15.6041, -11.35663, -1.24232, -0.741223, -0.5669645, -0.5188293, -0.5188293]","[0.0, 0.0, -0.036039, -0.0, -0.0, 0.036039]",0.12,1.2
boron_nitride,-79.014594264556,7,1.06963,"[-15.6002, -7.704678, -1.133689, -0.5938156, -0.5092917, -0.4923468, -0.4281408]","[0.0, 0.0, -0.042521, -0.0, -0.0, 0.042521]",0.12,1.2
acetyl_chloride,-611.925509427580,5,1.21098611385,"[-104.8464, -20.5936, -11.4129, -11.2733, -10.572, -8.0386, -8.0369, -8.0368, -1.447154, -1.135198, -1.025789, -0.7765505, -0.6765113, -0.6700801, -0.6405402, -0.5779762, -0.5519936, -0.4680781, -0.4672088, -0.4532818]","[0.030488, -0.028668, 0.0, -0.016044, -0.008913, 0.0, -0.03863, 0.038518, -0.0, -0.00013, -0.008192, -0.0, 0.00784, 0.015244, 0.0, 0.008238, -0.003995, 0.013502, 0.008238, -0.003995, -0.013502]",1.92,10.1
magnesium_diatomic,-399.223985152242,3,0.0,"[-49.0312, -49.0312, -3.767342, -3.767341, -2.28179, -2.281773, -2.281773, -2.281772, -2.281772, -2.281758, -0.2829897, -0.22688]","[0.0, -0.0, 0.00262, -0.0, 0.0, -0.00262]",0.24,2.2
methyl_chloride,-499.144819056026,4,0.812709000089,"[-104.8262, -11.2984, -10.5511, -8.017972, -8.016115, -8.016115, -1.125497, -0.9079541, -0.6053816, -0.6053815, -0.5493846, -0.4349938, -0.4349937]","[-1.5e-05, 0.0, 0.033508, 0.0, -0.0, 0.005175, 0.02008, 0.0, -0.012897, -0.010033, 0.017369, -0.012893, -0.010033, -0.017369, -0.012893]",0.68,3.4
dimethyl_ether,-154.125252768680,5,0.560992,"[-20.55, -11.2688, -11.2688, -1.370143, -0.9652669, -0.8725774, -0.6609215, -0.6494104, -0.6322966, -0.5500188, -0.5283166, -0.4768029, -0.4215958]","[-0.0, 0.0, 0.009678, 0.0, 0.009109, -0.005497, -0.0, -0.009109, -0.005497, -0.0, 0.010903, 0.004743, -0.0, -0.010903, 0.004743, 0.00611, -0.003722, -0.002043, -0.00611, -0.003722, -0.002043, -0.00611, 0.003722, -0.002043, 0.00611, 0.003722, -0.002043]",1.4,6.1
methyl_ketene,-190.830617216115,5,0.84707083812,"[-20.6175, -11.3702, -11.2432, -11.2402, -1.459714, -1.08154, -0.9317429, -0.7424134, -0.6813601, -0.6372635, -0.6169548, -0.5786655, -0.5555387, -0.5321317, -0.3449026]","[0.032769, 0.01402, -3.8e-05, 0.021227, 0.000756, -1.3e-05, -0.002697, 0.004009, 1.3e-05, -0.055694, -0.021751, 2.8e-05, 0.001816, 0.005765, 1.1e-05, -0.00182, -0.004059, -3e-06, 0.002198, 0.000634, -0.003666, 0.002201, 0.000626, 0.003668]",1.04,6.6
tetrafluorosilane,-687.148415818668,5,0.0,"[-68.9323, -26.3381, -26.3381, -26.3381, -26.3381, -6.2679, -4.3771, -4.3771, -4.3771, -1.6758, -1.6374, -1.6374, -1.6374, -0.860739, -0.7827479, -0.7827479, -0.7827479, -0.7294443, -0.7294443, -0.7120996, -0.7120996, -0.7120996, -0.6773342, -0.6773342, -0.6773342]","[-0.0, 0.0, 0.0, 0.003901, 0.003901, 0.003901, -0.003901, -0.003901, 0.003901, -0.003901, 0.003901, -0.003901, 0.003901, -0.003901, -0.003901]",0.77,5.7
silicon_monosulfide,-686.506489887594,4,0.897271,"[-91.9376, -68.8386, -8.9419, -6.6221, -6.6214, -6.621358, -6.183734, -4.284418, -4.284399, -4.284399, -0.9409886, -0.5726026, -0.3892803, -0.3883211, -0.3883211]","[0.0, -0.0, -0.008633, -0.0, 0.0, 0.008633]",0.98,3.4
sulfur_monochloride,-857.037802315163,20,0.169572,"[-8.06611, -8.064307, -6.72683, -6.709784, -6.70684, -1.177075, -0.9261483, -0.5686292, -0.5621678, -0.5397651, -0.4323693, -0.3834089]","[0.0, -0.0, 0.088921, -0.0, 0.0, -0.088921]",1.01,4.4
neon_dimer,-257.063776121519,2,0.0,"[-32.7692, -32.76917, -1.927394, -1.926845, -0.8488938, -0.8458546, -0.8458546, -0.845059, -0.845059, -0.8419542]","[0.0, -0.0, 1.2e-05, -0.0, 0.0, -1.2e-05]",0.01,0.3
formaldoxime,-168.909880254746,5,0.250899706451,"[-20.5962, -15.6353, -11.27506, -1.424331, -1.1561, -0.8251876, -0.7233999, -0.6492585, -0.5928152, -0.5916327, -0.4524369, -0.4043205]","[0.035779, -0.025354, 0.0, -0.023406, 0.044556, -0.0, -0.003612, -0.032728, 0.0, -0.001338, -0.00732, 0.0, 0.005905, 0.008714, -0.0, -0.013329, 0.012132, -0.0]",0.87,3.2
lithium_chloride,-467.051203161667,4,2.831625,"[-104.7265, -10.45289, -7.919047, -7.918782, -7.918782, -2.48012, -0.9712425, -0.4064507, -0.3785807, -0.3785807]","[0.0, -0.0, 0.003079, -0.0, 0.0, -0.003079]",0.4,1.9
isopropyl_radical,-117.679453803948,4,0.0844217054791,"[-11.226, -11.2135, -11.21341, -1.062988, -0.93464, -0.7887342, -0.6183008, -0.5989133, -0.562383, -0.5366802, -0.4958946, -0.4904876, -0.3290401]","[0.001772, -0.00866, 0.0, 2.4e-05, 0.004689, -0.008545, 2.4e-05, 0.004689, 0.008545, -0.001789, 0.006558, -0.0, 0.001206, 0.004188, 0.005139, 0.001206, 0.004188, -0.005139, -0.005566, -0.003043, 0.001141, 0.004344, -0.004782, -0.000587, 0.004344, -0.004782, 0.000587, -0.005566, -0.003043, -0.001141]",0.87,6.9
cyanogen,-184.650465773341,5,0.0,"[-15.6526, -15.6526, -11.3532, -11.35212, -1.303401, -1.278753, -0.9767062, -0.638993, -0.6234082, -0.6008621, -0.6008621, -0.4993943, -0.4993943]","[0.0, 0.0, -0.066867, 0.0, -0.0, 0.066867, -0.0, -0.0, 0.065689, 0.0, -0.0, -0.065689]",0.43,2.3
boron_monohydride,-25.129935885236,4,0.671855,"[-7.6845, -0.6484632, -0.3473664]","[0.0, 0.0, -0.003943, -0.0, -0.0, 0.003943]",0.02,0.3
thiirane,-475.610717009189,5,0.858018,"[-91.942, -11.2756, -11.2748, -8.9437, -6.6247, -6.6236, -6.622231, -1.141032, -0.8448711, -0.8306678, -0.6717831, -0.6081607, -0.5446044, -0.43976, -0.4263048, -0.3453607]","[-0.0, -0.0, 0.0035, 0.0, 0.002443, 0.000888, 0.0, -0.002443, 0.000888, -0.007242, 0.002864, -0.001319, 0.007242, 0.002864, -0.001319, 0.007242, -0.002864, -0.001319, -0.007242, -0.002864, -0.001319]",1.16,6.7
sodium_chloride,-621.453539056358,4,3.631021,"[-104.6997, -40.5001, -10.4256, -7.8917, -7.891494, -7.891494, -2.821589, -1.54439, -1.54439, -1.544115, -0.9398464, -0.3678629, -0.3513968, -0.3513968]","[-0.0, 0.0, 0.004998, 0.0, -0.0, -0.004998]",1.12,4.3
magnesium_sulfide,-597.133351725042,5,3.569346,"[-91.8659, -49.0883, -8.8668, -6.5476, -6.54577, -6.54577, -3.827884, -2.344663, -2.344663, -2.344295, -0.8019971, -0.3327345, -0.2969526, -0.2969526]","[-0.0, -0.0, -0.001105, 0.0, 0.0, 0.001105]",1.14,4.8
methyl_silane,-330.322242643590,4,0.289204008963,"[-68.7657, -11.2107, -6.1149, -4.221069, -4.221069, -4.220719, -0.9488849, -0.6983734, -0.5641156, -0.5641002, -0.4679839, -0.4679746, -0.4562105]","[0.0, -3.8e-05, 0.012063, 0.0, -2.7e-05, -0.004856, 0.0, -0.007272, -0.00233, -0.00633, 0.003656, -0.002345, 0.00633, 0.003656, -0.002345, 0.0, 0.000675, -5.6e-05, -0.000561, -0.000324, -6.6e-05, 0.000561, -0.000324, -6.6e-05]",0.97,4.8
aluminum_trichloride,-1620.718935973856,4,1.2e-05,"[-104.8425, -104.8425, -104.8425, -58.5766, -10.5695, -10.5695, -10.5695, -8.0359, -8.0359, -8.0359, -8.035, -8.035, -8.035, -8.0349, -8.0349, -8.0349, -4.9859, -3.3019, -3.3005, -3.3005, -1.116321, -1.096009, -1.096008, -0.6171358, -0.5457788, -0.5457785, -0.5102854, -0.4921694, -0.4921687, -0.484443, -0.4844423, -0.4663484]","[0.0, -4e-06, 0.0, 0.0, -0.007135, -0.0, -0.006183, 0.00357, -0.0, 0.006183, 0.00357, -0.0]",2.26,14.7
methanethiol,-437.754876813807,4,0.668969871562,"[-91.9469, -11.2636, -8.9495, -6.630962, -6.629963, -6.628894, -1.035593, -0.8636209, -0.6051254, -0.5902908, -0.5367111, -0.4496353, -0.3542387]","[0.005774, -0.009938, -0.003212, -0.003279, 0.010333, 0.004014, 0.003661, -0.002872, -0.000643, 0.004153, 0.012902, -0.007727, -0.011073, -0.013225, -0.007285, 0.000765, 0.002799, 0.014853]",0.81,3.9
hypochlorous_acid,-534.919770457373,5,0.65504390766,"[-104.8881, -20.6389, -10.6082, -8.075443, -8.07234, -8.072186, -1.411698, -1.059505, -0.7192692, -0.6120833, -0.6019325, -0.4665455, -0.442047]","[0.02388, 0.017131, 0.0, -0.021671, 0.000824, -0.0, -0.002209, -0.017955, -0.0]",0.54,3.4
lithium_hydride,-7.986638562852,4,2.351944,"[-2.4468, -0.3012161]","[0.0, 0.0, 0.001437, -0.0, -0.0, -0.001437]",0.02,0.3
monosulfur_monofluoride,-496.966870474511,4,0.487728,"[-92.0606, -26.3343, -9.055058, -6.749783, -6.732102, -6.728963, -1.638582, -0.9838432, -0.7276685, -0.7129624, -0.677919, -0.4709218, -0.4042712]","[-0.0, -0.0, -0.017629, 0.0, 0.0, 0.017629]",0.33,2.2
ammonia,-56.217834293032,4,0.649547000373,"[-15.5338, -1.137377, -0.6235229, -0.6234999, -0.4262705]","[0.0, -4.2e-05, 0.013964, -0.0, -0.010267, -0.004644, 0.00892, 0.005155, -0.00466, -0.00892, 0.005155, -0.00466]",0.06,0.6
boron_monofluoride,-124.155715859144,4,0.339172,"[-26.378, -7.708611, -1.697532, -0.8521756, -0.7429667, -0.7429667, -0.4047401]","[0.0, 0.0, -0.019337, -0.0, -0.0, 0.019337]",0.11,0.7
carbon_tetrafluoride,-435.815867095565,5,0.0,"[-26.3736, -26.3736, -26.3736, -26.3735, -11.6058, -1.807, -1.6799, -1.6799, -1.6799, -1.010488, -0.8901851, -0.8901851, -0.8901851, -0.7636762, -0.7636762, -0.7108985, -0.7108985, -0.7108985, -0.6824268, -0.6824268, -0.6824268]","[0.0, -0.0, 0.0, 0.014723, 0.014723, 0.014723, -0.014723, -0.014723, 0.014723, -0.014723, 0.014723, -0.014723, 0.014723, -0.014723, -0.014723]",0.6,3.3
silicon_diatomic,-577.778103774951,25,0.0,"[-6.14995, -6.149662, -4.254528, -4.254528, -4.254407, -4.254407, -4.248495, -4.247447, -0.7259465, -0.4912941, -0.3163799, -0.3163793, -0.2974889]","[-0.0, 0.0, -0.074193, 0.0, -0.0, 0.074193]",0.32,4.6
H,-0.499809811302,1,0.0,"[-0.4998098]","[0.0, -0.0, 0.0]",0.0,0.2
acetylene,-76.849392840574,4,0.0,"[-11.2416, -11.23776, -1.028605, -0.7658712, -0.6795088, -0.4097023, -0.4097023]","[-0.0, 0.0, 0.043802, 0.0, -0.0, -0.043802, -0.0, 0.0, 0.007191, 0.0, -0.0, -0.007191]",0.14,0.8
phosphorus_trichloride,-1719.379682226866,4,0.266396007215,"[-104.8627, -104.8627, -104.8627, -80.1046, -10.5887, -10.5887, -10.5886, -8.0551, -8.0551, -8.0551, -8.0535, -8.0535, -8.0535, -8.0534, -8.0534, -8.0534, -7.6325, -5.524, -5.524, -5.5223, -1.19019, -1.114897, -1.114891, -0.800277, -0.6024929, -0.6024883, -0.5717725, -0.5152684, -0.5152655, -0.4742119, -0.4742078, -0.4641849, -0.4007631]","[-0.0, 7e-06, -0.000903, -0.0, -0.002906, 0.000304, -0.002516, 0.001449, 0.0003, 0.002516, 0.001449, 0.0003]",2.52,14.1
magnesium_monochloride,-659.204820398141,14,1.343945,"[-7.967738, -7.965949, -7.965949, -3.817626, -2.334561, -2.333187, -2.333187, -1.025032, -0.4757199, -0.4250529, -0.4250529, -0.2889222]","[0.0, 0.0, -0.008293, -0.0, -0.0, 0.008293]",1.1,4.2
carbon_disulfide,-832.966778638209,5,0.0,"[-91.9899, -91.9899, -11.4018, -8.994, -8.994, -6.6751, -6.6751, -6.673, -6.673, -6.67302, -6.67302, -1.143057, -1.020144, -0.6781343, -0.5814583, -0.5253959, -0.5253959, -0.3721398, -0.3721398]","[0.0, -0.0, 0.0, 0.0, -0.0, 0.013339, -0.0, 0.0, -0.013339]",0.91,5.5
magnesium_monofluoride,-299.143640468609,4,1.206215,"[-49.0507, -26.17073, -3.793118, -2.310675, -2.309327, -2.309327, -1.445344, -0.5731665, -0.5373765, -0.5373765, -0.2869794]","[0.0, 0.0, -0.00097, -0.0, -0.0, 0.00097]",0.38,2.2
methyl_radical,-39.577474953608,4,8e-06,"[-11.2332, -0.9470592, -0.5798079, -0.579806, -0.3846522]","[-2e-05, 0.0, -0.0, 0.005817, 0.0, 0.0, -0.002898, -0.005012, 0.0, -0.002898, 0.005012, 0.0]",0.05,0.6
ethylene,-78.063239364363,4,0.0,"[-11.2316, -11.22996, -1.030427, -0.7904324, -0.6415573, -0.5837591, -0.506995, -0.3749606]","[0.0, 0.0, 0.023776, -0.0, 0.0, -0.023776, 0.0, 0.00796, 0.003798, 0.0, -0.00796, 0.003798, 0.0, 0.00796, -0.003798, -0.0, -0.00796, -0.003798]",0.25,1.3
trifluoroacetate_anion,-524.034154026274,5,1.96916260956,"[-26.1676, -26.1676, -26.1663, -20.3174, -20.3141, -11.3217, -11.1702, -1.5539, -1.459814, -1.459425, -1.19646, -1.101019, -0.8169575, -0.680857, -0.6474437, -0.6452674, -0.5412011, -0.5403911, -0.5204661, -0.4929781, -0.4913725, -0.4789028, -0.4421983, -0.4220132, -0.377598, -0.2426409, -0.2344623, -0.2169687]","[-0.00585, -0.023433, 0.0, 0.006621, 0.034403, -0.0, -0.023738, 0.015644, 0.0, 0.015612, 0.00684, 0.022858, 0.015612, 0.00684, -0.022858, -0.050452, -0.012402, -0.0, 0.042195, -0.027893, 0.0]",1.65,12.1
bromoform,-7755.824830958915,4,0.415008001832,"[-490.0466, -490.0466, -490.0466, -65.1868, -65.1868, -65.1868, -58.5422, -58.5422, -58.5422, -58.5405, -58.5405, -58.5405, -58.5405, -58.5405, -58.5405, -11.4172, -9.8606, -9.8606, -9.8606, -7.4727, -7.4727, -7.4727, -7.4649, -7.4649, -7.4649, -7.4649, -7.4649, -7.4649, -3.2167, -3.2166, -3.2166, -3.2126, -3.2126, -3.2126, -3.2126, -3.2126, -3.2126, -3.2026, -3.2026, -3.2026, -3.2026, -3.2026, -3.2026, -1.155872, -1.026874, -1.026872, -0.8434573, -0.6385068, -0.57337, -0.5733695, -0.4554746, -0.455473, -0.4275562, -0.4225529, -0.4225518, -0.4065898]","[0.0, -9e-06, -0.026042, -0.0, -2e-06, 0.027533, 0.0, -0.000233, -0.0005, -0.000219, 0.000122, -0.000496, 0.000219, 0.000122, -0.000496]",14.15,86.0
nitrogen_trifluoride,-352.677272731832,5,0.135199019708,"[-26.3876, -26.3876, -26.3876, -15.9034, -1.7958, -1.6571, -1.657, -1.117981, -0.8522248, -0.8522189, -0.8454016, -0.7404269, -0.7404176, -0.6830932, -0.683084, -0.6808667, -0.5544788]","[-0.0, 2.3e-05, 0.051265, -0.0, 0.040157, -0.017082, 0.034779, -0.02009, -0.017092, -0.034779, -0.02009, -0.017092]",0.36,2.0
phosphorus_tetramer,-1363.046007344496,5,1.7e-05,"[-79.9799, -79.9799, -79.9799, -79.9799, -7.5193, -7.519, -7.519, -7.519, -5.4113, -5.4107, -5.4107, -5.4107, -5.4103, -5.4103, -5.4102, -5.4102, -5.4102, -5.4101, -5.4101, -5.4101, -1.046781, -0.7146409, -0.7146407, -0.7146322, -0.4601371, -0.3899013, -0.389898, -0.3898922, -0.354352, -0.3543484]","[5e-06, 0.0, 0.016583, 0.015647, 0.0, -0.005523, -0.007826, -0.013558, -0.00553, -0.007826, 0.013558, -0.00553]",1.96,13.4
phosphorus_monochloride,-800.270320250347,29,0.349098,"[-8.04483, -8.0439, -7.552272, -5.453031, -5.453029, -5.437976, -1.138121, -0.8187039, -0.5290751, -0.529073, -0.5178968, -0.3692998, -0.3692852]","[0.0, 0.0, 0.076336, -0.0, -0.0, -0.076336]",1.0,5.7
mercapto_radical,-398.105025663431,4,0.359707,"[-91.987, -8.98888, -6.684339, -6.66603, -6.664242, -0.9870861, -0.5505215, -0.4696594, -0.4004758]","[-0.0, -0.0, -0.004134, 0.0, 0.0, 0.004134]",0.09,2.0
pentane,-196.403376434612,5,0.032339,"[-11.2126, -11.2125, -11.2102, -11.2069, -11.2069, -1.081336, -1.01547, -0.9190484, -0.8199297, -0.7850667, -0.6474894, -0.5984155, -0.5930317, -0.5538095, -0.547482, -0.5257797, -0.4944778, -0.4760128, -0.4617653, -0.4592136, -0.4467541]","[0.0, 0.0, -0.004017, -0.0, -0.000239, 0.003683, -0.0, 0.000239, 0.003683, -0.0, -0.003181, -0.001642, -0.0, 0.003181, -0.001642, 0.003512, -0.0, 0.002363, -0.003512, 0.0, 0.002363, 0.003224, -0.000724, -0.002162, -0.003224, -0.000724, -0.002162, -0.003224, 0.000724, -0.002162, 0.003224, 0.000724, -0.002162, 0.0, 0.003005, -0.001931, -0.0, -0.003005, -0.001931, -0.002812, -0.000583, 0.00193, 0.002812, -0.000583, 0.00193, 0.002812, 0.000583, 0.00193, -0.002812, 0.000583, 0.00193]",3.57,23.2
isopropyl_alcohol,-193.193914363727,5,0.676045444788,"[-20.5486, -11.2777, -11.2165, -11.2091, -1.350851, -1.041852, -0.938119, -0.7950591, -0.6916267, -0.6256077, -0.6031197, -0.5448624, -0.5327615, -0.5249921, -0.5087218, -0.4715729, -0.4355477]","[-0.033856, 0.001394, -0.020666, 0.003241, -0.010996, -4.5e-05, 0.004999, 0.002674, 0.001155, -0.004469, 0.001482, 0.00223, 0.029842, 0.010952, 0.011794, -6.4e-05, -0.001471, 0.00908, 0.001027, 0.000309, -0.006531, -0.00123, 0.000678, -0.006496, -0.004897, 0.004434, 0.002227, 0.00548, 0.003111, 0.00218, -0.000153, -0.005987, 0.002626, 8e-05, -0.006581, 0.002447]",2.57,14.4
glyoxal_trans,-226.671504443021,5,0.0,"[-20.6073, -20.6073, -11.3694, -11.3688, -1.44045, -1.423874, -0.9660026, -0.817422, -0.7079934, -0.6984361, -0.6574699, -0.5938277, -0.5319727, -0.5253389, -0.4378551]","[0.023827, -0.027919, 0.0, -0.023827, 0.027919, -0.0, 0.027234, 0.001728, 0.0, -0.027234, -0.001728, 0.0, -0.059597, 0.032886, -0.0, 0.059597, -0.032886, 0.0]",0.65,4.1
ethanol,-154.139983228466,5,0.694344941816,"[-20.5472, -11.269, -11.2126, -1.348829, -1.011724, -0.8307632, -0.6893247, -0.6480045, -0.5691007, -0.5309727, -0.5261239, -0.4862866, -0.4401024]","[0.00627, -0.010729, 0.0, 0.020403, 0.012243, -0.0, 0.014245, -0.034354, 0.0, -0.020201, 0.026844, -0.0, 0.003916, 0.012606, -0.0, -0.006842, -0.001587, 0.003802, -0.006842, -0.001587, -0.003802, -0.005474, -0.001718, 0.00129, -0.005474, -0.001718, -0.00129]",1.5,6.9
nitrogen_monofluoride,-153.837191424491,5,0.133046,"[-26.3731, -15.73847, -1.716464, -1.137707, -0.7939663, -0.7939663, -0.7053208, -0.5403877, -0.5403877]","[0.0, -0.0, -0.021792, -0.0, 0.0, 0.021792]",0.1,0.7
vinyl_chloride,-537.000588035723,5,0.642966253488,"[-104.8394, -11.3033, -11.2462, -10.5647, -8.0316, -8.0297, -8.029712, -1.158312, -1.012708, -0.791623, -0.6624028, -0.6132213, -0.5317202, -0.5114401, -0.453535, -0.3695412]","[0.0, 0.013347, 0.02504, 0.0, 0.00011, -0.026771, -0.0, -0.001999, -0.003197, 0.0, -0.012323, 0.007866, -0.0, 0.005528, -0.001169, 0.0, -0.004663, -0.001768]",1.0,6.5
ammonia_oxide,-130.999986860047,5,2.161223,"[-20.4561, -15.70156, -1.371183, -1.078223, -0.7485329, -0.7485326, -0.5789778, -0.3784353, -0.3784353]","[0.0, -1.4e-05, 0.017708, 0.0, 1e-06, -0.00057, 0.0, 0.013331, -0.005716, 0.011525, -0.006659, -0.005711, -0.011525, -0.006659, -0.005711]",0.28,1.3
methylenecyclopropane,-154.940126041608,4,0.166294,"[-11.2439, -11.2375, -11.237, -11.2233, -1.152525, -0.9679088, -0.8376329, -0.7269016, -0.6443213, -0.6404926, -0.5873978, -0.5223293, -0.4414538, -0.422951, -0.3567654]","[0.0, -0.0, 0.017256, 0.0, 0.0, -0.039642, -0.0, -0.006229, 0.000919, 0.0, 0.006229, 0.000919, -0.0, 0.005047, 0.009715, -0.0, -0.005047, 0.009715, 0.007899, 0.007938, 0.00028, -0.007899, 0.007938, 0.00028, -0.007899, -0.007938, 0.00028, 0.007899, -0.007938, 0.00028]",1.45,7.0
oxygen_monofluoride,-174.192251065807,5,0.173304,"[-26.3848, -20.76359, -1.720035, -1.328265, -0.825824, -0.7784086, -0.7320654, -0.6401088, -0.5776386]","[-0.0, 0.0, -0.031208, 0.0, -0.0, 0.031208]",0.09,0.8
methylamine,-95.253177803048,4,0.521319002935,"[-15.5332, -11.23975, -1.165004, -0.8937101, -0.6592026, -0.6000025, -0.5551259, -0.5152007, -0.3871638]","[-0.000395, 0.000808, -0.0, 0.011451, 0.002472, 0.0, -0.005039, 0.003629, 0.0, 0.002709, 0.00198, 0.004037, 0.002709, 0.00198, -0.004037, -0.005717, -0.005435, -0.01084, -0.005717, -0.005435, 0.01084]",0.42,1.9
hydrogen_chloride,-460.106802703087,4,0.499648,"[-104.8459, -10.57192, -8.039012, -8.036829, -8.036829, -1.115361, -0.6234648, -0.4753814, -0.4753814]","[0.0, -0.0, -0.005883, -0.0, 0.0, 0.005883]",0.09,1.6
ethanethiol,-476.804513103723,4,0.679896272331,"[-91.9436, -11.261, -11.2275, -8.9466, -6.628, -6.6269, -6.6259, -1.070606, -0.943131, -0.8169158, -0.6306388, -0.6168077, -0.5402627, -0.5141501, -0.4979181, -0.4497108, -0.3538444]","[0.002136, -0.000946, 0.0, 0.007321, -0.000755, -0.0, 0.001017, -0.001347, 0.0, -0.006232, 0.005136, -0.0, 0.001853, -0.003783, 0.004982, 0.001853, -0.003783, -0.004982, -0.001194, 0.003627, 0.005886, -0.001194, 0.003627, -0.005886, -0.005561, -0.001776, -0.0]",2.07,8.6
acetamide,-208.054110875850,5,1.62241605248,"[-20.5163, -15.5832, -11.3539, -11.25, -1.375296, -1.200139, -0.9946628, -0.7883872, -0.7110539, -0.6585776, -0.6089555, -0.5820643, -0.5520383, -0.5195658, -0.4238338, -0.4127243]","[0.017984, 0.003069, 0.001796, -0.019924, -0.028441, -0.000831, -0.004649, 0.003105, -0.006285, 0.011428, 0.049824, 0.000481, -0.0194, 0.022958, -0.002319, -0.003188, -0.014706, -0.020804, -0.003828, -0.012842, 0.021672, 0.027391, 0.006864, 0.002438, -0.005815, -0.02983, 0.003851]",1.47,8.9
S,-397.509268925041,3,0.0,"[-92.0106, -9.01101, -6.703363, -6.703363, -6.682709, -0.9882226, -0.4853161, -0.4853161, -0.4143925]","[-0.0, -0.0, 0.0]",0.0,1.3
nitromethane,-243.755703555975,5,1.62057109382,"[-20.6051, -20.6016, -15.8508, -11.3121, -1.6048, -1.399774, -1.102975, -0.8683679, -0.7527833, -0.7360549, -0.7338081, -0.6244434, -0.6043558, -0.4945276, -0.493281, -0.454217]","[0.001957, 0.006276, -0.0, 0.052056, 0.001867, 0.0, 0.00232, -0.009294, 0.0, 0.002153, 0.001381, 0.007495, 0.002153, 0.001381, -0.007495, -0.030967, 0.059769, -0.0, -0.029672, -0.061381, 0.0]",1.17,5.5
hydrogen_sulfide,-398.712991509765,4,0.45483,"[-91.9611, -8.964875, -6.646157, -6.645366, -6.644042, -0.9830696, -0.5908575, -0.5006748, -0.3841326]","[0.0, -0.0, -0.002175, -0.0, -0.002884, 0.001088, -0.0, 0.002884, 0.001088]",0.13,1.5
monosodium_sulfide,-559.420733895086,25,3.572206,"[-8.864221, -6.559161, -6.541268, -6.540964, -2.816698, -1.539685, -1.539117, -1.538417, -0.8289007, -0.3622224, -0.3126435, -0.2955643]","[0.0, -0.0, 0.011434, -0.0, 0.0, -0.011434]",1.04,6.7
silicon_nitride,-343.301408334852,3,0.651438,"[-68.8096, -15.6279, -6.15678, -4.266227, -4.253322, -4.253322, -1.158297, -0.6633415, -0.5057294, -0.5057294, -0.4336645]","[0.0, 0.0, 0.008725, -0.0, -0.0, -0.008725]",0.39,3.8
hydrogen_cyanide,-92.907648198938,5,1.280531,"[-15.599, -11.29141, -1.234116, -0.8128593, -0.5811722, -0.4947383, -0.4947383]","[-0.0, -0.0, 0.077967, 0.0, -0.0, 0.005192, -0.0, 0.0, -0.083159]",0.22,0.9
Si,-288.856427502933,3,0.0,"[-68.8153, -6.159925, -4.267794, -4.267794, -4.257204, -0.6191581, -0.3005608, -0.3005608]","[0.0, 0.0, -0.0]",0.0,1.3
carbonyl_sulfide,-510.338818110270,4,0.282603,"[-91.9896, -20.6569, -11.437, -8.9942, -6.6758, -6.672916, -6.672916, -1.50337, -1.091347, -0.7774708, -0.6578682, -0.6578682, -0.6357138, -0.4202499, -0.4202499]","[-0.0, -0.0, -0.076863, -0.0, 0.0, 0.077128, 0.0, -0.0, -0.000265]",1.01,4.5
chlorine_trifluoride,-757.657559760079,5,0.281131,"[-105.1424, -26.4218, -26.3033, -26.3033, -10.8374, -8.3033, -8.3012, -8.2982, -1.7331, -1.5948, -1.5924, -1.182521, -0.8331549, -0.8140558, -0.812973, -0.7428655, -0.6953157, -0.6682456, -0.6423111, -0.6406861, -0.5497687, -0.5334324]","[-0.0, 0.0, 0.031893, 0.0, -0.0, -0.037822, -0.0, 0.021354, 0.002965, 0.0, -0.021354, 0.002965]",0.64,4.3
ethanol_radical,-153.514888361694,5,0.729523505064,"[-20.612, -11.2835, -11.2172, -1.397469, -1.00905, -0.8428524, -0.7101569, -0.6491613, -0.5967383, -0.5740155, -0.5365966, -0.4982785, -0.4578965]","[-0.011919, -0.011206, -0.0, -0.015261, 0.029226, 0.0, 0.008662, -0.020399, -0.0, 0.009183, 0.001428, 0.008381, 0.009183, 0.001428, -0.008381, 0.001594, 0.006006, 0.0, -0.000721, -0.003241, 0.00514, -0.000721, -0.003241, -0.00514]",0.71,6.2
Ne,-128.531861636294,1,0.0,"[-32.7691, -1.927083, -0.8454155, -0.8454155, -0.8454155]","[0.0, 0.0, -0.0]",0.0,0.2
phosphorus_trifluoride,-639.296460883361,5,0.242451000349,"[-80.1109, -26.3469, -26.3469, -26.3469, -7.6367, -5.5303, -5.5303, -5.5271, -1.7099, -1.6537, -1.6537, -0.9271622, -0.8064597, -0.8064595, -0.7788071, -0.7365533, -0.7365527, -0.6912841, -0.6912834, -0.6750337, -0.4414649]","[0.0, 5e-06, -0.039461, -0.0, -0.002649, 0.013155, -0.002288, 0.001322, 0.013153, 0.002288, 0.001322, 0.013153]",0.7,4.6
nitrogen_diatomic,-108.983489800388,4,0.0,"[-15.6816, -15.67807, -1.469686, -0.7774078, -0.6323532, -0.6120585, -0.6120585]","[0.0, 0.0, -0.102911, -0.0, -0.0, 0.102911]",0.05,0.6
acetone,-192.032130597212,5,1.334288,"[-20.5425, -11.3334, -11.2363, -11.2363, -1.374548, -1.042766, -0.9673679, -0.7410757, -0.642002, -0.6340342, -0.6223199, -0.5605015, -0.5599453, -0.5355476, -0.4827328, -0.4145028]","[-0.0, 0.0, 0.067586, 0.0, -0.0, -0.05739, -0.0, -0.005513, -0.001968, -0.0, 0.005513, -0.001968, 0.0, 0.005401, 0.005571, 0.0, -0.005401, 0.005571, -0.00539, 0.000849, -0.00435, 0.00539, 0.000849, -0.00435, 0.00539, -0.000849, -0.00435, -0.00539, -0.000849, -0.00435]",1.94,11.2
Na,-161.858035776691,3,0.0,"[-40.4801, -2.800655, -1.519129, -1.519129, -1.519129, -0.1822006]","[0.0, 0.0, -0.0]",0.0,1.9
glycine_zwitterion,-282.895958797258,5,4.34468429548,"[-20.4714, -20.4623, -15.7239, -11.3194, -11.3039, -1.367557, -1.329292, -1.256663, -0.9934971, -0.820433, -0.7959283, -0.7113933, -0.670838, -0.616544, -0.6017098, -0.5695883, -0.5190369, -0.3985508, -0.3764669, -0.3713276]","[-0.0134, -0.019508, -0.0, -0.002719, -0.000924, -0.0, 0.0378, -0.009246, 0.0, -0.017747, 0.036735, 0.0, -0.00851, 0.001774, -0.0, -0.003517, -0.000367, 0.005079, -0.003517, -0.000367, -0.005079, 0.009621, 0.00281, 0.01055, 0.009621, 0.00281, -0.01055, -0.00763, -0.013718, 0.0]",1.98,13.7
hexane,-235.451106265120,5,0.0,"[-11.2124, -11.2124, -11.2103, -11.2097, -11.2068, -11.2068, -1.087, -1.037771, -0.9615274, -0.871356, -0.7975059, -0.7847329, -0.6524409, -0.6106079, -0.5955234, -0.5775981, -0.553044, -0.5280719, -0.525173, -0.4991643, -0.4804757, -0.4666767, -0.4594626, -0.4581969, -0.4383999]","[-0.000508, -0.003489, 0.0, 0.000508, 0.003489, 0.0, 0.003331, -0.001889, 0.0, -0.003331, 0.001889, -0.0, 0.003133, -0.001852, 0.0, -0.003133, 0.001852, -0.0, -0.003328, -0.00144, -0.0, 0.003328, 0.00144, 0.0, -0.001899, 0.000565, 0.002815, -0.001899, 0.000565, -0.002815, 0.001899, -0.000565, -0.002815, 0.001899, -0.000565, 0.002815, 0.001403, -0.001809, -0.003223, 0.001403, -0.001809, 0.003223, -0.001403, 0.001809, -0.003223, -0.001403, 0.001809, 0.003223, -0.001939, 0.001296, 0.00355, -0.001939, 0.001296, -0.00355, 0.001939, -0.001296, -0.00355, 0.001939, -0.001296, 0.00355]",5.48,38.2
pyridine,-246.775339692045,5,0.899159,"[-15.5652, -11.2747, -11.2746, -11.2601, -11.242, -11.242, -1.252588, -1.08713, -1.030984, -0.8567749, -0.852889, -0.7184826, -0.6577207, -0.6516544, -0.5958361, -0.574618, -0.5385896, -0.5175379, -0.4184175, -0.3819431, -0.3465838]","[0.0, -0.0, 0.031352, -0.0, 0.0, -0.006674, -0.0, 0.016227, -0.007111, -0.0, -0.016227, -0.007111, -0.0, -0.00197, -0.001146, -0.0, 0.00197, -0.001146, 0.0, 0.0, -0.010011, 0.0, 0.008791, 0.006004, 0.0, -0.008791, 0.006004, 0.0, -0.008881, -0.005081, -0.0, 0.008881, -0.005081]",4.06,22.6
silane,-291.260568618254,4,0.0,"[-68.7752, -6.124773, -4.230752, -4.230752, -4.230752, -0.7311465, -0.4864738, -0.4864738, -0.4864738]","[0.0, -0.0, -0.0, 0.000433, 0.000433, 0.000433, -0.000433, -0.000433, 0.000433, -0.000433, 0.000433, -0.000433, 0.000433, -0.000433, -0.000433]",0.17,2.4
isobutylene,-156.167971484836,4,0.223873,"[-11.2384, -11.2196, -11.2196, -11.2081, -1.087788, -0.9407756, -0.9243936, -0.7175946, -0.6173625, -0.6089428, -0.5899163, -0.5368544, -0.5197848, -0.5139288, -0.4790369, -0.3450474]","[0.0, -0.0, 0.016822, -0.0, -0.0, -0.02577, 0.0, -0.007471, 0.002568, -0.0, 0.007471, 0.002568, -0.0, 0.006904, 0.004921, 0.0, -0.006904, 0.004921, -0.0, 0.006134, 0.004994, 0.005385, 0.000411, -0.004004, -0.005385, 0.000411, -0.004004, 0.0, -0.006134, 0.004994, -0.005385, -0.000411, -0.004004, 0.005385, -0.000411, -0.004004]",1.7,9.3
fluorine_diatomic,-198.752047434971,5,0.0,"[-26.4286, -26.42833, -1.764238, -1.497136, -0.8091774, -0.8091774, -0.7497653, -0.6646795, -0.6646795]","[0.0, -0.0, -0.070594, -0.0, 0.0, 0.070594]",0.04,0.5
ethylamine,-134.303460462478,5,0.545286441133,"[-15.5344, -11.2453, -11.2139, -1.173241, -0.9855706, -0.8278472, -0.6684648, -0.594474, -0.5672379, -0.5645387, -0.504112, -0.4810788, -0.3890765]","[-0.002709, 0.003414, 0.0, 0.004481, -0.007351, 0.0, -0.006783, 0.019573, 0.0, 0.006164, 0.00309, -0.0, -0.000706, -0.003382, 0.005138, -0.000706, -0.003382, -0.005138, -0.000388, 0.004129, -0.005885, -0.000388, 0.004129, 0.005885, 0.000518, -0.010111, 0.013525, 0.000518, -0.010111, -0.013525]",1.75,8.1
aluminum_diatomic,-483.772260702154,32,0.0,"[-58.5118, -4.921169, -4.921105, -3.231639, -3.231639, -3.231595, -3.231595, -3.228762, -3.228294, -0.5269725, -0.3489449, -0.2275869, -0.2275845]","[-0.0, -0.0, -0.010561, 0.0, 0.0, 0.010561]",0.31,5.5
methyl_nitrite,-243.753753249059,5,0.829442164219,"[-20.6456, -20.6396, -15.7864, -11.2974, -1.5761, -1.396798, -1.023093, -0.8766822, -0.7545779, -0.7180596, -0.6984089, -0.5956546, -0.5905819, -0.5510096, -0.4871237, -0.4616609]","[-0.006709, -0.005335, -0.0, -0.022866, 0.048935, 0.0, -0.033684, -0.108308, -0.0, -0.003691, 0.006354, 0.0, -0.00101, -0.00614, 0.006882, -0.00101, -0.00614, -0.006882, 0.068969, 0.070633, 0.0]",1.08,6.3
isobutane,-157.355712094819,4,0.0489850000102,"[-11.2225, -11.2081, -11.2081, -11.208, -1.081412, -0.925426, -0.925426, -0.7646297, -0.6310454, -0.5891766, -0.5891764, -0.5319203, -0.5319202, -0.508558, -0.461828, -0.461828, -0.4578092]","[-0.0, -0.0, -0.006687, 0.0, -0.0063, 0.001538, -0.005456, 0.003151, 0.001538, 0.005456, 0.003151, 0.001538, 0.0, 0.0, 0.007129, 0.0, -0.000785, -0.006454, -0.005786, 0.002992, 0.002384, 0.005786, 0.002992, 0.002384, -0.00068, 0.000392, -0.006454, 0.005484, 0.003515, 0.002384, -0.000302, -0.006508, 0.002384, 0.00068, 0.000392, -0.006454, 0.000302, -0.006508, 0.002384, -0.005484, 0.003515, 0.002384]",2.16,12.5
boron_trifluoride,-323.326280118780,5,4e-06,"[-26.3393, -26.3393, -26.3393, -7.775, -1.6879, -1.6446, -1.644564, -0.8582274, -0.8133647, -0.8133647, -0.7635752, -0.6997858, -0.6997855, -0.6864143, -0.6864138, -0.6618168]","[-0.0, 3e-06, -0.0, 0.0, 0.014611, -0.0, 0.012657, -0.007307, 0.0, -0.012657, -0.007307, 0.0]",0.37,2.0
nitrosyl_chloride,-588.766684258361,5,0.795241063811,"[-104.8322, -20.7561, -15.8533, -10.5562, -8.0225, -8.0207, -8.020639, -1.682012, -1.103695, -0.9676451, -0.7711099, -0.7625166, -0.7248563, -0.4569337, -0.4565435, -0.429533]","[-0.007193, -0.017978, 0.0, -0.090597, 0.001099, -0.0, 0.09779, 0.01688, 0.0]",0.85,3.9
silicon_monophosphide,-629.627868128370,9,0.345808,"[-79.6948, -68.5733, -7.2373, -5.9193, -5.1295, -5.129547, -5.129231, -4.0215, -4.0215, -4.020709, -0.5491878, -0.2932557, -0.1151635, -0.08627519, -0.08627519, -79.9514, -68.8143, -7.4958, -6.1602, -5.395923, -5.39222, -5.383795, -4.263933, -4.26094, -4.254826, -0.8450827, -0.5302571, -0.3895356, -0.3628997, -0.3457195]","[]",-1,1.5
pyrrole,-208.883602890416,5,0.750509,"[-15.6029, -11.2489, -11.2488, -11.2062, -11.2051, -1.288998, -1.040252, -0.9725518, -0.7934356, -0.7641481, -0.7340715, -0.5909998, -0.580676, -0.5652312, -0.5429956, -0.5262643, -0.345485, -0.2937031]","[0.0, -0.0, 0.007965, -0.0, -0.0, 0.007363, -0.0, 0.013255, 0.013949, 0.0, -0.013255, 0.013949, 0.0, -0.013192, -0.019703, -0.0, 0.013192, -0.019703, 0.0, 0.005969, 0.002449, -0.0, -0.005969, 0.002449, -0.0, 0.003294, -0.004359, -0.0, -0.003294, -0.004359]",3.15,17.6
aluminum_monoxide,-316.775407529451,3,0.84393,"[-58.4951, -20.57583, -4.90881, -3.225696, -3.216427, -3.216427, -1.310826, -0.6626218, -0.5211376, -0.5211376, -0.3531851]","[0.0, -0.0, 0.041633, -0.0, 0.0, -0.041633]",0.36,4.1
trifluoromethane,-336.905079869641,5,0.632251011771,"[-26.345, -26.345, -26.345, -11.5063, -1.735, -1.6438, -1.6437, -0.9896634, -0.8455574, -0.8287799, -0.8287732, -0.7134884, -0.7134803, -0.6731728, -0.6731629, -0.6560555, -0.5860167]","[-0.0, 3.3e-05, -0.019879, 0.0, 1e-06, 0.015611, -0.0, 0.028604, 0.001431, 0.024793, -0.014319, 0.001418, -0.024793, -0.014319, 0.001418]",0.5,3.1
silicon_monofluoride,-388.415120582411,4,0.383057,"[-68.8385, -26.29698, -6.181034, -4.290546, -4.280492, -4.280097, -1.599763, -0.7649215, -0.6869918, -0.6637197, -0.4991824, -0.2823501]","[0.0, -0.0, -0.003271, -0.0, 0.0, 0.003271]",0.34,2.0
ethyl_chloride,-538.199038929666,5,0.897920736677,"[-104.8162, -11.2919, -11.232, -10.5418, -8.0086, -8.0068, -8.0068, -1.136218, -1.000481, -0.8423749, -0.6507593, -0.6123983, -0.5605558, -0.528443, -0.5064088, -0.4299375, -0.4293166]","[0.004154, 0.000964, 0.000907, -0.002182, 0.004844, 0.000125, -0.002596, -0.009012, -0.001591, 0.003068, 0.002916, -2e-05, -0.00171, -0.003143, -0.004139, -0.001672, -0.003091, 0.004156, 0.001274, 0.003645, -0.004673, -0.000337, 0.002877, 0.005235]",1.21,7.9
bicyclo[1.1.0]butane,-154.922674130461,4,0.289908,"[-11.2413, -11.2412, -11.234, -11.2333, -1.212774, -0.926628, -0.7865205, -0.782973, -0.6911107, -0.5849185, -0.5821186, -0.5168925, -0.4611668, -0.4346034, -0.3487006]","[0.016817, 0.0, 0.00404, -0.016817, -0.0, 0.00404, 0.0, 0.010877, 0.000155, 0.0, -0.010877, 0.000155, 0.0, 0.009777, 0.009367, -0.0, -0.009777, 0.009367, -0.0, -0.00926, -0.010669, -0.0, 0.00926, -0.010669, 0.0013, 0.0, -0.002893, -0.0013, 0.0, -0.002893]",1.71,7.8
silyl_radical,-290.640242071561,4,0.028301,"[-68.7842, -6.134885, -4.247566, -4.237564, -4.237564, -0.7330932, -0.4947921, -0.4947921, -0.3394622]","[0.0, -0.0, -0.002593, 0.0, -0.004145, 0.000864, -0.00359, 0.002073, 0.000864, 0.00359, 0.002073, 0.000864]",0.15,2.1
Ar,-526.813133800030,1,0.0,"[-118.6093, -12.32099, -9.569923, -9.569923, -9.569923, -1.276498, -0.5901366, -0.5901366, -0.5901366]","[0.0, 0.0, -0.0]",0.0,0.7
Br,-2572.445085435168,4,0.0,"[-490.0593, -65.1981, -58.5583, -58.551, -58.551, -9.8739, -7.4973, -7.473923, -7.473923, -3.23192, -3.226388, -3.226388, -3.210014, -3.210014, -1.047377, -0.5232575, -0.4536809, -0.4536809]","[-0.0, -0.0, -0.0]",0.0,12.6
cyclopentane,-195.229161111645,5,0.00664228281542,"[-11.2105, -11.2101, -11.2101, -11.2095, -11.2093, -1.116644, -0.9565976, -0.9560309, -0.777165, -0.7672846, -0.649832, -0.6448497, -0.5699077, -0.5680267, -0.4754188, -0.4745104, -0.4633526, -0.4606925, -0.4589304, -0.4488938]","[-0.00215, 0.002712, -0.000777, 5e-06, -0.00373, -0.00053, 0.003987, -0.001085, -7.1e-05, 0.001905, 0.003067, 0.000629, -0.003214, -0.001194, 0.000778, 0.000654, 0.000425, 0.004049, -0.000362, 0.003134, -0.002595, -0.001991, 0.000976, -0.003428, -0.001885, 3.3e-05, 0.00361, 0.000511, -0.000404, -0.004119, -0.002002, -0.002627, 0.002413, 0.002279, -0.002971, -0.001801, -0.000436, 0.000968, 0.004003, -0.000708, -0.000671, -0.004041, 0.003409, 0.001366, 0.00188]",3.68,24.1
dimethyl_sulfoxide,-551.647325356617,5,1.7770891919,"[-92.0636, -20.4934, -11.2575, -11.2575, -9.0515, -6.7333, -6.7332, -6.7317, -1.336371, -1.065722, -0.9796858, -0.8148336, -0.6527332, -0.6240876, -0.6200793, -0.5867098, -0.5611603, -0.5501233, -0.5126717, -0.4162514, -0.3630946]","[0.0, -0.008984, 0.006813, 0.0, 0.013597, -0.00708, 0.019061, 0.017718, 0.006334, -0.019061, 0.017718, 0.006334, -0.016367, -0.012592, 0.000825, 0.016367, -0.012592, 0.000825, 0.003389, -0.005094, 0.003986, -0.006197, -0.002339, -0.011012, -0.003389, -0.005094, 0.003986, 0.006197, -0.002339, -0.011012]",2.63,16.2
trifluoroacetic_acid,-524.578686802239,5,0.726285689063,"[-26.3678, -26.3677, -26.3624, -20.6434, -20.5968, -11.5428, -11.4331, -1.7644, -1.6691, -1.6651, -1.5068, -1.405538, -1.049483, -0.9223247, -0.8578544, -0.8570599, -0.8149777, -0.741818, -0.7396645, -0.7339008, -0.6963255, -0.6935678, -0.6864855, -0.6749372, -0.6555397, -0.6144807, -0.5223917, -0.5004974]","[0.008697, -0.004405, -0.0, 0.007251, 0.049125, -0.0, 0.028032, -0.013275, -0.0, -0.035442, -0.030151, -0.0, -0.026467, 0.011554, -0.0, 0.011742, 0.000559, 0.01995, 0.011742, 0.000559, -0.01995, -0.005556, -0.013966, 0.0]",2.09,13.6
nitric_oxide,-129.296644346417,5,0.10197,"[-20.6979, -15.73228, -1.611655, -0.9683956, -0.7878975, -0.6977354, -0.6442157, -0.4252674]","[0.0, 0.0, -0.075863, -0.0, -0.0, 0.075863]",0.12,1.0
hydrazine,-111.216957628192,5,1.113883,"[-15.57, -15.56958, -1.260471, -1.009102, -0.6850791, -0.6505004, -0.5872705, -0.454305, -0.3909512]","[-0.004841, 0.002305, -0.022941, 0.004841, -0.002305, -0.022941, -0.003036, -0.004668, 0.012261, 0.003036, 0.004668, 0.012261, 0.012345, 0.00388, 0.01068, -0.012345, -0.00388, 0.01068]",0.25,1.6
aluminum_carbide,-279.666018661097,2,0.352865,"[-58.5035, -11.26855, -4.914036, -3.225568, -3.22305, -3.22305, -0.8838234, -0.4971159, -0.4022759, -0.4022759, -0.313651]","[0.0, 0.0, 0.00542, -0.0, -0.0, -0.00542]",0.34,2.8
sulfur_monoxide,-472.403209093487,5,0.739497,"[-92.0622, -20.64921, -9.058406, -6.746792, -6.746792, -6.733151, -1.460252, -0.9489924, -0.6788478, -0.6788478, -0.640523, -0.4248081, -0.4248081]","[-0.0, -0.0, -0.037248, 0.0, 0.0, 0.037248]",0.37,2.4
hydroxymethyl_radical,-114.461996088722,4,0.622916003687,"[-20.5825, -11.27895, -1.391723, -0.9205256, -0.7123323, -0.6229057, -0.6037366, -0.5209221, -0.345993]","[0.007885, 0.005066, -0.005165, -0.001875, -0.035149, 0.005948, -0.011316, 0.029868, -0.004363, 0.00364, 0.005963, 0.001961, 0.001666, -0.005748, 0.001619]",0.3,1.8
dimethyl_sulfide,-476.801940124860,4,0.667523,"[-91.9413, -11.2497, -11.2497, -8.9426, -6.624, -6.623, -6.622, -1.060605, -0.9494334, -0.8058773, -0.6024317, -0.6004975, -0.57548, -0.5619044, -0.492277, -0.4347748, -0.3348009]","[0.0, -0.009206, 0.003433, -0.0, 0.009206, 0.003433, 0.0, -0.0, 0.004287, -0.0, 0.006167, 0.003712, 0.00587, 0.00042, -0.004644, -0.00587, 0.00042, -0.004644, -0.0, -0.006167, 0.003712, -0.00587, -0.00042, -0.004644, 0.00587, -0.00042, -0.004644]",1.87,7.4
Mg,-199.613347413693,1,0.0,"[-49.0318, -3.767703, -2.282076, -2.282076, -2.282076, -0.2530472]","[-0.0, -0.0, 0.0]",0.0,0.9
beryllium_monochloride,-474.191815134128,5,0.406344,"[-104.8239, -10.55174, -8.018742, -8.016838, -8.016838, -4.75304, -1.086535, -0.5531371, -0.4730532, -0.4730532, -0.335474]","[-0.0, -0.0, 0.006561, 0.0, 0.0, -0.006561]",0.44,2.4
n_propyl_chloride,-577.243072612904,5,0.924713843359,"[-104.8161, -11.2969, -11.2433, -11.2349, -10.5414, -8.0082, -8.0065, -8.0065, -1.134378, -1.041325, -0.9053521, -0.810135, -0.6561254, -0.5989169, -0.5783358, -0.568825, -0.5072691, -0.4955617, -0.4895078, -0.4278854, -0.4265237]","[0.000358, -0.001005, 0.0, 0.008498, -0.018061, 0.0, -0.0081, 0.014284, 0.0, 0.017957, -0.002563, -0.0, -0.003394, 0.012535, 0.018621, -0.003394, 0.012535, -0.018621, 0.003424, -0.010557, 0.015669, 0.003424, -0.010557, -0.015669, -0.003944, 0.009876, 0.015057, -0.003944, 0.009876, -0.015057, -0.010884, -0.016362, -0.0]",2.63,15.0
chloroform,-1416.998661212246,4,0.527742000095,"[-104.8623, -104.8623, -104.8623, -11.4344, -10.5877, -10.5877, -10.5877, -8.0544, -8.0544, -8.0544, -8.0523, -8.0523, -8.0523, -8.0523, -8.0523, -8.0523, -1.244441, -1.11165, -1.111649, -0.8783297, -0.6862337, -0.624148, -0.6241478, -0.5042564, -0.5042559, -0.4724023, -0.4622217, -0.4622214, -0.4466362]","[-0.0, -2e-06, 0.020297, 0.0, -0.0, 0.002965, -0.0, -0.002797, -0.007755, -0.002426, 0.001399, -0.007754, 0.002426, 0.001399, -0.007754]",2.15,12.7
phosphorus_monosulfide,-738.291009208060,3,0.308012,"[-91.9777, -80.0006, -8.9804, -7.5424, -6.6638, -6.660785, -6.651031, -5.443, -5.438092, -5.430279, -1.010663, -0.7223449, -0.4820056, -0.4661182, -0.4153847, -0.3143281]","[-0.0, -0.0, 0.011926, 0.0, 0.0, -0.011926]",0.99,8.1
cyclopropane,-117.101113207060,4,1.5e-05,"[-11.2225, -11.2214, -11.22144, -1.132635, -0.8168718, -0.8168626, -0.6676835, -0.6271325, -0.5109907, -0.5109802, -0.4195483, -0.4195405]","[-0.0, -0.001822, -0.0, -0.001565, 0.000896, 0.0, 0.001565, 0.000896, -0.0, 0.0, 0.003412, 0.006262, 0.002949, -0.001699, 0.006255, -0.002949, -0.001699, 0.006255, 0.0, 0.003412, -0.006262, 0.002949, -0.001699, -0.006255, -0.002949, -0.001699, -0.006255]",0.91,4.3
formyl_radical,-113.288238909878,5,0.861955972857,"[-20.6201, -11.35529, -1.447453, -0.8707247, -0.7114716, -0.6435582, -0.5662271, -0.4064785]","[0.048027, -0.090064, -0.0, -0.015289, 0.011373, 0.0, -0.032738, 0.078691, 0.0]",0.21,1.4
spiropentane,-193.983387041383,5,0.0,"[-11.2335, -11.2227, -11.2226, -11.2221, -11.2221, -1.171232, -1.059649, -0.8243452, -0.8243452, -0.7389176, -0.6514786, -0.6392853, -0.6392853, -0.5231785, -0.5074564, -0.4839874, -0.4120293, -0.4120293, -0.3858287]","[-0.0, -0.0, -0.0, -0.0, 0.004448, 0.001287, -0.0, -0.004448, 0.001287, -0.004448, -0.0, -0.001287, 0.004448, -0.0, -0.001287, 0.004588, 0.001127, 0.000712, -0.004588, 0.001127, 0.000712, -0.004588, -0.001127, 0.000712, 0.004588, -0.001127, 0.000712, -0.001127, -0.004588, -0.000712, -0.001127, 0.004588, -0.000712, 0.001127, 0.004588, -0.000712, 0.001127, -0.004588, -0.000712]",3.03,18.3
acetonitrile,-131.810793181757,5,1.91691481979,"[-15.5683, -11.29199, -11.28211, -1.22078, -1.117743, -0.7736156, -0.6610728, -0.5603488, -0.517715, -0.464503, -0.4071066]","[-0.011025, 0.006341, -0.009142, -0.010514, 0.00607, -0.066518, 0.003901, -0.002252, 0.074609, 0.048979, 0.004603, 0.013927, 0.020524, -0.044705, 0.013918, -0.051865, 0.029944, -0.026794]",0.54,3.2
P,-340.716305882979,3,0.0,"[-79.9784, -7.520777, -5.4195, -5.4195, -5.4195, -0.8353736, -0.3913574, -0.3913574, -0.3913574]","[0.0, -0.0, 0.0]",0.0,1.3
disilane,-581.369849859672,4,0.0,"[-68.7676, -68.7676, -6.1191, -6.1189, -4.2252, -4.2249, -4.2249, -4.224786, -4.224786, -4.224438, -0.7617627, -0.6805076, -0.5038629, -0.5038515, -0.4754905, -0.4754782, -0.4018566]","[-0.0, 2.5e-05, -0.002852, 0.0, -2.5e-05, 0.002852, -0.0, -0.003505, -0.003232, 0.003015, 0.00174, -0.003223, -0.003015, 0.00174, -0.003223, 0.0, 0.003505, 0.003232, 0.003015, -0.00174, 0.003223, -0.003015, -0.00174, 0.003223]",0.86,10.7
methylene_chloride,-958.077687577793,5,0.746985,"[-104.8464, -104.8464, -11.3626, -10.5716, -10.5716, -8.0384, -8.0384, -8.0365, -8.0365, -8.0364, -8.0364, -1.192158, -1.094437, -0.9001887, -0.6817937, -0.6162357, -0.5829731, -0.4724191, -0.4708279, -0.4466967, -0.4456828]","[0.0, -0.0, 0.007023, 0.00248, 0.0, -0.001654, -0.00248, 0.0, -0.001654, 0.0, 0.000635, -0.001858, -0.0, -0.000635, -0.001858]",1.36,9.9
methlidyne_radical,-38.280971334054,4,0.619421,"[-11.3259, -0.8740277, -0.4699693, -0.4240696]","[-0.0, 0.0, -0.016726, 0.0, -0.0, 0.016726]",0.02,0.3
trifluoro_acetonitrile,-428.638871584891,5,0.599249000013,"[-26.3879, -26.3879, -26.3879, -15.634, -11.5868, -11.324, -1.7843, -1.6881, -1.6881, -1.270737, -1.063589, -0.9189185, -0.8774309, -0.8774308, -0.7568495, -0.7568495, -0.7135488, -0.7135487, -0.6959347, -0.6894618, -0.605359, -0.5253153, -0.5253153]","[0.0, 1e-06, 0.008865, -0.0, 0.0, -0.07826, 0.0, -0.0, 0.081693, 0.0, 0.031086, -0.004099, 0.026924, -0.015544, -0.0041, -0.026924, -0.015544, -0.0041]",1.2,6.7
acetyl_radical,-152.353945690887,5,1.18279298293,"[-20.5938, -11.34503, -11.26488, -1.428557, -1.036748, -0.7758776, -0.6706107, -0.648741, -0.619335, -0.5642904, -0.5277632, -0.3707556]","[0.005939, 0.000543, -0.0, -0.075265, 0.013988, 0.0, 0.00241, -0.008069, 0.0, -0.0039, 0.000605, 0.005348, -0.0039, 0.000605, -0.005348, 0.074716, -0.007672, -0.0]",0.5,4.8
silylene_t,-290.022891776489,4,0.050131,"[-68.8039, -6.152676, -4.264798, -4.260688, -4.252013, -0.7236301, -0.5065158, -0.3892216, -0.3075011]","[0.0, -0.0, 0.01042, -0.0, 0.011278, -0.00521, -0.0, -0.011278, -0.00521]",0.11,1.9
oxygen_water,-152.120442664367,4,1.01776707321,"[-20.5851, -20.52221, -1.374716, -1.311742, -0.738815, -0.6867492, -0.6078632, -0.5525731, -0.5241048, -0.4744153]","[0.018828, -0.018334, -0.004043, 0.010031, 0.02267, 0.011147, -0.007978, 0.00588, 0.017559, -0.008154, 0.012874, -0.013376, -0.02451, -0.008585, -0.002468, 0.011783, -0.014505, -0.008819]",0.14,1.2
chlorine_monofluoride,-558.900939782938,5,0.476775,"[-104.936, -26.3535, -10.6537, -8.121069, -8.116977, -8.116977, -1.637589, -1.104262, -0.7230475, -0.7230475, -0.6972945, -0.4915062, -0.4915062]","[0.0, -0.0, -0.025722, -0.0, 0.0, 0.025722]",0.32,1.9
sodium_hydride,-162.390744089625,4,2.755855,"[-40.4655, -2.787834, -1.509714, -1.509714, -1.507892, -0.2736179]","[-0.0, 0.0, 0.003197, 0.0, -0.0, -0.003197]",0.08,2.3
nitrogen_tribromide,-7771.720817342528,6,0.305986,"[-490.0679, -490.0679, -490.0679, -65.2072, -65.2072, -65.2072, -58.563, -58.563, -58.563, -58.5607, -58.5607, -58.5607, -58.5606, -58.5606, -58.5606, -15.7331, -9.8803, -9.8803, -9.8803, -7.4937, -7.4937, -7.4937, -7.4835, -7.4835, -7.4835, -7.4833, -7.4833, -7.4833, -3.2384, -3.2384, -3.2384, -3.2333, -3.2333, -3.2333, -3.2332, -3.2332, -3.2332, -3.2199, -3.2199, -3.2199, -3.2199, -3.2199, -3.2199, -1.249476, -1.033414, -1.033414, -0.8938368, -0.5975418, -0.5975418, -0.5878226, -0.4682878, -0.4682878, -0.4263508, -0.4263507, -0.4137544, -0.3991223]","[-0.0, -0.0, 0.028897, -0.0, 0.011358, -0.009632, 0.009836, -0.005679, -0.009632, -0.009836, -0.005679, -0.009632]",9.63,89.7
phosphorus_pentafluoride,-838.307673447649,5,1.5e-05,"[-80.2607, -26.3786, -26.3786, -26.3786, -26.3286, -26.3286, -7.7627, -5.6637, -5.6637, -5.6611, -1.7598, -1.6941, -1.6941, -1.6511, -1.6177, -0.97358, -0.8585873, -0.8585861, -0.8505868, -0.7984364, -0.798434, -0.7581966, -0.7581945, -0.7189329, -0.7107486, -0.6936391, -0.6815776, -0.6815772, -0.6576744, -0.6576738]","[0.0, 8e-06, 0.0, 0.0, 0.01689, 0.0, 0.014638, -0.00845, 0.0, -0.014638, -0.00845, 0.0, -0.0, 1e-06, 0.016987, -0.0, 1e-06, -0.016987]",1.24,8.6
aminyl_radical,-55.586018635983,4,0.756274,"[-15.5893, -1.161605, -0.6433424, -0.5120402, -0.5031933]","[0.0, 0.0, -0.015756, -0.0, 0.008603, 0.007878, -0.0, -0.008603, 0.007878]",0.04,0.4
allene,-115.905171407522,5,0.0,"[-11.2623, -11.23691, -11.2368, -1.072363, -0.9568605, -0.7131923, -0.6261741, -0.6067789, -0.6067789, -0.377432, -0.377432]","[0.0, -0.0, -0.0, -0.0, 0.0, 0.012219, -0.0, 0.0, -0.012219, 0.0, 0.008199, 0.005237, 0.0, -0.008199, 0.005237, 0.008199, -0.0, -0.005237, -0.008199, -0.0, -0.005237]",0.51,2.9
methane,-40.213401471270,4,0.0,"[-11.2058, -0.9436457, -0.5452958, -0.5452958, -0.5452958]","[0.0, 0.0, -0.0, 0.002006, 0.002006, 0.002006, 0.002006, -0.002006, -0.002006, -0.002006, 0.002006, -0.002006, -0.002006, -0.002006, 0.002006]",0.07,0.6
carbon_monosulfide,-435.352688946956,4,0.613147,"[-91.999, -11.35401, -9.006256, -6.686303, -6.685253, -6.685253, -1.100199, -0.6911144, -0.4694067, -0.4619528, -0.4619528]","[0.0, -0.0, -0.023184, -0.0, 0.0, 0.023184]",0.41,2.0
sulfur_hexafluoride,-994.300526884729,5,0.0,"[-92.4539, -26.3796, -26.3796, -26.3795, -26.3795, -26.3795, -26.3795, -9.3858, -7.0744, -7.0744, -7.0744, -1.8373, -1.7082, -1.7082, -1.7082, -1.6533, -1.6533, -1.09284, -0.9194878, -0.9194878, -0.9194878, -0.8283045, -0.8283045, -0.8283045, -0.7337733, -0.7337733, -0.725234, -0.725234, -0.725234, -0.7128902, -0.7128902, -0.7128902, -0.6749227, -0.6749227, -0.6749227]","[-0.0, -0.0, 0.0, -0.0, -0.0, 0.024588, -0.0, 0.024588, -0.0, 0.024588, -0.0, -0.0, -0.0, -0.024588, -0.0, -0.024588, 0.0, -0.0, -0.0, 0.0, -0.024588]",1.81,11.6
nonane,-352.594298238917,10,0.032487,"[-11.2121, -11.2121, -11.2101, -11.2099, -11.2096, -11.2093, -11.209, -11.2066, -11.2066, -1.094861, -1.070407, -1.030136, -0.9764551, -0.913291, -0.8477595, -0.7972535, -0.78548, -0.7810194, -0.6594103, -0.6377524, -0.6040068, -0.5940118, -0.5871493, -0.5629618, -0.5533052, -0.551846, -0.5215316, -0.5145826, -0.4874423, -0.4869737, -0.4788252, -0.4662367, -0.4642295, -0.4578482, -0.4573334, -0.4554587, -0.4235579]","[0.0, -0.0, -0.003649, -0.0, 7e-05, 0.003643, -0.0, -7e-05, 0.003643, -0.0, 0.00045, -0.003788, -0.0, -0.00045, -0.003788, 0.0, -0.000105, 0.003598, -0.0, 0.000105, 0.003598, -0.0, -0.00306, -0.001606, -0.0, 0.00306, -0.001606, 0.003599, 0.0, 0.002366, -0.003599, 0.0, 0.002366, 0.00358, -1e-05, -0.00235, -0.00358, -1e-05, -0.00235, -0.00358, 1e-05, -0.00235, 0.00358, 1e-05, -0.00235, 0.003565, -5.3e-05, 0.002379, -0.003565, -5.3e-05, 0.002379, -0.003565, 5.3e-05, 0.002379, 0.003565, 5.3e-05, 0.002379, -0.003252, -0.000754, -0.002191, 0.003252, -0.000754, -0.002191, 0.003252, 0.000754, -0.002191, -0.003252, 0.000754, -0.002191, 0.0, 0.003051, -0.001945, -0.002824, -0.000599, 0.00194, 0.002824, -0.000599, 0.00194, 0.0, -0.003051, -0.001945, 0.002824, 0.000599, 0.00194, -0.002824, 0.000599, 0.00194]",13.55,166.7
furan,-228.706347725602,5,0.306422,"[-20.6224, -11.2867, -11.2866, -11.2295, -11.2285, -1.456148, -1.081924, -1.001379, -0.8041804, -0.7813643, -0.7381229, -0.6316058, -0.60845, -0.5761663, -0.5638167, -0.5368724, -0.3965485, -0.3181202]","[0.0, -0.0, 0.029385, -0.0, 0.015057, 0.010374, -0.0, -0.015057, 0.010374, 0.0, -0.009131, -0.022205, 0.0, 0.009131, -0.022205, 0.0, 0.006351, 0.004183, 0.0, -0.006351, 0.004183, -0.0, 0.000967, -0.007045, -0.0, -0.000967, -0.007045]",2.62,13.0
methanol_radical,-114.466179353061,5,0.755193935443,"[-20.6157, -11.28146, -1.397433, -0.9227173, -0.7020326, -0.6498469, -0.6194909, -0.5210914, -0.4792419]","[-0.006701, 0.001497, 0.0, 0.002618, 0.007933, -0.0, 0.008188, -0.000846, -0.0, -0.002053, -0.004292, 0.006758, -0.002053, -0.004292, -0.006758]",0.28,1.9
sodium_lithium,-169.292542007918,3,0.260421,"[-40.4626, -2.782785, -2.457143, -1.503817, -1.503462, -1.503462, -0.1734404]","[-0.0, -0.0, 0.00286, 0.0, 0.0, -0.00286]",0.36,2.2
O,-74.811756619541,4,0.0,"[-20.7035, -1.414322, -0.7060484, -0.7060484, -0.6070414]","[-0.0, -0.0, -0.0]",0.0,0.5
ethylene_oxide,-152.926070640256,5,0.867392,"[-20.567, -11.2834, -11.28262, -1.411435, -0.9329807, -0.8610695, -0.7069995, -0.6592942, -0.5460539, -0.5436994, -0.4507053, -0.4503778]","[-0.0, -0.0, 0.027915, 0.0, 0.010478, -0.011228, 0.0, -0.010478, -0.011228, -0.006905, 0.001598, -0.001365, 0.006905, 0.001598, -0.001365, 0.006905, -0.001598, -0.001365, -0.006905, -0.001598, -0.001365]",0.64,4.1
chlorine_diatomic,-918.998769141638,4,0.0,"[-104.898, -104.898, -10.6194, -10.6193, -8.0865, -8.0862, -8.0833, -8.083305, -8.083296, -8.083296, -1.218787, -1.014129, -0.5965274, -0.5692992, -0.5692992, -0.4429335, -0.4429335]","[-0.0, 0.0, -0.001729, 0.0, -0.0, 0.001729]",0.35,2.4
aziridine,-133.088142953394,5,0.722920249457,"[-15.5548, -11.2548, -11.25361, -1.252987, -0.894068, -0.8377137, -0.6954914, -0.6357855, -0.5299628, -0.4821786, -0.474658, -0.3892776]","[-0.001949, 0.015215, -0.00964, -0.009846, -0.008453, -0.001491, 0.009656, -0.00863, -0.005272, 0.001561, 0.008208, 0.014437, -0.003931, 0.007347, 0.005746, 7e-05, -0.010508, -0.004431, 0.003506, -0.001455, -0.006623, 0.000933, -0.001724, 0.007273]",0.85,4.9
methoxyethane,-193.178708874473,5,0.5351815536,"[-20.5507, -11.2718, -11.2673, -11.2115, -1.3681, -1.022529, -0.9113965, -0.8288828, -0.6664989, -0.6500575, -0.6225056, -0.5802717, -0.5337005, -0.5033635, -0.5003015, -0.4761273, -0.4202112]","[-0.025327, -0.015171, 0.0, -0.001164, 0.009648, -0.0, 0.010584, 0.001678, -0.0, 0.004065, -0.002901, 0.0, 0.004414, 0.003943, 0.006769, 0.004414, 0.003943, -0.006769, -0.0022, -0.007189, 0.0, 0.004952, 0.002397, -0.006376, 0.004952, 0.002397, 0.006376, -0.002348, -0.002579, -0.005314, -0.002348, -0.002579, 0.005314, 7e-06, 0.006412, -0.0]",2.42,12.5
ethane,-79.259753966012,4,0.0,"[-11.212, -11.21145, -1.015674, -0.8412914, -0.5962176, -0.5962163, -0.5055371, -0.4877929, -0.487792]","[2e-05, 0.0, 0.002555, -2e-05, -0.0, -0.002555, -0.004895, 0.0, 0.001224, 0.002438, 0.004212, 0.001217, 0.002438, -0.004212, 0.001217, 0.004895, -0.0, -0.001224, -0.002438, -0.004212, -0.001217, -0.002438, 0.004212, -0.001217]",0.39,2.0
carbon_tetrabromide,-10327.678432327726,6,0.0,"[-490.0557, -490.0557, -490.0557, -490.0557, -65.1958, -65.1958, -65.1958, -65.1958, -58.5512, -58.5512, -58.5512, -58.5512, -58.5494, -58.5494, -58.5494, -58.5494, -58.5494, -58.5494, -58.5494, -58.5494, -11.471, -9.8695, -9.8695, -9.8695, -9.8695, -7.4818, -7.4818, -7.4818, -7.4818, -7.4735, -7.4735, -7.4735, -7.4735, -7.4735, -7.4735, -7.4735, -7.4735, -3.226, -3.2259, -3.2259, -3.2259, -3.2216, -3.2216, -3.2216, -3.2216, -3.2216, -3.2216, -3.2216, -3.2216, -3.2109, -3.2109, -3.2109, -3.2109, -3.2109, -3.2109, -3.2109, -3.2109, -1.180803, -1.034462, -1.034462, -1.034462, -0.7950871, -0.5966223, -0.5966223, -0.5966223, -0.4786908, -0.4786908, -0.4386697, -0.4386697, -0.4386697, -0.4134088, -0.4134088, -0.4134088]","[0.0, 0.0, 0.0, 0.002124, 0.002124, 0.002124, -0.002124, -0.002124, 0.002124, -0.002124, 0.002124, -0.002124, 0.002124, -0.002124, -0.002124]",18.04,133.0
beryllium_diatomic,-29.133925290947,3,0.0,"[-4.7314, -4.731355, -0.3949859, -0.2431887]","[-0.0, -0.0, 0.012408, 0.0, 0.0, -0.012408]",0.03,0.5
tetrachloroethylene,-1913.779788433573,5,0.0,"[-104.8762, -104.8762, -104.8762, -104.8762, -11.39, -11.3885, -10.601, -10.601, -10.601, -10.601, -8.0679, -8.0679, -8.0679, -8.0679, -8.0657, -8.0657, -8.0657, -8.0657, -8.0656, -8.0656, -8.0656, -8.0656, -1.26548, -1.1951, -1.142288, -1.115948, -0.9814427, -0.7525247, -0.6797411, -0.6659913, -0.617225, -0.5779522, -0.5347922, -0.5105575, -0.502929, -0.4991238, -0.4911364, -0.4841049, -0.450481, -0.3622423]","[-0.0, -0.0, 0.039722, 0.0, 0.0, -0.039722, 0.0, 0.001253, -0.000801, -0.0, -0.001253, -0.000801, -0.0, -0.001253, 0.000801, -0.0, 0.001253, 0.000801]",3.43,28.8
silicon_monoxide,-363.838919819602,4,1.402505,"[-68.8193, -20.52872, -6.167877, -4.269111, -4.269111, -4.26876, -1.260832, -0.6077013, -0.4714557, -0.4714557, -0.435139]","[-0.0, 0.0, -0.033844, 0.0, -0.0, 0.033844]",0.38,2.1
trimethylamine,-173.330932620846,5,0.294949026406,"[-15.5427, -11.2411, -11.2411, -11.2411, -1.224615, -0.9458207, -0.9458001, -0.803628, -0.6424468, -0.6254366, -0.6254311, -0.5432389, -0.5432289, -0.5103116, -0.4978489, -0.4978412, -0.3533672]","[-4.1e-05, 4.3e-05, -0.002664, 0.006184, 0.00626, 0.014222, -0.008444, 0.002259, 0.014225, 0.002277, -0.008575, 0.014233, 0.00166, 0.001658, -0.003345, -0.002266, 0.000608, -0.003344, 0.00061, -0.00227, -0.003348, -0.015964, 0.005086, -0.004988, 0.005093, -0.015997, -0.005, 0.003585, -0.016375, -0.004989, 0.011293, 0.012401, -0.004993, 0.012423, 0.011318, -0.005006, -0.016409, 0.003585, -0.005004]",2.95,16.8
carbonyl_fluoride,-311.736949249693,5,0.479918,"[-26.3899, -26.3899, -20.6169, -11.5316, -1.7603, -1.684, -1.474377, -0.955971, -0.8634274, -0.8156062, -0.8034562, -0.7252962, -0.703438, -0.7021085, -0.5736189, -0.5554279]","[-0.0, 0.0, 0.057019, -0.0, -0.0, -0.016133, -0.0, 0.027985, -0.020443, 0.0, -0.027985, -0.020443]",0.58,2.6
phosphorus_mononitride,-395.175333271782,4,1.231857,"[-79.992, -15.61328, -7.538848, -5.429942, -5.429942, -5.429891, -1.13588, -0.6633841, -0.4835712, -0.4413377, -0.4413377]","[0.0, 0.0, -0.05957, -0.0, -0.0, 0.05957]",0.41,2.1
carbon_tetrachloride,-1875.914049043916,5,0.0,"[-104.8758, -104.8758, -104.8758, -104.8758, -11.4977, -10.6011, -10.6011, -10.6011, -10.601, -8.0678, -8.0678, -8.0678, -8.0678, -8.0655, -8.0655, -8.0655, -8.0655, -8.0655, -8.0655, -8.0655, -8.0655, -1.282952, -1.127636, -1.127636, -1.127636, -0.8330315, -0.6580196, -0.6580196, -0.6580196, -0.5315636, -0.5315636, -0.4881152, -0.4881152, -0.4881152, -0.4595096, -0.4595096, -0.4595096]","[-0.0, -0.0, 0.0, 0.000987, 0.000987, 0.000987, -0.000987, -0.000987, 0.000987, -0.000987, 0.000987, -0.000987, 0.000987, -0.000987, -0.000987]",2.76,14.0
acrylonitrile,-169.820475284496,5,1.74005219607,"[-15.5835, -11.2952, -11.2882, -11.2853, -1.212055, -1.09857, -0.8869939, -0.7294509, -0.6607234, -0.5882142, -0.5541503, -0.5140287, -0.462607, -0.3948116]","[-0.010601, -0.017139, 0.0, 0.005081, 0.02909, -0.0, 0.052179, -0.120943, -0.0, -0.008683, -6.1e-05, -0.0, 0.003171, -0.007933, -0.0, 0.010017, -0.001387, 0.0, -0.051163, 0.118373, 0.0]",0.91,5.6
Be,-14.572873468244,1,0.0,"[-4.7326, -0.3092544]","[-0.0, -0.0, 0.0]",0.0,0.3
Li,-7.432702051223,3,0.0,"[-2.4866, -0.1963524]","[-0.0, -0.0, 0.0]",0.0,0.3
sodium_hydroxide,-237.334671364872,4,2.666921,"[-40.4515, -20.3828, -2.775593, -1.49899, -1.49899, -1.498824, -1.1257, -0.4940223, -0.3317836, -0.3317836]","[-0.0, -0.0, 0.008034, 0.0, 0.0, 0.001247, -0.0, 0.0, -0.009281]",0.58,3.4
methylene_t,-38.937306819911,4,0.224487,"[-11.2656, -0.9462013, -0.6165114, -0.4475429, -0.4088213]","[-0.0, 0.0, 0.00271, 0.0, 0.011914, -0.001355, 0.0, -0.011914, -0.001355]",0.03,0.4
carbon_monophosphide,-378.507158289754,3,0.054862,"[-79.9554, -11.31911, -7.500946, -5.399447, -5.384203, -5.384203, -1.015721, -0.6466006, -0.4667316, -0.4569535, -0.4569535]","[-0.0, -0.0, 0.033339, 0.0, 0.0, -0.033339]",0.4,3.3
formic_acid,-188.831880003832,5,0.634058882794,"[-20.6302, -20.5557, -11.39124, -1.475862, -1.374413, -0.8837057, -0.7363736, -0.7120956, -0.6374285, -0.5975304, -0.4930016, -0.4640893]","[-0.053983, 0.007578, -0.0, -0.031634, -0.00655, 0.0, 0.039972, 0.009887, 0.0, 0.035462, 0.012689, -0.0, 0.010182, -0.023603, -0.0]",0.44,2.4
aluminum_trifluoride,-540.593706729691,5,7e-06,"[-58.5504, -26.2857, -26.2857, -26.2857, -4.9635, -3.2812, -3.2795, -3.2795, -1.5813, -1.5686, -1.568601, -0.7361413, -0.6918533, -0.6918521, -0.6664548, -0.6583479, -0.658346, -0.6484802, -0.648478, -0.6333739]","[0.0, -1.1e-05, -0.0, -0.0, 0.007357, 0.0, 0.00636, -0.003673, 0.0, -0.00636, -0.003673, -0.0]",0.64,3.8
vinyl_radical,-77.420186216930,3,0.238812077159,"[-11.2576, -11.22508, -1.046201, -0.789327, -0.6361502, -0.5991302, -0.4082853, -0.4040605]","[0.001609, -0.008925, 0.0, 7.1e-05, 0.007005, -0.0, -0.00387, 0.007378, 0.0, -0.003798, -0.001709, -0.0, 0.005988, -0.003748, 0.0]",0.2,2.4
nitrous_oxide,-183.749249809786,4,0.234737,"[-20.6542, -15.84392, -15.69627, -1.612029, -1.421688, -0.8315694, -0.7612622, -0.7612622, -0.696731, -0.489369, -0.489369]","[0.0, 0.0, -0.130517, -0.0, -0.0, 0.096705, -0.0, -0.0, 0.033813]",0.24,1.2
2_butyne,-154.960077307107,5,1.8e-05,"[-11.2515, -11.2515, -11.2203, -11.2167, -1.055743, -0.9938444, -0.9075165, -0.6475522, -0.5914198, -0.5838386, -0.5838384, -0.5668325, -0.5668323, -0.3594374, -0.3594373]","[-0.0, 0.0, 0.064402, 0.0, 0.0, -0.064402, -0.0, -9e-06, -0.019047, 0.0, -9e-06, 0.019047, 0.0, 0.020369, 0.007363, -0.017626, -0.01018, 0.007359, 0.017626, -0.01018, 0.007359, 0.0, 0.020369, -0.007363, 0.017626, -0.01018, -0.007359, -0.017626, -0.01018, -0.007359]",1.13,6.9
hydrogen_diatomic,-1.132955336204,3,0.0,"[-0.594258]","[-0.0, -0.0, -0.005174, 0.0, 0.0, 0.005174]",0.0,0.2
beryllium_dihydride,-15.771439785529,4,0.0,"[-4.6747, -0.4893919, -0.4489899]","[-0.0, 0.0, -0.0, 0.0, -0.0, -0.001954, 0.0, -0.0, 0.001954]",0.03,0.5
beryllium_monohydride,-15.152415866696,5,0.095396,"[-4.7158, -0.487565, -0.3109257]","[0.0, 0.0, -0.001287, -0.0, -0.0, 0.001287]",0.02,0.4
sodium_monoxide,-236.699424569017,5,3.383165,"[-40.4707, -20.43318, -2.793514, -1.517387, -1.516669, -1.515025, -1.131551, -0.4567889, -0.3756046, -0.3639728]","[0.0, 0.0, 0.000646, -0.0, -0.0, -0.000646]",0.37,3.4
N,-54.400686206502,5,0.0,"[-15.6687, -1.161119, -0.5686821, -0.5686821, -0.5686821]","[-0.0, 0.0, -0.0]",0.0,0.3
phosphino_radical,-341.886761405772,4,0.249482,"[-79.9586, -7.501481, -5.40598, -5.391848, -5.390338, -0.8538789, -0.52042, -0.4296288, -0.3765519]","[0.0, 0.0, -0.012576, 0.0, 0.002857, 0.006288, -0.0, -0.002857, 0.006288]",0.12,1.8
boron_monochloride,-484.155960258043,4,0.564733,"[-104.8787, -10.60676, -8.072798, -8.071776, -8.071776, -7.718157, -1.159995, -0.6689025, -0.523952, -0.523952, -0.3799018]","[0.0, 0.0, 0.002916, -0.0, -0.0, -0.002916]",0.39,1.9
ozone,-224.338061661711,5,0.320242,"[-20.918, -20.7062, -20.70617, -1.744574, -1.426806, -1.093379, -0.8281263, -0.79579, -0.7768802, -0.5616568, -0.5505444, -0.4847155]","[0.0, -0.0, -0.114675, -0.0, 0.089245, 0.057338, -0.0, -0.089245, 0.057338]",0.13,1.0
water,-76.057127424752,4,0.797081,"[-20.5549, -1.34541, -0.7094314, -0.5776823, -0.5044428]","[0.0, 0.0, 0.02481, -0.0, 0.013537, -0.012405, 0.0, -0.013537, -0.012405]",0.04,0.9
acetate_anion,-227.314714468647,5,1.59336785044,"[-20.2715, -20.2687, -11.1247, -11.0457, -1.137999, -1.040551, -0.7828998, -0.5015795, -0.4052035, -0.4015587, -0.3985445, -0.347362, -0.3030367, -0.1903351, -0.1829607, -0.1750066]","[-0.000476, 0.000736, -0.0, 0.000613, -0.041652, 0.0, 0.01182, -0.004218, 0.0, -0.005607, -0.003979, 0.009633, -0.005607, -0.003979, -0.009633, -0.05533, 0.023942, -0.0, 0.054589, 0.02915, -0.0]",0.78,5.1
tetrachlorosilane,-2127.242481350121,5,0.0,"[-104.8608, -104.8608, -104.8608, -104.8608, -68.9449, -10.5879, -10.5879, -10.5879, -10.5879, -8.0544, -8.0544, -8.0544, -8.0544, -8.053, -8.053, -8.053, -8.053, -8.053, -8.053, -8.053, -8.053, -6.2773, -4.3847, -4.3847, -4.3847, -1.176856, -1.119815, -1.119815, -1.119815, -0.7213801, -0.5988457, -0.5988457, -0.5988457, -0.5240299, -0.5240299, -0.5043457, -0.5043457, -0.5043457, -0.4738589, -0.4738589, -0.4738589]","[-0.0, -0.0, 0.0, -0.003004, -0.003004, -0.003004, 0.003004, 0.003004, -0.003004, 0.003004, -0.003004, 0.003004, -0.003004, 0.003004, 0.003004]",3.13,21.6
oxygen_diatomic,-149.675168537451,5,0.0,"[-20.7526, -20.75197, -1.71412, -1.204064, -0.8406525, -0.8406525, -0.762508, -0.5543049, -0.5543049]","[0.0, 0.0, -0.092036, -0.0, -0.0, 0.092036]",0.05,0.6
F,-99.405524859615,4,0.0,"[-26.4031, -1.66877, -0.8397598, -0.7269303, -0.7269303]","[-0.0, 0.0, -0.0]",0.0,0.3
heptane,-274.495688915537,6,0.032477,"[-11.2181, -11.2181, -11.2161, -11.2157, -11.2152, -11.2128, -11.2128, -1.084988, -1.047197, -0.9871176, -0.9113936, -0.8326005, -0.783005, -0.7803811, -0.6506116, -0.6181508, -0.5883189, -0.5795183, -0.5709096, -0.5493164, -0.5204732, -0.5108257, -0.5002036, -0.4806264, -0.4714144, -0.460212, -0.4562602, -0.4560935, -0.4314309]","[-0.0, -0.0, -0.006677, 0.0, 0.000249, 0.006717, 0.0, -0.000249, 0.006717, 0.0, -6e-05, -0.006363, 0.0, 6e-05, -0.006363, 0.0, -0.005295, 0.002942, 0.0, 0.005295, 0.002942, -0.01004, 0.0, 0.007098, 0.01004, 0.0, 0.007098, -0.010026, -0.000107, -0.00714, 0.010026, -0.000107, -0.00714, 0.010026, 0.000107, -0.00714, -0.010026, 0.000107, -0.00714, 0.009839, -0.000744, 0.007038, -0.009839, -0.000744, 0.007038, -0.009839, 0.000744, 0.007038, 0.009839, 0.000744, 0.007038, -0.0, 0.009939, 0.006754, 0.009688, -0.000147, -0.006803, -0.009688, -0.000147, -0.006803, -0.0, -0.009939, 0.006754, -0.009688, 0.000147, -0.006803, 0.009688, 0.000147, -0.006803]",7.57,60.8
methylene_s,-38.892386940457,4,0.759092,"[-11.2899, -0.8918274, -0.5646429, -0.3943315]","[0.0, -0.0, 0.009787, -0.0, 0.004209, -0.004894, -0.0, -0.004209, -0.004894]",0.03,0.4
octane,-313.545565307399,6,0.0,"[-11.2155, -11.2155, -11.2138, -11.2135, -11.2131, -11.2128, -11.2096, -11.2096, -1.088752, -1.059708, -1.011976, -0.9494561, -0.8786261, -0.8132259, -0.7823995, -0.781582, -0.6548479, -0.6290973, -0.5942911, -0.5900254, -0.5710858, -0.5673105, -0.5447365, -0.5306258, -0.5025991, -0.4975297, -0.491216, -0.4723781, -0.4639925, -0.458195, -0.4556537, -0.4516036, -0.4334491]","[-0.008386, -0.005233, -0.0, 0.008386, 0.005233, -0.0, 0.007923, 0.00631, -0.0, -0.007923, -0.00631, 0.0, -0.009627, -0.003089, -0.0, 0.009627, 0.003089, -0.0, 0.005966, 8.5e-05, -0.0, -0.005966, -8.5e-05, -0.0, 0.002741, 0.0017, 0.00528, 0.002741, 0.0017, -0.00528, -0.002741, -0.0017, 0.00528, -0.002741, -0.0017, -0.00528, -0.002782, -0.001751, -0.005362, -0.002782, -0.001751, 0.005362, 0.002782, 0.001751, -0.005362, 0.002782, 0.001751, 0.005362, 0.003494, 0.001417, 0.005432, 0.003494, 0.001417, -0.005432, -0.003494, -0.001417, 0.005432, -0.003494, -0.001417, -0.005432, -0.001554, 0.006822, -0.0, -0.003153, -0.001553, -0.004565, -0.003153, -0.001553, 0.004565, 0.001554, -0.006822, 0.0, 0.003153, 0.001553, -0.004565, 0.003153, 0.001553, 0.004565]",10.22,82.1
beryllium_difluoride,-213.763506243255,5,0.0,"[-26.2707, -26.2707, -4.722278, -1.560158, -1.552646, -0.6959027, -0.6832409, -0.6475905, -0.6475905, -0.6259976, -0.6259976]","[-0.0, 0.0, 0.0, 0.0, -0.0, 0.025198, 0.0, -0.0, -0.025198]",0.18,1.2
dilithium_oxide,-89.808725655329,7,0.0,"[-20.3424, -2.345649, -2.345447, -1.01689, -0.3384396, -0.2743598, -0.2743598]","[0.0, 0.0, 0.0, 0.0, 0.0, 0.002875, -0.0, -0.0, -0.002875]",0.24,1.6
thiophene,-551.378208824082,5,0.277935,"[-91.9823, -11.2611, -11.261, -11.2383, -11.2373, -8.9835, -6.6645, -6.664, -6.6633, -1.169258, -0.9845607, -0.979495, -0.7644761, -0.7488415, -0.6948857, -0.571954, -0.5503228, -0.5266089, -0.5219052, -0.4738739, -0.3452803, -0.3246025]","[-0.0, -0.0, 0.005558, 0.0, 0.002181, 0.02015, 0.0, -0.002181, 0.02015, 0.0, -0.020205, -0.018942, 0.0, 0.020205, -0.018942, 0.0, 0.009336, 0.0039, -0.0, -0.009336, 0.0039, -0.0, 0.00572, -0.007886, -0.0, -0.00572, -0.007886]",3.33,20.3
ketene,-151.784482360171,5,0.663444,"[-20.6286, -11.38313, -11.23882, -1.475408, -1.0519, -0.7590756, -0.6782999, -0.6570587, -0.644119, -0.5628133, -0.3654205]","[0.0, -0.0, -0.011281, -0.0, -0.0, -0.036404, -0.0, 0.0, 0.054926, 0.0, 0.006682, -0.003621, -0.0, -0.006682, -0.003621]",0.42,2.3
phosphorus_monofluoride,-440.221813523197,4,0.42853,"[-80.0208, -26.31804, -7.5584, -5.459397, -5.459397, -5.444114, -1.631074, -0.8731595, -0.7123802, -0.7123802, -0.6331009, -0.3772489, -0.3772489]","[-0.0, 0.0, -0.008654, 0.0, -0.0, 0.008654]",0.33,1.9
boron_diatomic,-49.091826446848,4,0.0,"[-7.7098, -7.708727, -0.7751646, -0.3950783, -0.362213, -0.362213]","[0.0, 0.0, 0.018848, -0.0, -0.0, -0.018848]",0.05,0.6
nitrogen_dioxide,-204.110139392642,5,0.271627,"[-20.6853, -20.68529, -15.87768, -1.678333, -1.497716, -0.9702475, -0.8346511, -0.8039016, -0.7644819, -0.5956039, -0.5278327, -0.5028874]","[0.0, -0.0, -0.062003, -0.0, 0.064419, 0.031002, -0.0, -0.064419, 0.031002]",0.24,1.6
argon_dimer,-1053.625908942245,2,0.0,"[-118.6091, -118.6091, -12.3208, -12.3208, -9.5697, -9.5697, -9.5697, -9.5697, -9.569705, -9.569703, -1.277178, -1.275654, -0.5977085, -0.5910766, -0.5910766, -0.5889932, -0.5889932, -0.5825032]","[0.0, -0.0, 0.000805, -0.0, 0.0, -0.000805]",0.18,1.5
sodium_diatomic,-323.714916748746,3,0.0,"[-40.4646, -40.46463, -2.784548, -2.784426, -1.506616, -1.505307, -1.505307, -1.505015, -1.505015, -1.504723, -0.1662568]","[-0.0, -0.0, 0.002694, 0.0, 0.0, -0.002694]",0.39,2.9
dimethylamine,-134.291754032223,5,0.431399457766,"[-15.5385, -11.2385, -11.2385, -1.192236, -0.9431107, -0.8506517, -0.6570375, -0.6100757, -0.5869049, -0.5355478, -0.5070871, -0.5053687, -0.3688734]","[0.020929, 0.001544, 0.0, -0.0069, -0.002748, 0.009194, -0.0069, -0.002748, -0.009194, -0.014076, -0.012537, 0.0, -0.002905, 0.004102, 4.1e-05, -0.002905, 0.004102, -4.1e-05, 0.007144, 0.006191, -0.002493, 0.007144, 0.006191, 0.002493, -0.000766, -0.002049, 0.001086, -0.000766, -0.002049, -0.001086]",1.74,8.7
cyclobutene,-154.952653361144,4,0.024555,"[-11.2265, -11.2259, -11.2257, -11.2242, -1.143815, -0.8951045, -0.8760985, -0.70487, -0.6715, -0.6250421, -0.5290364, -0.5085145, -0.4643441, -0.4510577, -0.348423]","[-0.0, 0.023661, -0.003392, 0.0, -0.023661, -0.003392, -0.0, -0.003147, -0.001829, 0.0, 0.003147, -0.001829, -0.0, 0.004959, 0.004946, -0.0, -0.004959, 0.004946, 0.007727, 0.002435, 0.000137, -0.007727, -0.002435, 0.000137, -0.007727, 0.002435, 0.000137, 0.007727, -0.002435, 0.000137]",1.57,7.3
acetic_acid,-227.899938700907,5,0.777392892206,"[-20.6129, -20.5491, -11.3906, -11.2475, -1.458879, -1.355601, -1.028199, -0.8179487, -0.7039375, -0.6776949, -0.6483348, -0.5832215, -0.5728369, -0.561148, -0.4812794, -0.4548931]","[0.013343, -0.04053, 0.0, -0.006937, -0.000523, 0.0, 0.011465, 0.066346, -0.0, -0.005726, -0.048129, -0.0, -0.018513, 0.027878, 0.0, 0.006292, 0.004004, 0.0, 3.8e-05, -0.004523, 0.005397, 3.8e-05, -0.004523, -0.005397]",0.96,6.7
hydrogen_fluoride,-100.057914440787,4,0.765217,"[-26.2863, -1.593597, -0.7595562, -0.6430246, -0.6430246]","[0.0, -0.0, -0.026863, -0.0, 0.0, 0.026863]",0.02,0.3
phosphorus_diatomic,-681.489691565183,4,0.0,"[-79.973, -79.973, -7.5161, -7.5154, -5.408, -5.406922, -5.406922, -5.406659, -5.406659, -5.405684, -0.9002676, -0.6057531, -0.4064177, -0.3699779, -0.3699779]","[-0.0, 0.0, -0.030891, 0.0, -0.0, 0.030891]",0.38,2.5
sodium_fluoride,-261.367077154468,29,3.2991,"[-40.46591, -26.06156, -2.789097, -1.514001, -1.512639, -1.512639, -1.318381, -0.4354282, -0.423323, -0.423323]","[-0.0, 0.0, 0.045412, 0.0, -0.0, -0.045412]",0.34,3.7
lithium_diatomic,-14.871338939998,3,0.0,"[-2.4533, -2.452952, -0.181702]","[0.0, 0.0, 0.003526, -0.0, -0.0, -0.003526]",0.03,0.4
difluoromethane,-237.995399740286,5,0.842918,"[-26.3083, -26.3083, -11.4018, -1.661426, -1.60009, -0.9703983, -0.7785179, -0.7703432, -0.7546598, -0.6650942, -0.6302519, -0.620462, -0.5341596]","[-0.0, 0.0, 0.012287, -0.003239, 0.0, 0.0032, 0.003239, 0.0, 0.0032, 0.0, 0.015276, -0.009344, 0.0, -0.015276, -0.009344]",0.35,2.1
propene,-117.115932215405,4,0.154021178213,"[-11.234, -11.2217, -11.21725, -1.062381, -0.9308496, -0.7565856, -0.6372119, -0.5813249, -0.5667596, -0.521803, -0.4905252, -0.3575299]","[0.017136, -0.00551, 0.0, -0.023945, -4.8e-05, 0.0, 0.00509, 0.005529, 0.0, 0.002714, -0.007512, 0.0, 0.006421, 0.004913, -0.0, -0.00259, 0.008218, -0.0, 0.002876, -0.006695, -0.0, -0.003851, 0.000553, 0.005288, -0.003851, 0.000553, -0.005288]",0.77,4.0
difluorine_monoxide,-273.557826985887,5,0.170947,"[-26.3988, -26.3988, -20.822, -1.751418, -1.634284, -1.284169, -0.8180354, -0.8000045, -0.7964623, -0.7204856, -0.6767022, -0.6522324, -0.5792692]","[0.0, -0.0, 0.067655, 0.0, 0.04665, -0.033827, -0.0, -0.04665, -0.033827]",0.17,1.2
phosphorus_monoxide,-415.619361768175,5,1.022664,"[-80.0245, -20.58706, -7.56365, -5.464443, -5.453884, -5.452285, -1.361528, -0.7627349, -0.6036347, -0.5538306, -0.5273683, -0.3361593]","[0.0, 0.0, -0.041608, -0.0, -0.0, 0.041608]",0.38,3.2
tert_butyl_radical,-156.730927072861,19,0.076443,"[-11.21119, -1.09004, -0.934277, -0.934277, -0.7425108, -0.620701, -0.6001133, -0.6001132, -0.5365401, -0.5365401, -0.5131704, -0.4815116, -0.4815113, -0.3142505]","[-2.4e-05, 0.018836, -0.03825, -0.0, -0.067212, 0.008702, -0.020852, 0.024502, 0.003668, 0.020877, 0.024517, 0.003528, 0.0, -0.005739, 0.005058, -0.00607, 0.000595, 0.002079, 0.00607, 0.000595, 0.002079, -0.002905, -0.001021, 0.008056, 0.005251, 0.000927, 0.000399, -0.001024, 0.002048, -0.001888, 0.002904, -0.001021, 0.008055, 0.001023, 0.002047, -0.001887, -0.005251, 0.000928, 0.000399]",1.83,19.0
lithium_fluoride,-106.980120486078,4,2.525536,"[-26.1114, -2.437156, -1.377172, -0.497784, -0.4737794, -0.4737794]","[-0.0, -0.0, -5e-06, 0.0, 0.0, 5e-06]",0.1,0.7
acetyl_fluoride,-251.895802696521,5,1.26116106272,"[-26.3286, -20.5793, -11.4241, -11.263, -1.6563, -1.431674, -1.046806, -0.8498823, -0.7374813, -0.7248233, -0.7196646, -0.6210471, -0.6070071, -0.5869715, -0.5314532, -0.4893656]","[0.004519, -0.0221, -0.0, -0.00378, -0.000536, -0.0, 0.012862, 0.042571, 0.0, -0.02284, -0.013379, -0.0, 0.005231, -0.000732, -0.0, 0.002004, -0.002912, -0.000355, 0.002004, -0.002912, 0.000355]",1.06,5.5
lithium_hydroxide,-82.949022907053,4,1.786107,"[-20.4273, -2.416456, -1.165283, -0.5444514, -0.3757468, -0.3757468]","[0.0, -0.0, -0.040345, -0.0, 0.0, -0.001987, -0.0, 0.0, 0.042332]",0.22,0.9
propyne,-115.906672940906,4,0.305215000133,"[-11.2553, -11.23367, -11.21622, -1.055851, -0.9541321, -0.7168551, -0.6146161, -0.5926412, -0.5926237, -0.3821348, -0.3821329]","[0.0, -2e-05, 0.007148, -0.0, 0.0, -0.059771, 0.0, 0.0, 0.051443, -0.0, 0.0, 0.002023, 0.0, 0.016463, -0.000285, 0.014254, -0.008222, -0.000279, -0.014254, -0.008222, -0.000279]",0.5,2.6
aluminum_monosulfide,-639.478959799178,17,1.877814,"[-6.598913, -6.590478, -6.590478, -4.950529, -3.264683, -3.258889, -3.258889, -0.8911704, -0.4958092, -0.3722994, -0.3498576, -0.3498576]","[-0.0, 0.0, -0.055104, 0.0, -0.0, 0.055104]",0.97,4.0
boron_monocarbide,-62.335699806196,3,1.004087,"[-11.3084, -7.707889, -0.9510329, -0.557047, -0.4311403, -0.4146124, -0.4146124]","[-0.0, -0.0, -0.042129, 0.0, 0.0, 0.042129]",0.11,1.1
boron_trichloride,-1403.375378244601,5,8.1e-05,"[-104.86, -104.8599, -104.8599, -10.587, -10.587, -10.587, -8.0536, -8.0536, -8.0536, -8.0523, -8.0523, -8.0523, -8.052, -8.052, -8.052, -7.7739, -1.18054, -1.119594, -1.119586, -0.7055174, -0.6111385, -0.6111331, -0.5558181, -0.4928828, -0.4928789, -0.4836469, -0.4836415, -0.4579826]","[0.0, 1.3e-05, 0.0, 0.0, -0.002653, -0.0, -0.002294, 0.00132, -0.0, 0.002294, 0.00132, 0.0]",1.71,14.0
ethyl_radical,-78.628113718696,4,0.081158999156,"[-11.2264, -11.21572, -1.030363, -0.8403788, -0.6185073, -0.5773669, -0.5413789, -0.5044449, -0.3496595]","[-0.001761, 0.008692, 0.0, 0.000886, -0.007693, 0.0, 0.003632, -0.001328, -0.0, -0.001231, -0.001339, 0.003194, -0.001231, -0.001339, -0.003194, -0.000148, 0.001504, -0.003013, -0.000148, 0.001504, 0.003013]",0.31,2.4
magnesium_hydroxide,-275.115664861856,4,0.346005,"[-49.0305, -20.4691, -3.773174, -2.291203, -2.289651, -2.289651, -1.227909, -0.6217156, -0.4307053, -0.4307053, -0.2712591]","[0.0, 0.0, 0.009041, 0.0, 0.0, 0.002932, -0.0, -0.0, -0.011973]",0.64,3.2
hydrogen_peroxide,-150.832488343501,4,0.677691,"[-20.6282, -20.62789, -1.472814, -1.219958, -0.7208763, -0.6975232, -0.6024795, -0.530346, -0.4854006]","[-0.02337, 0.051764, -0.005289, 0.02337, -0.051764, -0.005289, 0.007968, -0.013092, 0.005289, -0.007968, 0.013092, 0.005289]",0.12,0.8
Al,-241.879045625244,3,0.0,"[-58.5006, -4.91043, -3.224734, -3.217455, -3.217455, -0.4252231, -0.217787]","[-0.0, -0.0, -0.0]",0.0,1.6
propane,-118.307603805281,4,0.0291890439206,"[-11.2176, -11.208, -11.208, -1.052382, -0.9254691, -0.7998942, -0.623247, -0.5949051, -0.5510248, -0.5321321, -0.4767966, -0.4716747, -0.4681061]","[3.7e-05, -0.002246, -2e-06, 0.008567, -0.004328, -2e-06, -0.008599, -0.004377, 2.8e-05, 0.0, 0.00458, 0.005297, -3.9e-05, 0.004634, -0.005329, -0.004571, 0.004188, -0.0, 0.004596, 0.004216, 5e-06, -0.001568, -0.001663, 0.002318, -0.001568, -0.001664, -0.002317, 0.001563, -0.001666, -0.002317, 0.001582, -0.001672, 0.002319]",1.03,5.8
butane,-157.355277406558,4,0.0,"[-11.2149, -11.2143, -11.2092, -11.2092, -1.070302, -0.9796946, -0.859439, -0.7861664, -0.6377685, -0.5836588, -0.5747328, -0.5664233, -0.5136018, -0.4936474, -0.4689552, -0.4605583, -0.4561785]","[-0.000628, -0.005331, 0.0, -0.005596, 0.003521, 0.0, 0.005596, -0.003521, -0.0, 0.000628, 0.005331, -0.0, 0.006305, 0.002391, 0.0, -0.006305, -0.002391, 0.0, -0.003149, 0.001637, 0.005191, -0.003149, 0.001637, -0.005191, 0.003149, -0.001637, 0.005191, 0.003149, -0.001637, -0.005191, 0.003016, -0.002648, -0.00554, 0.003016, -0.002648, 0.00554, -0.003016, 0.002648, -0.00554, -0.003016, 0.002648, 0.00554]",2.04,11.5
carbon_dioxide,-187.706782804184,4,0.0,"[-20.6497, -20.64961, -11.45915, -1.528283, -1.475283, -0.7987886, -0.7409073, -0.712914, -0.712914, -0.542343, -0.542343]","[-0.0, -0.0, -0.0, 0.0, 0.0, 0.061823, 0.0, -0.0, -0.061823]",0.23,1.1
Cl,-459.485433914358,3,0.0,"[-104.8876, -10.61074, -8.096055, -8.071532, -8.071532, -1.134787, -0.5801317, -0.5014471, -0.5014471]","[-0.0, 0.0, -0.0]",0.0,1.2
magnesium_monohydride,-200.156054257233,4,0.546979,"[-49.0434, -3.784316, -2.30086, -2.300272, -2.300272, -0.4171428, -0.2593709]","[-0.0, -0.0, 0.001246, 0.0, 0.0, -0.001246]",0.09,2.6
cyclopropene,-115.865054493231,4,0.19108,"[-11.244, -11.24176, -11.23814, -1.154512, -0.8235975, -0.7676862, -0.6803236, -0.5969534, -0.4909798, -0.4201233, -0.3570239]","[-0.0, -0.0, 0.00891, 0.0, 0.031888, -0.003298, 0.0, -0.031888, -0.003298, -0.0, 0.004394, -0.002573, -0.0, -0.004394, -0.002573, 0.005971, -0.0, 0.001416, -0.005971, -0.0, 0.001416]",0.62,2.7
cyclobutane,-156.149712315618,5,0.0,"[-11.2169, -11.2163, -11.2163, -11.2158, -1.126463, -0.8902279, -0.8902279, -0.7497319, -0.6462153, -0.6416391, -0.5327961, -0.5327961, -0.4837945, -0.4513849, -0.4360178, -0.4360178]","[-0.0, -0.006896, -0.00174, -0.0, 0.006896, -0.00174, 0.006896, 0.0, 0.00174, -0.006896, 0.0, 0.00174, -0.0, 0.006783, -0.004262, 0.0, 0.001133, 0.007184, -0.0, -0.006783, -0.004262, 0.0, -0.001133, 0.007184, -0.006783, 0.0, 0.004262, -0.001133, -0.0, -0.007184, 0.006783, 0.0, 0.004262, 0.001133, -0.0, -0.007184]",2.0,12.1
silylene_s,-290.030325901354,3,0.10747153659,"[-68.8, -6.145671, -4.248457, -4.247034, -4.246414, -0.6756412, -0.4588941, -0.3379939]","[-0.0, -0.001815, 0.001746, 0.0, 0.00173, -1.8e-05, 0.0, 8.5e-05, -0.001728]",0.12,1.5
aluminum_monohydride,-242.461818226758,4,0.047043,"[-58.4907, -4.901504, -3.210538, -3.210538, -3.209558, -0.4970215, -0.2883882]","[-0.0, -0.0, 0.00095, 0.0, 0.0, -0.00095]",0.08,1.9
beryllium_oxide,-89.442773923830,7,2.859995,"[-20.456, -4.710893, -1.149692, -0.4585614, -0.3861747, -0.3861747]","[-0.0, -0.0, -0.041311, 0.0, 0.0, 0.041311]",0.13,1.1
