,Energy,Iterations,Dipole Moment,Eigens,Derivatives,Derivative Time,Wall Time
bicyclo[3.1.0]hexane,-232.529963949261,17,0.0799104095222,"[-9.775013, -0.8046155, -0.6886646, -0.6358269, -0.5563164, -0.4948548, -0.4853565, -0.4649026, -0.4173621, -0.3920915, -0.3639216, -0.3492611, -0.3137529, -0.30133, -0.2953681, -0.2896653, -0.2474145, -0.2354447]","[-0.009252, 0.013194, -0.0, -0.016155, -0.005344, 1e-06, 0.004705, 0.005765, 0.014003, 0.004704, 0.005766, -0.014002, 0.008353, -0.009388, 0.009367, 0.008353, -0.009387, -0.009366, 0.001392, 0.007185, -0.0, 0.006042, -0.005129, -0.0, 0.007253, -0.000197, -0.0, -0.001795, -0.006192, -0.0, 0.003557, -0.00117, -0.005619, 0.003556, -0.001169, 0.005619, -0.006368, -0.00181, 0.001849, -0.006369, -0.00181, -0.001849, -0.003989, 0.004843, -0.003778, -0.003988, 0.004842, 0.003777]",108.92,857.5
phosphine,-341.868011452304,6,0.263580000017,"[-75.99062, -6.268577, -4.516166, -4.516166, -4.511745, -0.5889304, -0.3469089, -0.346907, -0.2485659]","[0.0, 6e-06, -0.009462, -0.0, 0.002244, 0.00315, -0.001952, -0.001125, 0.003156, 0.001952, -0.001125, 0.003156]",0.55,2.7
beryllium_sulfide,-411.351682486002,25,1.993112,"[-87.67958, -7.596547, -5.64859, -5.646377, -5.646377, -3.871626, -0.5863516, -0.2786903, -0.219652, -0.219652]","[0.0, 0.0, -0.001042, -0.0, -0.0, 0.001042]",0.25,2.8
lithium_oxide,-82.030369586969,28,2.509037,"[-18.55084, -1.835078, -0.7378131, -0.2478914, -0.2045909, -0.1934024]","[0.0, -0.0, -0.002473, -0.0, 0.0, 0.002473]",0.14,2.9
carbon_monoxide,-112.472603032268,8,0.090592,"[-18.71947, -9.907878, -1.07607, -0.5218295, -0.4455677, -0.4455677, -0.3351701]","[-0.0, -0.0, -0.002417, 0.0, 0.0, 0.002417]",0.42,2.1
magnesium_oxide,-273.799727919115,13,2.83493,"[-46.00507, -18.52712, -2.940805, -1.755127, -1.755127, -1.753913, -0.7121237, -0.2316685, -0.1826132, -0.1826132]","[-0.0, 0.0, -0.008269, 0.0, -0.0, 0.008269]",0.25,1.8
aluminum_nitride,-295.586141701866,20,1.197798,"[-55.15436, -13.90036, -3.937511, -2.569371, -2.565927, -2.56497, -0.6773684, -0.3242872, -0.2718124, -0.2335783, -0.2288549]","[-0.0, -0.0, -0.007543, 0.0, 0.0, 0.007543]",0.52,6.2
imidogen,-54.764981636232,7,0.604141,"[-13.95307, -0.7642617, -0.364637, -0.2930493, -0.2930493]","[0.0, 0.0, 0.01311, -0.0, -0.0, -0.01311]",0.09,1.3
methyl_formate,-227.375623342557,15,0.755792247104,"[-9.842276, -1.024215, -0.9393375, -0.6807529, -0.5454792, -0.4901026, -0.4484682, -0.4333981, -0.3854783, -0.3661914, -0.3309126, -0.2863126, -0.254054]","[-0.016929, 0.01491, 1e-06, 0.0142, -0.006927, 7e-06, 0.001443, -0.023599, 5e-06, -0.000656, 0.015357, -8e-06, 0.006408, -0.002997, 1e-06, -0.00364, -0.004089, -0.0, -0.000414, 0.003674, -0.004305, -0.000412, 0.003671, 0.004299]",11.44,82.9
hypochlorite,-533.359062230763,13,0.573556,"[-18.70007, -9.236069, -7.0961, -7.089545, -7.07995, -1.011349, -0.7231287, -0.4569253, -0.4342513, -0.4051118, -0.2836024, -0.2493671]","[-0.0, -0.0, -0.006125, 0.0, 0.0, 0.006125]",0.61,4.5
methanol,-114.844470008220,11,0.650970423926,"[-18.60752, -9.82205, -0.930551, -0.6181105, -0.4629881, -0.3951914, -0.3878258, -0.2946119, -0.2339973]","[-0.008028, 0.018377, 0.0, 0.020421, -0.014211, 0.0, 0.002045, 0.003697, -0.0, -0.000802, -0.005433, -0.003944, -0.000802, -0.005433, 0.003944, -0.012833, 0.003001, -0.0]",2.98,13.5
vinyl_fluoride,-176.540661960396,19,0.514117794061,"[-9.871785, -9.789615, -1.123622, -0.6996699, -0.5568185, -0.4849414, -0.4388869, -0.4162026, -0.370748, -0.3309329, -0.2466478]","[-0.004403, 0.018865, -0.0, 0.021264, -0.005295, 0.0, -0.006199, -0.002804, 0.0, -0.002643, -0.008654, 0.0, -0.001616, 0.003052, 0.0, -0.006404, -0.005164, 0.0]",4.09,33.8
formaldehyde,-113.644907093512,8,0.899247,"[-18.63288, -9.884258, -0.9779242, -0.5759407, -0.4513004, -0.4088022, -0.380582, -0.2331975]","[0.0, -0.0, 0.009307, -0.0, 0.0, -0.013896, -0.0, -0.004774, 0.002295, -0.0, 0.004774, 0.002295]",1.27,4.8
sulfur_diatomic,-793.696727389036,7,0.0,"[-5.745047, -5.744218, -5.743195, -5.743195, -5.743129, -5.743129, -0.7759722, -0.5734607, -0.3721651, -0.3442506, -0.3442506, -0.2148559, -0.2148559]","[0.0, -0.0, 0.005657, -0.0, 0.0, -0.005657]",0.45,3.4
acetaldehyde,-152.619911809635,11,1.14489012794,"[-9.880538, -9.797393, -0.9568777, -0.6893422, -0.5279825, -0.4361153, -0.4115342, -0.3949625, -0.3587016, -0.3382588, -0.2234179]","[0.027877, -0.002101, -0.0, -0.021328, 0.016724, 0.0, -0.013415, -0.009756, -0.0, 0.0023, -0.006959, -0.0, -0.002299, 0.004573, 0.0, 0.003432, -0.001241, -0.003487, 0.003432, -0.001241, 0.003488]",6.18,32.3
boron_monosulfide,-421.355145245344,11,0.245947,"[-87.73634, -7.655055, -6.537933, -5.706779, -5.704818, -5.704818, -0.6804816, -0.3940191, -0.2877643, -0.2877643, -0.2685205]","[-0.0, -0.0, -2.3e-05, 0.0, 0.0, 2.3e-05]",0.57,3.7
beryllium_monofluoride,-113.817659832601,8,0.44719,"[-24.07927, -3.845491, -1.061407, -0.4222363, -0.379892, -0.379892, -0.195996]","[0.0, 0.0, -0.001198, -0.0, -0.0, 0.001198]",0.17,1.3
phosphorus_tribromide,-8052.262616020134,11,0.131975051199,"[-2.50518, -0.7880187, -0.7349092, -0.7349064, -0.5584981, -0.4000094, -0.4000079, -0.3584965, -0.3105734, -0.3105725, -0.2819663, -0.2819646, -0.272098, -0.2567856]","[-1e-06, -0.0, 0.000134, 0.0, -0.000841, -4.4e-05, -0.000727, 0.00042, -4.5e-05, 0.000729, 0.000421, -4.5e-05]",17.35,86.5
sulfur_dioxide,-546.325676963285,8,0.601050000007,"[-5.845518, -5.840915, -1.066112, -0.9737806, -0.5804454, -0.4657034, -0.4545397, -0.4520659, -0.356496, -0.3309107, -0.3031149]","[0.0, -0.0, 0.01625, -0.0, -0.011836, -0.008125, -0.0, 0.011837, -0.008125]",1.92,6.5
methanethiol_radical,-436.339275695295,10,0.714884606739,"[-9.818387, -7.653074, -5.712782, -5.705688, -5.695269, -0.7175769, -0.5713797, -0.4085014, -0.3937609, -0.343125, -0.2483259, -0.212467]","[-0.015223, 0.00073, -0.01421, 0.00721, -0.000197, 0.003089, 0.00358, -0.000193, -0.005168, 0.002142, -0.00395, 0.008049, 0.00229, 0.00361, 0.00824]",2.38,13.3
hydroxyl_radical,-75.204079326005,9,0.648927,"[-18.68976, -0.9298001, -0.4355567, -0.366689, -0.3033675]","[0.0, -0.0, 0.01495, -0.0, 0.0, -0.01495]",0.1,1.2
lithium_monosulfide,-404.217824499961,15,2.665613,"[-87.6689, -7.583696, -5.645741, -5.630182, -5.629611, -1.866832, -0.5563267, -0.2182189, -0.2049151, -0.1825553]","[-0.0, -0.0, -0.001662, 0.0, 0.0, 0.001662]",0.23,2.9
phosphorus_dioxide,-489.595333747355,10,0.503664068145,"[-4.633295, -4.630305, -4.627747, -0.9922554, -0.9456713, -0.5178497, -0.4260188, -0.4144256, -0.4128301, -0.3483708, -0.3387634, -0.2755991]","[0.0, -1e-05, -0.007735, -0.0, -0.007756, 0.003866, -0.0, 0.007765, 0.003869]",1.75,8.6
formaldoxime_zwitterion,-168.547035033954,12,1.3287583216,"[-14.01042, -9.832053, -1.028463, -0.7900336, -0.6052852, -0.5020517, -0.4439603, -0.4203226, -0.3834214, -0.2265255, -0.2216317]","[0.014842, -0.005642, -0.000212, 0.00413, 0.01566, 0.00079, -0.017983, -0.008628, -0.000118, 0.000823, 0.002803, -0.000184, -0.001294, -0.002474, 0.000212, -0.000519, -0.001719, -0.000489]",5.66,23.0
tetrafluoroethylene,-472.564157125514,8,5.75586657246e-05,"[-9.969118, -1.216337, -1.202405, -1.158896, -1.147205, -0.7476666, -0.617637, -0.5810621, -0.5762391, -0.5338971, -0.5175097, -0.4734299, -0.4455449, -0.4228556, -0.416679, -0.4139796, -0.4139338, -0.3931248, -0.2401863]","[0.0, -0.0, -0.027938, -0.0, -1e-06, 0.027946, -0.0, 0.006065, 0.006769, -0.0, -0.006065, 0.006768, 0.0, -0.006069, -0.006772, 0.0, 0.00607, -0.006772]",14.23,50.8
boron_dioxide,-174.044224358921,10,0.0,"[-18.69532, -18.69532, -6.515734, -0.962214, -0.9621765, -0.4439615, -0.4301803, -0.4288622, -0.4028532, -0.3670737, -0.3334752]","[0.0, 0.0, 0.0, -0.0, -0.0, 0.005628, -0.0, -0.0, -0.005628]",1.15,6.7
cyano_radical,-91.952610889989,10,0.447433,"[-13.93768, -9.911421, -0.8784371, -0.4444834, -0.3639118, -0.3639118, -0.3587214]","[0.0, 0.0, -0.012073, -0.0, -0.0, 0.012073]",0.42,2.6
boron_nitride,-78.707724241567,27,0.722476000028,"[-13.92913, -6.536459, -0.7727546, -0.3654756, -0.3390608, -0.3020369, -0.2849361]","[0.0, -0.0, -0.002667, -0.0, 0.0, 0.002667]",0.39,5.9
acetyl_chloride,-610.815306214560,16,1.10032245974,"[-6.997798, -1.008097, -0.7855555, -0.6956383, -0.5145704, -0.4536018, -0.4420733, -0.4326177, -0.3790791, -0.3698614, -0.2996825, -0.2925534, -0.2675553]","[-0.008488, -0.004892, -4e-06, 0.007924, -0.004228, 1.6e-05, -0.006604, 0.004979, 1e-06, -0.001595, -0.002151, -9e-06, 0.004029, 0.003072, -0.0, 0.00237, 0.001611, 0.003729, 0.002365, 0.001609, -0.003733]",10.3,74.3
magnesium_diatomic,-398.280248796774,7,0.0,"[-45.97442, -2.905131, -2.905131, -1.720383, -1.720383, -1.720381, -1.720381, -1.719936, -1.719915, -0.1957907, -0.1609778]","[0.0, -0.0, -0.002332, -0.0, 0.0, 0.002332]",0.05,1.0
methyl_chloride,-498.282520566771,7,0.730627000099,"[-9.135433, -6.994622, -6.983098, -6.983098, -0.7804089, -0.6094341, -0.3995664, -0.3995644, -0.3874192, -0.2642393, -0.2642388]","[-1.5e-05, 0.0, 0.010075, -2e-06, -0.0, 0.010543, 0.007616, -0.0, -0.006875, -0.0038, 0.006575, -0.006872, -0.0038, -0.006575, -0.006872]",2.18,7.7
dimethyl_ether,-153.789166927616,15,0.47505900038,"[-9.820419, -0.9480974, -0.6557163, -0.5736201, -0.4361126, -0.4292517, -0.4289687, -0.3541205, -0.3382396, -0.2806447, -0.2179871]","[0.0, 1e-06, -0.000871, -0.0, 0.017084, -0.009414, 0.0, -0.017084, -0.009414, -0.0, 0.000629, -0.002822, -0.0, -0.00063, -0.002821, -0.005271, -0.002782, 0.006336, 0.005271, -0.002782, 0.006336, 0.00527, 0.002782, 0.006335, -0.00527, 0.002782, 0.006335]",12.65,79.6
methyl_ketene,-190.378685715916,18,0.750444928083,"[-9.7971, -1.018184, -0.7295264, -0.6219182, -0.4787489, -0.4488815, -0.4189103, -0.4087694, -0.3751405, -0.36643, -0.3453625, -0.2045717]","[-0.008849, -0.00195, -2.4e-05, 0.00815, 0.016861, -2e-06, 0.012996, -0.008786, 8e-06, -0.003699, -0.001945, 1.6e-05, -0.001194, -0.008569, 3e-06, 0.001516, 0.006282, 2e-06, -0.004464, -0.000947, 0.005854, -0.004457, -0.000946, -0.005858]",11.55,94.7
tetrafluorosilane,-685.702813885703,8,0.0,"[-3.577989, -1.163802, -1.126137, -1.126137, -1.126137, -0.5656164, -0.5002415, -0.5002415, -0.5002415, -0.4470736, -0.4470736, -0.4396252, -0.4396252, -0.4396252, -0.402133, -0.402133, -0.402133]","[0.0, 0.0, 0.0, -0.002803, -0.002803, -0.002803, 0.002803, 0.002803, -0.002803, 0.002803, -0.002803, 0.002803, -0.002803, 0.002803, 0.002803]",12.08,31.1
silicon_monosulfide,-685.230601400137,11,0.607335,"[-5.689167, -5.687664, -5.066531, -3.508407, -3.508407, -3.501314, -0.6529991, -0.4028891, -0.2702551, -0.2702551, -0.2588764]","[-0.0, -0.0, 0.004106, 0.0, 0.0, -0.004106]",0.76,3.5
sulfur_monochloride,-855.557916123759,11,0.090765,"[-7.0476, -7.041761, -5.754777, -5.753692, -5.738068, -0.8354305, -0.629074, -0.4105461, -0.374666, -0.3571274, -0.2550789, -0.2263193]","[-0.0, -0.0, -0.002503, 0.0, 0.0, 0.002503]",0.8,4.4
neon_dimer,-256.453780241386,6,0.0,"[-30.3077, -30.30769, -1.324239, -1.323607, -0.5027315, -0.4993647, -0.4993647, -0.4981946, -0.4981946, -0.4950818]","[-0.0, 0.0, -0.000556, 0.0, -0.0, 0.000556]",0.05,1.4
formaldoxime,-168.551571976441,11,0.113965946778,"[-13.92975, -9.818943, -1.003363, -0.7918775, -0.5598177, -0.4907386, -0.4256031, -0.3801964, -0.3801114, -0.2535654, -0.2471296]","[0.016011, -0.014707, 0.0, 0.000716, 0.02024, -0.0, -0.025264, -0.002408, -0.0, -0.001852, 0.008436, 0.0, -0.003942, -0.001422, -0.0, 0.01433, -0.010139, 0.0]",5.53,19.9
lithium_chloride,-466.203670492857,8,2.687457,"[-100.2218, -9.045807, -6.897594, -6.897013, -6.897013, -1.87029, -0.6453607, -0.2429281, -0.2213617, -0.2213617]","[0.0, -0.0, -0.002575, -0.0, 0.0, 0.002575]",0.2,1.4
isopropyl_radical,-117.375241718829,26,0.14344963008,"[-9.773673, -9.773669, -0.7080492, -0.6233711, -0.509532, -0.4099029, -0.3865809, -0.3686898, -0.3448646, -0.3158877, -0.307565, -0.1486776]","[0.002716, 0.018424, -2e-06, -0.003516, -0.011523, 0.016145, -0.003518, -0.011522, -0.016141, 0.000356, -0.006119, 0.0, -0.000143, -0.002521, -0.003882, -0.000143, -0.002521, 0.003882, 0.005098, 0.003098, -0.00118, -0.002972, 0.004794, 3.7e-05, -0.002974, 0.004794, -3.7e-05, 0.005095, 0.003096, 0.001177]",14.35,190.0
cyanogen,-184.162020815128,8,0.000512,"[-9.901273, -9.900835, -0.9032653, -0.8867496, -0.6921506, -0.4260925, -0.4260925, -0.383124, -0.3732028, -0.3543035, -0.3543035]","[0.0, -0.0, 0.039823, 0.0, 0.0, -0.0398, -0.0, 0.0, -0.018684, 0.0, -0.0, 0.018661]",2.86,12.1
boron_monohydride,-24.976851623101,6,0.628764,"[-6.536683, -0.4396437, -0.2030516]","[-0.0, -0.0, 0.008383, 0.0, 0.0, -0.008383]",0.11,0.9
thiirane,-474.739609607972,24,0.724459000647,"[-5.686217, -5.677132, -0.7950279, -0.560986, -0.5608858, -0.4514242, -0.4139563, -0.3452393, -0.3006424, -0.2921504, -0.2004841]","[-2e-06, 1e-06, 0.007797, 1e-05, 0.014191, -0.007557, -1.3e-05, -0.014191, -0.007559, 0.005181, -0.003164, 0.001833, -0.005177, -0.003163, 0.001826, -0.005178, 0.003163, 0.001832, 0.005179, 0.003164, 0.001827]",7.59,78.4
sodium_chloride,-620.276917127237,10,3.359267,"[-6.878743, -6.877228, -6.877228, -2.088476, -1.085662, -1.085662, -1.08364, -0.6216036, -0.2170455, -0.1992979, -0.1992979]","[-0.0, -0.0, -0.00235, 0.0, 0.0, 0.00235]",0.31,2.0
magnesium_sulfide,-595.986063685532,31,2.85246,"[-5.633746, -5.625512, -5.625512, -2.965175, -1.77985, -1.779064, -1.779064, -0.5496507, -0.2482113, -0.1844088, -0.1844088]","[0.0, 0.0, -0.002597, -0.0, -0.0, 0.002597]",0.37,4.7
methyl_silane,-329.659727388690,7,0.322738003137,"[-5.00638, -3.445251, -3.445251, -3.444788, -0.6348056, -0.4698178, -0.3713239, -0.3713153, -0.2943855, -0.2943803, -0.2942106]","[0.0, -3.7e-05, -0.005417, -0.0, -2.6e-05, 0.008667, 0.0, 0.00243, 0.000701, 0.002076, -0.001196, 0.000689, -0.002076, -0.001196, 0.000689, -0.0, -0.003815, -0.00177, 0.003326, 0.00192, -0.00178, -0.003326, 0.00192, -0.00178]",7.84,22.3
aluminum_trichloride,-1617.866385279199,8,1.1e-05,"[-2.609124, -0.7757334, -0.7593418, -0.7593411, -0.4325921, -0.3722709, -0.3722707, -0.3400899, -0.322805, -0.3228042, -0.3175016, -0.3175009, -0.2998011]","[-0.0, -3e-06, -0.0, 0.0, 6e-05, 0.0, 4.9e-05, -2.8e-05, 0.0, -4.9e-05, -2.8e-05, 0.0]",4.95,16.8
methanethiol,-436.977496469451,8,0.633016615594,"[-7.63314, -5.688728, -5.684507, -5.677223, -0.7129592, -0.5832066, -0.4083734, -0.3878591, -0.3641713, -0.2941487, -0.2074293]","[-0.009014, -0.006101, -0.003865, 0.006611, 0.020092, 0.009712, -0.000489, -0.013774, -0.005937, 0.004217, 0.00266, -0.000427, -0.005204, -0.003729, -0.002328, 0.003879, 0.000853, 0.002845]",3.52,12.9
hypochlorous_acid,-534.008425294944,8,0.602934584599,"[-9.183711, -7.04795, -7.029637, -7.029224, -0.9917914, -0.7349285, -0.4976486, -0.414378, -0.3720001, -0.2851664, -0.2485743]","[-0.012199, 0.00612, 0.0, 0.012771, -0.003833, 0.0, -0.000572, -0.002287, -0.0]",1.21,4.2
lithium_hydride,-7.919132973079,6,2.207553,"[-1.841667, -0.1613192]","[-0.0, -0.0, 0.000867, 0.0, 0.0, -0.000867]",0.03,1.0
monosulfur_monofluoride,-496.038722928829,13,0.225175,"[-24.15648, -7.72351, -5.783055, -5.780472, -5.762897, -1.152155, -0.6704446, -0.4734627, -0.4561312, -0.4399507, -0.2690447, -0.2339293]","[0.0, 0.0, -3.1e-05, -0.0, -0.0, 3.1e-05]",0.56,3.9
ammonia,-56.107630431794,7,0.602772000561,"[-13.83836, -0.7746632, -0.4171683, -0.4171526, -0.2306286]","[0.0, -3.7e-05, -0.006267, -0.0, 0.008425, 0.002101, -0.007269, -0.004194, 0.002083, 0.007269, -0.004194, 0.002083]",0.34,2.4
boron_monofluoride,-123.800516482246,8,0.40992,"[-24.18804, -6.546276, -1.194679, -0.5674495, -0.4845252, -0.4845252, -0.2514539]","[0.0, 0.0, -0.009263, -0.0, -0.0, 0.009263]",0.37,2.0
carbon_tetrafluoride,-434.862508263905,8,0.0,"[-10.11566, -1.285375, -1.167604, -1.167604, -1.167604, -0.6758735, -0.5993618, -0.5993617, -0.5993617, -0.4618475, -0.4618475, -0.4408065, -0.4408065, -0.4408065, -0.391424, -0.391424, -0.3914239]","[-2e-06, -2e-06, -2e-06, -0.002941, -0.002941, -0.002941, 0.002942, 0.002942, -0.00294, 0.002942, -0.00294, 0.002942, -0.00294, 0.002942, 0.002942]",8.28,25.8
silicon_diatomic,-576.586543514855,12,0.0,"[-5.049242, -5.049099, -3.492557, -3.492557, -3.492473, -3.492473, -3.482804, -3.481834, -0.4894306, -0.3431971, -0.2162041, -0.2162035, -0.1955113]","[0.0, -0.0, 0.006224, -0.0, 0.0, -0.006224]",0.44,4.1
acetylene,-76.627464759217,21,0.000107,"[-9.796786, -9.794499, -0.6804967, -0.5145612, -0.4500027, -0.2709051, -0.2709051]","[0.0, 0.0, 0.011612, 0.0, 0.0, -0.01161, -0.0, -0.0, -0.00845, -0.0, -0.0, 0.008448]",0.72,8.8
phosphorus_trichloride,-1716.467453292548,10,0.183515008242,"[-4.631609, -0.8382344, -0.7756676, -0.7756625, -0.5654282, -0.4276597, -0.4276561, -0.3853637, -0.3398675, -0.3398664, -0.3074225, -0.3074188, -0.2965298, -0.2651454]","[0.0, 6e-06, -0.002236, -0.0, -0.002548, 0.000748, -0.002206, 0.001271, 0.000744, 0.002206, 0.001271, 0.000744]",6.55,22.4
magnesium_monochloride,-657.940294901843,8,1.325034,"[-6.947038, -6.94414, -6.94414, -2.953134, -1.769268, -1.769268, -1.765933, -0.6958576, -0.3100593, -0.2651781, -0.2651781, -0.1826893]","[-0.0, -0.0, 0.00084, 0.0, 0.0, -0.00084]",0.36,2.5
carbon_disulfide,-831.497911677265,11,5.9e-05,"[-5.723366, -5.723364, -5.723364, -0.7860795, -0.7083841, -0.4649218, -0.3949271, -0.3594481, -0.3594481, -0.254908, -0.254908]","[-0.0, 0.0, 4e-06, 0.0, -0.0, 0.003057, 0.0, -0.0, -0.003061]",1.83,7.7
magnesium_monofluoride,-298.442803336202,10,1.277368,"[-45.99876, -23.99575, -2.934397, -1.750953, -1.750953, -1.746669, -0.960519, -0.321283, -0.2930044, -0.2930044, -0.1819416]","[0.0, 0.0, 0.0042, -0.0, -0.0, -0.0042]",0.26,2.2
methyl_radical,-39.444984624972,6,6e-06,"[-9.800445, -0.6178677, -0.3804652, -0.3804642, -0.1981614]","[-2.1e-05, 0.0, -0.0, -0.006649, -0.0, 0.0, 0.003335, 0.005783, 0.0, 0.003335, -0.005783, 0.0]",0.32,2.2
ethylene,-77.859452831029,12,2.7e-05,"[-9.786686, -9.785995, -0.6869965, -0.5208286, -0.4248301, -0.3753296, -0.3139454, -0.2544647]","[-0.0, 1e-06, 0.022854, -0.0, 1e-06, -0.022854, 0.0, -0.003739, -0.00295, 0.0, 0.003738, -0.00295, -0.0, -0.003739, 0.00295, -0.0, 0.003738, 0.00295]",2.24,13.8
trifluoroacetate_anion,-522.927698243441,12,1.85782062555,"[-9.701596, -1.041478, -0.9527294, -0.9525431, -0.7681686, -0.6915028, -0.4871661, -0.3900512, -0.3781336, -0.3754685, -0.2567648, -0.2565036, -0.2461927, -0.2231576, -0.2155545, -0.1991694, -0.1956466, -0.18885, -0.1805715, -0.05819377, -0.03970176, -0.03525746]","[-0.000855, 0.000568, -0.0, 0.001384, 0.004985, 0.0, -0.002327, 0.001677, 0.0, 0.001836, 0.000783, 0.002566, 0.001836, 0.000783, -0.002566, -0.011232, -0.002544, -0.0, 0.009358, -0.006252, -0.0]",22.49,128.4
bromoform,-7750.406098837561,11,0.338635003268,"[-2.503391, -0.8231389, -0.7362504, -0.7362484, -0.5874953, -0.4458833, -0.4174828, -0.4174826, -0.3006111, -0.3006085, -0.2762464, -0.2755635, -0.2755626, -0.2578243]","[-0.0, -9e-06, -0.008093, 0.0, -1e-06, 0.010436, 0.0, 0.002954, -0.000783, 0.002547, -0.001472, -0.00078, -0.002547, -0.001472, -0.00078]",20.66,107.7
nitrogen_trifluoride,-351.962398280957,8,0.0356130540673,"[-14.15547, -1.285682, -1.153102, -1.153101, -0.7615357, -0.6000916, -0.6000885, -0.5376303, -0.4506281, -0.4506199, -0.4060488, -0.4060438, -0.3886021, -0.3160762]","[0.0, 6e-06, -0.010218, -0.0, -0.001783, 0.003406, -0.001548, 0.000889, 0.003406, 0.001548, 0.000888, 0.003406]",3.86,12.7
phosphorus_tetramer,-1360.590261128079,8,0.00106853029906,"[-4.546611, -0.7432544, -0.4964757, -0.496472, -0.4964588, -0.3243978, -0.2769004, -0.2768958, -0.2768882, -0.248302, -0.2482993]","[2e-06, -0.0, 0.010502, 0.009897, 0.0, -0.003498, -0.00495, -0.008571, -0.003502, -0.00495, 0.008571, -0.003502]",7.96,24.0
phosphorus_monochloride,-798.829694319374,8,0.111744,"[-7.024188, -7.024188, -6.329472, -4.57812, -4.577348, -4.577348, -0.8004345, -0.5472389, -0.3651369, -0.3476757, -0.3476757, -0.2077068, -0.2077068]","[0.0, 0.0, -0.002834, -0.0, -0.0, 0.002834]",0.79,3.5
mercapto_radical,-397.378498290561,10,0.312873,"[-87.75858, -7.673789, -5.734379, -5.725378, -5.715958, -0.67396, -0.3776753, -0.2866069, -0.2465411]","[0.0, -0.0, 0.009064, -0.0, 0.0, -0.009064]",0.17,2.1
pentane,-195.948651604694,24,0.0373904566033,"[-9.764689, -0.7284303, -0.6791885, -0.6072173, -0.5343019, -0.5153399, -0.4310724, -0.3964217, -0.3877871, -0.3659985, -0.3500425, -0.3328389, -0.3133997, -0.2909628, -0.288639, -0.2798991, -0.2776568]","[-0.0, 1e-06, 0.01713, -1e-06, -0.00023, -0.016896, -0.0, 0.000227, -0.016894, -0.0, 0.012173, 0.008828, 2e-06, -0.012171, 0.008823, -0.005918, -0.0, -0.004841, 0.005919, -0.0, -0.004842, -0.005896, 0.000297, 0.004811, 0.005897, 0.000297, 0.004812, 0.005896, -0.000298, 0.004812, -0.005895, -0.000298, 0.004812, -0.0, -0.006096, 0.003835, -0.0, 0.006098, 0.003836, 0.005924, -0.00025, -0.004557, -0.005924, -0.000249, -0.004556, -0.005924, 0.00025, -0.004557, 0.005922, 0.000249, -0.004556]",80.26,1021.9
isopropyl_alcohol,-192.773992664315,25,0.638791132091,"[-9.767474, -0.929408, -0.7012914, -0.624077, -0.5282483, -0.4686709, -0.411832, -0.3939061, -0.3493041, -0.339975, -0.3282367, -0.3146464, -0.2876218, -0.2332117]","[-0.001597, 0.008886, -0.005605, 0.001925, -0.000249, 0.013802, -0.011147, -0.0039, -0.004861, 0.009711, -0.007159, -0.004254, 0.000151, -0.001094, 0.001165, 0.000132, -0.000809, -0.004873, -9.7e-05, 0.000273, 0.005234, 0.000219, 0.000453, 0.005233, 0.003619, -0.002577, -0.001378, -0.003697, -0.001831, -0.001383, 0.000427, 0.003875, -0.001368, 0.000353, 0.004132, -0.001711]",32.5,366.6
glyoxal_trans,-226.148669077490,8,0.000382510130585,"[-9.908182, -1.007517, -0.9949761, -0.6522223, -0.5463655, -0.4545585, -0.4500526, -0.4293928, -0.4191295, -0.3821472, -0.2956106, -0.2397456]","[0.006873, 0.002463, 0.0, -0.006899, -0.002452, 0.0, 0.007215, -0.003001, 0.0, -0.007205, 0.003001, 0.0, -0.018294, 0.008165, -0.0, 0.018311, -0.008176, -0.0]",6.04,25.2
ethanol,-153.806888317007,21,0.642069861338,"[-9.770355, -0.9288339, -0.6798193, -0.5467506, -0.4701915, -0.424481, -0.3637187, -0.3437707, -0.3247741, -0.2950189, -0.2303368]","[0.016173, -0.019673, 1e-06, 0.007766, 0.024306, 6e-06, -0.005123, -0.004836, 0.0, 0.003549, 0.003823, -0.0, -0.003824, 0.005058, -0.0, -0.0042, 0.004593, -0.005676, -0.0042, 0.004593, 0.005676, -0.005071, -0.008934, -0.009686, -0.00507, -0.008929, 0.009679]",13.01,108.5
nitrogen_monofluoride,-153.431222676962,8,0.133371,"[-24.20098, -14.01837, -1.224583, -0.7353276, -0.4946241, -0.4946241, -0.4806256, -0.2596866, -0.2596866]","[-0.0, -0.0, -0.009678, 0.0, 0.0, 0.009678]",0.4,2.0
vinyl_chloride,-536.034860498456,11,0.522536624321,"[-6.998712, -6.997744, -0.8057788, -0.6814904, -0.5299276, -0.4488048, -0.4104793, -0.3494369, -0.3394929, -0.2817275, -0.2419032]","[0.0, -0.005937, 0.012695, -0.0, -0.000436, -0.022346, -0.0, 0.005526, 0.001822, -0.0, 0.000338, -0.001818, 0.0, -0.006891, 0.005288, 0.0, 0.0074, 0.004358]",4.78,25.1
ammonia_oxide,-130.750919847754,34,2.03496900007,"[-18.5368, -14.00065, -0.9701676, -0.7345217, -0.5251635, -0.5251609, -0.3854878, -0.1752439, -0.1752431]","[-1e-06, -2.2e-05, -0.031326, -1e-06, -2e-06, 0.010683, -0.0, -0.013357, 0.006874, -0.011594, 0.006689, 0.006883, 0.011596, 0.006691, 0.006884]",1.88,22.4
methylenecyclopropane,-154.559404573227,22,0.170633063004,"[-9.77871, -0.79324, -0.6437591, -0.551533, -0.4807681, -0.4358415, -0.4245991, -0.3824484, -0.3305505, -0.2842437, -0.2606675, -0.2340712]","[0.0, 1e-06, 0.017541, -0.0, 2e-06, -0.016843, -3e-06, 0.01005, -0.007649, -0.0, -0.01005, -0.007651, -1e-06, -0.005915, 0.001627, 2e-06, 0.005914, 0.001627, -0.002973, 0.000949, 0.002838, 0.002973, 0.000949, 0.002836, 0.002973, -0.000949, 0.002837, -0.00297, -0.000951, 0.002836]",20.34,193.7
oxygen_monofluoride,-173.792246446575,13,0.098754,"[-24.21362, -18.77103, -1.23119, -0.8662076, -0.5423221, -0.5062431, -0.4767959, -0.3351741, -0.2876398]","[-0.0, -0.0, -0.016971, 0.0, 0.0, 0.016971]",0.4,2.7
methylamine,-95.049455713650,8,0.504566481508,"[-13.84111, -9.793635, -0.7952103, -0.5938696, -0.4445572, -0.398648, -0.3619296, -0.3245322, -0.2003551]","[0.001463, 0.0165, 0.0, -0.006207, -0.014428, -0.0, 0.005419, -0.00285, 0.0, -0.003371, -0.002146, -0.004751, -0.003371, -0.002146, 0.004751, 0.003033, 0.002535, 0.006197, 0.003033, 0.002535, -0.006197]",4.79,16.0
hydrogen_chloride,-459.336573358588,7,0.440174,"[-100.3262, -9.150466, -7.008668, -6.998329, -6.998329, -0.7762516, -0.4345865, -0.2996434, -0.2996434]","[-0.0, 0.0, 0.009839, 0.0, -0.0, -0.009839]",0.16,1.3
ethanethiol,-475.937390474131,18,0.649143344682,"[-5.675138, -0.7328852, -0.6411666, -0.5423497, -0.42179, -0.4191542, -0.3551281, -0.3291045, -0.324095, -0.2959333, -0.2075624]","[-0.0126, -0.012712, 0.0, 0.005851, 0.016115, -0.0, 0.013751, 0.011441, 0.0, 0.003308, -0.000348, -0.0, 0.000305, 0.002914, -0.004279, 0.000305, 0.002914, 0.004279, -0.000227, -0.003379, -0.004841, -0.000227, -0.003379, 0.004841, -0.010467, -0.013566, 0.0]",13.87,106.2
acetamide,-207.602502416512,16,1.50635776449,"[-9.798977, -0.9466985, -0.8231532, -0.6673167, -0.5356693, -0.4892969, -0.42363, -0.4084605, -0.3638877, -0.354662, -0.3329703, -0.2485618, -0.2184655]","[0.000959, 0.001051, 0.001404, -0.002651, 0.003875, -0.000253, 0.009586, -0.007207, -0.002586, 0.000895, 0.009536, 0.000363, -0.011678, 0.012479, -0.001485, -0.000696, -0.007145, -0.011285, -0.001017, -0.006383, 0.011631, 0.004536, -0.000368, 0.000769, 6.6e-05, -0.005838, 0.001442]",16.24,117.6
nitromethane,-243.279303472062,11,1.37911202762,"[-9.85013, -1.146981, -0.9836955, -0.7546207, -0.5672384, -0.5185679, -0.4981486, -0.4795365, -0.4111917, -0.3998396, -0.3016334, -0.2795989, -0.2608918]","[0.013787, 0.005148, 0.0, 0.007056, 0.000169, 0.0, -0.00235, 0.004051, -0.0, -0.002566, -0.004849, -0.00339, -0.002566, -0.004849, 0.00339, -0.007845, 0.009432, -0.0, -0.005516, -0.009101, -0.0]",9.64,39.6
hydrogen_sulfide,-398.026657517111,7,0.404491,"[-87.72558, -7.644764, -5.699612, -5.696166, -5.689105, -0.6839955, -0.4089425, -0.3352128, -0.235334]","[-0.0, 0.0, 0.019136, -0.0, -0.00908, -0.009568, 0.0, 0.00908, -0.009568]",0.28,2.2
monosodium_sulfide,-558.295121674252,21,3.122353,"[-7.574974, -5.636775, -5.622593, -5.620308, -2.08209, -1.079799, -1.079024, -1.077224, -0.542928, -0.2054759, -0.1898883, -0.1688922]","[0.0, 0.0, -0.002313, -0.0, -0.0, 0.002313]",0.34,4.4
silicon_nitride,-342.573676132059,13,1.150287,"[-65.16907, -13.89919, -5.067295, -3.507128, -3.506774, -3.506774, -0.7174406, -0.3925053, -0.283635, -0.2698597, -0.2698597]","[0.0, 0.0, -0.007475, -0.0, -0.0, 0.007475]",0.55,3.8
hydrogen_cyanide,-92.656420486165,8,1.182222,"[-13.89178, -9.843763, -0.8432794, -0.556536, -0.3392996, -0.3392996, -0.3378873]","[-0.0, -0.0, 0.024073, 0.0, 0.0, -0.011214, 0.0, 0.0, -0.012859]",0.85,2.7
carbonyl_sulfide,-509.388761323512,11,0.332258,"[-5.733166, -5.726379, -5.726379, -1.047702, -0.7577632, -0.4953371, -0.4385357, -0.4385357, -0.4328581, -0.2811982, -0.2811982]","[-0.0, -0.0, 0.00366, 0.0, 0.0, 2.2e-05, 0.0, -0.0, -0.003682]",2.38,7.6
chlorine_trifluoride,-756.359139331905,11,0.231337,"[-7.193476, -1.217776, -1.101159, -1.099137, -0.8201707, -0.577252, -0.5712736, -0.5111788, -0.4556809, -0.4069718, -0.4043445, -0.3916767, -0.3706632, -0.3608731, -0.3001893]","[0.0, -0.0, -0.007706, -0.0, -0.0, 0.009755, -0.0, -0.004238, -0.001025, 0.0, 0.004238, -0.001025]",5.17,16.3
ethanol_radical,-153.133229998603,29,0.976979992101,"[-9.843686, -9.804374, -0.922649, -0.6875682, -0.5566592, -0.4410566, -0.4283761, -0.3896809, -0.3534659, -0.3448579, -0.2779038, -0.2378376]","[0.004346, -0.001487, -0.000943, 0.031371, 0.015226, 0.002992, -0.029122, -0.01057, -0.001002, -0.002313, -0.001619, -0.008275, -0.002744, -0.002567, 0.007139, -0.003951, -0.003991, 0.000103, 0.001139, 0.002644, -0.0039, 0.001273, 0.002365, 0.003887]",8.71,118.3
phosphorus_trifluoride,-638.031739291998,8,0.142416001548,"[-4.637006, -1.19886, -1.14357, -1.143569, -0.6247452, -0.5297338, -0.5297338, -0.4949565, -0.4583606, -0.4583596, -0.4194402, -0.4194399, -0.4031854, -0.2754411]","[0.0, 8e-06, -0.062114, 0.0, -0.022651, 0.020706, -0.019606, 0.011321, 0.020704, 0.019606, 0.011321, 0.020704]",5.13,15.3
nitrogen_diatomic,-108.694480776381,6,5e-06,"[-13.96728, -13.96591, -1.038791, -0.4938326, -0.4371474, -0.4371474, -0.3827744]","[0.0, 0.0, -0.006333, -0.0, -0.0, 0.006333]",0.29,1.4
acetone,-191.591235042868,24,1.23771808013,"[-9.789872, -0.9467004, -0.7027486, -0.6463213, -0.4816338, -0.4242586, -0.4193388, -0.4081832, -0.3660548, -0.3551856, -0.3396131, -0.3208854, -0.2138795]","[3e-06, 1e-06, 0.025608, -2e-06, -3e-05, -0.013332, 1e-06, 0.011196, -0.009898, -1e-06, -0.011183, -0.009879, 0.0, -0.00367, -0.002831, -0.0, 0.003676, -0.002834, 0.003349, 0.000427, 0.003292, -0.003349, 0.000428, 0.003293, -0.003354, -0.000422, 0.003291, 0.003353, -0.000423, 0.00329]",21.05,211.6
glycine_zwitterion,-282.306698944087,23,3.91103427897,"[-9.850906, -0.9572527, -0.9206465, -0.8520805, -0.6776149, -0.5804167, -0.5606815, -0.4805317, -0.4417324, -0.4090354, -0.3730684, -0.3410773, -0.331784, -0.2153034, -0.2043554, -0.1883476]","[0.002972, 0.004808, 0.0, -0.018615, 0.004162, -0.0, 0.00401, 0.002477, -0.0, -0.001416, 0.003364, -0.0, 0.013675, -0.014046, -0.0, 0.003919, -0.000653, -0.006219, 0.003919, -0.000653, 0.006219, -0.007048, -0.004017, -0.007271, -0.007048, -0.004017, 0.007271, 0.005632, 0.008574, 0.0]",27.25,267.8
hexane,-234.906780056735,22,0.000808278417379,"[-9.764636, -0.7329144, -0.6960418, -0.6391293, -0.5719669, -0.5189628, -0.5162102, -0.4351741, -0.4019802, -0.3955033, -0.3802443, -0.355545, -0.3423686, -0.3369511, -0.3106635, -0.3011747, -0.2881182, -0.2833593, -0.2771724, -0.2745282]","[-0.000573, 0.015044, -0.0, 0.000574, -0.015056, -2e-06, -0.01406, 0.009832, -1e-06, 0.014056, -0.009817, -4e-06, -0.013877, 0.009728, 1e-06, 0.013872, -0.00971, 0.0, 0.006583, 0.002878, 0.0, -0.006583, -0.00288, -0.0, 0.003666, -0.002801, -0.005946, 0.003666, -0.002801, 0.005947, -0.003665, 0.002796, 0.005944, -0.003664, 0.002796, -0.005943, -0.003805, 0.002991, 0.005915, -0.003806, 0.00299, -0.005916, 0.003806, -0.002994, 0.005922, 0.003806, -0.002993, -0.005922, 0.00401, -0.002762, -0.005931, 0.00401, -0.002764, 0.005932, -0.004008, 0.002761, 0.005932, -0.004008, 0.002759, -0.005928]",137.65,1708.1
pyridine,-246.167020762135,18,0.906999000179,"[-9.804645, -0.8624342, -0.7349923, -0.6938885, -0.5749457, -0.5727015, -0.4854845, -0.442841, -0.4226735, -0.3884466, -0.3732413, -0.3645296, -0.326563, -0.2767438, -0.2547243, -0.2221831]","[-0.0, -1e-06, 0.017363, -0.0, 0.0, -0.014157, 0.0, 0.016087, 0.002628, 0.0, -0.016087, 0.002628, 0.0, -0.011838, -0.005851, 0.0, 0.011838, -0.005851, -0.0, -0.0, 0.004124, -0.0, -0.004427, -0.002393, -0.0, 0.004428, -0.002393, -0.0, 0.003927, 0.001951, -0.0, -0.003927, 0.001951]",46.98,320.2
silane,-290.686903306229,6,0.0,"[-65.11036, -5.015343, -3.453949, -3.453949, -3.453949, -0.4974564, -0.3134582, -0.3134582, -0.3134582]","[-0.0, -0.0, -0.0, -0.002494, -0.002494, -0.002494, 0.002494, 0.002494, -0.002494, 0.002494, -0.002494, 0.002494, -0.002493, 0.002494, 0.002494]",0.82,4.3
isobutylene,-155.789662335096,24,0.252523018163,"[-9.765086, -0.7312901, -0.6252291, -0.6107341, -0.469347, -0.4088078, -0.4005798, -0.3917775, -0.3448104, -0.3262474, -0.3241005, -0.3017878, -0.2230607]","[0.0, 1e-06, 0.014741, 1e-06, 0.0, -0.000577, -4e-06, 0.011834, -0.009161, -4e-06, -0.011832, -0.00916, -3e-06, -0.005206, -0.00157, 3e-06, 0.005205, -0.001569, 0.0, -0.003101, -0.002818, -0.003398, 0.000242, 0.003233, 0.003399, 0.000242, 0.003233, -0.0, 0.0031, -0.002817, 0.0034, -0.000242, 0.003234, -0.003395, -0.000243, 0.003231]",29.34,328.9
fluorine_diatomic,-198.344039713628,7,0.000121,"[-24.20557, -24.20553, -1.246626, -1.008664, -0.5800673, -0.4814299, -0.4814299, -0.3547, -0.3547]","[0.0, 0.0, -0.019132, -0.0, -0.0, 0.019132]",0.3,1.5
ethylamine,-134.011154264466,15,0.533645388985,"[-9.77111, -0.8017587, -0.6579919, -0.5485041, -0.4517877, -0.398204, -0.3689185, -0.3685955, -0.3211822, -0.2966941, -0.2052942]","[0.010438, -0.00745, -3e-06, 0.00322, 0.013454, -2e-06, -0.011998, -0.006356, -4e-06, -0.003934, -0.002384, -0.0, 6e-06, 0.002738, -0.003705, 6e-06, 0.00274, 0.003707, -0.000499, -0.003429, 0.003587, -0.000499, -0.003427, -0.003584, 0.00163, 0.002056, -0.003813, 0.001629, 0.002058, 0.003816]",17.97,107.3
aluminum_diatomic,-482.709080305260,13,0.0,"[-55.13982, -3.921214, -3.921174, -2.553108, -2.553073, -2.550369, -2.550333, -2.548656, -2.548221, -0.3490564, -0.2549351, -0.1432737, -0.143139]","[0.0, 0.0, 0.00149, -0.0, -0.0, -0.00149]",0.41,4.2
methyl_nitrite,-243.266509716109,11,0.967681634843,"[-9.850225, -1.119437, -0.975396, -0.7069936, -0.5720784, -0.5089264, -0.4781364, -0.4652031, -0.4043518, -0.3800871, -0.3409553, -0.3033481, -0.2488565]","[-0.01509, -0.008109, 0.0, 0.004138, 0.011468, -0.0, -0.010274, -0.040615, -0.0, 0.00374, -0.004005, 0.0, -0.000266, 0.003705, -0.004206, -0.000266, 0.003705, 0.004206, 0.018018, 0.033851, 0.0]",9.48,38.9
isobutane,-156.993674468038,17,0.0607700395754,"[-9.765375, -0.7287417, -0.6121961, -0.6121911, -0.4994641, -0.419205, -0.3880873, -0.3880841, -0.3390838, -0.3390788, -0.3172273, -0.2902337, -0.2902314, -0.2802873]","[1e-06, 9e-06, 0.011006, 1e-06, 0.011807, -0.004744, 0.010258, -0.005938, -0.004715, -0.010255, -0.005938, -0.004715, -0.0, 4e-06, -0.004629, -0.0, 9.9e-05, 0.004975, 0.003682, -0.00209, -0.001185, -0.003683, -0.002091, -0.001185, 7.7e-05, -3.8e-05, 0.004984, -0.003661, -0.002132, -0.001192, 1.9e-05, 0.004239, -0.001196, -7.7e-05, -3.8e-05, 0.004983, -1.9e-05, 0.004238, -0.001196, 0.003658, -0.002131, -0.001191]",40.62,369.0
boron_trifluoride,-322.558600413420,7,5e-06,"[-6.582935, -1.172458, -1.133919, -1.133917, -0.5549905, -0.52382, -0.523819, -0.4902854, -0.4208128, -0.4208113, -0.4148189, -0.4148166, -0.3784905]","[0.0, -2e-06, 0.0, 0.0, -0.001901, -0.0, -0.001646, 0.000951, -0.0, 0.001646, 0.000951, -0.0]",3.31,10.1
nitrosyl_chloride,-587.752833598937,24,0.639291994796,"[-6.994546, -6.991475, -1.207183, -0.7612516, -0.638095, -0.5261353, -0.5223341, -0.4880679, -0.2985133, -0.2872584, -0.2791396]","[-0.000197, -0.005442, 0.0, -0.008424, 0.006535, -0.0, 0.008622, -0.001093, 0.0]",2.29,13.2
silicon_monophosphide,-628.393088899843,20,0.312081,"[-5.059288, -4.543173, -4.53369, -4.53086, -3.504267, -3.499139, -3.49339, -0.5660901, -0.3772587, -0.2554405, -0.2319254, -0.2294415]","[-0.0, -0.0, 0.000712, 0.0, 0.0, -0.000712]",0.8,6.4
pyrrole,-208.394502977755,26,0.7337061185,"[-9.767459, -0.8954005, -0.7015865, -0.6505152, -0.5378482, -0.5112954, -0.4914306, -0.3869, -0.379672, -0.3724109, -0.3430652, -0.3355639, -0.2255551, -0.1957719]","[0.0, 2.7e-05, 0.028092, 0.0, -0.0, -0.016652, 0.0, 0.014511, 0.006425, -0.0, -0.014532, 0.006401, -0.0, 0.006531, -0.015281, -0.0, -0.00653, -0.015285, 0.0, -0.006762, -0.003255, -0.0, 0.006754, -0.003251, 0.0, -0.004737, 0.006404, 0.0, 0.004738, 0.006403]",30.0,285.9
aluminum_monoxide,-316.093095682283,12,1.685543,"[-55.15115, -18.57889, -3.937232, -2.567193, -2.567193, -2.564249, -0.7984475, -0.3325957, -0.2545979, -0.2545979, -0.2444558]","[0.0, 0.0, -0.00389, -0.0, -0.0, 0.00389]",0.53,3.3
trifluoromethane,-336.167727464359,8,0.538593025891,"[-10.02982, -1.223752, -1.138319, -1.138306, -0.6614544, -0.5611457, -0.5567153, -0.5567125, -0.4298054, -0.4298041, -0.3975559, -0.3975521, -0.3734434, -0.348767]","[0.0, 2.2e-05, -0.017239, 0.0, 3e-06, -0.005214, 0.0, 0.004186, 0.007492, 0.00364, -0.002105, 0.00748, -0.00364, -0.002105, 0.00748]",4.29,16.5
silicon_monofluoride,-387.595268223085,13,0.286543,"[-65.18711, -24.1135, -5.07931, -3.523823, -3.517739, -3.517009, -1.103257, -0.5005441, -0.4163521, -0.4127759, -0.3327938, -0.1434855]","[0.0, 0.0, 0.004582, -0.0, -0.0, -0.004582]",0.55,3.9
ethyl_chloride,-537.245356859981,26,0.820707231402,"[-6.975931, -0.7858413, -0.6751566, -0.5595244, -0.4340728, -0.4162213, -0.3751041, -0.3370273, -0.3351534, -0.2619379, -0.2593631]","[-0.002295, -0.001243, 0.000701, 0.012435, -0.008693, 7.6e-05, -0.003393, 0.014528, -0.001121, -0.006637, -0.002439, -1e-06, -0.00046, 0.003513, 0.005219, -0.00042, 0.003567, -0.005207, 0.000927, -0.004414, 0.006508, -0.000158, -0.004819, -0.006176]",9.66,111.6
bicyclo[1.1.0]butane,-154.553702353001,25,0.296107009667,"[-9.796892, -0.8474195, -0.6207874, -0.5176156, -0.5153294, -0.4700042, -0.3863789, -0.3831523, -0.330306, -0.2921984, -0.2870771, -0.2155791]","[0.020355, -0.0, -0.008449, -0.020349, -0.0, -0.00844, 3e-06, 0.017342, 0.007045, 3e-06, -0.017341, 0.007042, 1e-06, 0.006027, -0.004298, 1e-06, -0.006027, -0.0043, -2e-06, 0.001424, -0.002782, -2e-06, -0.001424, -0.002781, -0.006321, -0.0, 0.008486, 0.00631, -0.0, 0.008477]",23.14,234.5
silyl_radical,-290.047687879272,6,0.013412,"[-65.12686, -5.030064, -3.472805, -3.467489, -3.467489, -0.4942329, -0.3234601, -0.32346, -0.1953445]","[-0.0, -1e-06, -0.005666, 0.0, -0.009288, 0.00189, -0.008043, 0.004644, 0.001888, 0.008043, 0.004644, 0.001888]",0.51,3.7
cyclopentane,-194.772863001228,20,0.0117346303734,"[-9.770538, -0.7568841, -0.6344699, -0.6340663, -0.5081565, -0.4981718, -0.4334398, -0.4323809, -0.36887, -0.3673268, -0.2978735, -0.2971533, -0.2966206, -0.2942409, -0.2813768, -0.2694284]","[0.008762, -0.010271, 0.009291, 0.000102, 0.01516, 0.005098, -0.015068, 0.004137, 0.000574, -0.007504, -0.012831, -0.006109, 0.013151, 0.00409, -0.008875, -0.000803, -0.002427, -0.006891, 0.000534, -0.006118, 0.004, 0.004438, -0.001822, 0.005542, 0.004354, -0.000553, -0.005883, 0.000286, 0.002073, 0.007045, 0.003717, 0.005172, -0.003627, -0.004216, 0.005469, 0.002425, -0.000596, 0.00011, -0.007333, -0.000758, 0.000319, 0.00731, -0.0064, -0.002508, -0.002568]",70.91,688.4
dimethyl_sulfoxide,-550.654047655300,28,1.55759678696,"[-5.76451, -0.9332661, -0.728018, -0.66091, -0.5471164, -0.4388756, -0.421884, -0.4169038, -0.3862631, -0.3673281, -0.359066, -0.3211837, -0.2450251, -0.2026539]","[-1e-06, 0.002633, -0.00382, 0.0, -0.002996, 0.002385, 0.028467, 0.013043, 0.004781, -0.028467, 0.013043, 0.00478, -0.025676, -0.017298, -0.004633, 0.025677, -0.017297, -0.004632, 0.003506, 0.005825, -0.001481, -0.002452, -0.001389, 0.00205, -0.003507, 0.005825, -0.00148, 0.002452, -0.001389, 0.002049]",25.07,285.6
trifluoroacetic_acid,-523.440820161620,12,0.720282396304,"[-9.955692, -1.246573, -1.15705, -1.154301, -1.059861, -0.9745701, -0.7132252, -0.6295155, -0.5796707, -0.5784159, -0.5530341, -0.4672143, -0.4577197, -0.4478664, -0.4410616, -0.4286225, -0.4081991, -0.4048954, -0.3856565, -0.375087, -0.3306351, -0.2840192]","[0.009948, 0.013776, -0.0, -0.016525, 0.022578, 0.0, -0.002274, -0.036906, -0.0, 0.010405, -0.009784, -0.0, -0.00364, 0.000144, 0.0, -0.002757, -0.003778, -0.002283, -0.002757, -0.003778, 0.002283, 0.007601, 0.017749, 0.0]",37.59,170.6
nitric_oxide,-128.978545259734,11,0.098204,"[-18.75335, -14.00423, -1.15921, -0.6201253, -0.4870501, -0.481278, -0.4394444, -0.167547]","[-0.0, -0.0, -0.008066, 0.0, 0.0, 0.008066]",0.45,3.0
hydrazine,-110.997485935686,7,1.077384,"[-13.87312, -13.87309, -0.8786523, -0.6817444, -0.4649618, -0.4481268, -0.3939587, -0.2565853, -0.1969315]","[0.005983, 0.008653, -0.000192, -0.005983, -0.008653, -0.000192, 0.00646, -0.010567, -0.007133, -0.00646, 0.010567, -0.007133, -0.008193, -0.002223, 0.007325, 0.008193, 0.002223, 0.007325]",2.49,9.8
aluminum_carbide,-278.945832296228,10,0.786579,"[-55.15159, -9.860376, -3.933694, -2.564456, -2.564456, -2.560397, -0.5412779, -0.2990471, -0.2226861, -0.2226861, -0.2012973]","[-0.0, -0.0, -0.000896, 0.0, 0.0, 0.000896]",0.49,3.5
sulfur_monoxide,-471.533953744541,10,0.552409,"[-87.81766, -18.6862, -7.728892, -5.781775, -5.780572, -5.780572, -1.005812, -0.6194242, -0.419873, -0.4132224, -0.4132224, -0.226417, -0.226417]","[-0.0, -0.0, 0.011178, 0.0, 0.0, -0.011178]",0.6,3.4
hydroxymethyl_radical,-114.192696915125,8,0.578460041291,"[-18.65372, -9.832585, -0.9744837, -0.6123524, -0.4852776, -0.4123977, -0.361204, -0.3161689, -0.1475485]","[0.020359, 0.003682, -0.004624, -0.01686, -0.002149, 0.003748, 0.002079, -0.001405, -0.000642, -0.001731, -0.006504, 0.000794, -0.003847, 0.006376, 0.000724]",1.98,8.7
dimethyl_sulfide,-475.935597627473,12,0.631586001351,"[-5.672622, -0.7289083, -0.6372906, -0.5398707, -0.4001624, -0.396543, -0.3854922, -0.3641655, -0.3285712, -0.283896, -0.1895739]","[-0.0, 0.007338, -0.006134, -0.0, -0.007338, -0.006133, 0.0, 3e-06, 0.008609, 0.0, -0.003547, -0.00313, -0.004554, 0.000798, 0.00248, 0.004554, 0.000798, 0.00248, 0.0, 0.003546, -0.003129, 0.004553, -0.000799, 0.002479, -0.004553, -0.000799, 0.002479]",13.74,72.3
beryllium_monochloride,-473.289267691400,8,0.295691,"[-100.3179, -9.142817, -6.995799, -6.993293, -6.993293, -3.865659, -0.7531901, -0.375026, -0.3136655, -0.3136655, -0.1915967]","[-0.0, -0.0, -0.001625, 0.0, 0.0, 0.001625]",0.25,2.1
n_propyl_chloride,-576.203065708019,12,0.857734356189,"[-6.975534, -0.7834975, -0.7053402, -0.6036865, -0.5363298, -0.439874, -0.4078865, -0.3897742, -0.3701411, -0.3337737, -0.3225161, -0.3048914, -0.2599218, -0.2583714]","[0.006473, -0.00159, -0.0, 0.004115, 0.004905, 0.0, -0.001151, -0.005902, 0.0, -0.001089, 0.000854, -0.0, -0.000706, 0.004456, 0.006422, -0.000706, 0.004456, -0.006422, 0.000109, -0.003656, 0.005513, 0.000109, -0.003656, -0.005513, -0.0015, 0.00353, 0.005721, -0.0015, 0.00353, -0.005721, -0.004154, -0.006925, -0.0]",31.82,163.4
chloroform,-1414.612008835451,11,0.428988000117,"[-7.015342, -0.879354, -0.7758368, -0.7758364, -0.6015308, -0.4780238, -0.4478395, -0.4478395, -0.3282289, -0.3282281, -0.3015545, -0.2948181, -0.2948177, -0.2769151]","[-0.0, -2e-06, 0.035622, 0.0, -1e-06, -0.014533, 0.0, 0.000711, -0.00703, 0.000612, -0.000354, -0.007029, -0.000612, -0.000354, -0.007029]",11.37,33.9
phosphorus_monosulfide,-736.955228825922,17,0.184888,"[-5.724026, -5.721558, -5.719454, -4.573731, -4.567907, -4.566976, -0.711477, -0.4932033, -0.3195012, -0.3112574, -0.3058799, -0.1693363]","[0.0, 0.0, 0.000608, -0.0, -0.0, -0.000608]",0.84,6.1
cyclopropane,-116.821076147515,24,0.000178535710714,"[-9.78178, -9.781778, -0.777819, -0.5335961, -0.5335901, -0.449207, -0.4227172, -0.3180546, -0.3180482, -0.2656416, -0.265636]","[-3e-06, 0.013059, 1e-06, 0.011326, -0.006534, 1e-06, -0.011327, -0.006532, 4e-06, 0.0, -0.00281, -0.004495, -0.002433, 0.001406, -0.004498, 0.002435, 0.001407, -0.004502, 2e-06, -0.002809, 0.004494, -0.002432, 0.001407, 0.004498, 0.002432, 0.001405, 0.004497]",11.62,123.6
formyl_radical,-113.002627407922,10,0.630643720388,"[-18.68361, -9.896293, -1.016303, -0.5704142, -0.4556801, -0.4069002, -0.3901837, -0.1883009]","[0.044062, -0.04008, -0.0, -0.030929, 0.005959, 0.0, -0.013134, 0.034121, 0.0]",0.97,4.2
spiropentane,-193.521505544171,19,0.000474734662733,"[-9.782906, -0.8058198, -0.7289285, -0.5401522, -0.5401485, -0.4853706, -0.4416951, -0.42695, -0.4269465, -0.328759, -0.3155075, -0.3149331, -0.2558623, -0.2558605, -0.245215]","[1e-06, -5e-06, -1.1e-05, 6e-06, 0.01619, 0.009509, -6e-06, -0.016189, 0.009505, -0.016187, 2e-06, -0.009495, 0.016181, 5e-06, -0.009496, -0.00661, -0.003932, -0.002335, 0.006609, -0.003931, -0.002337, 0.006612, 0.003932, -0.002335, -0.006609, 0.003934, -0.002338, 0.003931, 0.006608, 0.002335, 0.003931, -0.006607, 0.002333, -0.003931, -0.006607, 0.002335, -0.003927, 0.0066, 0.002331]",51.32,454.6
acetonitrile,-131.497318174520,12,1.84877495148,"[-13.86179, -9.855402, -9.835199, -0.8324731, -0.7883922, -0.5437908, -0.4657483, -0.3444236, -0.3164518, -0.3117253, -0.2564515]","[0.001954, -0.001154, -0.032696, -0.010916, 0.006302, 0.025073, 0.004572, -0.00264, -0.001029, 0.051038, 0.015946, 0.014839, 0.011731, -0.052163, 0.014829, -0.058379, 0.033709, -0.021017]",4.35,24.3
disilane,-580.232414548005,7,0.0,"[-3.452804, -3.452748, -3.452747, -3.452619, -0.5212002, -0.4608651, -0.3301109, -0.3301041, -0.3044535, -0.3044461, -0.2667241]","[-0.0, 2.1e-05, 0.011152, -0.0, -2.1e-05, -0.011152, 0.0, -0.007966, -0.00392, 0.006878, 0.003972, -0.003913, -0.006878, 0.003972, -0.003913, -0.0, 0.007966, 0.003921, 0.006878, -0.003972, 0.003913, -0.006878, -0.003972, 0.003913]",6.76,22.5
methylene_chloride,-956.448521957756,8,0.638978,"[-7.001645, -0.835655, -0.7611423, -0.6102724, -0.4580731, -0.4309556, -0.4187068, -0.3022417, -0.2963633, -0.2803829, -0.2743686]","[0.0, -0.0, 0.027562, 0.015684, 0.0, -0.009707, -0.015684, 0.0, -0.009707, -0.0, 0.003991, -0.004074, -0.0, -0.003991, -0.004074]",4.46,15.2
methlidyne_radical,-38.094659310476,10,0.573337,"[-9.911487, -0.5894797, -0.2854515, -0.2170794]","[-0.0, 0.0, 0.002195, 0.0, -0.0, -0.002195]",0.1,1.7
trifluoro_acetonitrile,-427.659921710656,11,0.62263500002,"[-9.874452, -1.266882, -1.176848, -1.176847, -0.8741825, -0.7291411, -0.6292918, -0.5989835, -0.5989834, -0.4661265, -0.466126, -0.4361436, -0.4361435, -0.4251467, -0.406592, -0.3613242, -0.3613242, -0.3587268]","[0.0, 1e-06, -0.020585, -0.0, 0.0, 0.00769, 0.0, -0.0, 0.002363, -0.0, 0.003742, 0.003513, 0.003244, -0.001872, 0.00351, -0.003244, -0.001872, 0.00351]",12.78,69.2
acetyl_radical,-151.979461531676,11,1.01932238378,"[-18.65913, -9.889334, -9.817816, -0.9979884, -0.6987446, -0.4963473, -0.4266546, -0.4254416, -0.4219893, -0.3623796, -0.347395, -0.1659515]","[-0.012511, -0.014133, 0.0, -0.02056, 0.014492, -0.0, -0.003785, 0.004824, -0.0, 0.003568, -0.001359, -0.003612, 0.003568, -0.001359, 0.003612, 0.02972, -0.002466, 0.0]",4.01,25.7
silylene_t,-289.411065989802,7,0.003326,"[-65.15116, -5.050211, -3.492167, -3.491478, -3.486719, -0.4827986, -0.3394695, -0.2319016, -0.1733308]","[-0.0, 0.0, 0.003318, 0.0, 0.003315, -0.001659, 0.0, -0.003315, -0.001659]",0.25,2.5
oxygen_water,-151.832252483029,8,1.00009815371,"[-18.63908, -18.58029, -0.9541515, -0.8944248, -0.5154929, -0.4630926, -0.3767542, -0.3200287, -0.2974573, -0.2461391]","[-0.011735, 0.008317, 0.002109, -0.003626, -0.010792, -0.005037, 0.003764, -0.002407, -0.010022, 0.003837, -0.006592, 0.00771, 0.014148, 0.004092, 0.001055, -0.006388, 0.007381, 0.004186]",1.74,8.6
chlorine_monofluoride,-557.927109874326,8,0.304243,"[-9.219914, -7.086814, -7.0646, -7.0646, -1.146201, -0.7679964, -0.5096187, -0.4400799, -0.4400799, -0.2938738, -0.2938738]","[0.0, 0.0, -0.000328, -0.0, -0.0, 0.000328]",0.54,2.5
sodium_hydride,-162.001996309733,10,2.235942,"[-37.70738, -2.053527, -1.051181, -1.051181, -1.048178, -0.1588247]","[-0.0, -0.0, -0.001176, 0.0, 0.0, 0.001176]",0.06,1.1
nitrogen_tribromide,-7766.304918851381,12,0.197874335329,"[-2.516986, -0.8944624, -0.7467049, -0.746661, -0.6331176, -0.4475041, -0.4474833, -0.3936393, -0.310685, -0.3106692, -0.278197, -0.2781719, -0.2621258, -0.2510417]","[-3.7e-05, -2.3e-05, 0.003778, 9e-06, -0.001847, -0.001261, -0.001595, 0.000932, -0.001262, 0.001623, 0.000937, -0.001255]",14.13,86.8
phosphorus_pentafluoride,-836.634059172974,10,1.6e-05,"[-4.740167, -1.241586, -1.17573, -1.175726, -1.138868, -1.105064, -0.6583456, -0.5691527, -0.5691518, -0.5537654, -0.4951041, -0.495102, -0.4798243, -0.4798216, -0.4603075, -0.437903, -0.4169531, -0.4011422, -0.4011421, -0.3743401, -0.3743394]","[0.0, 9e-06, 0.0, -0.0, -0.009428, -0.0, -0.00816, 0.004711, -0.0, 0.00816, 0.004711, -0.0, -0.0, -1e-06, -0.004196, -0.0, -1e-06, 0.004196]",29.5,69.4
aminyl_radical,-55.422814491084,7,0.704025,"[-13.90022, -0.7788587, -0.4344704, -0.2910814, -0.2743781]","[-0.0, 0.0, 0.013065, -0.0, -0.008473, -0.006533, 0.0, 0.008473, -0.006533]",0.18,1.9
allene,-115.603460173236,27,0.000408090676198,"[-9.812327, -9.790918, -9.790895, -0.7171205, -0.638147, -0.4704413, -0.40858, -0.4031553, -0.4031539, -0.2466614, -0.2466609]","[-0.0, -1e-06, -1.3e-05, 0.0, 1e-06, 0.017277, 0.0, 0.0, -0.017272, 8e-06, -0.003743, -0.002723, -8e-06, 0.003742, -0.002722, -0.003749, -8e-06, 0.002727, 0.003749, 9e-06, 0.002727]",4.9,61.4
methane,-40.119709009930,6,0.0,"[-9.758703, -0.6238472, -0.3482144, -0.3482144, -0.3482144]","[1e-06, 1e-06, 1e-06, -0.003654, -0.003654, -0.003654, -0.003654, 0.003654, 0.003654, 0.003654, -0.003654, 0.003654, 0.003654, 0.003654, -0.003654]",0.54,3.2
carbon_monosulfide,-434.531280805080,10,0.818043,"[-87.77843, -9.888011, -7.698164, -5.749053, -5.749053, -5.747354, -0.7705467, -0.4810702, -0.3346093, -0.3346093, -0.273744]","[0.0, 0.0, -0.001166, -0.0, -0.0, 0.001166]",0.6,2.7
sulfur_hexafluoride,-992.429048393914,8,0.0,"[-6.035416, -1.316287, -1.189392, -1.189392, -1.189392, -1.134181, -1.13418, -0.7514209, -0.6215667, -0.6215663, -0.6215663, -0.5185837, -0.5185837, -0.5185834, -0.4968717, -0.4968713, -0.4323984, -0.4323984, -0.4323983, -0.4244948, -0.4244948, -0.4244945, -0.3818079, -0.3818079, -0.3818076]","[0.0, 0.0, -1e-06, -0.0, -0.0, -0.009999, -0.0, -0.009999, 0.0, -0.009999, -0.0, 0.0, -0.0, 0.009999, 0.0, 0.009999, -0.0, 0.0, -0.0, -0.0, 0.01]",40.06,90.3
nonane,-351.781247990334,18,0.0374375510684,"[-9.76461, -0.7392555, -0.7207827, -0.6907624, -0.6507258, -0.6035428, -0.5546617, -0.5208879, -0.5159156, -0.5113091, -0.4410611, -0.4238273, -0.3970458, -0.3959248, -0.3891054, -0.3639761, -0.3626233, -0.3607412, -0.3298018, -0.3286483, -0.3123748, -0.3010826, -0.3009663, -0.2909634, -0.2855761, -0.2832764, -0.2771148, -0.2767897, -0.2648441]","[-0.0, 0.0, 0.017123, 1e-06, 3.7e-05, -0.017111, 0.0, -4e-05, -0.01712, 0.0, 0.000206, 0.017169, -0.0, -0.000215, 0.01717, -1e-06, -0.000219, -0.016974, -0.0, 0.000221, -0.016946, 1e-06, 0.012193, 0.008875, -0.0, -0.01219, 0.008864, -0.00589, 2e-06, -0.004838, 0.00589, 2e-06, -0.004838, -0.005921, -1.5e-05, 0.004847, 0.00592, -1.4e-05, 0.004846, 0.005922, 1.4e-05, 0.004849, -0.005922, 1.4e-05, 0.004849, -0.005914, -3.9e-05, -0.004854, 0.005914, -3.9e-05, -0.004854, 0.005917, 3.8e-05, -0.004858, -0.005917, 3.8e-05, -0.004858, 0.005884, 0.000288, 0.004816, -0.005883, 0.000288, 0.004816, -0.005875, -0.000288, 0.004808, 0.005876, -0.000288, 0.004808, -0.0, -0.006097, 0.003836, 0.005938, -0.000295, -0.004565, -0.005939, -0.000295, -0.004566, -0.0, 0.006101, 0.00384, -0.00594, 0.000295, -0.004566, 0.00594, 0.000295, -0.004566]",421.95,4948.5
furan,-228.173947232239,17,0.253045005762,"[-9.788771, -1.024596, -0.7276998, -0.6797064, -0.5477445, -0.5152771, -0.4958434, -0.4146474, -0.4035809, -0.3689581, -0.357886, -0.3352354, -0.2610587, -0.215963]","[0.0, -1e-06, 0.014926, -0.0, 0.012725, 0.004461, -0.0, -0.012725, 0.004461, 0.0, 0.014792, -0.013147, 0.0, -0.014794, -0.013145, -0.0, -0.006283, -0.003632, -0.0, 0.006285, -0.003633, 0.0, -0.006205, 0.004855, -0.0, 0.006205, 0.004855]",22.61,152.1
methanol_radical,-114.166369253417,13,0.880916569277,"[-18.65562, -9.841548, -0.9280709, -0.6137512, -0.4420913, -0.4156988, -0.3932859, -0.2915799, -0.23925]","[-0.040661, -0.040216, 0.0, 0.017468, 0.02349, -0.0, -0.002793, 0.014314, 0.0, 0.012993, 0.001206, -0.004425, 0.012993, 0.001206, 0.004425]",1.83,12.3
sodium_lithium,-168.823639809480,9,0.067459,"[-37.6948, -2.039105, -1.850909, -1.03634, -1.03634, -1.036334, -0.1188931]","[-0.0, 0.0, -0.000583, 0.0, -0.0, 0.000583]",0.1,1.3
ethylene_oxide,-152.585751168469,14,0.710247002368,"[-9.836336, -9.836088, -0.9949588, -0.6107677, -0.5750463, -0.4712164, -0.4423028, -0.36584, -0.3439566, -0.2901807, -0.2349679]","[0.0, -0.0, 0.008434, -3e-06, 0.010542, -0.008727, -3e-06, -0.010542, -0.008727, 0.006168, -0.004305, 0.002255, -0.006165, -0.004304, 0.002255, -0.006165, 0.004304, 0.002255, 0.006168, 0.004305, 0.002255]",6.84,42.2
chlorine_diatomic,-917.464349841876,7,0.0,"[-7.039934, -7.039934, -7.039924, -7.039924, -0.8663249, -0.7041588, -0.4473075, -0.3734396, -0.3734396, -0.2731263, -0.2731263]","[0.0, 0.0, -0.001196, -0.0, -0.0, 0.001196]",0.44,2.6
aziridine,-132.788555073983,26,0.664890779159,"[-9.81116, -9.810478, -0.8768817, -0.5947028, -0.5537447, -0.4743019, -0.42519, -0.3342086, -0.3129923, -0.3047763, -0.2158995]","[-0.001739, 0.019584, 0.011299, -0.015055, -0.011465, -0.001718, 0.014992, -0.011785, -0.004745, 0.001436, -0.003505, -0.005104, 0.002088, 0.006994, -0.006104, 0.004843, -0.003449, 0.006433, -0.002621, 0.002855, 0.004894, -0.003942, 0.000771, -0.004953]",10.53,102.1
methoxyethane,-192.753264703415,26,0.449248904061,"[-9.770394, -0.9451894, -0.692179, -0.607336, -0.5444331, -0.4473732, -0.4355305, -0.4095395, -0.3764663, -0.3417808, -0.3244618, -0.3106265, -0.2837935, -0.2183016]","[-0.012468, -0.007592, -0.0, 0.014884, 0.011813, 1e-06, 0.017161, -0.005301, 0.0, -0.0132, 0.002629, -0.0, -0.003101, -0.000956, -0.004701, -0.003102, -0.000955, 0.004701, -0.000495, 0.005234, 0.0, -0.002525, -0.002034, 0.004706, -0.002525, -0.002034, -0.004706, 0.002504, 0.001603, 0.004017, 0.002504, 0.001603, -0.004017, 0.000364, -0.004011, -0.0]",29.95,355.3
ethane,-79.073902729010,21,0.000113251931551,"[-9.767708, -9.767583, -0.6780405, -0.5498606, -0.3893763, -0.3893724, -0.3277577, -0.2999701, -0.2999666]","[2.3e-05, 1e-06, 0.019418, -1.8e-05, -1e-05, -0.019416, 0.004903, 0.0, -0.002691, -0.002463, -0.004271, -0.002693, -0.002462, 0.00427, -0.002694, -0.004905, 0.0, 0.002692, 0.002463, 0.004272, 0.002694, 0.002458, -0.004263, 0.002691]",4.73,52.9
carbon_tetrabromide,-10320.493327645831,11,0.000123113768523,"[-2.510139, -0.8441488, -0.742511, -0.7425075, -0.742507, -0.5663776, -0.4343916, -0.4343899, -0.4343897, -0.315898, -0.315898, -0.2949021, -0.294902, -0.2949014, -0.262874, -0.2628737, -0.2628721]","[0.0, -0.0, -0.0, 0.003759, 0.003759, 0.003759, -0.003759, -0.003759, 0.003759, -0.003759, 0.003759, -0.003759, 0.003759, -0.003759, -0.003759]",37.69,196.6
beryllium_diatomic,-28.913564983938,6,2e-06,"[-3.84979, -3.84975, -0.2655763, -0.1677852]","[0.0, -0.0, -0.002516, -0.0, 0.0, 0.002516]",0.02,0.9
tetrachloroethylene,-1910.540896902895,10,0.000316001582275,"[-7.027247, -0.8897397, -0.841617, -0.8024141, -0.7792396, -0.6703941, -0.5271033, -0.4799204, -0.4786579, -0.4192907, -0.4152551, -0.3565246, -0.3348074, -0.3242591, -0.3220123, -0.3169258, -0.3103335, -0.2814904, -0.2335702]","[0.0, -0.0, 0.000385, -0.0, -0.0, -0.000354, -0.0, 0.006887, 0.006008, -0.0, -0.006887, 0.006008, 0.0, -0.006904, -0.006023, 0.0, 0.006904, -0.006023]",26.13,94.0
silicon_monoxide,-363.103773296912,11,1.168076,"[-65.16099, -18.60042, -5.059976, -3.502018, -3.502018, -3.494004, -0.8575785, -0.3970444, -0.3057397, -0.3057397, -0.2792828]","[-0.0, 0.0, 0.004415, 0.0, -0.0, -0.004415]",0.53,2.9
trimethylamine,-172.952106344469,27,0.2148710112,"[-9.7963, -0.844128, -0.6361442, -0.6361249, -0.5293413, -0.4239299, -0.4239203, -0.4224117, -0.3509027, -0.3508954, -0.3215775, -0.3215717, -0.3215234, -0.1810538]","[-2.3e-05, 5.1e-05, -0.004252, -0.005947, -0.005877, 0.020272, 0.008112, -0.002174, 0.020268, -0.002157, 0.007992, 0.020278, 0.001217, 0.001216, -0.017131, -0.001653, 0.000442, -0.017158, 0.000443, -0.001656, -0.01716, -0.004619, 0.00109, -0.000843, 0.001098, -0.004651, -0.000856, 0.001366, -0.004555, -0.000841, 0.00347, 0.003259, -0.000853, 0.003283, 0.003493, -0.000866, -0.00459, 0.00137, -0.000857]",39.85,478.0
carbonyl_fluoride,-311.051126369954,10,0.435143,"[-10.03872, -1.241813, -1.170243, -1.027603, -0.6435763, -0.5834213, -0.5379286, -0.4978606, -0.4391287, -0.4315814, -0.4175328, -0.3732796, -0.3217127]","[-0.0, -0.0, 0.001132, 0.0, -0.0, -0.003092, 0.0, 0.000933, 0.00098, 0.0, -0.000933, 0.00098]",3.65,13.3
phosphorus_mononitride,-394.421802133029,11,1.101969,"[-76.04407, -13.89988, -6.321807, -4.570153, -4.570153, -4.56421, -0.7783659, -0.4526738, -0.3130405, -0.3130405, -0.2888012]","[0.0, 0.0, -0.004961, -0.0, -0.0, 0.004961]",0.57,2.6
carbon_tetrachloride,-1872.771956388011,11,0.0,"[-7.025792, -0.9110116, -0.7890299, -0.7890299, -0.7890299, -0.5811237, -0.4722262, -0.4722262, -0.4722262, -0.3462631, -0.3462631, -0.3233748, -0.3233748, -0.3233748, -0.2868506, -0.2868506, -0.2868506]","[-0.0, -0.0, -0.0, 0.002272, 0.002272, 0.002272, -0.002272, -0.002272, 0.002272, -0.002272, 0.002272, -0.002272, 0.002272, -0.002272, -0.002272]",19.44,53.2
acrylonitrile,-169.377465925175,11,1.58376075112,"[-9.831123, -0.8271634, -0.7485653, -0.6028803, -0.4967171, -0.4415875, -0.3761783, -0.3560951, -0.3239764, -0.3117852, -0.2764204]","[-0.008531, -0.011941, 0.0, 0.019118, -0.005395, 0.0, 0.012145, -0.029907, -0.0, 0.005119, -0.001186, -0.0, -0.002921, 0.00446, -0.0, -0.005641, -0.000452, -0.0, -0.019289, 0.044422, 0.0]",8.37,41.9
sodium_hydroxide,-236.793640570178,22,2.579399,"[-37.70457, -18.46393, -2.052782, -1.050222, -1.050221, -1.047569, -0.7354966, -0.2930312, -0.1462697, -0.146269]","[-0.0, -0.0, -0.027731, 0.0, 0.0, 0.005092, 0.0, 0.0, 0.022639]",0.6,4.3
methylene_t,-38.765273124104,7,0.247554,"[-9.842907, -0.6102271, -0.4166359, -0.2415194, -0.2112123]","[0.0, 0.0, -0.000316, -0.0, -0.003247, 0.000158, -0.0, 0.003247, 0.000158]",0.17,1.8
carbon_monophosphide,-377.719443158463,11,0.444985,"[-76.03121, -9.885343, -6.307262, -4.555061, -4.553289, -4.553289, -0.670128, -0.4186459, -0.2948488, -0.2814247, -0.2814247]","[0.0, 0.0, -0.00639, -0.0, -0.0, 0.00639]",0.59,3.5
formic_acid,-188.425613692986,11,0.557477294139,"[-18.61487, -9.922285, -1.035908, -0.9500881, -0.6121184, -0.4953615, -0.4473359, -0.4234076, -0.3680475, -0.3110726, -0.2540005]","[-0.020216, 0.005455, 0.0, -0.001545, -0.02811, 0.0, -0.004217, 0.0189, -0.0, 0.03127, -0.004345, -0.0, -0.005292, 0.008101, -0.0]",3.07,12.9
aluminum_trifluoride,-539.419102728804,8,1.4e-05,"[-2.591676, -1.079982, -1.067488, -1.067486, -0.4652725, -0.4244283, -0.4244283, -0.4049678, -0.391833, -0.3918313, -0.3856246, -0.3856236, -0.3669001]","[-0.0, -1.1e-05, 0.0, 0.0, 0.003306, -0.0, 0.002854, -0.001647, 0.0, -0.002854, -0.001647, -0.0]",4.59,12.8
vinyl_radical,-77.181126715557,22,0.307737456994,"[-9.821319, -9.794958, -0.6965156, -0.5223012, -0.4223574, -0.3898395, -0.2678698, -0.200412]","[-0.002143, 0.027261, -0.0, -0.004897, -0.032478, 0.0, 0.003985, -0.006346, 0.0, 0.009395, 0.00621, -0.0, -0.00634, 0.005353, 0.0]",1.42,18.0
nitrous_oxide,-183.372465402054,10,0.055874,"[-18.71517, -14.08192, -13.95725, -1.156828, -1.00701, -0.5513264, -0.5239632, -0.5239632, -0.4243019, -0.3171863, -0.3171863]","[-0.0, -0.0, 0.00267, 0.0, 0.0, -0.015003, -0.0, -0.0, 0.012332]",1.26,5.9
2_butyne,-154.565538419840,25,0.00108600414364,"[-9.775026, -0.7026218, -0.6681544, -0.5960483, -0.4285272, -0.3893978, -0.384155, -0.3841535, -0.3716951, -0.3716933, -0.2225008, -0.2225003]","[-1e-06, 1e-06, -0.005287, -0.0, 2e-06, 0.005307, 1e-06, -1.3e-05, 0.011847, 3e-06, -1.1e-05, -0.01185, -0.0, 0.008578, 0.00228, -0.007414, -0.004283, 0.002272, 0.007414, -0.004283, 0.002272, 0.0, 0.008589, -0.002284, 0.007423, -0.004288, -0.002277, -0.007427, -0.004291, -0.002279]",15.5,190.7
hydrogen_diatomic,-1.137286672637,5,0.0,"[-0.3772558]","[0.0, 0.0, 0.016282, -0.0, -0.0, -0.016282]",0.0,0.6
beryllium_dihydride,-15.659216128604,6,0.0,"[-3.798782, -0.3103018, -0.2752382]","[-0.0, 0.0, 0.0, 0.0, -0.0, -0.004532, -0.0, 0.0, 0.004532]",0.05,1.2
beryllium_monohydride,-15.020919407515,6,0.082038,"[-3.840403, -0.3077173, -0.1693244]","[-0.0, -0.0, 0.003284, 0.0, 0.0, -0.003284]",0.04,0.9
sodium_monoxide,-236.095665749316,33,2.940155,"[-37.71499, -18.53857, -2.062378, -1.06068, -1.059654, -1.056836, -0.715976, -0.2276919, -0.1850292, -0.1715256]","[-0.0, -0.0, -0.000872, 0.0, 0.0, 0.000872]",0.23,4.2
phosphino_radical,-341.236604413236,7,0.235926,"[-76.01343, -6.288454, -4.54013, -4.534783, -4.531578, -0.5802829, -0.3514789, -0.2812682, -0.22008]","[-0.0, 0.0, 0.005646, 0.0, -0.001418, -0.002823, 0.0, 0.001418, -0.002823]",0.29,3.0
boron_monochloride,-483.249549538696,9,0.683395,"[-100.3723, -9.197102, -7.050171, -7.047595, -7.047595, -6.546041, -0.8200953, -0.473425, -0.3635384, -0.3635384, -0.2320236]","[0.0, 0.0, -0.002483, -0.0, -0.0, 0.002483]",0.54,2.7
ozone,-223.967917689052,12,0.24948,"[-18.73164, -18.73163, -1.262768, -1.011418, -0.7119041, -0.5587175, -0.548796, -0.5402026, -0.3469612, -0.3048432, -0.3018775]","[-0.0, 0.0, -0.032568, 0.0, 0.019733, 0.016284, 0.0, -0.019733, 0.016284]",2.02,8.0
water,-75.909518425685,7,0.731337,"[-18.61007, -0.9267456, -0.4880533, -0.3459428, -0.2720284]","[0.0, -0.0, -0.013451, -0.0, -0.01108, 0.006726, 0.0, 0.01108, 0.006726]",0.19,1.4
acetate_anion,-226.851546445205,10,1.38441831424,"[-9.602465, -0.7232589, -0.6434862, -0.461771, -0.2518928, -0.2066794, -0.1956203, -0.1790495, -0.1440827, -0.1252507, -0.02350473, -0.00502243, 0.005680605]","[-0.000264, -0.008081, 0.0, 0.000713, -0.013574, -0.0, 0.000462, -0.000545, -0.0, -2.6e-05, -0.00048, 0.00082, -2.6e-05, -0.00048, -0.00082, -0.023997, 0.010604, 0.0, 0.023138, 0.012557, -0.0]",8.6,43.4
tetrachlorosilane,-2123.590372006930,8,0.0,"[-3.581738, -0.8248319, -0.7778162, -0.7778161, -0.7778161, -0.5115464, -0.4160226, -0.4160226, -0.4160226, -0.3443775, -0.3443775, -0.3351448, -0.3351448, -0.3351448, -0.3047851, -0.3047851, -0.3047851]","[0.0, 0.0, -0.0, 0.000528, 0.000528, 0.000528, -0.000528, -0.000528, 0.000528, -0.000528, 0.000528, -0.000528, 0.000528, -0.000528, -0.000528]",13.41,39.2
oxygen_diatomic,-149.333894524082,7,0.0,"[-18.76917, -18.76911, -1.212775, -0.7472733, -0.510181, -0.5058094, -0.5058094, -0.2550784, -0.2550784]","[-0.0, 0.0, -0.004364, 0.0, -0.0, 0.004364]",0.35,2.3
heptane,-273.865168024328,19,0.0374533369942,"[-9.769617, -0.7316446, -0.7033133, -0.6586071, -0.602184, -0.5438345, -0.5139413, -0.5102794, -0.4344281, -0.4087018, -0.3899836, -0.3845344, -0.3709475, -0.3567484, -0.332176, -0.329538, -0.3160563, -0.2964525, -0.2960315, -0.2859934, -0.27915, -0.2767375, -0.2704428]","[0.0, -1.1e-05, 0.013712, -0.0, 0.000186, -0.013819, -1e-06, -0.000165, -0.013807, 0.0, -6.7e-05, 0.01374, -0.0, 6.1e-05, 0.01372, 0.0, 0.009733, -0.007154, -1e-06, -0.009725, -0.007142, -0.000283, 0.0, -0.000207, 0.000283, 1e-06, -0.000207, -0.000287, -9.4e-05, 0.000195, 0.000288, -9.4e-05, 0.000195, 0.000291, 9e-05, 0.000191, -0.000291, 9e-05, 0.000192, 0.000389, 0.000312, -0.000138, -0.000389, 0.000311, -0.000138, -0.000394, -0.000312, -0.000133, 0.000394, -0.000311, -0.000133, -0.0, 0.000599, 0.000715, 0.000614, 5.5e-05, -0.000122, -0.000614, 5.4e-05, -0.000123, 0.0, -0.000604, 0.000714, -0.000619, -5.4e-05, -0.000126, 0.000619, -5.4e-05, -0.000126]",207.6,2423.6
methylene_s,-38.742482941124,6,0.711967,"[-9.86693, -0.6146691, -0.3707085, -0.2200107]","[-0.0, 0.0, -0.012983, -0.0, -0.006824, 0.006491, 0.0, 0.006824, 0.006491]",0.19,1.9
octane,-312.822419759524,4,-10000,"[-0.7345379, -0.7127044, -0.6772287, -0.6306919, -0.5779758, -0.5300121, -0.5153943, -0.5104484, -0.437368, -0.4169815, -0.3955941, -0.3859061, -0.3789494, -0.3713065, -0.3491083, -0.3436674, -0.3196916, -0.3140176, -0.3109188, -0.2899685, -0.2885779, -0.2826419, -0.277083, -0.2757342, -0.27285]","[0.010105, 0.006552, 0.0, -0.010105, -0.006552, 0.0, -0.010475, -0.005742, -0.0, 0.010475, 0.005742, -0.0, 0.008774, 0.008036, 0.0, -0.008774, -0.008036, 0.0, -0.011762, 0.007268, 0.0, 0.011761, -0.007268, 0.0, -0.003279, -0.002121, -0.004243, -0.003279, -0.002121, 0.004243, 0.003279, 0.002121, -0.004243, 0.003279, 0.002122, 0.004243, 0.003212, 0.002133, 0.004137, 0.003212, 0.002134, -0.004137, -0.003212, -0.002133, 0.004137, -0.003212, -0.002133, -0.004137, -0.002998, -0.001523, -0.00373, -0.002998, -0.001523, 0.00373, 0.002998, 0.001523, -0.00373, 0.002998, 0.001522, 0.00373, -0.001235, -0.004107, -0.0, 0.002419, 0.001948, 0.00419, 0.002419, 0.001948, -0.00419, 0.001235, 0.004107, 0.0, -0.002419, -0.001948, 0.00419, -0.002419, -0.001949, -0.00419]",303.0,1681.7
beryllium_difluoride,-213.226895646573,8,0.0,"[-24.08164, -24.08164, -3.834374, -1.064098, -1.056056, -0.4272492, -0.4176426, -0.3887018, -0.3887018, -0.3669461, -0.3669461]","[-0.0, 0.0, 0.0, 0.0, -0.0, 0.017905, -0.0, 0.0, -0.017905]",0.5,2.7
dilithium_oxide,-89.540754616454,46,0.000143547901413,"[-18.42386, -1.751231, -1.75106, -0.6324346, -0.1405837, -0.1237247, -0.1237244]","[0.0, -0.0, 0.0, -0.0, 0.0, 0.001284, -0.0, 0.0, -0.001284]",0.24,6.5
thiophene,-550.317422440424,22,0.16792258868,"[-5.718125, -0.8081022, -0.6701971, -0.6545543, -0.5105472, -0.5017736, -0.4707154, -0.3700401, -0.3557077, -0.351999, -0.351807, -0.3136366, -0.2360098, -0.2225607]","[0.0, 2.2e-05, 0.011701, 0.0, 0.011319, 0.005134, 0.0, -0.011337, 0.005143, -0.0, 0.006435, -0.012956, -0.0, -0.0064, -0.012965, -0.0, -0.003958, -0.001521, -0.0, 0.003926, -0.001512, 0.0, -0.002324, 0.003497, -0.0, 0.002315, 0.003481]",39.94,231.8
ketene,-151.422185971888,11,0.569523,"[-18.67614, -9.905392, -9.795493, -1.031502, -0.707738, -0.4877281, -0.4524109, -0.4432509, -0.4143762, -0.3765106, -0.2236338]","[-0.0, 0.0, -0.02058, -0.0, -0.0, 0.013549, 0.0, 0.0, -0.002298, -0.0, -0.005274, 0.004665, 0.0, 0.005274, 0.004665]",2.89,14.0
phosphorus_monofluoride,-439.333327340720,8,0.239665,"[-76.07318, -24.13796, -6.341521, -4.590929, -4.589198, -4.589198, -1.135921, -0.5829652, -0.4388927, -0.4388927, -0.4172039, -0.2066931, -0.2066931]","[0.0, 0.0, 0.004127, -0.0, -0.0, -0.004127]",0.55,3.8
boron_diatomic,-48.851685291729,6,8.8e-05,"[-6.535246, -6.534582, -0.5027615, -0.2765268, -0.2271925, -0.2271925]","[-0.0, 0.0, 0.00649, 0.0, -0.0, -0.00649]",0.16,1.7
nitrogen_dioxide,-203.705285297505,7,0.111748036242,"[-18.72558, -18.72557, -14.10166, -1.196481, -1.058422, -0.609367, -0.5351895, -0.5278327, -0.5265106, -0.3574492, -0.3413217, -0.241835]","[0.0, 9e-06, -0.004333, -0.0, 0.003885, 0.002166, -0.0, -0.003894, 0.002168]",1.31,5.8
argon_dimer,-1051.884206249337,6,0.0,"[-8.444864, -8.444864, -8.444864, -0.8850671, -0.8838187, -0.389914, -0.3842746, -0.3842746, -0.3823575, -0.3823575, -0.377128]","[-0.0, 0.0, -0.000691, 0.0, -0.0, 0.000691]",0.1,1.6
sodium_diatomic,-322.923074231710,7,0.0,"[-37.70001, -37.70001, -2.044201, -2.044043, -1.042438, -1.041439, -1.041439, -1.0412, -1.0412, -1.04028, -0.1185344]","[0.0, 0.0, -0.001454, -0.0, -0.0, 0.001454]",0.06,1.3
dimethylamine,-133.998148523649,28,0.405434634931,"[-9.793117, -0.8173401, -0.6317621, -0.5636405, -0.4438669, -0.397201, -0.3950143, -0.3422905, -0.3232253, -0.322559, -0.1886565]","[0.004867, -0.014268, 1e-06, -0.006684, 0.006448, 0.022091, -0.006683, 0.006449, -0.02209, 0.000789, 0.002799, -0.0, 0.007398, -0.004372, 0.000126, 0.007397, -0.004371, -0.000127, -0.002479, -0.001347, -0.002, -0.00248, -0.001347, 0.002, -0.001063, 0.005004, -0.008133, -0.001063, 0.005004, 0.008132]",17.84,184.5
cyclobutene,-154.570557454734,23,0.0847245768358,"[-9.783175, -0.7807747, -0.589075, -0.5792075, -0.4575272, -0.4514853, -0.4183833, -0.3441245, -0.3221586, -0.2941982, -0.2791123, -0.227298]","[-3e-06, 0.011194, 0.012906, 1e-06, -0.011191, 0.01291, 1e-06, 0.010073, -0.016017, 3e-06, -0.010075, -0.016017, -2e-06, -0.004725, -0.004808, -0.0, 0.004725, -0.004808, -0.002431, -0.002177, 0.003959, 0.002427, 0.002177, 0.003958, 0.002431, -0.002176, 0.003959, -0.002428, 0.002175, 0.003957]",21.0,210.0
acetic_acid,-227.404546468609,15,0.709628786884,"[-9.799407, -1.018739, -0.9312083, -0.6962113, -0.5625034, -0.4472508, -0.4362014, -0.4351575, -0.373563, -0.3592687, -0.35799, -0.2968715, -0.2473593]","[0.000426, -0.006422, 7e-06, 0.008487, -0.012295, 1.5e-05, 0.004318, 0.021693, -6e-06, -0.012046, -0.006537, -8e-06, 0.00132, -0.001094, 1e-06, -0.004089, -0.001839, -1e-06, 0.000792, 0.003245, -0.003581, 0.000793, 0.003249, 0.003572]",12.16,83.1
hydrogen_fluoride,-99.846832449879,7,0.707815,"[-24.08876, -1.097064, -0.4989999, -0.3609244, -0.3609244]","[-0.0, 0.0, 0.014949, 0.0, -0.0, -0.014949]",0.12,0.9
phosphorus_diatomic,-680.233235586001,7,0.0,"[-4.545792, -4.545792, -4.545595, -4.545595, -4.541614, -4.539393, -0.6257797, -0.427078, -0.2686066, -0.2670748, -0.2670748]","[0.0, -0.0, -0.001021, -0.0, 0.0, 0.001021]",0.45,2.6
sodium_fluoride,-260.760348427522,24,3.074435,"[-37.71216, -23.90053, -2.060348, -1.058056, -1.058056, -1.05634, -0.8507887, -0.2033141, -0.1945119, -0.1945119]","[-0.0, -0.0, -0.000635, 0.0, 0.0, 0.000635]",0.21,2.7
lithium_diatomic,-14.724982164495,6,0.0,"[-1.843185, -1.842721, -0.1189007]","[-0.0, -0.0, 0.001082, 0.0, 0.0, -0.001082]",0.02,0.7
difluoromethane,-237.469724250206,8,0.721427,"[-9.938169, -1.159622, -1.10128, -0.6470075, -0.5068452, -0.5054884, -0.5048244, -0.3782209, -0.3745588, -0.361032, -0.3027882]","[0.0, 0.0, 0.012814, 0.011426, -0.0, -0.006762, -0.011426, 0.0, -0.006762, 0.0, -0.00077, 0.000355, -0.0, 0.00077, 0.000355]",2.63,10.9
propene,-116.824350479871,21,0.187501294385,"[-9.778009, -9.773277, -0.7115697, -0.6165928, -0.4970611, -0.4212778, -0.3784796, -0.3726755, -0.3287124, -0.3052472, -0.2350834]","[0.015886, -0.00525, 4e-06, -0.004857, 0.015463, -2e-06, -0.012988, -0.009161, 0.0, -0.000403, 0.005957, -0.0, -0.003297, -0.004269, 1e-06, 0.001086, -0.005067, -2e-06, -0.0018, 0.004264, 0.0, 0.003187, -0.000969, -0.003318, 0.003185, -0.000968, 0.003317]",10.76,99.7
difluorine_monoxide,-273.020662613454,10,0.105098,"[-18.83168, -1.245324, -1.134357, -0.8641827, -0.5922435, -0.5357633, -0.4939518, -0.4113161, -0.4085932, -0.3976115, -0.287594]","[0.0, -0.0, 0.014653, -0.0, 0.005711, -0.007327, -0.0, -0.005711, -0.007327]",1.12,4.9
phosphorus_monoxide,-414.817344977296,16,0.716591,"[-76.06979, -18.65275, -6.341339, -4.593559, -4.586927, -4.585655, -0.9437325, -0.509448, -0.3716344, -0.3665097, -0.3578631, -0.1684359]","[-0.0, -0.0, 0.007298, 0.0, 0.0, -0.007298]",0.61,4.6
tert_butyl_radical,-156.341520597142,29,0.110495667797,"[-9.771201, -0.7279097, -0.6225907, -0.6225825, -0.4777547, -0.4007706, -0.3976625, -0.3976609, -0.3442188, -0.3442098, -0.322964, -0.3059689, -0.3059679, -0.137808]","[1.4e-05, 1.6e-05, 0.009783, -0.0, 0.017877, -0.006946, 0.015486, -0.008951, -0.006912, -0.015489, -0.008952, -0.006909, -0.0, -0.001631, 0.005935, 0.004284, -0.002144, -0.001135, -0.004286, -0.002145, -0.001136, -0.0014, 0.000807, 0.005941, -0.004018, -0.002631, -0.001142, 0.000266, 0.004789, -0.00114, 0.0014, 0.000807, 0.005934, -0.000269, 0.004785, -0.001136, 0.004011, -0.002629, -0.001137]",34.57,550.4
lithium_fluoride,-106.702252257456,7,2.397725,"[-23.9342, -1.828557, -0.8942888, -0.2444277, -0.2337111, -0.2337111]","[-0.0, 0.0, -0.003207, 0.0, -0.0, 0.003207]",0.14,1.6
acetyl_fluoride,-251.331847613890,17,1.14482868447,"[-9.81336, -1.149455, -0.9910322, -0.7079389, -0.5652902, -0.477653, -0.4713324, -0.4487008, -0.3949799, -0.3893128, -0.3550636, -0.3466338, -0.2772761]","[-0.015722, 0.014524, -5e-06, 0.010152, -0.016396, -4e-06, 0.002459, -0.003511, 3e-06, 0.003278, -0.000557, 5e-06, -0.006398, -0.00442, 0.0, 0.003115, 0.005181, -0.00888, 0.003116, 0.005179, 0.008881]",9.1,68.7
lithium_hydroxide,-82.739066134094,21,1.70069,"[-18.49829, -1.812449, -0.7662622, -0.333903, -0.1829674, -0.1829674]","[0.0, 0.0, -0.004674, -0.0, -0.0, -0.004629, 0.0, 0.0, 0.009302]",0.4,3.3
propyne,-115.597634206086,25,0.363160007348,"[-9.808672, -9.791157, -9.77265, -0.7073152, -0.6315258, -0.4739895, -0.4068855, -0.3942492, -0.3942364, -0.2438799, -0.2438783]","[1e-06, -1.9e-05, -0.020546, -0.0, 1e-06, 0.008108, 1e-06, 1e-06, 0.015997, 0.0, 0.0, -0.013306, 0.0, 0.004317, 0.003244, 0.003733, -0.00215, 0.003253, -0.003735, -0.002151, 0.003251]",5.04,59.3
aluminum_monosulfide,-638.249308607101,19,1.416265,"[-5.671145, -5.664596, -5.664596, -3.955137, -2.58484, -2.58484, -2.582967, -0.6095314, -0.3381784, -0.2338271, -0.2338271, -0.2329022]","[-0.0, -0.0, 2e-06, 0.0, 0.0, -2e-06]",0.76,6.4
boron_monocarbide,-62.032980027584,10,0.394346,"[-9.897675, -6.541428, -0.6372653, -0.3349196, -0.2838652, -0.2838652, -0.251831]","[-0.0, 0.0, -0.003296, 0.0, -0.0, 0.003296]",0.36,2.2
boron_trichloride,-1400.961918042228,8,5.9e-05,"[-6.572498, -0.8242647, -0.7785081, -0.7785005, -0.4883858, -0.4232876, -0.4232831, -0.3804118, -0.321772, -0.3217703, -0.318159, -0.3181539, -0.2882881]","[-0.0, 1.4e-05, 0.0, -0.0, 0.006324, -0.0, 0.005481, -0.003169, -0.0, -0.005481, -0.003169, -0.0]",7.0,18.0
ethyl_radical,-78.409383034774,22,0.175472630658,"[-9.792532, -9.778043, -0.6861596, -0.5463344, -0.4093392, -0.3740691, -0.3557649, -0.3168215, -0.1665451]","[0.00333, -0.022413, 1e-06, -0.000354, 0.021169, -4e-06, -0.007739, 0.003902, -1e-06, 0.002531, 0.003283, -0.006546, 0.002531, 0.003284, 0.006546, -0.000147, -0.004614, 0.008029, -0.000153, -0.004612, -0.008026]",3.61,55.1
magnesium_hydroxide,-274.480688710088,51,0.522112664457,"[-45.98238, -18.54181, -2.91819, -1.734525, -1.734525, -1.730573, -0.8229886, -0.4040176, -0.2325831, -0.2325822, -0.1705141]","[4e-06, 4e-06, -0.02265, -8e-06, -8e-06, 0.001006, 4e-06, 4e-06, 0.021644]",0.71,12.5
hydrogen_peroxide,-150.543640770531,7,0.618172,"[-18.67229, -18.67228, -1.037397, -0.8298778, -0.4882527, -0.4596347, -0.3905163, -0.2942883, -0.2424145]","[0.012251, 0.021367, 0.012969, -0.012251, -0.021367, 0.012969, -0.02277, -0.01169, -0.012969, 0.02277, 0.01169, -0.012969]",0.86,4.4
propane,-118.032154489993,18,0.0389801335041,"[-9.764793, -0.7059443, -0.6113205, -0.5220692, -0.4113515, -0.391564, -0.3576803, -0.3372555, -0.2977985, -0.2961616, -0.2841094]","[2.3e-05, 0.017469, 7e-06, -0.008187, -0.013832, -4e-06, 0.00816, -0.013875, 2e-05, 1e-06, -0.002434, -0.003509, -2.8e-05, -0.00239, 0.003476, 0.004286, -0.001948, -0.0, -0.00426, -0.001922, 4e-06, -0.001093, 0.004735, -0.006419, -0.001093, 0.004736, 0.006422, 0.001089, 0.004734, 0.006421, 0.001103, 0.004728, -0.006418]",16.69,151.6
butane,-156.990969340966,19,0.000144944817086,"[-9.76631, -0.7198761, -0.6522714, -0.5630077, -0.5145024, -0.4233764, -0.3835599, -0.3781224, -0.3663593, -0.3255078, -0.3059389, -0.2969147, -0.2839668, -0.2786652]","[-0.000638, 0.013232, -3e-06, 0.011757, -0.007983, -3e-06, -0.011758, 0.00799, -3e-06, 0.000633, -0.013235, -3e-06, -0.003697, -0.001882, -0.0, 0.003699, 0.001883, 0.0, 0.002405, -0.001801, -0.003669, 0.002407, -0.001802, 0.003672, -0.002404, 0.0018, -0.003667, -0.002406, 0.001802, 0.00367, -0.002289, 0.002151, 0.003643, -0.002286, 0.002149, -0.00364, 0.00229, -0.002152, 0.003645, 0.002287, -0.002151, -0.003642]",40.97,393.1
carbon_dioxide,-187.277832097625,7,6.4e-05,"[-18.69242, -18.69241, -9.965059, -1.07095, -1.035933, -0.5084468, -0.478424, -0.478424, -0.4723183, -0.3424904, -0.3424904]","[-0.0, 0.0, -1.3e-05, 0.0, -0.0, -0.000153, 0.0, -0.0, 0.000166]",1.12,4.4
magnesium_monohydride,-199.673829443890,7,0.471049,"[-45.98827, -2.922139, -1.738868, -1.738868, -1.733621, -0.2609667, -0.1494664]","[0.0, -0.0, 0.003472, -0.0, 0.0, -0.003472]",0.07,1.4
cyclopropene,-115.570881261064,11,0.178782000048,"[-9.803014, -9.801983, -9.794267, -0.795644, -0.5383742, -0.5093741, -0.4577915, -0.3964658, -0.3136986, -0.2676207, -0.2290209]","[0.0, -0.0, 0.017259, -0.0, 0.018095, -0.009791, -0.0, -0.018095, -0.009791, 0.0, -0.008211, 0.004915, 0.0, 0.008211, 0.004915, -0.005021, -0.0, -0.003753, 0.005021, -0.0, -0.003753]",6.42,32.9
cyclobutane,-155.782274788152,23,0.000314402608132,"[-9.77651, -0.7683013, -0.5864652, -0.586465, -0.4889541, -0.4318776, -0.4293564, -0.3379696, -0.3379692, -0.3199499, -0.2718008, -0.2699045, -0.269904]","[-0.0, 0.010212, 0.004936, -0.0, -0.010212, 0.004936, -0.010212, -0.0, -0.004931, 0.01021, 0.0, -0.004929, -0.0, -0.003087, 0.002152, 0.0, -0.000709, -0.004306, -0.0, 0.003086, 0.002152, 0.0, 0.000709, -0.004306, 0.003081, -0.0, -0.002148, 0.000706, -0.0, 0.004297, -0.00308, 0.0, -0.002147, -0.000705, -0.0, 0.004294]",32.64,343.3
silylene_s,-289.441158038613,7,0.0891293038288,"[-65.14789, -5.044453, -3.492227, -3.480976, -3.478103, -0.4654316, -0.2941356, -0.2154663]","[0.0, 0.008282, -0.008005, -0.0, -0.001709, 0.006525, -0.0, -0.006574, 0.00148]",0.28,2.0
aluminum_monohydride,-241.922019238380,6,0.035622,"[-55.13824, -3.919665, -2.55183, -2.55183, -2.542364, -0.3313749, -0.1810686]","[0.0, 0.0, 0.00557, -0.0, -0.0, -0.00557]",0.14,1.3
beryllium_oxide,-89.203932948450,11,2.406571,"[-18.53773, -3.830424, -0.762433, -0.2557004, -0.2315204, -0.2315204]","[-0.0, -0.0, -0.002733, 0.0, 0.0, 0.002733]",0.16,1.4
