,Energy,Iterations,Dipole Moment,Eigens,Derivatives,Derivative Time,Wall Time
bicyclo[3.1.0]hexane,-232.533320579937,10,0.0783477089965,"[-9.772897, -0.8042746, -0.6883892, -0.6355843, -0.5560965, -0.494639, -0.4851218, -0.4646618, -0.4171772, -0.3918298, -0.3637383, -0.3490439, -0.3134816, -0.3010878, -0.2951656, -0.2894188, -0.2471867, -0.2352064]","[-0.009135, 0.013123, 0.0, -0.016148, -0.005348, 0.0, 0.004685, 0.005731, 0.013879, 0.004685, 0.005731, -0.013879, 0.008335, -0.009345, 0.009449, 0.008335, -0.009345, -0.009449, 0.001295, 0.006948, 0.0, 0.005805, -0.005112, 0.0, 0.006992, -0.000162, 0.0, -0.001714, -0.00593, 0.0, 0.003413, -0.001145, -0.005383, 0.003413, -0.001145, 0.005383, -0.006115, -0.001727, 0.001755, -0.006115, -0.001727, -0.001755, -0.003865, 0.004726, -0.003673, -0.003865, 0.004726, 0.003673]",48.85,346.3
phosphine,-341.862548539933,6,0.276624000016,"[-76.02298, -6.278357, -4.529067, -4.529067, -4.524685, -0.5889011, -0.3465085, -0.3465065, -0.2482208]","[0.0, 1.5e-05, -0.008873, 0.0, 0.00203, 0.002958, -0.001775, -0.001022, 0.002958, 0.001775, -0.001022, 0.002958]",0.94,4.3
beryllium_sulfide,-411.347704448402,26,1.97527,"[-87.71005, -7.604377, -5.659578, -5.657459, -5.657459, -3.867838, -0.5860142, -0.2779626, -0.2193989, -0.2193989]","[-0.0, 0.0, -0.002081, 0.0, -0.0, 0.002081]",1.56,10.8
lithium_oxide,-82.031088489598,28,2.463718,"[-18.54522, -1.831784, -0.7359682, -0.246187, -0.2026366, -0.1916506]","[0.0, 0.0, -0.00353, -0.0, -0.0, 0.00353]",0.58,6.4
carbon_monoxide,-112.474296890759,8,0.090434,"[-18.71468, -9.903139, -1.074486, -0.5205394, -0.4444155, -0.4444155, -0.333781]","[0.0, -0.0, -0.003942, -0.0, 0.0, 0.003942]",0.75,2.6
magnesium_oxide,-273.794856316940,58,2.73796,"[-46.03915, -18.52147, -2.945905, -1.762379, -1.762379, -1.760873, -0.7104428, -0.230017, -0.1809658, -0.1809658]","[0.0, 0.0, -0.010767, -0.0, -0.0, 0.010767]",1.5,20.5
aluminum_nitride,-295.583088710319,20,1.16011,"[-55.15792, -13.8959, -3.942955, -2.576357, -2.572941, -2.571787, -0.6765115, -0.3236294, -0.2709189, -0.2326288, -0.2279515]","[-0.0, -0.0, -0.006755, 0.0, 0.0, 0.006755]",1.31,9.7
imidogen,-54.764725859410,7,0.612014,"[-13.94473, -0.7607057, -0.3606638, -0.2891673, -0.2891673]","[-0.0, -0.0, 0.012964, 0.0, 0.0, -0.012964]",0.13,1.1
methyl_formate,-227.378592802562,10,0.750775748113,"[-9.839263, -1.022239, -0.9371917, -0.6794158, -0.5442625, -0.4886031, -0.4470844, -0.4316453, -0.3841591, -0.3647547, -0.3294233, -0.2845452, -0.2521016]","[-0.017709, 0.016126, 0.0, 0.014716, -0.006842, 0.0, 0.001629, -0.024994, -0.0, -0.000535, 0.015524, 0.0, 0.006233, -0.003102, -0.0, -0.003478, -0.003899, 0.0, -0.000428, 0.003593, -0.004111, -0.000428, 0.003593, 0.004111]",7.61,44.1
hypochlorite,-533.354483404057,14,0.582626,"[-18.6915, -9.239885, -7.102951, -7.09654, -7.087121, -1.007597, -0.7200309, -0.4532525, -0.4311504, -0.4019249, -0.2801988, -0.2455097]","[-0.0, 0.0, -0.005846, 0.0, -0.0, 0.005846]",1.26,6.9
methanol,-114.844804500651,8,0.64358783139,"[-18.599, -9.817964, -0.9265727, -0.615782, -0.4598935, -0.3929007, -0.3852411, -0.2911973, -0.2298119]","[-0.008768, 0.020234, -0.0, 0.020589, -0.014551, 0.0, 0.001879, 0.003622, -0.0, -0.000647, -0.005821, -0.00381, -0.000647, -0.005821, 0.00381, -0.012406, 0.002337, 0.0]",2.56,11.9
vinyl_fluoride,-176.542452338727,10,0.506680861271,"[-9.867872, -9.785745, -1.121425, -0.6982533, -0.5552734, -0.483398, -0.4373534, -0.4141514, -0.3694146, -0.3290794, -0.2450412]","[-0.003445, 0.019854, -0.0, 0.021167, -0.005623, -0.0, -0.007221, -0.003573, -0.0, -0.002771, -0.008465, -0.0, -0.001495, 0.002832, 0.0, -0.006235, -0.005026, 0.0]",3.61,18.3
formaldehyde,-113.646146474309,8,0.882564,"[-18.62731, -9.880269, -0.9759691, -0.5747502, -0.4499943, -0.4070999, -0.3790762, -0.2314769]","[0.0, -0.0, 0.010905, -0.0, 0.0, -0.015894, -0.0, -0.004656, 0.002495, -0.0, 0.004656, 0.002495]",1.65,5.5
sulfur_diatomic,-793.686429650314,24,5.9e-05,"[-5.755266, -5.754446, -5.753494, -5.753494, -5.753429, -5.753429, -0.7748615, -0.5725115, -0.3708304, -0.3431723, -0.3431717, -0.2137283, -0.2137279]","[-0.0, -0.0, 0.148482, 0.0, 0.0, -0.148482]",1.18,11.0
acetaldehyde,-152.621792321249,10,1.12210756177,"[-9.87672, -9.794621, -0.9551751, -0.6884515, -0.5270077, -0.4350661, -0.4106357, -0.393728, -0.3577779, -0.3370803, -0.2219519]","[0.029443, -0.002122, 0.0, -0.023254, 0.016677, -0.0, -0.012995, -0.009621, -0.0, 0.002491, -0.006812, -0.0, -0.00225, 0.004276, 0.0, 0.003282, -0.001199, -0.003287, 0.003282, -0.001199, 0.003287]",4.82,26.8
boron_monosulfide,-421.350154878667,10,0.246751,"[-87.76652, -7.662938, -6.534949, -5.71775, -5.715964, -5.715964, -0.6803075, -0.393571, -0.2874982, -0.2874982, -0.2681719]","[-0.0, -0.0, -6.7e-05, 0.0, 0.0, 6.7e-05]",1.63,6.0
beryllium_monofluoride,-113.820458884829,8,0.420541,"[-24.07335, -3.840015, -1.059109, -0.4199293, -0.3777978, -0.3777978, -0.1948656]","[-0.0, -0.0, -0.003593, 0.0, 0.0, 0.003593]",0.56,2.6
phosphorus_tribromide,-8052.198878792882,10,0.130867000034,"[-2.517858, -0.7874958, -0.7343663, -0.7343662, -0.5581615, -0.3992967, -0.3992967, -0.3579844, -0.3099407, -0.3099406, -0.2814289, -0.2814289, -0.2716373, -0.2561536]","[-0.0, 1e-06, -0.000301, 0.0, -0.001039, 0.000101, -0.000899, 0.000519, 0.0001, 0.000899, 0.000519, 0.0001]",49.16,245.6
sulfur_dioxide,-546.319053430059,8,0.606126000021,"[-5.856399, -5.851839, -1.06341, -0.9706503, -0.5783424, -0.4637514, -0.4522068, -0.4492905, -0.3532771, -0.327606, -0.2994394]","[0.0, 1e-06, 0.01907, -0.0, -0.01347, -0.009535, -0.0, 0.013469, -0.009535]",2.56,9.2
decane,-390.745442752143,10,2.44948974278e-06,"[-9.762771, -0.7399644, -0.724638, -0.6995794, -0.6657275, -0.6248153, -0.5798299, -0.5372756, -0.5197189, -0.5115832, -0.5113317, -0.4418671, -0.4274851, -0.4048074, -0.3952818, -0.3898891, -0.3759923, -0.3743487, -0.3539034, -0.3444833, -0.3426886, -0.3203794, -0.314989, -0.3003108, -0.2994265, -0.2925118, -0.2882951, -0.285296, -0.2801414, -0.277083, -0.2763113, -0.2622042]","[0.014163, 0.00936, 0.0, -0.014163, -0.00936, -0.0, -0.014182, -0.009326, -0.0, 0.014183, 0.009325, 0.0, 0.014083, 0.009548, 0.0, -0.014083, -0.009548, -0.0, -0.013821, -0.009496, 0.0, 0.013819, 0.009497, -0.0, 0.000845, 0.014831, -0.0, -0.000845, -0.014832, 0.0, -0.003596, -0.002371, -0.005094, -0.003596, -0.002373, 0.005095, 0.003597, 0.002372, -0.005095, 0.003596, 0.002372, 0.005094, 0.003605, 0.002374, 0.00511, 0.003604, 0.002375, -0.00511, -0.003604, -0.002376, 0.00511, -0.003605, -0.002375, -0.00511, -0.003584, -0.00242, -0.005112, -0.003584, -0.00242, 0.005112, 0.003584, 0.002421, -0.005112, 0.003584, 0.00242, 0.005112, 0.003408, 0.002625, 0.005106, 0.003408, 0.002625, -0.005106, -0.003408, -0.002625, 0.005106, -0.003408, -0.002625, -0.005106, 0.005749, -0.002695, -0.0, -0.00328, -0.002481, -0.005235, -0.003279, -0.002481, 0.005235, -0.005749, 0.002695, 0.0, 0.00328, 0.002481, -0.005235, 0.00328, 0.002481, 0.005235]",170.58,1176.2
methanethiol_radical,-436.334615772762,9,0.714221523648,"[-9.815876, -7.660147, -5.722971, -5.715878, -5.705518, -0.7168651, -0.5707381, -0.4078866, -0.393192, -0.3421668, -0.2475525, -0.2115939]","[-0.014718, 0.00072, -0.014191, 0.006879, -0.000196, 0.003109, 0.003552, -0.00019, -0.004948, 0.002069, -0.00375, 0.007922, 0.002218, 0.003416, 0.008108]",3.26,16.3
hydroxyl_radical,-75.203570635159,8,0.662404,"[-18.67767, -0.9233378, -0.4291035, -0.3602052, -0.2962231]","[0.0, 0.0, 0.014244, -0.0, -0.0, -0.014244]",0.15,1.2
lithium_monosulfide,-404.212853996615,16,2.639775,"[-87.69848, -7.590609, -5.655759, -5.640277, -5.639697, -1.8644, -0.5553219, -0.2172029, -0.2036855, -0.1814998]","[0.0, -0.0, -0.002017, -0.0, 0.0, 0.002017]",1.45,8.1
phosphorus_dioxide,-489.589651007434,15,0.498546338533,"[-4.645614, -4.642509, -4.639802, -0.9901427, -0.9434831, -0.5163331, -0.4240572, -0.4127456, -0.4110591, -0.3458632, -0.3362812, -0.2727381]","[-0.0, -0.000154, -0.022488, 0.0, -0.002936, 0.011264, -0.0, 0.003091, 0.011224]",2.34,12.6
formaldoxime_zwitterion,-168.548221018479,12,1.30684979199,"[-14.0051, -9.826615, -1.024954, -0.7871114, -0.6028212, -0.4995471, -0.4409525, -0.4175791, -0.380853, -0.2228053, -0.2183158]","[0.014235, -0.005882, -0.000202, 0.006752, 0.017065, 0.000774, -0.020008, -0.009871, -0.000108, 0.000956, 0.002512, -0.000181, -0.001109, -0.002296, 0.000208, -0.000826, -0.001527, -0.000492]",5.6,25.8
tetrafluoroethylene,-472.569576696916,8,1e-06,"[-9.963519, -1.213632, -1.199673, -1.156186, -1.144502, -0.7450643, -0.6151, -0.5784564, -0.5736582, -0.5312875, -0.5150477, -0.4708668, -0.4430358, -0.4201215, -0.4140055, -0.4113388, -0.4113129, -0.3905433, -0.2372288]","[0.0, 0.0, -0.028354, 0.0, 0.0, 0.028354, -0.0, 0.006478, 0.007216, -0.0, -0.006478, 0.007216, -0.0, -0.006478, -0.007216, 0.0, 0.006478, -0.007216]",12.15,35.6
boron_dioxide,-174.046470936080,10,0.0,"[-18.69077, -18.69077, -6.512307, -0.9609951, -0.960889, -0.4428177, -0.4291224, -0.4276349, -0.4017616, -0.3659769, -0.332277]","[-0.0, -0.0, -0.0, 0.0, 0.0, 0.005761, 0.0, 0.0, -0.005761]",1.25,6.9
cyano_radical,-91.953807217491,10,0.440773,"[-13.93352, -9.907388, -0.8774458, -0.4437026, -0.3631193, -0.3631193, -0.357798]","[-0.0, 0.0, -0.013299, 0.0, -0.0, 0.013299]",0.79,3.2
boron_nitride,-78.708488199392,27,0.707694,"[-13.92508, -6.532972, -0.7719045, -0.3647519, -0.3383462, -0.3013159, -0.2841317]","[0.0, -0.0, -0.003099, -0.0, 0.0, 0.003099]",0.69,7.4
acetyl_chloride,-610.812744900385,11,1.09487356048,"[-7.006982, -1.006718, -0.7846716, -0.6949819, -0.5136872, -0.452714, -0.441325, -0.4316542, -0.3784061, -0.3691267, -0.2987777, -0.2916798, -0.2664947]","[-0.007192, -0.006197, 0.0, 0.007581, -0.004172, -0.0, -0.007803, 0.006054, -0.0, -0.001666, -0.001991, 0.0, 0.004119, 0.003292, -0.0, 0.002481, 0.001507, 0.003915, 0.002481, 0.001507, -0.003915]",9.82,48.2
magnesium_diatomic,-398.267867615541,6,0.0,"[-46.01285, -2.913384, -2.913377, -1.730664, -1.730664, -1.730663, -1.730663, -1.730207, -1.730188, -0.1955763, -0.1608601]","[-0.0, 0.0, -0.002379, 0.0, -0.0, 0.002379]",0.72,4.6
methyl_chloride,-498.278217680413,7,0.732882000083,"[-9.141322, -7.003646, -6.992227, -6.992227, -0.7795821, -0.6088013, -0.3990065, -0.3990046, -0.3864551, -0.2633438, -0.2633433]","[-1.5e-05, -0.0, 0.010203, -1e-06, -0.0, 0.010522, 0.007835, -0.0, -0.006911, -0.00391, 0.006766, -0.006907, -0.00391, -0.006766, -0.006907]",3.03,11.2
dimethyl_ether,-153.790886350961,8,0.465645,"[-9.817285, -0.9461157, -0.6544844, -0.572597, -0.4347082, -0.4280794, -0.4277475, -0.3531633, -0.3372969, -0.2788966, -0.2160451]","[-0.0, -0.0, -0.000531, 0.0, 0.018146, -0.00978, 0.0, -0.018146, -0.009781, 0.0, 0.000759, -0.002676, -0.0, -0.000759, -0.002676, -0.005122, -0.002946, 0.006361, 0.005122, -0.002946, 0.006361, 0.005122, 0.002946, 0.006361, -0.005122, 0.002946, 0.006361]",6.88,38.8
methyl_ketene,-190.381327415111,11,0.735745007228,"[-9.794575, -1.017026, -0.7286941, -0.6211994, -0.4779802, -0.4480287, -0.4180907, -0.4079887, -0.3745132, -0.3656711, -0.3447036, -0.2037014]","[-0.007989, -0.001533, -2.4e-05, 0.008437, 0.016732, -3e-06, 0.012814, -0.008698, 9e-06, -0.004895, -0.00242, 1.6e-05, -0.001181, -0.008342, 3e-06, 0.001485, 0.006056, 2e-06, -0.004338, -0.000898, 0.005675, -0.004332, -0.000897, -0.005678]",8.1,49.7
tetrafluorosilane,-685.699354185223,7,0.0,"[-3.592202, -1.162631, -1.124753, -1.124753, -1.124753, -0.5646925, -0.498956, -0.498956, -0.4989559, -0.4452975, -0.4452975, -0.4377828, -0.4377828, -0.4377828, -0.4006586, -0.4006586, -0.4006586]","[-0.0, -0.0, -0.0, -0.003968, -0.003968, -0.003968, 0.003968, 0.003968, -0.003968, 0.003968, -0.003968, 0.003968, -0.003968, 0.003968, 0.003968]",8.47,23.7
silicon_monosulfide,-685.220247819302,10,0.607185,"[-5.700028, -5.698446, -5.077244, -3.522079, -3.522079, -3.514953, -0.6525952, -0.4025583, -0.2697383, -0.2697383, -0.2582871]","[-0.0, 0.0, 0.004362, 0.0, -0.0, -0.004362]",3.06,8.7
sulfur_monochloride,-855.548087797653,17,0.092052,"[-7.056605, -7.050825, -5.765091, -5.764048, -5.748468, -0.8342526, -0.6280505, -0.4091116, -0.3734904, -0.3559538, -0.2540425, -0.2252017]","[-0.0, -0.0, 0.11657, 0.0, 0.0, -0.11657]",1.95,10.0
neon_dimer,-256.455620823067,6,0.0,"[-30.29508, -30.29507, -1.317318, -1.3167, -0.4956825, -0.4922695, -0.4922695, -0.4912234, -0.4912234, -0.4881071]","[0.0, -0.0, -0.000582, -0.0, 0.0, 0.000582]",0.05,0.8
formaldoxime,-168.552949406611,11,0.0891968326119,"[-13.92397, -9.814099, -1.000147, -0.7891756, -0.5573523, -0.4882325, -0.4228415, -0.3776605, -0.3774317, -0.2507872, -0.2440942]","[0.016363, -0.014747, 0.0, 0.001182, 0.020742, 0.0, -0.025505, -0.002945, -0.0, -0.001873, 0.008253, 0.0, -0.003835, -0.001285, -0.0, 0.013668, -0.010019, 0.0]",5.32,21.5
lithium_chloride,-466.199158956798,8,2.667768,"[-100.2475, -9.051577, -6.906579, -6.905986, -6.905986, -1.867895, -0.6442944, -0.2416598, -0.2202874, -0.2202874]","[-0.0, 0.0, -0.002925, 0.0, -0.0, 0.002925]",1.37,5.0
isopropyl_radical,-117.376743087574,7,0.134841717595,"[-9.771161, -9.771157, -0.7072767, -0.6227722, -0.5088543, -0.4092486, -0.3859963, -0.3680316, -0.3443265, -0.3152379, -0.3068985, -0.1476905]","[0.002667, 0.018166, -0.0, -0.003466, -0.011469, 0.016057, -0.003466, -0.011469, -0.016057, 0.000302, -0.005798, 0.0, -0.000115, -0.002362, -0.003691, -0.000115, -0.002362, 0.003691, 0.004912, 0.003034, -0.001189, -0.002815, 0.004613, 2.8e-05, -0.002815, 0.004613, -2.8e-05, 0.004912, 0.003034, 0.001189]",8.74,46.9
cyanogen,-184.164447568550,7,3.5e-05,"[-9.898172, -9.897759, -0.902558, -0.8859937, -0.6916167, -0.4255852, -0.4255852, -0.3825078, -0.3725468, -0.353773, -0.353773]","[-0.0, -0.0, 0.038861, -0.0, -0.0, -0.038858, 0.0, 0.0, -0.017658, 0.0, 0.0, 0.017654]",3.4,11.8
boron_monohydride,-24.976884131984,6,0.622444,"[-6.533036, -0.4390603, -0.2023204]","[-0.0, -0.0, 0.008368, 0.0, 0.0, -0.008368]",0.12,1.0
thiirane,-474.735338042599,8,0.730766,"[-5.696881, -5.687785, -0.7943526, -0.5604707, -0.5603864, -0.4509465, -0.4132391, -0.3448048, -0.2999724, -0.2915004, -0.1998053]","[0.0, -0.0, 0.007473, 0.0, 0.014211, -0.007282, -0.0, -0.014211, -0.007282, 0.004993, -0.003066, 0.001773, -0.004993, -0.003066, 0.001773, -0.004993, 0.003066, 0.001773, 0.004993, 0.003066, 0.001773]",7.0,32.8
sodium_chloride,-620.266051731335,8,3.342846,"[-6.887691, -6.886128, -6.886128, -2.092839, -1.09103, -1.09103, -1.088967, -0.6205094, -0.2158422, -0.1980963, -0.1980963]","[0.0, 0.0, -0.002753, -0.0, -0.0, 0.002753]",3.46,10.1
magnesium_sulfide,-595.975666908136,24,2.80587,"[-5.644223, -5.63597, -5.63597, -2.971555, -1.788006, -1.787608, -1.787608, -0.548857, -0.2472629, -0.1836497, -0.1836497]","[-0.0, -0.0, -0.003649, 0.0, 0.0, 0.003649]",3.61,17.5
methyl_silane,-329.655259642946,7,0.323258003132,"[-5.015843, -3.457221, -3.457221, -3.456708, -0.6346138, -0.4699596, -0.3711587, -0.3711501, -0.2942051, -0.2942, -0.2939546]","[0.0, -3.8e-05, -0.004869, 0.0, -2.5e-05, 0.008214, -0.0, 0.002175, 0.00065, 0.001855, -0.001069, 0.000639, -0.001855, -0.001069, 0.000639, -0.0, -0.003661, -0.00175, 0.003193, 0.001843, -0.001761, -0.003193, 0.001843, -0.001761]",6.08,24.1
aluminum_trichloride,-1617.848529006572,8,1.1e-05,"[-2.616088, -0.7753609, -0.7589293, -0.7589285, -0.4321004, -0.3716931, -0.3716928, -0.3397428, -0.3220417, -0.3220408, -0.3169059, -0.3169053, -0.299277]","[0.0, -3e-06, -0.0, -0.0, -0.000937, -0.0, -0.000815, 0.00047, 0.0, 0.000815, 0.00047, -0.0]",8.01,31.5
methanethiol,-436.972654105505,8,0.637427780203,"[-7.640245, -5.698982, -5.694813, -5.68754, -0.7121925, -0.5825229, -0.4076162, -0.3872524, -0.3633395, -0.2931489, -0.2064781]","[-0.008671, -0.006219, -0.003863, 0.006325, 0.020062, 0.009654, -0.000433, -0.013659, -0.005879, 0.004244, 0.002828, -0.000558, -0.005316, -0.003888, -0.002414, 0.003851, 0.000875, 0.00306]",3.98,16.6
hypochlorous_acid,-534.003922131725,8,0.616816821192,"[-9.188331, -7.055625, -7.037572, -7.037153, -0.9881941, -0.7324021, -0.4944405, -0.4109883, -0.3688883, -0.2827208, -0.2453678]","[-0.011868, 0.00587, -0.0, 0.012282, -0.003466, 0.0, -0.000414, -0.002404, -0.0]",2.16,6.9
lithium_hydride,-7.918951314901,6,2.203255,"[-1.839962, -0.1611919]","[0.0, 0.0, 0.000778, -0.0, -0.0, -0.000778]",0.1,0.9
monosulfur_monofluoride,-496.034268770911,14,0.239271,"[-24.14859, -7.729215, -5.791841, -5.789315, -5.771856, -1.14869, -0.6679465, -0.4704613, -0.4529442, -0.4365038, -0.2666967, -0.2315087]","[-0.0, -0.0, -2.5e-05, 0.0, 0.0, 2.5e-05]",1.13,6.6
ammonia,-56.106850424540,7,0.618764000546,"[-13.82966, -0.7701477, -0.4129633, -0.4129477, -0.2245934]","[-0.0, -3.7e-05, -0.006872, -0.0, 0.007652, 0.002303, -0.006599, -0.003808, 0.002285, 0.006599, -0.003808, 0.002285]",0.53,2.7
boron_monofluoride,-123.802243563823,8,0.415638,"[-24.18323, -6.541886, -1.193386, -0.5661753, -0.4833389, -0.4833389, -0.2501854]","[0.0, 0.0, -0.009815, -0.0, -0.0, 0.009815]",0.62,2.5
carbon_tetrafluoride,-434.868332244803,7,0.0,"[-10.11028, -1.282996, -1.165292, -1.165292, -1.165292, -0.6737122, -0.5971119, -0.5971119, -0.5971119, -0.4596309, -0.4596309, -0.4385601, -0.4385601, -0.4385601, -0.3892105, -0.3892105, -0.3892105]","[-0.0, -0.0, -0.0, -0.002393, -0.002393, -0.002393, 0.002393, 0.002393, -0.002393, 0.002393, -0.002393, 0.002393, -0.002393, 0.002393, 0.002393]",4.29,19.0
silicon_diatomic,-576.577175574833,33,1.9e-05,"[-5.059258, -5.059121, -3.505534, -3.505534, -3.505453, -3.505453, -3.495774, -3.494813, -0.4876706, -0.342295, -0.2150311, -0.2150306, -0.1941845]","[-0.0, 0.0, 0.014496, 0.0, -0.0, -0.014496]",1.1,14.8
acetylene,-76.628423495380,6,0.0,"[-9.793356, -9.791137, -0.679411, -0.5137688, -0.4490728, -0.2699201, -0.2699201]","[-0.0, -0.0, 0.01231, 0.0, 0.0, -0.01231, 0.0, 0.0, -0.008116, -0.0, -0.0, 0.008116]",1.15,5.3
phosphorus_trichloride,-1716.446987200239,10,0.182845007681,"[-4.645392, -0.8376833, -0.7749281, -0.7749229, -0.5648319, -0.4267617, -0.4267581, -0.3846992, -0.3389554, -0.3389543, -0.3066337, -0.30663, -0.2958058, -0.2643858]","[0.0, 6e-06, -0.003574, -0.0, -0.003145, 0.001194, -0.002723, 0.00157, 0.00119, 0.002723, 0.00157, 0.00119]",8.8,39.7
magnesium_monochloride,-657.930442869301,15,1.313135,"[-6.956016, -6.953127, -6.953127, -2.960028, -1.778223, -1.778223, -1.774627, -0.6946654, -0.3086635, -0.2640779, -0.2640779, -0.1821386]","[-0.0, -0.0, -0.015141, 0.0, 0.0, 0.015141]",2.3,8.8
carbon_disulfide,-831.487482383857,10,0.000178,"[-5.734472, -5.734465, -5.734465, -0.7859181, -0.7081757, -0.4644934, -0.3942496, -0.3592, -0.3592, -0.2546746, -0.2546746]","[-0.0, -0.0, -1.4e-05, 0.0, 0.0, 0.002341, 0.0, 0.0, -0.002327]",3.5,14.3
magnesium_monofluoride,-298.438880153489,7,1.232785,"[-46.03349, -23.98862, -2.939968, -1.758597, -1.758597, -1.753996, -0.9573656, -0.3182454, -0.2900049, -0.2900049, -0.1807414]","[0.0, 0.0, 0.000874, -0.0, -0.0, -0.000874]",1.32,4.9
methyl_radical,-39.445287419362,6,6e-06,"[-9.796521, -0.6167202, -0.3793618, -0.3793608, -0.1968095]","[-2.1e-05, 0.0, -0.0, -0.006413, 0.0, 0.0, 0.003217, 0.005578, 0.0, 0.003217, -0.005578, 0.0]",0.38,2.4
ethylene,-77.860319740429,6,0.0,"[-9.78348, -9.782785, -0.6861693, -0.5201805, -0.4241423, -0.3745437, -0.3133116, -0.2536235]","[0.0, -0.0, 0.023171, -0.0, -0.0, -0.023171, -0.0, -0.003571, -0.002822, -0.0, 0.003571, -0.002822, 0.0, -0.003571, 0.002822, -0.0, 0.003571, 0.002822]",3.03,9.2
trifluoroacetate_anion,-522.929874653514,12,1.84166743052,"[-9.689797, -1.034943, -0.9462766, -0.946165, -0.7587915, -0.6820032, -0.4805145, -0.3829016, -0.3717968, -0.3691815, -0.2505204, -0.2501725, -0.2385499, -0.216586, -0.2092431, -0.1913409, -0.1894352, -0.1803697, -0.1725103, -0.04903886, -0.03055528, -0.02622222]","[-0.000833, 0.001349, -0.0, 0.001566, 0.005873, 0.0, -0.00257, 0.001705, 0.0, 0.001982, 0.000707, 0.002969, 0.001982, 0.000707, -0.002969, -0.012437, -0.003105, 0.0, 0.010309, -0.007237, -0.0]",12.39,79.8
bromoform,-7750.349190675272,10,0.34246500365,"[-2.516134, -0.8223607, -0.7357889, -0.7357869, -0.5870315, -0.4453277, -0.4168315, -0.4168313, -0.3002081, -0.3002055, -0.2758364, -0.2751734, -0.2751723, -0.2574704]","[-0.0, -6e-06, -0.007659, 0.0, -2e-06, 0.010697, -0.0, 0.003707, -0.001013, 0.003198, -0.001849, -0.001012, -0.003198, -0.001849, -0.001012]",56.5,371.0
nitrogen_trifluoride,-351.965847153410,8,0.0162480081856,"[-14.14794, -1.281517, -1.148992, -1.148986, -0.7574556, -0.5959755, -0.5959737, -0.5337973, -0.4466108, -0.4466059, -0.4019796, -0.4019784, -0.3846025, -0.31169]","[0.0, -6e-06, -0.010093, -0.0, -0.001426, 0.003364, -0.001248, 0.000716, 0.003365, 0.001248, 0.000716, 0.003365]",2.18,10.8
phosphorus_tetramer,-1360.568354500072,6,0.00100489750721,"[-4.560074, -0.7423565, -0.4958141, -0.4958118, -0.4958107, -0.3235867, -0.2761903, -0.2761884, -0.2761862, -0.2474965, -0.2474938]","[8e-06, 0.0, 0.008928, 0.008439, 0.0, -0.002968, -0.004224, -0.007325, -0.00298, -0.004224, 0.007325, -0.00298]",10.43,33.9
phosphorus_monochloride,-798.819562357119,28,0.111588,"[-7.033573, -7.033573, -6.338881, -4.590681, -4.589864, -4.589864, -0.7996084, -0.5465456, -0.3640996, -0.3468189, -0.3468187, -0.2068848, -0.2068846]","[-0.0, -0.0, 0.095583, 0.0, 0.0, -0.095583]",2.21,13.8
mercapto_radical,-397.373305159129,9,0.331653,"[-87.78779, -7.680612, -5.744305, -5.735323, -5.725947, -0.673055, -0.3764648, -0.2855876, -0.2453942]","[0.0, -0.0, 0.009082, -0.0, 0.0, -0.009082]",0.41,2.9
pentane,-195.951642994011,8,0.036006,"[-9.762589, -0.7282435, -0.679005, -0.6070465, -0.5341382, -0.5151928, -0.4309343, -0.3962575, -0.3876432, -0.3658046, -0.3498921, -0.3326975, -0.313216, -0.2908125, -0.2884362, -0.2796858, -0.2775122]","[0.0, 0.0, 0.01707, -0.0, -0.000232, -0.016795, -0.0, 0.000232, -0.016795, 0.0, 0.01204, 0.008772, 0.0, -0.01204, 0.008772, -0.005685, 0.0, -0.004634, 0.005685, 0.0, -0.004634, -0.005652, 0.000318, 0.004593, 0.005652, 0.000318, 0.004593, 0.005652, -0.000318, 0.004593, -0.005652, -0.000318, 0.004593, 0.0, -0.005841, 0.003717, -0.0, 0.005841, 0.003717, 0.005714, -0.000231, -0.00439, -0.005713, -0.000231, -0.00439, -0.005713, 0.000231, -0.00439, 0.005713, 0.000231, -0.00439]",34.75,202.1
isopropyl_alcohol,-192.776147219501,10,0.61922632731,"[-9.764697, -0.9271868, -0.7001536, -0.6231758, -0.5269578, -0.4671982, -0.4107736, -0.392699, -0.3484221, -0.339016, -0.3268915, -0.3136591, -0.2860307, -0.2309579]","[-0.001636, 0.009455, -0.005622, 0.001599, -0.001472, 0.013866, -0.011055, -0.003853, -0.00485, 0.009677, -0.007026, -0.004279, 0.000497, -0.000558, 0.001136, 0.000163, -0.000525, -0.004745, -0.000169, 0.000225, 0.004991, 0.000274, 0.000393, 0.004985, 0.003407, -0.002462, -0.001292, -0.003463, -0.001748, -0.0013, 0.000402, 0.003646, -0.001287, 0.000306, 0.003926, -0.001602]",16.46,111.9
glyoxal_trans,-226.151582909054,8,0.0,"[-9.904105, -1.005701, -0.993122, -0.6507842, -0.5450988, -0.4531291, -0.4485472, -0.4279616, -0.4176222, -0.3806387, -0.2940989, -0.2380979]","[0.008206, 0.001726, -0.0, -0.008206, -0.001726, -0.0, 0.007158, -0.00277, 0.0, -0.007158, 0.00277, 0.0, -0.019314, 0.008843, 0.0, 0.019314, -0.008843, 0.0]",5.19,21.8
ethanol,-153.808196068842,8,0.632848344773,"[-9.767396, -0.9259124, -0.6784186, -0.5452839, -0.4679928, -0.4230189, -0.361916, -0.3424411, -0.3234662, -0.2927142, -0.2273271]","[0.016185, -0.019685, -0.0, 0.009566, 0.024737, -0.0, -0.005713, -0.005011, 0.0, 0.002877, 0.00388, 0.0, -0.003659, 0.005187, -0.0, -0.004169, 0.004425, -0.005454, -0.004169, 0.004425, 0.005454, -0.005459, -0.008979, -0.009535, -0.005459, -0.008979, 0.009535]",7.59,38.2
nitrogen_monofluoride,-153.432773694034,8,0.133495,"[-24.19358, -14.0113, -1.221337, -0.7322237, -0.4916181, -0.4916181, -0.477459, -0.256613, -0.256613]","[-0.0, -0.0, -0.010472, 0.0, 0.0, 0.010472]",0.51,2.5
vinyl_chloride,-536.030988326565,8,0.524708034543,"[-7.00815, -7.007182, -0.8050236, -0.6807094, -0.5292073, -0.4480287, -0.4096421, -0.3487036, -0.3387915, -0.2809628, -0.2411105]","[0.0, -0.005579, 0.013151, 0.0, -0.000413, -0.022478, -0.0, 0.005383, 0.001742, -0.0, 0.000142, -0.001716, -0.0, -0.006716, 0.005105, -0.0, 0.007183, 0.004196]",5.38,21.3
ammonia_oxide,-130.748807918589,34,2.00471800036,"[-18.51926, -13.99222, -0.9619299, -0.7264675, -0.5192411, -0.5192394, -0.3761651, -0.1642521, -0.1642515]","[4e-06, -2e-05, -0.036798, 3e-06, 0.0, 0.013177, 0.0, -0.01313, 0.007869, -0.011399, 0.006577, 0.007877, 0.011392, 0.006573, 0.007875]",2.14,27.7
methylenecyclopropane,-154.561326223679,7,0.17128,"[-9.775688, -0.7925556, -0.6430587, -0.5510509, -0.4802512, -0.4353345, -0.4239613, -0.3818784, -0.3300952, -0.2836883, -0.2600869, -0.2333733]","[0.0, 0.0, 0.0178, -0.0, -0.0, -0.017222, 0.0, 0.009965, -0.007586, 0.0, -0.009965, -0.007586, -0.0, -0.005737, 0.001744, -0.0, 0.005737, 0.001744, -0.002781, 0.001075, 0.002776, 0.002781, 0.001075, 0.002776, 0.002781, -0.001075, 0.002776, -0.002781, -0.001075, 0.002776]",13.43,55.3
oxygen_monofluoride,-173.794028714663,13,0.095698,"[-24.2052, -18.76256, -1.227185, -0.8622532, -0.5380849, -0.5024989, -0.472938, -0.3312844, -0.2835719]","[-0.0, -0.0, -0.017587, 0.0, 0.0, 0.017587]",0.46,3.5
methylamine,-95.049735346975,8,0.494687743334,"[-13.83435, -9.78996, -0.7923224, -0.5919649, -0.4420612, -0.3963014, -0.3599802, -0.3227705, -0.1965872]","[0.00219, 0.017386, -0.0, -0.006972, -0.013912, 0.0, 0.00527, -0.003154, 0.0, -0.003358, -0.002177, -0.004509, -0.003358, -0.002177, 0.004509, 0.003114, 0.002017, 0.005664, 0.003114, 0.002017, -0.005664]",3.59,17.3
hydrogen_chloride,-459.331834773362,7,0.462592,"[-100.3515, -9.155822, -7.017147, -7.00693, -7.00693, -0.7749343, -0.433038, -0.298188, -0.298188]","[0.0, 0.0, 0.009748, -0.0, -0.0, -0.009748]",0.41,2.3
ethanethiol,-475.933151102178,8,0.648590434609,"[-5.685602, -0.7322229, -0.6405938, -0.5417671, -0.4210896, -0.4186261, -0.3545091, -0.3283867, -0.3235867, -0.2950697, -0.2067397]","[-0.012453, -0.012661, -0.0, 0.006029, 0.015837, -0.0, 0.013767, 0.011782, 0.0, 0.003081, -0.000237, 0.0, 0.000284, 0.002757, -0.004076, 0.000284, 0.002757, 0.004076, -0.000189, -0.003218, -0.004594, -0.000189, -0.003218, 0.004594, -0.010614, -0.013799, -0.0]",8.87,46.9
acetamide,-207.604591912484,11,1.50023404765,"[-9.795586, -0.9439373, -0.8208272, -0.6657644, -0.5336348, -0.4874037, -0.4217514, -0.4067476, -0.3618445, -0.3530594, -0.3311052, -0.2459311, -0.2159793]","[0.001355, 0.001333, 0.001395, -0.003808, 0.002402, -0.00029, 0.009784, -0.006943, -0.002489, 0.001397, 0.011003, 0.000348, -0.011865, 0.012599, -0.00149, -0.00078, -0.00727, -0.011436, -0.001117, -0.006487, 0.011803, 0.005034, -0.000364, 0.000751, 0.0, -0.006273, 0.001409]",10.54,65.1
nitromethane,-243.282319421295,11,1.35713378479,"[-9.846439, -1.143832, -0.9804616, -0.7525701, -0.5651905, -0.51623, -0.4957122, -0.4769051, -0.4095777, -0.3981929, -0.2987838, -0.2767254, -0.2579846]","[0.013596, 0.005151, -0.0, 0.008963, 0.000159, 0.0, -0.002293, 0.003816, -0.0, -0.002478, -0.004732, -0.003181, -0.002478, -0.004732, 0.003181, -0.008836, 0.010617, -0.0, -0.006474, -0.01028, -0.0]",7.58,40.2
hydrogen_sulfide,-398.021233407365,7,0.430349,"[-87.75455, -7.651609, -5.709611, -5.706205, -5.699157, -0.683084, -0.4078402, -0.3339566, -0.2341555]","[-0.0, -0.0, 0.019039, -0.0, -0.009118, -0.009519, 0.0, 0.009118, -0.009519]",0.61,3.3
monosodium_sulfide,-558.284031957214,50,3.089504,"[-7.581999, -5.646894, -5.632832, -5.630483, -2.085571, -1.084253, -1.083527, -1.081664, -0.5420549, -0.2045042, -0.1888685, -0.1678487]","[-0.0, -0.0, 0.080159, 0.0, 0.0, -0.080159]",3.05,29.1
silicon_nitride,-342.568804446469,12,1.122624,"[-65.19977, -13.89507, -5.077136, -3.519686, -3.51947, -3.51947, -0.7167957, -0.3921142, -0.2828907, -0.2691628, -0.2691628]","[-0.0, 0.0, -0.006641, 0.0, -0.0, 0.006641]",1.51,6.5
hydrogen_cyanide,-92.657613417478,8,1.173098,"[-13.8877, -9.840439, -0.8422546, -0.5558768, -0.3385227, -0.3385227, -0.336941]","[0.0, 0.0, 0.024977, -0.0, 0.0, -0.010936, -0.0, -0.0, -0.014041]",1.41,3.8
carbonyl_sulfide,-509.385070200513,11,0.315859,"[-5.74392, -5.737265, -5.737265, -1.046855, -0.7573271, -0.4947962, -0.4379895, -0.4379895, -0.4320321, -0.2807256, -0.2807256]","[0.0, -0.0, 0.001518, -0.0, -0.0, 0.001396, -0.0, 0.0, -0.002913]",4.62,13.5
chlorine_trifluoride,-756.354661081302,10,0.236472000002,"[-7.201148, -1.213371, -1.09587, -1.094036, -0.8162508, -0.5731189, -0.5665164, -0.5073703, -0.4508864, -0.4023625, -0.3989102, -0.3861165, -0.3656194, -0.3554235, -0.2957372]","[-0.0, -0.0, -0.007865, 0.0, 0.0, 0.00977, 0.0, -0.004357, -0.000952, 0.0, 0.004357, -0.000952]",2.85,14.4
ethanol_radical,-153.134831143619,17,0.955014984189,"[-9.84013, -9.801591, -0.9204872, -0.6864595, -0.5554203, -0.4397061, -0.4270631, -0.3881937, -0.3521712, -0.3437979, -0.276055, -0.2356264]","[0.004118, -0.001549, -0.0, 0.032631, 0.015273, 0.0, -0.029874, -0.01067, 0.0, -0.002826, -0.001948, -0.007591, -0.002826, -0.001948, 0.007591, -0.003699, -0.003832, -0.0, 0.001238, 0.002337, -0.003666, 0.001238, 0.002337, 0.003666]",5.77,69.8
phosphorus_trifluoride,-638.027777633780,7,0.141253012322,"[-4.648651, -1.195994, -1.140488, -1.140479, -0.6222422, -0.5267647, -0.5267598, -0.4920557, -0.4550433, -0.4550395, -0.4163869, -0.4163801, -0.4002213, -0.2724967]","[-0.0, 1.7e-05, -0.064218, -0.0, -0.023306, 0.021412, -0.020168, 0.011645, 0.021403, 0.020168, 0.011645, 0.021403]",3.54,13.5
nitrogen_diatomic,-108.695620173426,5,1e-06,"[-13.96076, -13.95938, -1.035852, -0.4913124, -0.4348411, -0.4348411, -0.3796262]","[-0.0, -0.0, -0.007925, 0.0, 0.0, 0.007925]",0.42,1.8
acetone,-191.593744492794,10,1.209482,"[-9.787163, -0.945191, -0.7019337, -0.6455969, -0.4808134, -0.4234782, -0.418486, -0.4073466, -0.3654057, -0.3541926, -0.3389158, -0.3198074, -0.2126127]","[-0.0, 0.0, 0.027269, 0.0, -0.0, -0.015333, 0.0, 0.011019, -0.009526, -0.0, -0.011019, -0.009526, -0.0, -0.003424, -0.002715, 0.0, 0.003424, -0.002715, 0.003163, 0.000418, 0.003137, -0.003163, 0.000418, 0.003137, -0.003163, -0.000418, 0.003137, 0.003163, -0.000418, 0.003137]",11.45,71.4
glycine_zwitterion,-282.309448804542,12,3.88438637381,"[-9.846697, -0.9551216, -0.9172535, -0.8482397, -0.6755865, -0.5787522, -0.5590877, -0.4783654, -0.4393241, -0.4070102, -0.3698216, -0.337581, -0.328724, -0.211565, -0.2010508, -0.1846593]","[0.002344, 0.002882, 0.0, -0.018267, 0.004322, -0.0, 0.005101, 0.002875, 0.0, -0.001941, 0.004993, -0.0, 0.013725, -0.013551, -0.0, 0.003726, -0.000612, -0.006001, 0.003726, -0.000612, 0.006001, -0.006923, -0.004306, -0.006917, -0.006923, -0.004306, 0.006917, 0.005434, 0.008315, -0.0]",15.67,109.1
hexane,-234.910357265155,8,0.0,"[-9.762535, -0.7327243, -0.6958498, -0.6389481, -0.5717954, -0.5188037, -0.516064, -0.4350362, -0.401836, -0.3953263, -0.3800789, -0.3554029, -0.3421711, -0.3367852, -0.3105176, -0.3009946, -0.2879089, -0.2832104, -0.277028, -0.274302]","[-0.000598, 0.014887, 0.0, 0.000598, -0.014887, 0.0, -0.013978, 0.009742, 0.0, 0.013978, -0.009742, 0.0, -0.013771, 0.009614, 0.0, 0.013771, -0.009614, 0.0, 0.006324, 0.002737, -0.0, -0.006324, -0.002737, -0.0, 0.003539, -0.002666, -0.005715, 0.003539, -0.002666, 0.005715, -0.003539, 0.002666, 0.005715, -0.003539, 0.002666, -0.005715, -0.003604, 0.002864, 0.005654, -0.003604, 0.002864, -0.005654, 0.003604, -0.002864, 0.005654, 0.003604, -0.002864, -0.005654, 0.00382, -0.002632, -0.005668, 0.00382, -0.002632, 0.005668, -0.00382, 0.002632, 0.005668, -0.00382, 0.002632, -0.005668]",52.01,307.1
pyridine,-246.169870925555,10,0.89094,"[-9.801304, -0.861156, -0.7339211, -0.6928473, -0.573922, -0.5717347, -0.4846031, -0.4417374, -0.421866, -0.3874832, -0.3722644, -0.3635786, -0.325623, -0.2757256, -0.2537397, -0.2209626]","[0.0, -0.0, 0.017602, -0.0, 0.0, -0.014191, 0.0, 0.016519, 0.002639, -0.0, -0.016519, 0.002639, 0.0, -0.011742, -0.005868, -0.0, 0.011742, -0.005868, 0.0, 0.0, 0.003895, -0.0, -0.004291, -0.002276, -0.0, 0.004291, -0.002276, -0.0, 0.003698, 0.001853, -0.0, -0.003698, 0.001853]",29.3,156.2
silane,-290.682118647057,6,0.0,"[-65.1324, -5.024401, -3.465447, -3.465447, -3.465447, -0.4976276, -0.3133399, -0.3133399, -0.3133399]","[-0.0, -0.0, -0.0, -0.002334, -0.002334, -0.002334, 0.002334, 0.002334, -0.002334, 0.002334, -0.002334, 0.002334, -0.002334, 0.002334, 0.002334]",1.26,5.6
isobutylene,-155.791712162478,8,0.247832,"[-9.762106, -0.7307237, -0.6248245, -0.6101973, -0.4688646, -0.4083268, -0.4001217, -0.3914019, -0.3444685, -0.3258475, -0.3235787, -0.3012655, -0.2224539]","[0.0, -0.0, 0.01506, -0.0, -0.0, -0.001178, 0.0, 0.011671, -0.009039, 0.0, -0.011671, -0.009039, -0.0, -0.005033, -0.001427, -0.0, 0.005033, -0.001427, -0.0, -0.002902, -0.002682, -0.003219, 0.000237, 0.003103, 0.003219, 0.000237, 0.003103, -0.0, 0.002902, -0.002682, 0.003219, -0.000237, 0.003103, -0.003219, -0.000237, 0.003103]",16.14,85.2
fluorine_diatomic,-198.346017410747,6,1.7e-05,"[-24.19651, -24.19647, -1.242265, -1.004368, -0.575411, -0.4772018, -0.4772018, -0.3503057, -0.3503057]","[-0.0, 0.0, -0.019518, 0.0, -0.0, 0.019518]",0.19,1.6
ethylamine,-134.012394981906,8,0.513613087607,"[-9.768166, -0.799872, -0.6568123, -0.5473155, -0.450255, -0.3968122, -0.3676176, -0.3674143, -0.3200596, -0.2956497, -0.2028003]","[0.010211, -0.007537, -0.0, 0.003644, 0.01382, 0.0, -0.01158, -0.006513, -0.0, -0.003791, -0.002159, 0.0, 5.2e-05, 0.002591, -0.003499, 5.2e-05, 0.002591, 0.003499, -0.000549, -0.00331, 0.003389, -0.000549, -0.00331, -0.003389, 0.001255, 0.001913, -0.003387, 0.001255, 0.001913, 0.003387]",9.19,51.3
aluminum_diatomic,-482.702002405486,54,2e-05,"[-55.16334, -3.940947, -3.940913, -2.573073, -2.572641, -2.571712, -2.571712, -2.571679, -2.571679, -0.350179, -0.2608554, -0.1441453, -0.1441452]","[-0.0, -0.0, -0.002914, 0.0, 0.0, 0.002914]",0.71,17.5
methyl_nitrite,-243.269621666192,11,0.949343236848,"[-9.846767, -1.116769, -0.9729717, -0.7050404, -0.5703112, -0.5066473, -0.4761424, -0.4632157, -0.40267, -0.3783646, -0.3387894, -0.3012815, -0.2463505]","[-0.015532, -0.008169, -0.0, 0.00422, 0.011608, 0.0, -0.01044, -0.041665, -0.0, 0.003626, -0.003767, 0.0, -0.000246, 0.003641, -0.003984, -0.000246, 0.003641, 0.003984, 0.018619, 0.034711, 0.0]",7.14,38.3
isobutane,-156.996057153934,8,0.0583260000772,"[-9.763259, -0.7285201, -0.6120131, -0.6120129, -0.4992792, -0.4190269, -0.3879142, -0.387913, -0.338925, -0.3389244, -0.3170734, -0.2900027, -0.2900026, -0.2800908]","[-0.0, 1.3e-05, 0.010865, 0.0, 0.011662, -0.004702, 0.010129, -0.005866, -0.004675, -0.010129, -0.005866, -0.004675, -0.0, 4e-06, -0.004325, -0.0, 0.000135, 0.004726, 0.003491, -0.001964, -0.001108, -0.00349, -0.001964, -0.001108, 0.000111, -5.5e-05, 0.004734, -0.003452, -0.002028, -0.001114, 3.3e-05, 0.004007, -0.001119, -0.000111, -5.5e-05, 0.004734, -3.3e-05, 0.004007, -0.001119, 0.003452, -0.002028, -0.001114]",20.26,129.5
boron_trifluoride,-322.563242182642,7,8e-06,"[-6.579013, -1.171008, -1.132473, -1.13247, -0.5535715, -0.5223897, -0.5223885, -0.488958, -0.4194353, -0.4194334, -0.413372, -0.4133692, -0.3770727]","[-0.0, 1.2e-05, 0.0, 0.0, -0.001398, -0.0, -0.001202, 0.000693, -0.0, 0.001202, 0.000693, -0.0]",2.46,9.5
nitrosyl_chloride,-587.750013719486,26,0.639162303088,"[-7.002555, -6.999488, -1.204795, -0.7593834, -0.6362133, -0.5243704, -0.5203967, -0.4860167, -0.2967166, -0.2853989, -0.2769882]","[-9.3e-05, -0.004849, -0.0, -0.010043, 0.005646, 0.0, 0.010136, -0.000797, 0.0]",3.58,22.1
silicon_monophosphide,-628.380880040879,13,0.569603,"[-5.088103, -4.557815, -4.552033, -4.552033, -3.531839, -3.530578, -3.530578, -0.5609019, -0.391439, -0.2564498, -0.2280489, -0.2280489]","[-0.0, -0.0, -0.041131, 0.0, 0.0, 0.041131]",3.03,10.6
pyrrole,-208.396730751996,10,0.745662,"[-9.763412, -0.8935303, -0.6998952, -0.6488577, -0.5363187, -0.5097057, -0.4900564, -0.3853069, -0.3782378, -0.3707776, -0.3415128, -0.3339903, -0.2237478, -0.1940723]","[-0.0, -0.0, 0.028075, 0.0, 0.0, -0.016133, 0.0, 0.014767, 0.00628, -0.0, -0.014767, 0.00628, 0.0, 0.006578, -0.015283, -0.0, -0.006578, -0.015283, -0.0, -0.006527, -0.003166, -0.0, 0.006527, -0.003166, -0.0, -0.004546, 0.006199, 0.0, 0.004546, 0.006199]",20.33,108.3
aluminum_monoxide,-316.089628873190,12,1.649728,"[-55.15301, -18.57443, -3.942632, -2.574019, -2.574019, -2.570857, -0.7976656, -0.332023, -0.2536109, -0.2536109, -0.2436896]","[0.0, -0.0, -0.000898, -0.0, 0.0, 0.000898]",1.36,6.2
trifluoromethane,-336.171677239179,8,0.526251021664,"[-10.02464, -1.220966, -1.135562, -1.135547, -0.658987, -0.5587115, -0.5540476, -0.5540434, -0.4270829, -0.4270823, -0.3948385, -0.394833, -0.3707309, -0.3461899]","[0.0, 1.7e-05, -0.016201, 0.0, 3e-06, -0.005027, 0.0, 0.005117, 0.007083, 0.004445, -0.002569, 0.007072, -0.004445, -0.002569, 0.007072]",3.51,16.0
silicon_monofluoride,-387.590777940762,13,0.294978,"[-65.2202, -24.1069, -5.088601, -3.536098, -3.529983, -3.529112, -1.100749, -0.4983586, -0.4138488, -0.4102706, -0.3309834, -0.141667]","[-0.0, -0.0, 0.005576, 0.0, 0.0, -0.005576]",1.23,6.5
ethyl_chloride,-537.241698081902,8,0.812657370919,"[-6.985197, -0.7851433, -0.6746327, -0.5590059, -0.4335957, -0.4156061, -0.374521, -0.3364605, -0.3347292, -0.2611646, -0.2585976]","[-0.002374, -0.001244, 0.000715, 0.012222, -0.00862, 7.5e-05, -0.003267, 0.014311, -0.001135, -0.006402, -0.002311, -6e-06, -0.000428, 0.003366, 0.005024, -0.000393, 0.003417, -0.005006, 0.00088, -0.004247, 0.00628, -0.000239, -0.004673, -0.005947]",7.1,38.2
bicyclo[1.1.0]butane,-154.555839961382,8,0.297925,"[-9.794348, -0.8467893, -0.6203272, -0.5172407, -0.5149545, -0.4695943, -0.3859448, -0.3827797, -0.329892, -0.2918033, -0.2866411, -0.2151584]","[0.020506, -0.0, -0.008377, -0.020506, -0.0, -0.008377, -0.0, 0.017333, 0.00704, 0.0, -0.017333, 0.00704, 0.0, 0.005996, -0.004118, 0.0, -0.005996, -0.004118, -0.0, 0.001235, -0.002862, 0.0, -0.001235, -0.002862, -0.006203, -0.0, 0.008317, 0.006203, 0.0, 0.008317]",15.63,74.1
silyl_radical,-290.042943622745,6,0.010356,"[-65.15126, -5.039377, -3.484565, -3.479334, -3.479334, -0.4943341, -0.3232762, -0.3232762, -0.1952447]","[0.0, 0.0, -0.005334, -0.0, -0.009052, 0.001779, -0.007841, 0.004526, 0.001778, 0.007841, 0.004526, 0.001778]",1.05,4.7
cyclopentane,-194.775813431382,7,0.00977661311498,"[-9.768191, -0.7566909, -0.6342929, -0.633876, -0.5080475, -0.4979837, -0.4333008, -0.4322107, -0.3687305, -0.3672141, -0.2976729, -0.2969133, -0.2964034, -0.2940726, -0.2812834, -0.2692499]","[0.008672, -0.010142, 0.009209, 0.000136, 0.014981, 0.005029, -0.014901, 0.004081, 0.000569, -0.007393, -0.012705, -0.006035, 0.013038, 0.004029, -0.008808, -0.000788, -0.002298, -0.006594, 0.000498, -0.005909, 0.00384, 0.004277, -0.001743, 0.005294, 0.004165, -0.000531, -0.005621, 0.000252, 0.001987, 0.006755, 0.003577, 0.004991, -0.003495, -0.004073, 0.005256, 0.002356, -0.000574, 6.7e-05, -0.007049, -0.000739, 0.000332, 0.007041, -0.006147, -0.002396, -0.002491]",33.15,180.8
dimethyl_sulfoxide,-550.648077488487,11,1.53169473185,"[-5.77577, -0.9304299, -0.7265568, -0.6597629, -0.5458997, -0.4377508, -0.4206343, -0.4155535, -0.385154, -0.3650581, -0.3579488, -0.319108, -0.2415979, -0.1996001]","[0.0, 0.00158, -0.004919, 0.0, -0.003054, 0.002668, 0.027797, 0.013831, 0.005152, -0.027797, 0.013831, 0.005152, -0.0254, -0.017219, -0.004515, 0.0254, -0.017219, -0.004515, 0.003382, 0.0056, -0.001323, -0.002478, -0.001475, 0.001811, -0.003382, 0.0056, -0.001323, 0.002478, -0.001475, 0.001811]",16.14,92.5
trifluoroacetic_acid,-523.447769462078,11,0.718874686159,"[-9.950491, -1.24425, -1.154755, -1.152051, -1.057297, -0.9719708, -0.7109364, -0.6272993, -0.5774525, -0.5761813, -0.5507319, -0.4649478, -0.4554826, -0.4456458, -0.4388278, -0.4263827, -0.4059963, -0.4026558, -0.3834569, -0.3726936, -0.3282217, -0.2815941]","[0.009587, 0.01295, 0.0, -0.015915, 0.02328, -0.0, -0.002067, -0.036943, -0.0, 0.009469, -0.010208, 0.0, -0.004171, 0.000702, 0.0, -0.002315, -0.003499, -0.00163, -0.002315, -0.003499, 0.00163, 0.007727, 0.017215, 0.0]",14.96,88.3
nitric_oxide,-128.979972560240,11,0.088829,"[-18.74595, -13.99659, -1.15547, -0.6169625, -0.4839794, -0.4782738, -0.435935, -0.1640784]","[0.0, 0.0, -0.008788, -0.0, -0.0, 0.008788]",0.71,3.5
hydrazine,-110.997525101626,7,1.079605,"[-13.86572, -13.86571, -0.8745612, -0.6780571, -0.4613446, -0.4442163, -0.390319, -0.2521684, -0.1923306]","[0.006347, 0.008259, -0.000119, -0.006347, -0.008259, -0.000119, 0.006042, -0.010294, -0.006981, -0.006042, 0.010294, -0.006981, -0.007743, -0.001782, 0.0071, 0.007743, 0.001782, 0.0071]",3.27,12.1
aluminum_carbide,-278.942976163681,8,0.772498,"[-55.1567, -9.856377, -3.939712, -2.572055, -2.572055, -2.567881, -0.5405595, -0.29859, -0.2220434, -0.2220434, -0.2006167]","[-0.0, -0.0, -0.000708, 0.0, 0.0, 0.000708]",1.31,5.3
sulfur_monoxide,-471.528951935869,10,0.561914,"[-87.84566, -18.67929, -7.734369, -5.790283, -5.7892, -5.7892, -1.00302, -0.6171052, -0.4170902, -0.4108391, -0.4108391, -0.2237102, -0.2237102]","[0.0, 0.0, 0.012159, -0.0, -0.0, -0.012159]",1.38,5.6
hydroxymethyl_radical,-114.193187792650,8,0.578634173815,"[-18.64604, -9.826549, -0.970735, -0.6092722, -0.4821809, -0.4092961, -0.3577641, -0.3128825, -0.1438163]","[0.020471, 0.003235, -0.004204, -0.016504, -0.00211, 0.003569, 0.001507, -0.00107, -0.000615, -0.001767, -0.006284, 0.00066, -0.003707, 0.00623, 0.00059]",2.1,9.4
dimethyl_sulfide,-475.931368665275,7,0.627449,"[-5.683114, -0.7282556, -0.6366712, -0.5392971, -0.3995633, -0.3960263, -0.384881, -0.363641, -0.3278465, -0.2829991, -0.1888005]","[-0.0, 0.00699, -0.005903, 0.0, -0.006991, -0.005903, -0.0, 0.0, 0.008226, -0.0, -0.003305, -0.002969, -0.004344, 0.000756, 0.00238, 0.004344, 0.000756, 0.00238, -0.0, 0.003304, -0.002969, 0.004344, -0.000756, 0.00238, -0.004344, -0.000756, 0.00238]",8.28,39.0
beryllium_monochloride,-473.285972305067,7,0.292759,"[-100.3444, -9.149378, -7.005543, -7.003082, -7.003082, -3.861725, -0.7525959, -0.3740131, -0.3131509, -0.3131509, -0.1911692]","[0.0, 0.0, -0.002633, -0.0, -0.0, 0.002633]",1.45,4.9
n_propyl_chloride,-576.199918208330,8,0.850199672737,"[-6.984852, -0.7828477, -0.7048818, -0.6032058, -0.5359146, -0.4394681, -0.4073, -0.389272, -0.3697428, -0.3332095, -0.3221237, -0.3045511, -0.2591891, -0.2576445]","[0.006554, -0.001567, -0.0, 0.004083, 0.004746, -0.0, -0.001174, -0.005803, -0.0, -0.000948, 0.000824, -0.0, -0.000676, 0.004619, 0.006636, -0.000676, 0.004619, -0.006636, 0.000147, -0.003819, 0.005712, 0.000147, -0.003819, -0.005712, -0.001572, 0.003657, 0.005911, -0.001572, 0.003657, -0.005911, -0.004312, -0.007115, 0.0]",14.22,84.6
chloroform,-1414.598444631417,8,0.43318500014,"[-7.024709, -0.8784883, -0.7750838, -0.7750833, -0.6006832, -0.4771383, -0.4468646, -0.4468646, -0.3274874, -0.3274867, -0.3007965, -0.2940488, -0.2940484, -0.2761629]","[-0.0, -2e-06, 0.035258, -0.0, -0.0, -0.014215, 0.0, 0.000731, -0.007014, 0.000629, -0.000364, -0.007015, -0.000629, -0.000364, -0.007015]",9.13,35.1
phosphorus_monosulfide,-736.944523486498,17,0.190691,"[-5.734437, -5.731844, -5.729811, -4.58644, -4.580517, -4.579588, -0.7105559, -0.4924356, -0.3183408, -0.3102381, -0.3049745, -0.1683315]","[-0.0, -0.0, 0.001389, 0.0, 0.0, -0.001389]",3.03,12.5
cyclopropane,-116.822716963914,7,2.9e-05,"[-9.779301, -9.7793, -0.7773819, -0.5333144, -0.5333075, -0.4489134, -0.422372, -0.3177831, -0.3177755, -0.2653226, -0.2653162]","[0.0, 0.013021, 0.0, 0.011291, -0.006515, 0.0, -0.011291, -0.006515, 0.0, -0.0, -0.002689, -0.00432, -0.002328, 0.001347, -0.004327, 0.002328, 0.001347, -0.004327, -0.0, -0.002689, 0.00432, -0.002328, 0.001347, 0.004327, 0.002328, 0.001347, 0.004327]",9.03,39.6
formyl_radical,-113.003821865361,10,0.62597356159,"[-18.67763, -9.891002, -1.013884, -0.5685758, -0.4535591, -0.4048751, -0.3881567, -0.1859582]","[0.044605, -0.040649, -0.0, -0.031027, 0.005883, 0.0, -0.013578, 0.034766, 0.0]",1.34,4.7
spiropentane,-193.524202080778,8,0.0,"[-9.780483, -0.8053546, -0.7284383, -0.539834, -0.539834, -0.4850371, -0.4413185, -0.4266215, -0.4266215, -0.328454, -0.315143, -0.3146208, -0.2555008, -0.2555008, -0.2448389]","[0.0, 0.0, 1e-06, -0.0, 0.016106, 0.009375, -0.0, -0.016106, 0.009375, -0.016107, -0.0, -0.009375, 0.016107, -0.0, -0.009375, -0.006421, -0.003805, -0.002267, 0.006421, -0.003805, -0.002267, 0.006421, 0.003805, -0.002267, -0.006421, 0.003805, -0.002267, 0.003805, 0.006421, 0.002267, 0.003805, -0.006421, 0.002267, -0.003805, -0.006421, 0.002267, -0.003805, 0.006421, 0.002267]",27.21,143.2
acetonitrile,-131.498946861708,11,1.83970251269,"[-13.85755, -9.852444, -9.831499, -0.8313611, -0.7874613, -0.5428943, -0.4649863, -0.3435303, -0.3153834, -0.3107623, -0.2556276]","[0.001704, -0.00101, -0.03245, -0.010959, 0.006327, 0.02389, 0.004564, -0.002635, 0.000158, 0.051036, 0.015712, 0.0148, 0.011932, -0.052045, 0.01479, -0.058277, 0.03365, -0.021188]",4.1,21.6
disilane,-580.222751215527,7,0.0,"[-3.464731, -3.464674, -3.464674, -3.464497, -0.5212594, -0.4609808, -0.3300616, -0.3300548, -0.3042385, -0.3042311, -0.2663895]","[0.0, 2.2e-05, 0.010959, 0.0, -2.2e-05, -0.010959, -0.0, -0.007682, -0.003851, 0.006632, 0.003829, -0.003843, -0.006632, 0.003829, -0.003843, -0.0, 0.007682, 0.003851, 0.006632, -0.003829, 0.003843, -0.006632, -0.003829, 0.003843]",7.41,26.7
methylene_chloride,-956.439526691628,7,0.643945,"[-7.010744, -0.8347016, -0.7602314, -0.6093956, -0.45729, -0.4299365, -0.417594, -0.3013252, -0.2954559, -0.2794326, -0.2734496]","[0.0, -0.0, 0.027197, 0.015408, -0.0, -0.00954, -0.015408, -0.0, -0.00954, 0.0, 0.004038, -0.004059, -0.0, -0.004038, -0.004059]",5.61,19.8
methlidyne_radical,-38.094668045743,9,0.578165,"[-9.905851, -0.5877327, -0.283442, -0.2151604]","[-0.0, -0.0, 0.002236, 0.0, 0.0, -0.002236]",0.14,1.3
trifluoro_acetonitrile,-427.665720008918,11,0.62680900002,"[-9.870505, -1.265178, -1.175182, -1.175181, -0.8728185, -0.7276834, -0.627739, -0.5973631, -0.597363, -0.4645085, -0.464508, -0.4345486, -0.4345485, -0.4236262, -0.4049611, -0.3601592, -0.3601591, -0.3574647]","[0.0, -1e-06, -0.019109, 0.0, 0.0, 0.006558, -0.0, -0.0, 0.003416, -0.0, 0.004566, 0.003046, 0.003957, -0.002283, 0.003044, -0.003957, -0.002283, 0.003044]",8.66,47.7
acetyl_radical,-151.981152732565,11,1.00372698453,"[-18.65313, -9.883863, -9.814375, -0.9955112, -0.6972308, -0.494569, -0.4249611, -0.4238726, -0.4201933, -0.3606351, -0.3456024, -0.1635065]","[-0.012419, -0.013624, -0.0, -0.021213, 0.013788, -0.0, -0.003587, 0.004671, 0.0, 0.003413, -0.001319, -0.00342, 0.003413, -0.001319, 0.00342, 0.030393, -0.002196, 0.0]",3.76,23.7
silylene_t,-289.406238631094,7,0.002231,"[-65.18035, -5.060205, -3.504821, -3.504078, -3.499449, -0.4827935, -0.3392275, -0.2316853, -0.1731236]","[0.0, -0.0, 0.003712, -0.0, 0.003623, -0.001856, -0.0, -0.003623, -0.001856]",0.65,3.5
oxygen_water,-151.830799431384,8,1.02286214037,"[-18.63041, -18.56615, -0.9496751, -0.8858551, -0.5113831, -0.4554127, -0.3717865, -0.3122206, -0.2911805, -0.2364428]","[-0.011046, 0.008397, 0.002173, -0.003165, -0.010123, -0.004703, 0.00331, -0.002502, -0.009256, 0.003365, -0.006348, 0.006976, 0.012966, 0.003613, 0.000918, -0.005429, 0.006963, 0.003892]",2.18,8.1
chlorine_monofluoride,-557.923122817686,8,0.314352,"[-9.224372, -7.094303, -7.072394, -7.072394, -1.142142, -0.7653621, -0.5060745, -0.4363492, -0.4363492, -0.2910611, -0.2910611]","[0.0, 0.0, -0.000748, -0.0, -0.0, 0.000748]",1.03,4.2
sodium_hydride,-161.995910425788,8,2.227417,"[-37.72723, -2.057739, -1.056341, -1.056341, -1.053458, -0.1586915]","[-0.0, 0.0, -0.001661, 0.0, -0.0, 0.001661]",0.45,3.9
nitrogen_tribromide,-7766.248314375796,10,0.215289000002,"[-2.529384, -0.8930557, -0.7457521, -0.7457521, -0.6322691, -0.4463148, -0.4463148, -0.3926156, -0.3098633, -0.3098631, -0.2773644, -0.2773643, -0.2613468, -0.2499354]","[-0.0, -1e-06, 0.004436, 0.0, -0.001184, -0.001477, -0.001025, 0.000592, -0.00148, 0.001025, 0.000592, -0.00148]",38.34,285.1
phosphorus_pentafluoride,-836.630973057075,8,1.6e-05,"[-4.755417, -1.24008, -1.174079, -1.174075, -1.13695, -1.102935, -0.6571596, -0.5676578, -0.5676569, -0.5520889, -0.4929495, -0.4929474, -0.4777415, -0.4777388, -0.4575858, -0.4362187, -0.4152207, -0.3991357, -0.3991357, -0.3724933, -0.3724927]","[0.0, 8e-06, -0.0, 0.0, -0.010444, 0.0, -0.009034, 0.005216, 0.0, 0.009034, 0.005216, 0.0, 0.0, 2e-06, -0.004425, 0.0, 2e-06, 0.004425]",12.2,39.6
aminyl_radical,-55.422150334807,6,0.721856,"[-13.89121, -0.7746066, -0.430441, -0.2857124, -0.2695817]","[-0.0, -0.0, 0.013191, 0.0, -0.007973, -0.006595, 0.0, 0.007973, -0.006595]",0.26,1.6
allene,-115.604779282157,7,0.0,"[-9.809027, -9.787944, -9.78792, -0.7163978, -0.6374459, -0.4698406, -0.407865, -0.4025503, -0.4025503, -0.2459895, -0.2459895]","[-0.0, -0.0, 0.0, 0.0, -0.0, 0.017529, -0.0, 0.0, -0.017529, -0.0, -0.003584, -0.002615, -0.0, 0.003584, -0.002615, -0.003584, -0.0, 0.002615, 0.003584, -0.0, 0.002615]",5.27,19.2
methane,-40.120353492867,6,0.0,"[-9.756583, -0.6236949, -0.3480515, -0.3480515, -0.3480515]","[-0.0, -0.0, -0.0, -0.003508, -0.003508, -0.003508, -0.003508, 0.003508, 0.003508, 0.003508, -0.003508, 0.003508, 0.003508, 0.003508, -0.003508]",0.59,3.6
carbon_monosulfide,-434.525989055981,10,0.806302,"[-87.80685, -9.882888, -7.704662, -5.758824, -5.758824, -5.756875, -0.7691851, -0.4794953, -0.3334065, -0.3334065, -0.2717957]","[0.0, 0.0, -2.6e-05, -0.0, -0.0, 2.6e-05]",1.54,5.7
sulfur_hexafluoride,-992.425744757209,7,1.73205080757e-06,"[-6.05035, -1.314993, -1.187752, -1.187752, -1.187752, -1.132186, -1.132186, -0.7503525, -0.6201775, -0.6201775, -0.6201775, -0.5163089, -0.5163089, -0.5163088, -0.4941182, -0.4941182, -0.4305911, -0.4305911, -0.4305911, -0.4226872, -0.4226872, -0.4226872, -0.3801365, -0.3801365, -0.3801365]","[-0.0, -0.0, -0.0, 0.0, 0.0, -0.010187, 0.0, -0.010187, 0.0, -0.010187, 0.0, 0.0, 0.0, 0.010186, 0.0, 0.010186, 0.0, 0.0, 0.0, 0.0, 0.010187]",15.32,51.0
nonane,-351.786529426709,10,0.035865,"[-9.762504, -0.7390556, -0.7205844, -0.6905642, -0.6505294, -0.6033504, -0.5544755, -0.5207267, -0.5157434, -0.5111488, -0.4409145, -0.4236804, -0.3968967, -0.3957336, -0.3889268, -0.3638258, -0.3624151, -0.3605659, -0.3296496, -0.3284677, -0.3121542, -0.3009263, -0.3007743, -0.2907575, -0.2853518, -0.2831194, -0.2769575, -0.2766356, -0.2645936]","[0.0, -1e-06, 0.017037, -0.0, 4e-05, -0.017039, 0.0, -4e-05, -0.017039, 0.0, 0.00023, 0.017077, -0.0, -0.00023, 0.017077, 0.0, -0.000188, -0.016827, 0.0, 0.000187, -0.016828, -0.0, 0.012103, 0.008791, -0.0, -0.012103, 0.008791, -0.00561, 0.0, -0.0046, 0.00561, 0.0, -0.0046, -0.005634, 2e-06, 0.004609, 0.005634, 1e-06, 0.004609, 0.005634, -2e-06, 0.00461, -0.005634, -1e-06, 0.00461, -0.005646, -4.1e-05, -0.004618, 0.005646, -4.1e-05, -0.004618, 0.005646, 4e-05, -0.004618, -0.005646, 4e-05, -0.004618, 0.005615, 0.000321, 0.004579, -0.005615, 0.00032, 0.004579, -0.005615, -0.00032, 0.004579, 0.005615, -0.000319, 0.004579, 0.0, -0.005818, 0.003708, 0.005703, -0.000231, -0.004385, -0.005703, -0.000231, -0.004385, -0.0, 0.005819, 0.003708, -0.005703, 0.000231, -0.004385, 0.005703, 0.000231, -0.004385]",131.34,930.5
furan,-228.176883342647,10,0.243134,"[-9.785225, -1.023041, -0.7263734, -0.6784259, -0.546511, -0.5142412, -0.4947459, -0.4134171, -0.4025282, -0.3678074, -0.3567026, -0.3339574, -0.2597753, -0.2147416]","[-0.0, -0.0, 0.015514, 0.0, 0.013342, 0.004338, 0.0, -0.013342, 0.004338, -0.0, 0.014599, -0.013209, -0.0, -0.014599, -0.013209, 0.0, -0.006056, -0.00355, 0.0, 0.006056, -0.00355, 0.0, -0.006022, 0.004665, 0.0, 0.006022, 0.004665]",16.88,88.0
methanol_radical,-114.166922962834,13,0.87261152609,"[-18.64767, -9.837271, -0.9247408, -0.6116469, -0.4398532, -0.413423, -0.3902252, -0.2886544, -0.2357307]","[-0.040826, -0.041221, -0.0, 0.017677, 0.023868, 0.0, -0.002556, 0.014736, 0.0, 0.012852, 0.001309, -0.004162, 0.012852, 0.001309, 0.004162]",1.87,13.8
sodium_lithium,-168.817755595325,8,0.070804,"[-37.71283, -2.042484, -1.849646, -1.040725, -1.040725, -1.040656, -0.1188663]","[-0.0, -0.0, -0.00085, 0.0, 0.0, 0.00085]",1.84,7.0
ethylene_oxide,-152.587145139444,8,0.710197,"[-9.832651, -9.832396, -0.9925806, -0.6092365, -0.5736377, -0.4697611, -0.440564, -0.3639006, -0.3427734, -0.2884312, -0.2324186]","[0.0, 0.0, 0.009547, 0.0, 0.010743, -0.009604, 0.0, -0.010743, -0.009604, 0.006053, -0.00423, 0.002415, -0.006053, -0.00423, 0.002415, -0.006053, 0.00423, 0.002415, 0.006053, 0.00423, 0.002415]",5.38,25.4
chlorine_diatomic,-917.455209433467,7,0.0,"[-7.049028, -7.049028, -7.049019, -7.049019, -0.8649599, -0.7029592, -0.4456959, -0.3721916, -0.3721916, -0.2718167, -0.2718167]","[-0.0, -0.0, -2.5e-05, 0.0, 0.0, 2.5e-05]",1.13,5.1
aziridine,-132.789808712497,8,0.659628255858,"[-9.807704, -9.807015, -0.8750615, -0.593264, -0.5525869, -0.4729702, -0.4238613, -0.3331478, -0.3113752, -0.3034215, -0.2136863]","[-0.00176, 0.019705, 0.011389, -0.015099, -0.011898, -0.001842, 0.015049, -0.012263, -0.004844, 0.001441, -0.002967, -0.00495, 0.001986, 0.007097, -0.005989, 0.004787, -0.003438, 0.006301, -0.002565, 0.002869, 0.00475, -0.003838, 0.000894, -0.004815]",6.97,36.0
methoxyethane,-192.755799485589,8,0.438779336761,"[-9.768021, -0.9437783, -0.6914602, -0.606649, -0.543741, -0.4464586, -0.4347587, -0.4087752, -0.3758714, -0.3412917, -0.3237722, -0.3100665, -0.2825836, -0.216975]","[-0.012651, -0.007919, -0.0, 0.014502, 0.012653, -0.0, 0.017825, -0.005688, 0.0, -0.013042, 0.002574, 0.0, -0.00299, -0.001043, -0.004553, -0.00299, -0.001043, 0.004553, -0.00056, 0.005014, 0.0, -0.002567, -0.001943, 0.004551, -0.002567, -0.001943, -0.004551, 0.002357, 0.001535, 0.003786, 0.002357, 0.001535, -0.003786, 0.000327, -0.003732, 0.0]",15.19,85.9
ethane,-79.075143224521,6,0.0,"[-9.765612, -9.765482, -0.6778661, -0.5497106, -0.3892271, -0.3892232, -0.3275498, -0.299815, -0.2998114]","[2.5e-05, -0.0, 0.019232, -2.5e-05, -0.0, -0.019232, 0.004662, 0.0, -0.002581, -0.002342, -0.004063, -0.002583, -0.002342, 0.004063, -0.002583, -0.004662, -0.0, 0.002581, 0.002342, 0.004063, 0.002583, 0.002342, -0.004063, 0.002583]",4.49,17.8
carbon_tetrabromide,-10320.417324063194,10,0.0,"[-2.522964, -0.8433304, -0.7421003, -0.7421003, -0.7421003, -0.5658861, -0.4337885, -0.4337885, -0.4337885, -0.3155931, -0.3155931, -0.2945065, -0.2945064, -0.2945064, -0.262594, -0.262594, -0.262594]","[-0.0, -0.0, -0.0, 0.004223, 0.004223, 0.004223, -0.004223, -0.004223, 0.004222, -0.004223, 0.004222, -0.004223, 0.004222, -0.004223, -0.004223]",73.45,517.9
beryllium_diatomic,-28.913585418511,6,0.0,"[-3.846956, -3.846907, -0.2653879, -0.1676656]","[0.0, -0.0, -0.002703, -0.0, 0.0, 0.002703]",0.15,1.6
tetrachloroethylene,-1910.522870667621,8,0.0,"[-7.036807, -0.889012, -0.8409278, -0.8017612, -0.7786028, -0.6696352, -0.5261804, -0.478992, -0.4777664, -0.4187517, -0.4143555, -0.3559328, -0.3341303, -0.3236003, -0.3213869, -0.3162688, -0.3097092, -0.2808256, -0.2327811]","[0.0, -0.0, 0.00101, 0.0, -0.0, -0.00101, -0.0, 0.006693, 0.00597, -0.0, -0.006693, 0.00597, -0.0, -0.006693, -0.00597, -0.0, 0.006693, -0.00597]",20.92,69.8
silicon_monoxide,-363.098632235362,10,1.141919,"[-65.19116, -18.59543, -5.069499, -3.514389, -3.514389, -3.506341, -0.85631, -0.3961603, -0.3044853, -0.3044853, -0.2778514]","[0.0, 0.0, 0.006592, -0.0, -0.0, -0.006592]",1.4,5.4
trimethylamine,-172.954348434758,8,0.198134032435,"[-9.79351, -0.8428637, -0.6352967, -0.6352789, -0.5285447, -0.4230635, -0.4230537, -0.4215776, -0.3501485, -0.3501416, -0.3208955, -0.3207501, -0.3207448, -0.1796329]","[-2.5e-05, 4.8e-05, -0.004059, -0.006243, -0.006171, 0.020232, 0.008513, -0.002276, 0.020225, -0.002264, 0.008397, 0.020236, 0.0013, 0.001298, -0.017011, -0.001765, 0.00047, -0.017035, 0.000473, -0.001769, -0.017041, -0.00476, 0.001162, -0.000915, 0.001171, -0.004793, -0.000928, 0.001373, -0.004716, -0.000915, 0.003555, 0.003396, -0.000924, 0.003419, 0.003577, -0.000937, -0.004748, 0.001376, -0.000929]",18.94,116.8
carbonyl_fluoride,-311.055450904898,10,0.440833,"[-10.0335, -1.2396, -1.168072, -1.025108, -0.6415133, -0.5813107, -0.5359232, -0.4958116, -0.4370112, -0.4294422, -0.4154575, -0.3711155, -0.3195707]","[0.0, 0.0, 0.002295, 0.0, -0.0, -0.003256, -0.0, 0.001673, 0.000481, -0.0, -0.001673, 0.000481]",3.5,14.0
phosphorus_mononitride,-394.416597342710,10,1.083482,"[-76.0759, -13.89501, -6.330405, -4.581993, -4.581993, -4.575876, -0.7770478, -0.4515773, -0.3119604, -0.3119604, -0.2871535]","[-0.0, -0.0, -0.004261, 0.0, 0.0, 0.004261]",1.52,5.6
carbon_tetrachloride,-1872.753918397924,8,0.0,"[-7.035362, -0.9102375, -0.7884182, -0.7884182, -0.7884182, -0.5802489, -0.4713958, -0.4713958, -0.4713958, -0.3457027, -0.3457027, -0.3227317, -0.3227317, -0.3227317, -0.2862712, -0.2862712, -0.2862711]","[0.0, 0.0, 0.0, 0.002307, 0.002307, 0.002307, -0.002308, -0.002308, 0.002308, -0.002308, 0.002308, -0.002308, 0.002308, -0.002308, -0.002308]",13.86,50.1
acrylonitrile,-169.379470767113,11,1.5741589926,"[-9.828159, -0.8261365, -0.7478517, -0.6022232, -0.4961056, -0.4409396, -0.3756026, -0.3553583, -0.3230547, -0.3109632, -0.2757179]","[-0.008594, -0.012052, -0.0, 0.019111, -0.005143, -0.0, 0.012548, -0.030777, -0.0, 0.0049, -0.001217, 0.0, -0.00285, 0.004269, -0.0, -0.005408, -0.000462, 0.0, -0.019706, 0.045382, 0.0]",7.04,36.4
sodium_hydroxide,-236.787043150224,23,2.518692,"[-37.7175, -18.45751, -2.054383, -1.052635, -1.052635, -1.049878, -0.7331822, -0.2905708, -0.1433486, -0.1433486]","[0.0, -0.0, -0.028343, 0.0, -0.0, 0.006726, -0.0, 0.0, 0.021616]",3.04,17.1
methylene_t,-38.765473527051,7,0.251911,"[-9.838462, -0.608864, -0.4153163, -0.2400413, -0.2096915]","[-0.0, -0.0, -0.000151, 0.0, -0.002983, 7.6e-05, 0.0, 0.002983, 7.6e-05]",0.23,1.7
carbon_monophosphide,-377.714394478530,11,0.440222,"[-76.0645, -9.881615, -6.31675, -4.567636, -4.566044, -4.566044, -0.6695643, -0.4182048, -0.2941618, -0.2808117, -0.2808117]","[-0.0, 0.0, -0.006122, 0.0, -0.0, 0.006122]",1.56,6.3
formic_acid,-188.427699463076,11,0.556613438807,"[-18.60806, -9.917038, -1.033123, -0.9470994, -0.6097917, -0.4930258, -0.444748, -0.4209305, -0.3654361, -0.3083298, -0.2511316]","[-0.021768, 0.006227, -0.0, -0.001595, -0.028173, 0.0, -0.002743, 0.018588, -0.0, 0.031543, -0.004194, -0.0, -0.005436, 0.007552, -0.0]",3.24,15.1
aluminum_trifluoride,-539.417123585107,8,1.2e-05,"[-2.597924, -1.078495, -1.065945, -1.065944, -0.4639265, -0.4228437, -0.4228436, -0.4035369, -0.3898411, -0.3898394, -0.3838482, -0.383847, -0.365156]","[-0.0, -1.1e-05, -0.0, -0.0, 0.00028, 0.0, 0.000234, -0.000135, -0.0, -0.000234, -0.000135, -0.0]",2.98,12.9
vinyl_radical,-77.181875370006,8,0.303984030873,"[-9.817481, -9.791485, -0.6953804, -0.5213815, -0.4213353, -0.3888558, -0.2667742, -0.1992988]","[-0.002038, 0.027525, -0.0, -0.004785, -0.032708, 0.0, 0.003826, -0.006157, 0.0, 0.009185, 0.006112, -0.0, -0.006188, 0.005229, 0.0]",1.59,8.1
nitrous_oxide,-183.375335328840,10,0.062231,"[-18.70974, -14.07701, -13.95173, -1.154754, -1.004862, -0.5497176, -0.5222867, -0.5222867, -0.4223516, -0.315498, -0.315498]","[0.0, -0.0, 0.001514, 0.0, 0.0, -0.015159, -0.0, 0.0, 0.013645]",1.62,6.4
2_butyne,-154.567433256156,6,1.30384048104e-05,"[-9.771818, -0.7020369, -0.6677006, -0.5954032, -0.4280429, -0.3888053, -0.3837433, -0.3837419, -0.3713248, -0.3713232, -0.2218451, -0.2218446]","[-0.0, 2e-06, -0.004388, -0.0, 2e-06, 0.004389, 0.0, -1.3e-05, 0.011724, -0.0, -1.3e-05, -0.011724, 0.0, 0.008771, 0.002346, -0.007582, -0.00438, 0.00234, 0.007582, -0.00438, 0.00234, -0.0, 0.008771, -0.002347, 0.007582, -0.00438, -0.00234, -0.007582, -0.00438, -0.00234]",10.15,55.3
hydrogen_diatomic,-1.137343958800,5,0.0,"[-0.3772234]","[0.0, 0.0, 0.016195, -0.0, -0.0, -0.016195]",0.01,0.4
beryllium_dihydride,-15.660001104223,6,2e-06,"[-3.796363, -0.310131, -0.275303]","[-0.0, -0.0, 1e-06, 0.0, -0.0, -0.004308, 0.0, 0.0, 0.004308]",0.15,1.2
beryllium_monohydride,-15.021488100936,6,0.08074,"[-3.837484, -0.3075066, -0.1692992]","[-0.0, 0.0, 0.00292, 0.0, -0.0, -0.00292]",0.12,1.0
sodium_monoxide,-236.089598848888,34,2.887051,"[-37.73486, -18.53338, -2.066311, -1.065514, -1.064538, -1.061763, -0.7147003, -0.2262981, -0.183749, -0.1699332]","[-0.0, -0.0, -0.001612, 0.0, 0.0, 0.001612]",1.48,17.8
phosphino_radical,-341.231179128976,7,0.24687,"[-76.04649, -6.297952, -4.552675, -4.54742, -4.544244, -0.5800399, -0.3508702, -0.2806846, -0.2196162]","[0.0, 0.0, 0.005203, -0.0, -0.001266, -0.002602, -0.0, 0.001266, -0.002602]",0.62,3.6
boron_monochloride,-483.245096045881,8,0.684889,"[-100.3985, -9.203429, -7.059639, -7.057156, -7.057156, -6.542311, -0.8194476, -0.4724655, -0.3629028, -0.3629028, -0.2312321]","[0.0, 0.0, -0.002366, -0.0, -0.0, 0.002366]",1.44,5.0
ozone,-223.970081208765,12,0.240217000033,"[-18.72278, -18.72277, -1.25828, -1.006914, -0.7076998, -0.5548548, -0.5443832, -0.5359683, -0.3428543, -0.3004509, -0.2971844]","[0.0, -1e-06, -0.032251, -0.0, 0.020094, 0.016126, 0.0, -0.020093, 0.016126]",1.08,7.0
water,-75.908212257879,7,0.753197,"[-18.59703, -0.9191845, -0.4811684, -0.3378437, -0.2633775]","[0.0, -0.0, -0.012951, -0.0, -0.010123, 0.006476, -0.0, 0.010123, 0.006476]",0.28,1.6
acetate_anion,-226.849478900407,10,1.32058507256,"[-9.594388, -0.7123935, -0.6324591, -0.4556304, -0.2439998, -0.2004431, -0.1895061, -0.169574, -0.1348928, -0.1166168, -0.01271984, 0.0050933, 0.01650859]","[-0.000199, -0.007484, -0.0, 0.000515, -0.017826, -0.0, 0.000561, -0.000494, -0.0, -7.3e-05, -0.000482, 0.000942, -7.3e-05, -0.000482, -0.000942, -0.025514, 0.012366, 0.0, 0.024783, 0.014402, 0.0]",6.83,36.0
tetrachlorosilane,-2123.564569558621,8,0.0,"[-3.597366, -0.8248728, -0.777699, -0.777699, -0.777699, -0.5115068, -0.4158303, -0.4158303, -0.4158303, -0.3439627, -0.3439627, -0.3346144, -0.3346144, -0.3346144, -0.3045405, -0.3045405, -0.3045405]","[0.0, 0.0, 0.0, 0.000103, 0.000103, 0.000103, -0.000103, -0.000103, 0.000103, -0.000103, 0.000103, -0.000103, 0.000103, -0.000103, -0.000103]",15.34,53.3
oxygen_diatomic,-149.335533870412,6,0.0,"[-18.76131, -18.76128, -1.208962, -0.74382, -0.506092, -0.5026007, -0.5026007, -0.2515491, -0.2515491]","[0.0, -0.0, -0.004915, -0.0, 0.0, 0.004915]",0.34,2.0
heptane,-273.869215216392,10,0.0361130000138,"[-9.767499, -0.7314436, -0.7031171, -0.6584136, -0.6019968, -0.543655, -0.5137807, -0.5101159, -0.4342819, -0.4085552, -0.3898076, -0.384335, -0.3707987, -0.3565817, -0.3319623, -0.3293883, -0.3158793, -0.2962534, -0.2958764, -0.2857731, -0.2789951, -0.2765811, -0.2702013]","[0.0, 1e-06, 0.01363, -0.0, 0.000105, -0.013727, -0.0, -0.000106, -0.013727, -0.0, -8.5e-05, 0.013613, 0.0, 8.4e-05, 0.013613, 0.0, 0.009628, -0.007081, 0.0, -0.009628, -0.007081, -0.000527, 0.0, -8e-06, 0.000527, -0.0, -8e-06, -0.000527, -9.1e-05, -8e-06, 0.000527, -9e-05, -8e-06, 0.000527, 9.1e-05, -8e-06, -0.000527, 9e-05, -8e-06, 0.000631, 0.000331, 7.6e-05, -0.000631, 0.000331, 7.6e-05, -0.000631, -0.000331, 7.6e-05, 0.000631, -0.000331, 7.6e-05, 0.0, 0.000833, 0.000818, 0.000818, 0.000119, -0.000283, -0.000818, 0.000119, -0.000283, -0.0, -0.000833, 0.000818, -0.000818, -0.000119, -0.000283, 0.000818, -0.000119, -0.000283]",72.86,520.2
methylene_s,-38.742453614301,6,0.724689,"[-9.861435, -0.6127525, -0.3688547, -0.2174493]","[-0.0, -0.0, -0.012991, 0.0, -0.006656, 0.006495, 0.0, 0.006656, 0.006495]",0.24,1.4
octane,-312.827119649603,10,2.2360679775e-06,"[-9.764959, -0.7343244, -0.7124933, -0.677021, -0.6304873, -0.5777768, -0.5298208, -0.5152234, -0.510273, -0.4372104, -0.4168221, -0.3953999, -0.3857466, -0.3787344, -0.3711222, -0.3489507, -0.3434696, -0.3194696, -0.3138566, -0.3107194, -0.2897557, -0.2884097, -0.2824064, -0.276916, -0.2755691, -0.272591]","[0.010003, 0.006531, 0.0, -0.010004, -0.006529, 0.0, -0.010389, -0.005676, -0.0, 0.010389, 0.005676, -0.0, 0.008651, 0.007976, -0.0, -0.008651, -0.007977, 0.0, -0.011634, 0.007209, 0.0, 0.011635, -0.00721, 0.0, -0.003079, -0.002024, -0.003977, -0.003079, -0.002024, 0.003977, 0.003078, 0.002024, -0.003976, 0.003078, 0.002024, 0.003976, 0.003025, 0.002012, 0.003881, 0.003025, 0.002012, -0.003881, -0.003025, -0.002012, 0.003881, -0.003025, -0.002012, -0.003881, -0.002819, -0.001394, -0.003474, -0.002819, -0.001394, 0.003474, 0.002819, 0.001394, -0.003474, 0.002819, 0.001394, 0.003474, -0.001267, -0.003831, 0.0, 0.002235, 0.001915, 0.003968, 0.002235, 0.001915, -0.003968, 0.001267, 0.003831, 0.0, -0.002235, -0.001915, 0.003968, -0.002235, -0.001915, -0.003968]",100.92,710.5
beryllium_difluoride,-213.231206342444,8,0.0,"[-24.074, -24.074, -3.826778, -1.060228, -1.052259, -0.4235334, -0.413762, -0.3852783, -0.3852783, -0.3631063, -0.3631063]","[0.0, -0.0, 0.0, -0.0, 0.0, 0.019556, -0.0, 0.0, -0.019556]",0.9,4.3
dilithium_oxide,-89.542267871495,45,0.00228471901992,"[-18.42051, -1.749211, -1.749099, -0.6322892, -0.1402208, -0.1236585, -0.123658]","[-3e-06, -2e-06, 0.0, 1e-06, 1e-06, 0.001811, 1e-06, 1e-06, -0.001811]",1.73,28.3
thiophene,-550.313583944919,10,0.17373,"[-5.728908, -0.8070386, -0.6692466, -0.6534506, -0.5096278, -0.5008045, -0.4697398, -0.3689759, -0.354667, -0.3511556, -0.350863, -0.3125751, -0.235117, -0.221418]","[0.0, -0.0, 0.010693, -0.0, 0.010788, 0.006156, 0.0, -0.010788, 0.006156, 0.0, 0.006132, -0.013244, 0.0, -0.006132, -0.013244, 0.0, -0.003688, -0.001516, 0.0, 0.003688, -0.001516, -0.0, -0.002164, 0.003258, 0.0, 0.002164, 0.003258]",19.95,102.0
ketene,-151.424263751317,11,0.561043,"[-18.67166, -9.901736, -9.792055, -1.030207, -0.7066738, -0.4868033, -0.4514378, -0.4422063, -0.4134195, -0.3755734, -0.2226006]","[0.0, -0.0, -0.020665, -0.0, 0.0, 0.012677, 0.0, 0.0, -0.001065, -0.0, -0.005107, 0.004527, 0.0, 0.005107, 0.004527]",3.07,14.2
phosphorus_monofluoride,-439.328579984161,8,0.253824,"[-76.10655, -24.1308, -6.349485, -4.602031, -4.600286, -4.600286, -1.132904, -0.5806468, -0.4359941, -0.4359941, -0.4148246, -0.2045802, -0.2045802]","[0.0, 0.0, 0.004347, -0.0, -0.0, -0.004347]",1.17,4.7
boron_diatomic,-48.851967336143,6,0.001884,"[-6.532371, -6.531718, -0.5024981, -0.2763376, -0.2270288, -0.2270288]","[0.0, 0.0, 0.006521, -0.0, -0.0, -0.006521]",0.34,2.0
nitrogen_dioxide,-203.707737443674,7,0.104680018958,"[-18.71808, -18.71807, -14.09457, -1.192864, -1.054721, -0.6062451, -0.5321522, -0.5247797, -0.5232267, -0.3542949, -0.3381083, -0.2379128]","[0.0, 1e-05, -0.004315, -0.0, 0.004375, 0.002156, -0.0, -0.004386, 0.002159]",1.59,5.7
argon_dimer,-1051.876521755127,6,0.0,"[-8.453073, -8.453073, -8.453073, -0.8837235, -0.8824729, -0.3885204, -0.3828573, -0.3828573, -0.3809627, -0.3809627, -0.3757358]","[-0.0, -0.0, -0.000594, 0.0, 0.0, 0.000594]",0.38,3.4
sodium_diatomic,-322.911629856306,5,0.0,"[-37.71654, -37.71649, -2.047234, -2.047085, -1.046386, -1.045425, -1.045425, -1.04522, -1.04522, -1.044226, -0.1185302]","[0.0, 0.0, -0.001748, -0.0, -0.0, 0.001748]",2.01,7.1
dimethylamine,-133.999505047490,8,0.386866688049,"[-9.790075, -0.8155769, -0.6306349, -0.5624647, -0.4425373, -0.3960672, -0.3936685, -0.3413423, -0.3220518, -0.3215041, -0.1864646]","[0.004408, -0.013963, 0.0, -0.006413, 0.006713, 0.022662, -0.006413, 0.006713, -0.022662, 0.000685, 0.002296, -0.0, 0.007286, -0.004438, -5.2e-05, 0.007286, -0.004438, 5.2e-05, -0.002322, -0.001258, -0.002076, -0.002322, -0.001258, 0.002076, -0.001097, 0.004816, -0.007981, -0.001097, 0.004816, 0.007981]",8.95,51.5
cyclobutene,-154.572654759806,8,0.07986,"[-9.780269, -0.7801301, -0.5885513, -0.57872, -0.4570734, -0.4509716, -0.4179491, -0.3435515, -0.3217407, -0.2936535, -0.2785588, -0.2267433]","[0.0, 0.011546, 0.012805, -0.0, -0.011546, 0.012805, -0.0, 0.010001, -0.015923, 0.0, -0.010001, -0.015923, -0.0, -0.004612, -0.004632, -0.0, 0.004612, -0.004632, -0.002254, -0.002072, 0.003875, 0.002254, 0.002072, 0.003875, 0.002254, -0.002072, 0.003875, -0.002254, 0.002072, 0.003875]",14.49,69.4
acetic_acid,-227.407338843093,11,0.696580572534,"[-9.796304, -1.016432, -0.9288218, -0.6948098, -0.5606937, -0.4455764, -0.4342286, -0.4335181, -0.3723702, -0.3572483, -0.3565138, -0.2946336, -0.2451937]","[0.001234, -0.008077, 0.0, 0.008298, -0.011868, -0.0, 0.004367, 0.023106, 0.0, -0.012405, -0.00661, -0.0, 0.000805, -0.000941, -0.0, -0.003842, -0.001785, -0.0, 0.000772, 0.003087, -0.00339, 0.000772, 0.003087, 0.00339]",7.84,48.2
hydrogen_fluoride,-99.846228181225,7,0.716139,"[-24.07465, -1.088772, -0.490965, -0.3522642, -0.3522642]","[-0.0, -0.0, 0.013526, 0.0, 0.0, -0.013526]",0.15,1.0
phosphorus_diatomic,-680.222433330642,7,0.00013,"[-4.55849, -4.55849, -4.558296, -4.558296, -4.554195, -4.551995, -0.6248771, -0.4264352, -0.2674914, -0.2661074, -0.2661074]","[-0.0, -0.0, -0.000616, 0.0, 0.0, 0.000616]",1.34,5.4
sodium_fluoride,-260.754175622345,42,3.049623,"[-37.73188, -23.89432, -2.064813, -1.063413, -1.063413, -1.061627, -0.8487848, -0.2011693, -0.1921125, -0.1921125]","[-0.0, -0.0, 0.089898, 0.0, 0.0, -0.089898]",1.21,17.3
lithium_diatomic,-14.724728859428,6,0.0,"[-1.841651, -1.841303, -0.1188442]","[-0.0, 0.0, 0.000868, 0.0, -0.0, -0.000868]",0.26,1.7
difluoromethane,-237.471989357511,8,0.705924,"[-9.933447, -1.156497, -1.098138, -0.644556, -0.5038312, -0.5028236, -0.5023683, -0.3750139, -0.3715231, -0.3578695, -0.300046]","[0.0, 0.0, 0.014543, 0.011218, -0.0, -0.006816, -0.011218, 0.0, -0.006816, 0.0, 5.1e-05, -0.000455, -0.0, -5.1e-05, -0.000455]",2.46,11.4
propene,-116.825803682158,8,0.180729022025,"[-9.775639, -9.770182, -0.7108972, -0.6160176, -0.4965028, -0.4207021, -0.3778585, -0.3722193, -0.3281681, -0.3046821, -0.2343641]","[0.016199, -0.005314, 0.0, -0.005418, 0.015411, -0.0, -0.012784, -0.009061, -0.0, -0.000304, 0.005723, 0.0, -0.003113, -0.004107, 0.0, 0.001049, -0.004823, 0.0, -0.001753, 0.004024, -0.0, 0.003062, -0.000927, -0.003148, 0.003062, -0.000927, 0.003148]",7.89,36.6
difluorine_monoxide,-273.023181545094,8,0.0970830000052,"[-18.82394, -1.241124, -1.130027, -0.860071, -0.587895, -0.5316436, -0.4900275, -0.4068446, -0.4042263, -0.3931998, -0.2835121]","[-0.0, -0.0, 0.015141, 0.0, 0.005906, -0.007571, 0.0, -0.005906, -0.007571]",0.9,4.5
phosphorus_monoxide,-414.811852078013,17,0.730809,"[-76.10149, -18.64595, -6.348759, -4.604245, -4.597486, -4.596217, -0.9409358, -0.5072921, -0.3691333, -0.3640315, -0.3551368, -0.1655079]","[-0.0, -0.0, 0.008863, 0.0, 0.0, -0.008863]",1.42,8.2
tert_butyl_radical,-156.343619287725,18,0.109211000897,"[-9.768716, -0.7272497, -0.6220408, -0.6220403, -0.4771775, -0.4002491, -0.3971158, -0.3971149, -0.3437205, -0.3437199, -0.3224875, -0.3053479, -0.3053477, -0.1370159]","[0.0, -0.002553, 0.031209, -0.0, 0.051435, 0.024827, 0.044683, -0.017985, 0.022427, -0.044683, -0.017985, 0.022497, -0.0, 0.006707, -0.019924, 0.049969, -0.025657, -0.007813, -0.049969, -0.025657, -0.007813, 0.005772, -0.003309, -0.020017, -0.048773, -0.029843, -0.00824, 0.001656, 0.048999, -0.004448, -0.005772, -0.003309, -0.020017, -0.001656, 0.048999, -0.004448, 0.048773, -0.029843, -0.00824]",10.97,155.1
lithium_fluoride,-106.703598508252,7,2.367544,"[-23.92885, -1.825123, -0.8926668, -0.2427204, -0.2321165, -0.2321165]","[0.0, 0.0, -0.004607, -0.0, -0.0, 0.004607]",0.53,2.3
acetyl_fluoride,-251.335111986165,11,1.1317756821,"[-9.810409, -1.147409, -0.9888906, -0.7067913, -0.5635292, -0.4762476, -0.4697096, -0.4470185, -0.3937936, -0.3880867, -0.3532971, -0.3448389, -0.2754381]","[-0.014611, 0.013219, -0.0, 0.009974, -0.016096, -0.0, 0.002463, -0.002122, -0.0, 0.002154, -0.000692, 0.0, -0.006161, -0.00434, -0.0, 0.00309, 0.005016, -0.008673, 0.00309, 0.005016, 0.008673]",6.99,38.1
lithium_hydroxide,-82.739704252356,20,1.649849,"[-18.49306, -1.809072, -0.76471, -0.3322278, -0.1811555, -0.1811553]","[-0.0, 0.0, -0.003506, -0.0, 0.0, -0.006269, 0.0, -0.0, 0.009775]",1.33,7.1
propyne,-115.599062747672,8,0.355596000316,"[-9.806172, -9.787725, -9.76918, -0.7065803, -0.6306443, -0.4732078, -0.4061392, -0.3937312, -0.3937185, -0.2429889, -0.2429873]","[-0.0, -1.9e-05, -0.020318, -0.0, 2e-06, 0.007015, 0.0, 0.0, 0.016611, -0.0, 0.0, -0.012884, -0.0, 0.004518, 0.003186, 0.003906, -0.002251, 0.003195, -0.003906, -0.002251, 0.003195]",5.15,27.6
aluminum_monosulfide,-638.240942884200,18,1.406291,"[-5.682013, -5.675493, -5.675493, -3.961104, -2.592343, -2.592343, -2.590265, -0.6091774, -0.3378188, -0.2332979, -0.2332979, -0.2325391]","[-0.0, -0.0, -0.219022, 0.0, 0.0, 0.219022]",2.19,8.8
boron_monocarbide,-62.033397945142,10,0.388563,"[-9.894091, -6.538105, -0.6366925, -0.3344104, -0.2833953, -0.2833953, -0.2512371]","[0.0, 0.0, -0.00332, -0.0, -0.0, 0.00332]",0.62,3.0
boron_trichloride,-1400.948206005592,8,6.3e-05,"[-6.569683, -0.8238542, -0.7781187, -0.7781113, -0.4876839, -0.4226405, -0.4226361, -0.3800228, -0.3213003, -0.3212985, -0.3176984, -0.3176935, -0.2878042]","[0.0, 1e-05, 0.0, 0.0, 0.006318, 0.0, 0.005475, -0.003164, -0.0, -0.005475, -0.003164, -0.0]",7.13,27.2
ethyl_radical,-78.410282514822,7,0.165057051025,"[-9.788728, -9.775293, -0.6852182, -0.5454653, -0.4084737, -0.3732746, -0.3547955, -0.3160254, -0.1653509]","[0.003211, -0.022223, -0.0, -0.000292, 0.020838, 0.0, -0.007512, 0.003858, 0.0, 0.002455, 0.003206, -0.006329, 0.002455, 0.003206, 0.006329, -0.000159, -0.004442, 0.00781, -0.000159, -0.004442, -0.00781]",3.66,18.7
magnesium_hydroxide,-274.475705873759,58,0.453843280972,"[-46.01657, -18.53473, -2.923598, -1.741954, -1.741954, -1.737785, -0.8200461, -0.4010357, -0.2293095, -0.229309, -0.1692577]","[0.0, 5e-06, -0.024963, 0.0, 1e-06, 0.004135, -0.0, -6e-06, 0.020829]",2.88,37.9
hydrogen_peroxide,-150.544167112471,7,0.633863,"[-18.66273, -18.66269, -1.031952, -0.8247967, -0.4831618, -0.4545141, -0.3851841, -0.2887874, -0.2367802]","[0.011851, 0.021538, 0.012584, -0.011851, -0.021538, 0.012584, -0.022025, -0.011305, -0.012584, 0.022025, 0.011305, -0.012584]",0.88,4.9
propane,-118.033973659058,7,0.0369990395956,"[-9.762706, -0.7057493, -0.6111621, -0.5219091, -0.4111998, -0.3913998, -0.3575158, -0.3371137, -0.297603, -0.2959675, -0.2839516]","[2.4e-05, 0.017286, 8e-06, -0.008055, -0.013737, -2e-06, 0.008028, -0.01378, 2.2e-05, 1e-06, -0.002235, -0.003282, -2.8e-05, -0.00219, 0.003248, 0.004071, -0.001812, -0.0, -0.004045, -0.001786, 4e-06, -0.001133, 0.004566, -0.006205, -0.001133, 0.004565, 0.006206, 0.001129, 0.004564, 0.006206, 0.001143, 0.004559, -0.006204]",10.63,53.4
butane,-156.993350141704,8,0.0,"[-9.764198, -0.7196733, -0.6520837, -0.5628332, -0.5143381, -0.4232243, -0.3833887, -0.3779263, -0.3662074, -0.3253406, -0.305782, -0.2966889, -0.2837505, -0.2785072]","[-0.000656, 0.013071, 0.0, 0.011643, -0.007898, 0.0, -0.011643, 0.007898, -0.0, 0.000656, -0.013071, 0.0, -0.003458, -0.001746, 0.0, 0.003458, 0.001746, 0.0, 0.002292, -0.001674, -0.003461, 0.002292, -0.001674, 0.003461, -0.002292, 0.001674, -0.003461, -0.002292, 0.001674, 0.003461, -0.002115, 0.002031, 0.003414, -0.002115, 0.002031, -0.003414, 0.002115, -0.002031, 0.003414, 0.002115, -0.002031, -0.003414]",19.61,119.8
carbon_dioxide,-187.280637807103,7,3e-06,"[-18.68742, -18.68741, -9.960812, -1.069257, -1.034154, -0.5070832, -0.4770351, -0.4770351, -0.4708329, -0.3410826, -0.3410826]","[0.0, 0.0, 2e-06, -0.0, -0.0, 0.00094, -0.0, 0.0, -0.000942]",1.38,5.0
magnesium_monohydride,-199.667872878347,7,0.463159,"[-46.02509, -2.929839, -1.748535, -1.748535, -1.743287, -0.2608069, -0.149297]","[-0.0, -0.0, 0.003061, 0.0, 0.0, -0.003061]",0.45,3.2
cyclopropene,-115.572397649794,8,0.182588,"[-9.800171, -9.799157, -9.791649, -0.7949471, -0.5379096, -0.508941, -0.4572857, -0.3959727, -0.3131579, -0.2671117, -0.2284782]","[-0.0, 0.0, 0.017127, 0.0, 0.018389, -0.009664, 0.0, -0.018389, -0.009664, 0.0, -0.008041, 0.004767, 0.0, 0.008041, 0.004767, -0.00486, -0.0, -0.003666, 0.00486, -0.0, -0.003666]",6.52,27.0
cyclobutane,-155.784601751951,7,0.0,"[-9.774345, -0.7680479, -0.5862676, -0.5862676, -0.4887839, -0.431659, -0.4291826, -0.3378114, -0.3378114, -0.3197387, -0.2716314, -0.2696575, -0.2696575]","[-0.0, 0.010116, 0.004931, -0.0, -0.010116, 0.004931, -0.010116, -0.0, -0.004931, 0.010116, -0.0, -0.004931, 0.0, -0.00288, 0.002018, -0.0, -0.0006, -0.004055, 0.0, 0.00288, 0.002018, -0.0, 0.0006, -0.004055, 0.00288, 0.0, -0.002018, 0.0006, 0.0, 0.004055, -0.00288, 0.0, -0.002018, -0.0006, 0.0, 0.004055]",18.52,93.2
silylene_s,-289.436209299947,7,0.0938414824798,"[-65.17746, -5.054542, -3.505072, -3.493823, -3.49097, -0.4655201, -0.2938791, -0.2152928]","[-0.0, 0.007951, -0.007684, 0.0, -0.001653, 0.00625, 0.0, -0.006298, 0.001434]",0.67,3.3
aluminum_monohydride,-241.918943322999,6,0.023225,"[-55.14351, -3.92611, -2.559848, -2.559848, -2.550298, -0.3314808, -0.1809891]","[0.0, 0.0, 0.005568, -0.0, -0.0, -0.005568]",0.42,2.3
beryllium_oxide,-89.205965277692,10,2.340645,"[-18.53285, -3.825297, -0.7610862, -0.2541784, -0.2304185, -0.2304185]","[0.0, 0.0, -0.005564, -0.0, -0.0, 0.005564]",0.65,2.9
