,Energy,Iterations,Dipole Moment,Eigens,Derivatives,Derivative Time,Wall Time
bicyclo[3.1.0]hexane,-232.518617110779,16,0.0797463687951,"[-9.763343, -0.8042135, -0.6881781, -0.6352695, -0.5558533, -0.4944488, -0.4849428, -0.4649972, -0.417378, -0.3920967, -0.3639452, -0.3492637, -0.3138031, -0.3013724, -0.2953436, -0.2896865, -0.247507, -0.2355135]","[-0.221225, 0.424699, 0.000838, 0.213064, 0.128197, 0.001419, 0.116741, -0.347611, 0.055925, 0.120868, -0.334108, -0.061961, -0.032407, 0.031314, 0.426343, -0.124905, 0.096932, -0.421463, 0.001752, 0.018359, -0.00019, 0.012433, -0.002462, -0.000173, 0.007172, 0.004523, -4.5e-05, -0.013153, -0.006967, -4.9e-05, -0.005735, -0.002655, 0.012198, -0.005598, -0.003138, -0.011912, -0.026764, -0.018467, 0.012166, -0.026658, -0.018141, -0.012286, -0.006904, 0.014323, -0.003801, -0.00868, 0.015201, 0.002991]",81.63,460.4
phosphine,-341.865107052528,6,0.263854000017,"[-75.96199, -6.265365, -4.51309, -4.51309, -4.508684, -0.5888189, -0.3467899, -0.3467879, -0.2485058]","[8.4e-05, 0.000206, -0.011177, 2e-06, 0.001193, 0.004453, -0.000102, -0.000671, 0.003315, 1.7e-05, -0.000727, 0.003408]",0.35,2.2
beryllium_sulfide,-411.346866930329,28,1.998525,"[-87.65003, -7.593081, -5.645238, -5.643009, -5.643009, -3.860104, -0.5860579, -0.278225, -0.219553, -0.219553]","[0.0, 0.0, 0.025431, -0.0, -0.0, -0.025431]",0.21,2.9
lithium_oxide,-82.026538143885,28,2.501851,"[-18.53533, -1.83736, -0.737292, -0.2484092, -0.2050492, -0.1939004]","[-0.0, 0.0, -0.299804, 0.0, -0.0, 0.299804]",0.1,2.2
carbon_monoxide,-112.466978766218,7,0.089882,"[-18.70159, -9.891193, -1.075254, -0.5212063, -0.4457141, -0.4457141, -0.3347407]","[-0.0, 0.0, -1.929299, 0.0, -0.0, 1.929299]",0.32,1.5
magnesium_oxide,-273.793304283630,49,2.850887,"[-45.97703, -18.5113, -2.938152, -1.75258, -1.75258, -1.751516, -0.711223, -0.2318834, -0.1826293, -0.1826293]","[-0.0, -0.0, -0.021656, 0.0, 0.0, 0.021656]",0.21,3.7
aluminum_nitride,-295.580774257852,21,1.190739,"[-55.12745, -13.88406, -3.934401, -2.566463, -2.563017, -2.562099, -0.6767513, -0.324296, -0.2720011, -0.2337384, -0.2288246]","[-0.0, -0.0, -0.042328, 0.0, 0.0, 0.042328]",0.43,5.0
imidogen,-54.762198685478,6,0.604875,"[-13.93722, -0.7635784, -0.3644115, -0.2930836, -0.2930836]","[0.0, 0.0, -0.163572, -0.0, -0.0, 0.163572]",0.08,0.9
methyl_formate,-227.365461077453,21,0.756610011835,"[-9.83086, -1.023526, -0.9385297, -0.68039, -0.545002, -0.4901421, -0.4486038, -0.4330952, -0.3854215, -0.3662427, -0.330803, -0.2863902, -0.2540962]","[0.253672, -0.097699, -2.7e-05, -0.199257, 0.07937, 0.000216, -0.064791, 0.325215, -3.4e-05, -0.006719, -0.243172, -5.5e-05, 0.029137, -0.022487, -2e-06, -0.022912, -0.018034, -5e-06, 0.005388, -0.01134, -0.009261, 0.005481, -0.011854, 0.009168]",8.42,59.0
hypochlorite,-533.352520745672,15,0.573325,"[-18.68307, -9.233357, -7.093529, -7.087014, -7.07745, -1.010843, -0.7227324, -0.4567725, -0.4343173, -0.4051663, -0.2835607, -0.2493053]","[-0.0, 0.0, -1.289756, 0.0, -0.0, 1.289756]",0.49,3.2
methanol,-114.839325952355,8,0.650990201404,"[-18.59132, -9.810448, -0.9298059, -0.6175302, -0.4629681, -0.3951775, -0.3877836, -0.2944766, -0.2340245]","[-0.018573, -0.28223, 0.000141, 0.036874, 0.247834, -4.1e-05, 0.022983, -0.012652, -5e-06, 0.011524, 0.003522, -0.00175, 0.011995, 0.003833, 0.001659, -0.064803, 0.039693, -4e-06]",2.04,7.0
vinyl_fluoride,-176.532999757924,16,0.512671511817,"[-9.859783, -9.776623, -1.122616, -0.6988596, -0.5564047, -0.4849171, -0.4387721, -0.4163305, -0.3706611, -0.330907, -0.2467007]","[-0.204734, -0.234459, -0.0, -0.077165, 0.065519, -0.0, 0.298195, 0.193319, 0.0, 0.004271, -0.038582, -0.0, -0.003476, 0.025947, -0.0, -0.017089, -0.011745, -0.0]",3.11,16.5
formaldehyde,-113.639712184354,7,0.900094,"[-18.61553, -9.87196, -0.9771069, -0.5753106, -0.4512789, -0.4085676, -0.3807189, -0.2332118]","[0.0, -1e-06, 1.673635, -0.0, -4e-05, -1.681483, 0.0, -0.012919, 0.003727, -0.0, 0.01296, 0.004122]",0.98,3.0
sulfur_diatomic,-793.690597564041,7,0.0,"[-5.741929, -5.741096, -5.740086, -5.740086, -5.740022, -5.740022, -0.7759561, -0.5734054, -0.372144, -0.3442653, -0.3442653, -0.2148118, -0.2148118]","[0.0, 0.0, 0.069555, -0.0, -0.0, -0.069555]",0.3,2.2
acetaldehyde,-152.612723452103,11,1.14562320187,"[-9.868766, -9.784974, -0.9560064, -0.6887053, -0.5274596, -0.4360252, -0.4115583, -0.3947923, -0.3586031, -0.3382885, -0.2233923]","[-0.227692, 0.019697, -1.4e-05, 0.130954, -0.06611, -2.4e-05, 0.100843, 0.051921, 0.000129, 0.018742, -0.024038, -3e-06, -0.00631, 0.017177, -4e-06, -0.007969, 0.000804, 0.005803, -0.008567, 0.000549, -0.005886]",4.36,19.3
boron_monosulfide,-421.350227337336,10,0.247755,"[-87.7065, -7.651509, -6.522422, -5.703291, -5.701362, -5.701362, -0.6801305, -0.3934558, -0.2877035, -0.2877035, -0.2683574]","[-0.0, -0.0, -0.578981, 0.0, 0.0, 0.578981]",0.48,2.5
beryllium_monofluoride,-113.812293654449,6,0.443802,"[-24.06349, -3.84384, -1.060692, -0.4227204, -0.3803809, -0.3803809, -0.1959072]","[-0.0, -0.0, -0.089359, 0.0, 0.0, 0.089359]",0.12,1.2
phosphorus_tribromide,-8052.230343602610,10,0.132919000034,"[-2.506194, -0.7877949, -0.734517, -0.7345169, -0.5582784, -0.3999793, -0.3999793, -0.3584965, -0.3105925, -0.3105924, -0.2819771, -0.2819771, -0.2721015, -0.2567557]","[0.0, 0.001846, -34.147147, 1e-06]",10.58,37.0
sulfur_dioxide,-546.316197493499,7,0.603113000021,"[-5.843167, -5.838545, -1.06562, -0.9729803, -0.5798999, -0.4657755, -0.4545347, -0.451879, -0.3566088, -0.3309947, -0.3030879]","[-0.0, -0.000104, 0.151051, 0.0, -0.135199, -0.073549, 0.0, 0.135303, -0.077502]",1.12,4.1
methanethiol_radical,-436.334084252197,10,0.713484508128,"[-9.804571, -7.650285, -5.710096, -5.703037, -5.692666, -0.7172176, -0.5710488, -0.4084362, -0.3936752, -0.3431131, -0.248316, -0.2124371]","[0.100807, 0.001377, -0.063304, -0.104713, 0.000103, 0.000192, -0.02174, -0.000735, 0.042299, 0.012806, -0.018917, 0.010253, 0.01284, 0.018171, 0.01056]",1.79,9.3
hydroxyl_radical,-75.200917195376,10,0.649425,"[-18.67359, -0.9289172, -0.4353845, -0.3667431, -0.3033675]","[0.0, 0.0, -0.464635, -0.0, -0.0, 0.464635]",0.08,1.1
lithium_monosulfide,-404.214310010458,16,2.660172,"[-87.64068, -7.581084, -5.643169, -5.627725, -5.627128, -1.868962, -0.5565967, -0.2184717, -0.2051411, -0.1828018]","[0.0, 0.0, 0.004547, -0.0, -0.0, -0.004547]",0.18,2.1
phosphorus_dioxide,-489.585907247881,8,0.503634003456,"[-4.630956, -4.627985, -4.625496, -0.9915438, -0.9447233, -0.5174604, -0.4258025, -0.4144699, -0.4128511, -0.3483898, -0.3387567, -0.27554]","[0.0, -7.9e-05, -0.105474, -0.0, -0.137726, 0.046709, -0.0, 0.137805, 0.058765]",1.09,4.8
formaldoxime_zwitterion,-168.539645921173,11,1.32931646963,"[-13.99817, -9.820541, -1.027833, -0.7894007, -0.6049885, -0.5018427, -0.4436728, -0.4205002, -0.3833173, -0.2265399, -0.221682]","[-0.193508, 0.097474, -0.000782, -0.202219, -0.297847, 0.000379, 0.416498, 0.219592, 0.000343, -0.007002, 0.029686, -0.000211, -0.014565, -0.006542, 0.000643, 0.000797, -0.042363, -0.000372]",4.34,14.5
tetrafluoroethylene,-472.546196414155,7,4.71699056603e-05,"[-9.959443, -1.215361, -1.2014, -1.157807, -1.146058, -0.7469044, -0.6172328, -0.5810083, -0.5761136, -0.533824, -0.51762, -0.4735148, -0.4456006, -0.4228961, -0.4167185, -0.4139807, -0.4139434, -0.3931498, -0.2401893]","[0.0, -0.000116, 1.010685, -0.0, 0.000119, -1.001597, -0.0, -0.016057, -0.131914, -0.0, 0.016104, -0.128644, 0.0, 0.006662, 0.127368, 0.0, -0.006713, 0.124102]",13.19,30.8
boron_dioxide,-174.036506178169,11,0.0,"[-18.67837, -18.67836, -6.506281, -0.9612558, -0.9611471, -0.4434588, -0.4302179, -0.4285795, -0.4028756, -0.3670702, -0.3334493]","[0.0, 0.0, 0.003625, -0.0, -0.0, 0.453024, -0.0, 0.0, -0.456649]",0.71,4.1
cyano_radical,-91.947522139469,10,0.448949,"[-13.92071, -9.89456, -0.8774274, -0.4436416, -0.3638928, -0.3638928, -0.3584014]","[-0.0, -0.0, -1.288851, 0.0, 0.0, 1.288851]",0.31,1.8
boron_nitride,-78.702990620393,27,0.724315000057,"[-13.91222, -6.520359, -0.771696, -0.3646194, -0.3390039, -0.3019646, -0.2846862]","[-0.0, -0.0, -0.400436, 0.0, 0.0, 0.400436]",0.31,4.4
acetyl_chloride,-610.804907451828,25,1.10193394438,"[-6.995241, -1.00721, -0.7854989, -0.6951029, -0.5141228, -0.4536014, -0.4421187, -0.4323846, -0.37901, -0.3698416, -0.2997015, -0.2925705, -0.2675557]","[-0.174503, 0.201578, -5.6e-05, -0.133609, 0.003081, 0.000188, 0.286409, -0.276475, -2.5e-05, 0.023974, 0.101983, -6.1e-05, -0.008419, -0.015735, -1.4e-05, 0.002692, -0.006968, 0.014842, 0.003456, -0.007464, -0.014875]",7.86,58.8
magnesium_diatomic,-398.275642943741,6,0.0,"[-45.94734, -2.90138, -2.901379, -1.716877, -1.716877, -1.716875, -1.716875, -1.716432, -1.71641, -0.1957865, -0.160929]","[0.0, 0.0, -0.001995, -0.0, -0.0, 0.001995]",0.05,1.1
methyl_chloride,-498.277180433279,7,0.729132000099,"[-9.132738, -6.992065, -6.980575, -6.980575, -0.78033, -0.6089002, -0.3994982, -0.3994962, -0.3874542, -0.2642464, -0.2642459]","[-0.018739, 0.00017, -0.481124, 0.016338, 1.4e-05, 0.497853, -0.011499, 4e-06, -0.001426, 0.006927, -0.004306, -0.007435, 0.006973, 0.004118, -0.007868]",1.74,5.7
dimethyl_ether,-153.782044815887,17,0.475398000061,"[-9.809512, -0.9474066, -0.6552358, -0.5729711, -0.4361469, -0.4292609, -0.4290155, -0.3540576, -0.3381829, -0.2805454, -0.2180289]","[0.0, 9e-06, -0.282169, 0.000117, -0.017853, 0.131903, -0.000117, 0.017981, 0.103866, 2e-06, -0.007339, -0.011798, -2e-06, 0.007184, -0.011508, -0.017027, -0.007609, 0.017623, 0.016898, -0.007606, 0.017328, 0.016935, 0.007618, 0.017525, -0.016806, 0.007615, 0.01723]",8.88,51.0
methyl_ketene,-190.369596258730,23,0.753046231253,"[-9.784968, -1.017302, -0.7288658, -0.6212943, -0.4783599, -0.4486686, -0.4188903, -0.4088501, -0.3750965, -0.3664278, -0.3452797, -0.2046218]","[-0.128068, -0.05288, -0.000103, -0.022598, -0.042178, 0.000107, -0.091115, 0.027219, -0.000145, 0.207105, 0.077133, 4.7e-05, -0.00755, -0.026764, 1.3e-05, 0.00623, 0.020882, -1.7e-05, 0.017804, -0.001675, -0.000717, 0.018191, -0.001738, 0.000815]",8.54,67.7
tetrafluorosilane,-685.685262849148,7,0.0,"[-3.576336, -1.162745, -1.124923, -1.124923, -1.124923, -0.5654655, -0.5001823, -0.5001822, -0.5001822, -0.4471213, -0.4471213, -0.4396634, -0.4396634, -0.4396634, -0.4021417, -0.4021417, -0.4021416]","[-0.0, -3.3e-05, -0.000309, -0.051307, -0.051306, -0.068949, 0.051322, 0.051323, -0.097976, 0.050148, -0.050146, 0.069104, -0.050161, 0.050163, 0.09813]",5.67,15.8
silicon_monosulfide,-685.224967383390,10,0.606505,"[-5.686038, -5.684538, -5.062963, -3.504992, -3.504992, -3.497947, -0.6529935, -0.4028506, -0.270277, -0.270277, -0.2588482]","[-0.0, 0.0, 0.060572, 0.0, -0.0, -0.060572]",0.66,2.5
sulfur_monochloride,-855.551507449489,12,0.091364,"[-7.044717, -7.038912, -5.751916, -5.750846, -5.735306, -0.8354662, -0.6290784, -0.410574, -0.3746867, -0.3571521, -0.255075, -0.226304]","[-0.0, -0.0, 0.042402, 0.0, 0.0, -0.042402]",0.65,3.3
neon_dimer,-256.445590684735,6,0.0,"[-30.29093, -30.29093, -1.322716, -1.32208, -0.5027429, -0.499371, -0.499371, -0.4981993, -0.4981993, -0.4950904]","[0.0, 0.0, 0.000818, -0.0, -0.0, -0.000818]",0.04,1.2
formaldoxime,-168.543745959289,11,0.114159037019,"[-13.9146, -9.806983, -1.002726, -0.7911592, -0.5595066, -0.4905941, -0.4255329, -0.3803645, -0.379972, -0.2533427, -0.2472022]","[-0.209987, 0.091142, 0.0, -0.06863, -0.286916, 0.0, 0.231309, 0.202182, -0.0, -0.009085, 0.036591, -0.0, -0.016683, -0.007459, 0.0, 0.073076, -0.03554, -0.0]",4.28,13.4
lithium_chloride,-466.199747012584,8,2.681019,"[-100.1933, -9.043424, -6.89535, -6.894734, -6.894734, -1.872886, -0.645864, -0.2433531, -0.2218053, -0.2218053]","[-0.0, 0.0, 0.003495, 0.0, -0.0, -0.003495]",0.18,1.3
isopropyl_radical,-117.369177278845,25,0.143318398784,"[-9.761645, -9.761609, -0.7074121, -0.6227711, -0.5090265, -0.4099156, -0.3866054, -0.3687009, -0.3448289, -0.3158671, -0.307498, -0.1487088]","[0.00953, 0.286236, 0.000329, -0.010644, -0.180538, 0.09308, -0.01241, -0.164561, -0.092407, 0.003593, -0.011085, 3.5e-05, 0.001867, 0.008469, 0.0013, 0.001991, 0.008796, -0.001653, 0.017079, 0.011931, -0.001195, -0.014127, 0.014618, 0.00044, -0.013858, 0.014357, -0.000776, 0.016979, 0.011777, 0.000846]",11.15,102.6
cyanogen,-184.152528988362,10,1e-06,"[-9.888092, -9.888018, -0.9023009, -0.8858969, -0.69169, -0.4261611, -0.4261611, -0.3824121, -0.3726238, -0.354327, -0.354327]","[-0.0, -0.0, -1.168997, 0.0, 0.0, 1.189837, -0.0, -0.0, 1.598219, 0.0, -0.0, -1.619058]",2.07,8.3
boron_monohydride,-24.974761236585,6,0.631755,"[-6.519586, -0.4390485, -0.2027124]","[0.0, 0.0, -0.055583, -0.0, -0.0, 0.055583]",0.09,0.8
thiirane,-474.732546506477,15,0.722802007018,"[-5.683654, -5.67461, -0.7947067, -0.5607742, -0.5602692, -0.4514039, -0.4139605, -0.3451184, -0.3006855, -0.2922083, -0.2005291]","[-1e-06, -0.001168, 0.036198, -2.8e-05, -0.121586, 0.020918, 2.7e-05, 0.122343, -0.083293, 0.016272, -0.018976, 0.006497, -0.016251, -0.018936, 0.006082, -0.016813, 0.019181, 0.007004, 0.016794, 0.019142, 0.006594]",5.49,28.5
sodium_chloride,-620.271292388319,9,3.359714,"[-6.876094, -6.874567, -6.874567, -2.084897, -1.08226, -1.08226, -1.080326, -0.6217468, -0.2171819, -0.1994, -0.1994]","[-0.0, -0.0, 0.02088, 0.0, 0.0, -0.02088]",0.27,1.7
magnesium_sulfide,-595.980201603963,24,2.851049,"[-5.63091, -5.622644, -5.622644, -2.962578, -1.777432, -1.776624, -1.776624, -0.5496953, -0.2483629, -0.1843604, -0.1843604]","[0.0, -0.0, -0.020704, -0.0, 0.0, 0.020704]",0.31,2.7
methyl_silane,-329.654794312546,7,0.322395003141,"[-5.003168, -3.442195, -3.442195, -3.441731, -0.634183, -0.4696732, -0.3712645, -0.3712559, -0.2942663, -0.2942611, -0.294194]","[-7e-06, 0.016337, -0.299812, -3.1e-05, -0.012981, 0.336011, -2e-06, 0.030269, -0.004469, 0.019411, -0.016449, -0.011461, -0.019407, -0.016493, -0.011592, -1e-06, -0.009244, -0.002717, 0.007279, 0.004254, -0.002907, -0.007244, 0.004306, -0.003054]",5.24,15.2
aluminum_trichloride,-1617.853958661438,8,1.2e-05,"[-2.606677, -0.7757932, -0.7593853, -0.7593846, -0.4326391, -0.3723019, -0.3723016, -0.3401097, -0.3228486, -0.3228477, -0.3175317, -0.317531, -0.299824]","[-0.0, 7.8e-05, 0.0, 0.0, 0.00143, -0.0, 0.00093, -0.000754, -0.0, -0.00093, -0.000755, -0.0]",3.08,9.8
methanethiol,-436.972294671104,8,0.632103064284,"[-7.630234, -5.68596, -5.681748, -5.674493, -0.7126943, -0.5828152, -0.4083434, -0.3877928, -0.3641451, -0.2941262, -0.2074328]","[0.092883, -0.051631, -0.052216, -0.088078, 0.048331, 0.001032, -0.003445, -0.013297, -0.005935, 0.007966, -0.005955, 0.014022, 0.008628, 0.009022, -0.000949, -0.017954, 0.01353, 0.044046]",2.49,8.8
hypochlorous_acid,-534.001940590309,9,0.603469079348,"[-9.18107, -7.045462, -7.02721, -7.026802, -0.9912111, -0.7348275, -0.4977059, -0.4142986, -0.3720997, -0.2851489, -0.2485919]","[-0.039176, -0.129403, 0.0, 0.067356, -0.027019, -0.0, -0.02818, 0.156422, -0.0]",1.11,3.4
lithium_hydride,-7.918723875365,6,2.206929,"[-1.843617, -0.1613753]","[-0.0, 0.0, -0.017701, 0.0, -0.0, 0.017701]",0.02,0.6
monosulfur_monofluoride,-496.031933559649,15,0.225122,"[-24.13967, -7.720843, -5.780533, -5.777943, -5.760476, -1.151099, -0.6703255, -0.4734816, -0.4562032, -0.4400104, -0.2690358, -0.2339034]","[-0.0, 0.0, -0.041419, 0.0, -0.0, 0.041419]",0.46,3.2
ammonia,-56.105047969898,7,0.60348300056,"[-13.8252, -0.7740118, -0.4171828, -0.4171672, -0.2305572]","[5.4e-05, 0.008332, 0.024887, -2e-06, 0.064125, -0.007021, -0.0587, -0.036252, -0.008562, 0.058648, -0.036205, -0.009304]",0.28,1.7
boron_monofluoride,-123.794859045936,7,0.412737,"[-24.17057, -6.532856, -1.193756, -0.5674162, -0.484775, -0.484775, -0.2509167]","[-0.0, -0.0, -0.553531, 0.0, 0.0, 0.553531]",0.31,1.6
carbon_tetrafluoride,-434.846193220471,7,3.46410161514e-06,"[-10.1079, -1.284547, -1.166549, -1.166549, -1.166548, -0.6752898, -0.5993213, -0.5993213, -0.5993209, -0.4619417, -0.4619417, -0.4408821, -0.4408821, -0.4408821, -0.3914567, -0.3914563, -0.3914563]","[-1e-06, 6.7e-05, -0.001654, -0.048357, -0.048386, -0.140754, 0.048382, 0.048353, -0.152304, 0.053046, -0.053075, 0.141582, -0.053071, 0.053042, 0.15313]",5.44,15.5
silicon_diatomic,-576.581292153983,13,0.0,"[-5.045763, -5.045629, -3.489227, -3.489227, -3.489143, -3.489143, -3.479519, -3.478545, -0.4893932, -0.3431347, -0.2162401, -0.2162395, -0.1955014]","[0.0, -0.0, 0.024781, -0.0, 0.0, -0.024781]",0.27,2.6
acetylene,-76.623183632448,16,4.4e-05,"[-9.782487, -9.780163, -0.6796616, -0.5140385, -0.4497585, -0.2709901, -0.2709901]","[-0.0, -0.0, 0.809336, 0.0, 0.0, -0.807899, -0.0, -0.0, 0.058729, -0.0, -0.0, -0.060167]",0.6,4.0
phosphorus_trichloride,-1716.454940617969,10,0.18287700768,"[-4.629231, -0.8382309, -0.7756603, -0.7756552, -0.5653793, -0.4276542, -0.4276506, -0.3853479, -0.3398593, -0.3398581, -0.3073963, -0.3073925, -0.2964924, -0.2650401]","[0.0, 1.7e-05, -0.003975, 0.0, 0.009124, 0.001884, 0.007632, -0.004571, 0.001402, -0.007632, -0.00457, 0.000689]",3.55,12.6
magnesium_monochloride,-657.934059760493,7,1.323576,"[-6.944636, -6.941705, -6.941705, -2.951, -1.767258, -1.767258, -1.764083, -0.6961767, -0.31032, -0.2653995, -0.2653995, -0.1826331]","[-0.0, -0.0, 0.000777, 0.0, 0.0, -0.000777]",0.29,1.5
carbon_disulfide,-831.489948122703,9,1.4e-05,"[-5.720364, -5.720363, -5.720363, -0.7856773, -0.7083287, -0.4645953, -0.3948094, -0.3594599, -0.3594599, -0.2548654, -0.2548654]","[0.0, 0.0, -4e-06, -0.0, -0.0, 1.409355, -0.0, -0.0, -1.409352]",1.16,4.5
magnesium_monofluoride,-298.436024476674,7,1.278856,"[-45.97149, -23.97963, -2.931993, -1.748613, -1.748613, -1.744558, -0.9594154, -0.3213777, -0.2930949, -0.2930949, -0.1819148]","[-0.0, 0.0, 0.05197, 0.0, -0.0, -0.05197]",0.2,1.4
methyl_radical,-39.442783859789,6,6e-06,"[-9.786482, -0.6171742, -0.3803749, -0.3803739, -0.1982059]","[0.001481, -7.4e-05, -0.0, -0.027428, -2e-06, 0.0, 0.012945, 0.015018, 0.0, 0.013003, -0.014943, 0.0]",0.23,1.6
ethylene,-77.855251850056,14,0.000106512910016,"[-9.773185, -9.772684, -0.6862001, -0.5202907, -0.4247842, -0.3752377, -0.3138446, -0.2545622]","[0.0, 0.000146, 0.661984, -0.0, 0.000145, -0.661096, 0.0, -0.010931, -0.001821, 0.0, 0.010786, -0.001615, 0.0, -0.010159, 0.001377, 0.0, 0.010013, 0.001171]",2.45,10.4
trifluoroacetate_anion,-522.906865439789,19,1.8587504486,"[-9.691617, -1.040639, -0.9516688, -0.9514833, -0.767359, -0.6907185, -0.4866612, -0.390093, -0.378169, -0.3754994, -0.2568919, -0.2566018, -0.2458011, -0.2232639, -0.2156284, -0.1991597, -0.1957161, -0.1886488, -0.1806828, -0.05826346, -0.03969855, -0.03530338]","[-0.687336, -0.162999, 0.00301, 0.065561, -0.034048, 0.000306, 0.273105, -0.263122, 0.000653, 0.15961, 0.058947, 0.004064, 0.179105, 0.071763, -0.008436, 0.265499, 0.108491, 0.000148, -0.255543, 0.220968, 0.000254]",16.54,108.3
bromoform,-7750.374455751597,10,0.338845003543,"[-2.504403, -0.822774, -0.7359188, -0.7359168, -0.5868731, -0.445872, -0.417495, -0.4174947, -0.30067, -0.3006674, -0.2762603, -0.2756145, -0.2756135, -0.2578527]","[1e-06, 0.010183, -12.052547, 0.0, 0.00235, -2.55, 5e-06]",14.72,41.3
nitrogen_trifluoride,-351.948551636322,7,0.0340768971152,"[-14.1419, -1.284949, -1.152114, -1.151981, -0.7606896, -0.60012, -0.6000445, -0.5375956, -0.4507271, -0.450682, -0.4061407, -0.4060435, -0.3886323, -0.3156751]","[0.00011, -0.020043, -0.269382, 9.3e-05, -0.302689, 0.073046, -0.259363, 0.161394, 0.087664, 0.25916, 0.161339, 0.108671]",2.63,7.6
phosphorus_tetramer,-1360.579033634676,6,0.00100629270096,"[-4.543958, -0.7432834, -0.4964723, -0.4964699, -0.4964689, -0.3244007, -0.276877, -0.2768751, -0.276873, -0.2482935, -0.2482907]","[-6.4e-05, -0.0, 0.014362, 0.017156, -0.0, -0.005162, -0.008569, -0.014247, -0.00478, -0.008524, 0.014248, -0.004421]",3.65,9.5
phosphorus_monochloride,-798.823542456588,8,0.112767,"[-7.021379, -7.021379, -6.326282, -4.575057, -4.574276, -4.574276, -0.8004692, -0.5471977, -0.3651399, -0.3477209, -0.3477209, -0.2076347, -0.2076347]","[-0.0, -0.0, 0.046275, 0.0, 0.0, -0.046275]",0.64,2.5
mercapto_radical,-397.375412881708,10,0.31265,"[-87.7298, -7.670713, -5.731336, -5.722396, -5.713015, -0.6739226, -0.377647, -0.2866155, -0.2465302]","[0.0, -0.0, 0.015886, -0.0, 0.0, -0.015886]",0.13,1.5
pentane,-195.938665661587,26,0.0372981164404,"[-9.752897, -0.7278598, -0.6786201, -0.606643, -0.5337305, -0.5149313, -0.431118, -0.3964846, -0.3877921, -0.3660725, -0.3499822, -0.3328071, -0.3133909, -0.2908961, -0.2886215, -0.279938, -0.2775961]","[0.00046, 0.000994, -0.150392, 0.000317, 0.049379, 0.093538, -0.000334, -0.051322, 0.102709, -0.000114, 0.015401, -0.028675, 0.000104, -0.014231, -0.029903, -0.001877, -6e-05, -0.008906, 0.001446, -6.2e-05, -0.005873, -0.00795, -0.007463, 0.0184, 0.007564, -0.007457, 0.016245, 0.008149, 0.007332, 0.018902, -0.007759, 0.007328, 0.016744, -0.0, -0.021287, 0.004418, -1e-06, 0.021399, 0.004397, 0.015134, 0.000727, -0.013474, -0.015005, 0.000734, -0.01226, -0.015172, -0.000706, -0.013541, 0.015038, -0.000705, -0.012327]",63.36,627.9
isopropyl_alcohol,-192.764904237602,26,0.639012434973,"[-9.755724, -0.9287239, -0.7006916, -0.6234971, -0.5278752, -0.4686877, -0.4118505, -0.3938952, -0.3492561, -0.3399218, -0.328213, -0.3146065, -0.287573, -0.2332708]","[0.053728, -0.280785, 0.064818, -0.000937, 0.137615, -0.16368, 0.100655, 0.082543, 0.090513, -0.080139, 0.080798, 0.059098, -0.085807, -0.060624, 0.024829, -0.001563, 0.023807, 0.057566, -0.000776, -0.003217, -0.072605, 0.003574, -0.00853, -0.068624, 0.021292, -0.011095, 0.004969, -0.017347, -0.010233, 0.003712, 0.006646, 0.025529, 0.001746, 0.000674, 0.024192, -0.002343]",24.03,218.1
glyoxal_trans,-226.138406770459,10,0.000185924715947,"[-9.896062, -1.006659, -0.9941268, -0.6516838, -0.5459991, -0.4545038, -0.4496935, -0.4295223, -0.418937, -0.3822456, -0.295602, -0.2397408]","[-0.271654, 0.049118, -0.0, 0.274948, -0.046239, -0.0, -0.00471, -0.011674, -0.0, 0.005653, 0.012559, -0.0, 0.300218, -0.268094, 0.0, -0.304455, 0.264331, 0.0]",4.33,17.8
ethanol,-153.799731663247,20,0.641757070881,"[-9.758311, -0.9281466, -0.6792076, -0.5461978, -0.470258, -0.4244853, -0.363683, -0.3437399, -0.3247132, -0.2949556, -0.2303951]","[-0.061352, 0.078657, -0.00018, -0.131531, -0.174052, 0.000281, 0.18591, 0.121512, -0.000107, 0.056975, -0.019837, -1.2e-05, -0.014064, -0.00118, -1.4e-05, -0.010036, -0.010967, 0.003235, -0.010033, -0.011505, -0.003102, -0.007586, 0.008152, -0.012829, -0.008283, 0.009219, 0.012729]",9.03,58.9
nitrogen_monofluoride,-153.424777695089,8,0.13377,"[-24.18372, -14.00285, -1.223663, -0.7345627, -0.494744, -0.494744, -0.480279, -0.2596033, -0.2596033]","[-0.0, -0.0, -1.87942, 0.0, 0.0, 1.87942]",0.31,1.6
vinyl_chloride,-536.027479438083,11,0.52104587782,"[-6.996134, -6.995166, -0.8056247, -0.6808583, -0.529471, -0.44878, -0.4104017, -0.3493537, -0.339566, -0.2817279, -0.2419253]","[-0.0, 0.013736, 0.767224, 0.0, 0.024372, -0.717793, 0.0, -0.044142, -0.04735, 0.0, 0.0104, 0.00148, 0.0, -0.014893, -0.007311, 0.0, 0.010527, 0.003749]",3.67,14.7
ammonia_oxide,-130.745354090279,36,2.03620100007,"[-18.52056, -13.98858, -0.9695641, -0.7339094, -0.5252518, -0.52525, -0.3851864, -0.1753066, -0.1753058]","[4.6e-05, -0.019597, -1.611701, -6e-06, 0.009351, 1.590515, -4e-06, -0.060362, 0.008389, -0.054984, 0.03534, 0.006418, 0.054948, 0.035269, 0.006379]",1.41,14.3
methylenecyclopropane,-154.551775878556,17,0.173032005646,"[-9.76615, -0.792722, -0.6430976, -0.5509927, -0.4804283, -0.4359051, -0.4244788, -0.382398, -0.3304889, -0.2843067, -0.2606965, -0.2341515]","[3e-06, -0.000337, 0.537349, -2e-06, -0.001583, -0.395486, -1.1e-05, -0.050431, -0.002002, 9e-06, 0.05205, -0.178211, -0.0, -0.017847, 0.012076, -0.0, 0.017709, 0.011997, -0.015944, -0.016307, 0.003495, 0.015961, -0.016296, 0.003179, 0.016972, 0.016527, 0.00396, -0.016988, 0.016514, 0.003644]",15.2,82.3
oxygen_monofluoride,-173.785285354720,14,0.099586,"[-24.19638, -18.75447, -1.230293, -0.8650174, -0.5421515, -0.5063486, -0.4768833, -0.3351468, -0.2875711]","[0.0, 0.0, -1.175289, -0.0, -0.0, 1.175289]",0.3,2.4
methylamine,-95.044867889164,8,0.505323891595,"[-13.82738, -9.782102, -0.7946058, -0.5932766, -0.4446079, -0.3986737, -0.3619202, -0.3244633, -0.2003141]","[-0.03472, -0.234175, 6.3e-05, 0.106822, 0.287172, -0.000305, 0.018997, -0.020703, -1e-05, 0.004445, 0.000213, 0.004635, 0.005033, 0.000533, -0.004719, -0.050453, -0.016411, -0.04718, -0.050124, -0.016629, 0.047517]",3.36,10.9
hydrogen_chloride,-459.333265583668,7,0.44031,"[-100.2969, -9.147354, -7.005634, -6.995322, -6.995322, -0.7762653, -0.4346052, -0.2996679, -0.2996679]","[0.0, 0.0, -0.145893, -0.0, -0.0, 0.145893]",0.14,1.1
ethanethiol,-475.930182200770,22,0.648691481071,"[-5.672461, -0.7324767, -0.6408538, -0.5418297, -0.4218088, -0.4191254, -0.3551085, -0.3290805, -0.323996, -0.2959191, -0.2075772]","[0.078158, 0.109066, 0.000134, -0.042911, -0.136797, 0.000236, -0.045178, 0.028869, -0.000208, 0.015634, -0.006873, -1.8e-05, 0.004482, -0.010054, 0.000127, 0.003919, -0.011004, -0.000207, -0.001027, 0.020189, -0.007257, -0.00149, 0.021344, 0.007202, -0.011587, -0.014741, -1e-05]",9.73,68.7
acetamide,-207.593093055905,27,1.50962594338,"[-9.78722, -0.945874, -0.8224752, -0.6667421, -0.5354573, -0.4893114, -0.4234409, -0.4085091, -0.3637532, -0.3545469, -0.3329808, -0.2486321, -0.2184455]","[0.153716, 0.099078, -0.012929, 0.031332, 0.150699, 0.014426, -0.052748, 0.079526, -0.04062, -0.119864, -0.316327, 0.007975, 0.005305, 0.006349, -0.003742, -0.00117, -0.014958, -0.014216, -0.002263, -0.018725, 0.026407, -0.023852, -0.008944, 0.008809, 0.009545, 0.023303, 0.013889]",12.9,105.4
nitromethane,-243.268823212993,11,1.37947603328,"[-9.838309, -1.146436, -0.98317, -0.7541477, -0.5665251, -0.5187773, -0.4979637, -0.4792412, -0.4111149, -0.3997932, -0.3017373, -0.2796662, -0.260944]","[-0.311429, -0.023295, 7.7e-05, -0.255785, -0.005592, -5e-06, -0.022356, 0.027642, -4e-06, -0.004947, 0.002881, 0.007003, -0.00489, 0.003355, -0.007057, 0.291742, -0.511443, -7e-06, 0.307665, 0.506451, -7e-06]",7.25,25.8
hydrogen_sulfide,-398.023564183248,7,0.404414,"[-87.6962, -7.641482, -5.696413, -5.692974, -5.685934, -0.6839204, -0.4088646, -0.3351669, -0.2353077]","[0.0, 4.1e-05, 0.021424, -0.0, -0.00766, -0.01083, -0.0, 0.00762, -0.010594]",0.21,1.9
monosodium_sulfide,-558.289737477873,23,3.11883,"[-7.572232, -5.634084, -5.619999, -5.617701, -2.078659, -1.076549, -1.075793, -1.074075, -0.5430444, -0.2055666, -0.1900042, -0.1689626]","[-0.0, 0.0, 0.011278, 0.0, -0.0, -0.011278]",0.28,3.0
silicon_nitride,-342.568224498072,12,1.149535,"[-65.14067, -13.88261, -5.063876, -3.503874, -3.503485, -3.503485, -0.7167015, -0.3923249, -0.2835643, -0.2698982, -0.2698982]","[-0.0, -0.0, -0.07146, 0.0, 0.0, 0.07146]",0.47,2.9
hydrogen_cyanide,-92.651400413509,7,1.1826,"[-13.87525, -9.828497, -0.8424206, -0.5561479, -0.3393846, -0.3393846, -0.3373325]","[0.0, -0.0, 1.488457, 0.0, -0.0, 0.045763, -0.0, 0.0, -1.53422]",0.67,2.3
carbonyl_sulfide,-509.380739912275,11,0.333221,"[-5.730221, -5.723457, -5.723457, -1.046746, -0.7576079, -0.4947166, -0.4385669, -0.4385669, -0.4327138, -0.2811824, -0.2811824]","[0.0, -0.0, -0.474271, -0.0, -0.0, 1.72396, -0.0, 0.0, -1.249689]",1.95,5.9
chlorine_trifluoride,-756.344851570239,10,0.231541,"[-7.191978, -1.216936, -1.100048, -1.097977, -0.8197039, -0.5771823, -0.571192, -0.5112108, -0.4557229, -0.4069694, -0.4043721, -0.3917074, -0.3706628, -0.3608481, -0.3001164]","[0.0, 2.1e-05, 0.119841, -0.0, 0.0, -0.103421, 0.0, -0.127704, -0.008296, 0.0, 0.127683, -0.008124]",2.35,8.7
ethanol_radical,-153.122490738351,37,0.889993807876,"[-9.836875, -9.76411, -0.9246767, -0.6749798, -0.5594155, -0.4569908, -0.4161071, -0.3762287, -0.3447246, -0.3444724, -0.2839256, -0.2367665]","[-0.091969, 0.130146, 0.00011, -0.189078, -0.208798, -0.000457, 0.292314, 0.105524, 0.000114, 0.006998, 0.000354, -0.001075, 0.006751, 0.001216, 0.001288, -0.022811, -0.005316, -5e-05, -0.00103, -0.011347, 0.00492, -0.001173, -0.01178, -0.00485]",6.49,84.0
phosphorus_trifluoride,-638.017759673310,7,0.142029013972,"[-4.63515, -1.197902, -1.142417, -1.142406, -0.6245275, -0.5297103, -0.529705, -0.4950238, -0.4584436, -0.4584396, -0.4194893, -0.419482, -0.403217, -0.2752948]","[-4.6e-05, 0.006685, -0.216526, 1.1e-05, -0.140586, 0.053166, -0.1249, 0.066902, 0.074428, 0.124934, 0.066999, 0.088932]",2.47,8.0
nitrogen_diatomic,-108.688950170852,6,0.0,"[-13.95103, -13.94978, -1.038007, -0.4929526, -0.4372304, -0.4372304, -0.3825034]","[0.0, 0.0, -2.701478, -0.0, -0.0, 2.701478]",0.19,1.3
acetone,-191.582085477863,27,1.23734133702,"[-9.77786, -0.9458674, -0.7021639, -0.6457289, -0.4811782, -0.4243086, -0.4193832, -0.4080224, -0.3660034, -0.3550891, -0.3395786, -0.3209349, -0.2138831]","[6e-06, 2.2e-05, 1.593773, -4e-06, -0.000366, -1.74586, -8.7e-05, -0.060309, 0.034857, 8.8e-05, 0.060861, 0.078376, -0.0, -0.013797, 0.002006, 1e-06, 0.013729, 0.002171, 0.013755, 8.2e-05, 0.009241, -0.013641, 0.000101, 0.007994, -0.013692, -0.000151, 0.009345, 0.013575, -0.000171, 0.008096]",15.58,132.9
glycine_zwitterion,-282.294093619610,20,3.91323257894,"[-9.838993, -0.9566222, -0.919855, -0.8512973, -0.6771284, -0.5805053, -0.5607844, -0.4805217, -0.4414475, -0.409019, -0.3728447, -0.3408201, -0.331863, -0.215362, -0.2043661, -0.1883548]","[0.022448, 0.072009, -5.3e-05, 0.195051, -0.04091, 0.000278, -0.309859, 0.136575, -4.3e-05, 0.21119, -0.309218, -4.8e-05, -0.171031, 0.119838, 8.4e-05, -0.00785, -0.004967, -0.000704, -0.008565, -0.005459, 0.00056, 0.023906, -0.002575, 0.00382, 0.024478, -0.002485, -0.003883, 0.020231, 0.037192, -1.1e-05]",21.43,132.8
hexane,-234.894879194783,18,0.00127622764427,"[-9.752876, -0.7323456, -0.6954793, -0.6385671, -0.5713973, -0.5184212, -0.5158248, -0.4352219, -0.4019955, -0.3955802, -0.38029, -0.3555296, -0.3423738, -0.3369383, -0.3106131, -0.3011457, -0.2881103, -0.2832894, -0.2771134, -0.2745774]","[0.028781, -0.120785, 0.000256, -0.028557, 0.119507, -6.5e-05, 0.102506, -0.076783, 0.000242, -0.100233, 0.08487, -1.4e-05, 0.107234, -0.091991, -0.000183, -0.112087, 0.084356, -0.000199, 0.019892, 0.018284, 1.1e-05, -0.019916, -0.018411, 1.3e-05, -0.007058, 0.001878, 0.000579, -0.007498, 0.002319, -0.000661, 0.007157, -0.002015, -0.000613, 0.007588, -0.00243, 0.000724, 0.011489, -0.008259, 0.016168, 0.012426, -0.01007, -0.016252, -0.011954, 0.007919, 0.015718, -0.012894, 0.009726, -0.015799, -0.010016, 0.004462, -0.009897, -0.010117, 0.004227, 0.009729, 0.011587, -0.003529, 0.01123, 0.011673, -0.003276, -0.010989]",109.56,850.4
pyridine,-246.154958944713,26,0.91003913408,"[-9.792945, -0.8618025, -0.7343152, -0.6932242, -0.5745471, -0.5722551, -0.4855103, -0.4428936, -0.4223542, -0.388417, -0.3734318, -0.3644712, -0.3265093, -0.2768784, -0.2548468, -0.2219827]","[-0.0, -0.000433, -0.142516, 0.0, 0.000567, 0.013058, -0.0, -0.315376, 0.71071, -0.0, 0.314417, 0.534232, -0.0, 0.10359, -0.510511, 0.0, -0.102863, -0.521541, -0.0, 3e-06, -0.068551, 0.0, -0.027945, 0.008716, 0.0, 0.027985, 0.008814, -0.0, 0.025634, -0.016177, -0.0, -0.025578, -0.016235]",36.01,257.3
silane,-290.684185009918,6,0.0,"[-65.08122, -5.011979, -3.450698, -3.450698, -3.450698, -0.4973201, -0.3133377, -0.3133377, -0.3133377]","[0.0, 5.6e-05, -5e-06, -0.004203, -0.004203, -0.000628, 0.004175, 0.004175, -0.000548, 0.004012, -0.004011, 0.000631, -0.003983, 0.003983, 0.000551]",0.5,2.9
isobutylene,-155.781691725415,17,0.251746079042,"[-9.752917, -0.730615, -0.6246492, -0.6101164, -0.4689414, -0.4088015, -0.4005628, -0.3917969, -0.344759, -0.3261679, -0.3240319, -0.3017724, -0.2231313]","[-0.0, 0.000121, 0.646756, -0.0, -0.000287, -0.861687, 8.1e-05, -0.038924, 0.080341, -8.1e-05, 0.039436, 0.092042, 0.0, -0.016213, 0.007269, 0.0, 0.016207, 0.00641, -2e-06, -0.016188, -0.006735, -0.016239, -0.00364, 0.011283, 0.016179, -0.003618, 0.009797, 2e-06, 0.015931, -0.006457, 0.016132, 0.003598, 0.011233, -0.016072, 0.003576, 0.009749]",23.6,132.3
fluorine_diatomic,-198.336638571448,6,3.5e-05,"[-24.18863, -24.18862, -1.24565, -1.007228, -0.579995, -0.4814868, -0.4814868, -0.3546841, -0.3546841]","[-0.0, -0.0, -1.019544, 0.0, 0.0, 1.019544]",0.16,1.0
ethylamine,-134.004568382211,16,0.534396796399,"[-9.759025, -0.8011707, -0.6573754, -0.5480068, -0.4518385, -0.3982519, -0.3689453, -0.3685816, -0.3211511, -0.2966138, -0.20524]","[-0.064073, 0.084072, 0.000112, -0.114448, -0.204783, -0.000169, 0.182594, 0.227204, 0.000483, -0.014449, -0.008167, 6e-06, -0.001044, -0.011531, 0.003049, -0.000832, -0.012081, -0.003062, -2.6e-05, 0.012169, 0.006646, -0.000203, 0.01333, -0.006525, 0.006492, -0.050383, 0.047838, 0.005989, -0.049829, -0.048379]",12.58,66.5
aluminum_diatomic,-482.704166860815,14,0.0,"[-55.1131, -3.917934, -3.917899, -2.550061, -2.550026, -2.547326, -2.547291, -2.54563, -2.545193, -0.3490452, -0.2548767, -0.1433701, -0.1432113]","[-0.0, -0.0, 0.001686, 0.0, 0.0, -0.001686]",0.25,2.8
methyl_nitrite,-243.255556950258,11,0.9689235059,"[-9.838443, -1.118947, -0.9747292, -0.7066134, -0.571361, -0.508786, -0.4783306, -0.4652206, -0.4044163, -0.3800697, -0.3408211, -0.3034399, -0.2487676]","[0.212262, 0.093937, 0.000206, 0.008233, -0.292041, -8.2e-05, 0.09531, 0.534565, -5.9e-05, 0.023589, -0.016683, -1.2e-05, -0.005127, -0.01128, -0.0092, -0.005484, -0.012299, 0.009191, -0.328784, -0.296198, -4.3e-05]",7.18,25.7
isobutane,-156.985650765822,25,0.0603657952983,"[-9.753672, -0.728168, -0.6116226, -0.6116221, -0.4990127, -0.419228, -0.3881127, -0.3881113, -0.3390557, -0.339055, -0.3171686, -0.290241, -0.2902404, -0.2802297]","[-0.000221, 0.022616, -0.04815, -0.000336, -0.1494, 0.09052, -0.081231, 0.068865, 0.049021, 0.081855, 0.069027, 0.036362, -5e-06, 0.003552, 0.057762, -1.1e-05, 0.002593, -0.067321, 0.017731, -0.01755, 0.004151, -0.017439, -0.017617, 0.005201, 0.00472, -0.004931, -0.068931, -0.017, -0.011283, 0.004911, -0.000661, 0.025005, 0.000175, -0.004509, -0.004919, -0.069182, 0.000438, 0.024893, -0.000575, 0.016669, -0.010851, 0.006056]",32.61,304.7
boron_trifluoride,-322.546198676679,7,1.6e-05,"[-6.576285, -1.171342, -1.132705, -1.132701, -0.5546416, -0.5237187, -0.5237168, -0.4903312, -0.4207949, -0.4207925, -0.4147952, -0.414791, -0.3784375]","[-0.000205, -0.06463, 0.0, -3.7e-05, -0.24181, -0.0, -0.219683, 0.153036, -0.0, 0.219925, 0.153405, -0.0]",2.5,7.0
nitrosyl_chloride,-587.743724551931,27,0.637809072474,"[-6.991996, -6.988932, -1.206605, -0.7612005, -0.637348, -0.5263166, -0.5224769, -0.4879176, -0.2985419, -0.2872757, -0.2790695]","[0.065707, 0.054049, -0.0, 0.517047, 0.097118, 0.0, -0.582754, -0.151166, 0.0]",1.9,10.4
silicon_monophosphide,-628.385851540820,13,0.575126,"[-5.073784, -4.541679, -4.535795, -4.535795, -3.514846, -3.513409, -3.513409, -0.561224, -0.3914899, -0.256823, -0.228559, -0.228559]","[-0.0, -0.0, -0.020502, 0.0, 0.0, 0.020502]",0.64,3.7
pyrrole,-208.384570295078,18,0.732111001847,"[-9.756175, -0.8947615, -0.7009685, -0.6499228, -0.5376256, -0.5110041, -0.4911585, -0.3868643, -0.379569, -0.3725954, -0.3429528, -0.3355168, -0.2256429, -0.1958523]","[0.0, -0.000599, -0.284053, 0.0, -4e-06, 0.254389, -0.0, 0.19627, 0.651442, -0.0, -0.197194, 0.402774, -0.0, -0.297643, -0.474772, -0.0, 0.298666, -0.49518, -0.0, -0.026899, -0.000923, -0.0, 0.027122, -0.001051, 0.0, 0.005125, -0.026786, 0.0, -0.004845, -0.025841]",22.79,116.6
aluminum_monoxide,-316.087228138626,12,1.683659,"[-55.12355, -18.56255, -3.934162, -2.564272, -2.564272, -2.561401, -0.7975993, -0.3326166, -0.2547616, -0.2547616, -0.2444327]","[-0.0, -0.0, -0.057859, 0.0, 0.0, 0.057859]",0.44,2.7
trifluoromethane,-336.154990766865,7,0.538029001487,"[-10.02097, -1.22287, -1.137261, -1.137218, -0.6608427, -0.5612011, -0.5567005, -0.55668, -0.4299033, -0.4298947, -0.3976372, -0.3976106, -0.3734885, -0.3486966]","[-0.000134, -0.050285, -0.398465, 3e-06, 0.001093, 0.064014, 1.1e-05, -0.314752, 0.102235, -0.278221, 0.181644, 0.109179, 0.278342, 0.182301, 0.123037]",3.23,10.1
silicon_monofluoride,-387.588890977911,14,0.286256,"[-65.16036, -24.09694, -5.076356, -3.521041, -3.515015, -3.514242, -1.102157, -0.5005563, -0.4164711, -0.4128888, -0.3327911, -0.1434855]","[-0.0, -0.0, -0.03733, 0.0, 0.0, 0.03733]",0.46,3.5
ethyl_chloride,-537.237971070834,17,0.817719689269,"[-6.973421, -0.7856689, -0.6746823, -0.5589635, -0.4340269, -0.4162367, -0.3751079, -0.3369738, -0.3350552, -0.2619605, -0.2593711]","[0.021344, 0.004489, 0.00114, -0.04094, 0.090207, -0.000504, 0.039877, -0.097709, -0.003441, -0.017501, -0.009857, -1.2e-05, -0.00212, -0.012314, 0.001437, -0.001815, -0.012954, -0.001442, 0.001294, 0.017878, 0.012886, -0.00014, 0.02026, -0.010064]",7.1,41.7
bicyclo[1.1.0]butane,-154.546271586339,25,0.29592733172,"[-9.786203, -0.847078, -0.6203381, -0.5172455, -0.5148457, -0.4699945, -0.386383, -0.3830957, -0.3303049, -0.2922776, -0.2872234, -0.2156652]","[-0.312221, 0.000931, 0.118099, 0.31206, 0.00093, 0.068751, 0.000153, -0.212247, -0.164447, 0.000153, 0.210409, -0.128132, -6.3e-05, 0.004896, 0.080471, -6.3e-05, -0.004623, 0.079332, -8.5e-05, 0.024488, -0.02182, -8.5e-05, -0.02487, -0.021394, -0.010384, 4.3e-05, -0.005841, 0.010536, 4.3e-05, -0.005019]",16.7,123.1
silyl_radical,-290.044980215107,6,0.01323,"[-65.0978, -5.02671, -3.469509, -3.464239, -3.464238, -0.4940853, -0.3233209, -0.3233209, -0.1952947]","[1.6e-05, 0.000149, -0.002319, 0.0, -0.011048, 0.000806, -0.008579, 0.005433, 0.000585, 0.008563, 0.005466, 0.000928]",0.34,3.1
cyclopentane,-194.763014343219,25,0.0119872860148,"[-9.759166, -0.7564114, -0.6339134, -0.6335027, -0.5077148, -0.497681, -0.433459, -0.4324764, -0.3688758, -0.367335, -0.2979203, -0.2971858, -0.296646, -0.2942985, -0.2813247, -0.2693614]","[-0.142022, 0.172043, -0.089254, 0.011301, -0.205064, -0.013104, 0.212831, -0.069086, -0.028924, 0.13138, 0.183001, 0.05022, -0.178383, -0.090459, 0.079281, 0.00454, 0.023563, 0.032481, 0.001736, -0.019113, 0.016939, -0.007563, 0.001576, 0.0157, -0.01646, 0.00033, -0.010064, 0.000539, -0.016976, -0.039699, 0.014241, 0.017991, -0.008052, -0.018332, 0.022136, -0.002466, 0.00317, 0.004424, 0.051502, 0.006653, -0.011728, -0.054316, -0.023631, -0.012638, -0.000245]",54.58,470.4
dimethyl_sulfoxide,-550.643335393061,27,1.56025169069,"[-5.762471, -0.9328007, -0.7275064, -0.6602598, -0.5467431, -0.4388547, -0.4219107, -0.4168039, -0.3861876, -0.3672452, -0.359, -0.3211881, -0.2450905, -0.2026541]","[-0.000745, 0.024093, -0.013431, -0.000109, -0.044211, 0.120656, 0.063376, 0.018822, 0.031175, -0.062412, 0.020208, -0.001578, -0.046524, -0.024351, 0.007952, 0.04656, -0.024339, 0.008025, 0.002796, 0.027021, -0.009821, -0.010992, -0.012035, -0.066288, -0.002952, 0.026834, -0.010065, 0.011002, -0.012041, -0.066624]",18.57,146.3
trifluoroacetic_acid,-523.420052852275,16,0.721898854495,"[-9.945191, -1.245713, -1.155982, -1.153241, -1.059061, -0.9736848, -0.7127969, -0.6293158, -0.5796573, -0.5783738, -0.5531066, -0.4667126, -0.4578363, -0.4479254, -0.4411515, -0.4285629, -0.4082482, -0.4049496, -0.3856931, -0.375002, -0.3306798, -0.2839836]","[-1.189562, -0.270215, 0.003441, -0.019952, -0.124722, 0.00034, -0.247587, 0.14759, 0.000266, 0.359473, 0.190464, 0.000152, 0.280525, -0.277428, 0.000666, 0.393794, 0.13395, 0.258804, 0.412945, 0.145303, -0.263683, 0.010365, 0.055057, 1.4e-05]",20.68,121.2
nitric_oxide,-128.972755287263,12,0.097823,"[-18.73607, -13.98999, -1.158561, -0.6192126, -0.4872014, -0.4814185, -0.4391821, -0.1674704]","[-0.0, 0.0, -2.663375, 0.0, -0.0, 2.663375]",0.32,2.0
hydrazine,-110.992256452938,7,1.07853,"[-13.85943, -13.85939, -0.8780962, -0.6811003, -0.4649962, -0.4482052, -0.3939679, -0.2565019, -0.1967301]","[0.033572, -0.274691, -0.040939, -0.034067, 0.274587, -0.056078, -0.011031, -0.004418, 0.032955, 0.01094, 0.004571, 0.032819, -0.042476, -0.025256, 0.015584, 0.043062, 0.025206, 0.015659]",2.41,7.1
aluminum_carbide,-278.940889294643,10,0.78382,"[-55.12489, -9.842521, -3.930498, -2.561484, -2.561484, -2.557452, -0.540713, -0.2989264, -0.2228026, -0.2228026, -0.2012763]","[-0.0, -0.0, -0.02929, 0.0, 0.0, 0.02929]",0.41,3.1
sulfur_monoxide,-471.527649040260,10,0.553053,"[-87.79007, -18.66881, -7.726047, -5.779074, -5.777854, -5.777854, -1.00513, -0.6191143, -0.4197578, -0.41327, -0.41327, -0.226346, -0.226346]","[0.0, -0.0, -0.051416, -0.0, 0.0, 0.051416]",0.49,2.5
hydroxymethyl_radical,-114.187590280595,8,0.579021647569,"[-18.63736, -9.820816, -0.9736899, -0.6118926, -0.4851428, -0.4123422, -0.3612587, -0.3160515, -0.1475326]","[-0.30398, -0.019318, 0.021633, 0.290618, 0.082089, -0.000381, 0.055845, -0.059976, -0.016148, -0.020433, -0.028075, -0.005579, -0.022049, 0.025279, 0.000475]",1.4,5.6
dimethyl_sulfide,-475.928236052721,20,0.631389022363,"[-5.670153, -0.7286421, -0.6366392, -0.5395757, -0.4001341, -0.3965084, -0.3854756, -0.3640916, -0.3285588, -0.2838905, -0.189598]","[0.000255, 0.037951, 0.020374, -0.000267, -0.037843, 0.002994, 1e-06, -0.000108, -0.040457, 5e-06, -0.018998, -0.009135, -0.019206, 0.000863, 0.009253, 0.018917, 0.000874, 0.008272, -6e-06, 0.018741, -0.009189, 0.019279, -0.000734, 0.009436, -0.018979, -0.000746, 0.008452]",9.58,63.2
beryllium_monochloride,-473.284316964375,7,0.292221,"[-100.2886, -9.139818, -6.992924, -6.990381, -6.990381, -3.855177, -0.7533797, -0.3750863, -0.3138635, -0.3138635, -0.1912567]","[-0.0, 0.0, 0.025548, 0.0, -0.0, -0.025548]",0.2,1.4
n_propyl_chloride,-576.193855043492,25,0.856555730618,"[-6.973063, -0.7833269, -0.7048856, -0.6031723, -0.535835, -0.4398799, -0.4079419, -0.3898025, -0.3701018, -0.3337869, -0.3224662, -0.3048116, -0.2599476, -0.2583849]","[-0.029906, 0.010349, -0.000318, -0.006095, -0.102995, 0.00013, -0.086715, 0.119077, 4.2e-05, 0.125668, -0.066029, 1.1e-05, -0.005615, 0.025519, -0.001817, -0.006374, 0.027149, 0.002016, 0.003773, -0.020107, 0.002911, 0.004106, -0.021343, -0.002832, -0.00338, 0.0153, 0.01384, -0.003679, 0.015615, -0.013973, 0.008217, -0.002536, -1e-05]",21.45,170.6
chloroform,-1414.600344152224,9,0.427674000117,"[-7.012596, -0.8791455, -0.7758468, -0.7758463, -0.6010765, -0.4779742, -0.4478497, -0.4478497, -0.3282171, -0.3282163, -0.3014861, -0.2947914, -0.294791, -0.2768662]","[0.0, -0.004434, -0.09332, 0.0, 0.001872, 0.070126, 0.0, -0.178408, 0.019037, -0.136029, 0.090485, 0.002777, 0.136029, 0.090485, 0.001379]",4.87,15.4
phosphorus_monosulfide,-736.949373340672,17,0.186977,"[-5.720851, -5.718387, -5.716293, -4.570641, -4.564829, -4.563907, -0.711438, -0.493164, -0.3194761, -0.3112601, -0.3058841, -0.1692761]","[0.0, -0.0, 0.077306, -0.0, 0.0, -0.077306]",0.67,3.8
cyclopropane,-116.815332634686,25,0.000306093123085,"[-9.770664, -9.770622, -0.7773512, -0.5330483, -0.5330424, -0.4492722, -0.4227234, -0.3179995, -0.3179931, -0.2657413, -0.2657367]","[0.001176, -0.310135, -1.4e-05, -0.27402, 0.154021, -1e-06, 0.272519, 0.148352, -7e-06, 2e-06, 0.002744, 0.015229, 0.001861, 0.000483, 0.016556, -0.0017, 0.000628, 0.016057, 2e-06, 0.002605, -0.01522, 0.001727, 0.000579, -0.016548, -0.001568, 0.000722, -0.016053]",9.19,70.8
formyl_radical,-112.997302868635,8,0.630829702348,"[-18.66602, -9.882282, -1.015415, -0.5697873, -0.4554419, -0.4069879, -0.3901725, -0.188201]","[-0.179754, 0.27431, -0.0, -0.051909, 0.010688, 0.0, 0.231663, -0.284997, 0.0]",0.73,2.6
spiropentane,-193.512338023232,20,0.000595262967099,"[-9.77223, -0.8053194, -0.7285949, -0.5396507, -0.5396503, -0.4850246, -0.4416807, -0.4269761, -0.426976, -0.3287089, -0.3156215, -0.3148648, -0.2559578, -0.2559577, -0.2453348]","[0.002109, -0.002124, 0.002427, 0.000512, -0.081403, -0.016004, 0.000426, 0.084408, 0.106149, 0.070703, -0.000508, 0.015126, -0.073705, -0.000431, -0.107178, -0.021453, -0.021638, 0.005404, 0.021477, -0.02168, 0.006114, 0.022777, 0.021721, 0.004815, -0.022638, 0.021824, 0.005398, 0.021319, 0.021823, -0.005532, 0.021363, -0.021848, -0.006243, -0.021397, -0.02314, -0.004948, -0.021494, 0.022997, -0.00553]",38.06,262.7
acetonitrile,-131.490485551368,21,1.85003925917,"[-13.8454, -9.843721, -9.821529, -0.8316438, -0.787935, -0.5435948, -0.4657821, -0.344425, -0.3158957, -0.3117775, -0.2563666]","[-0.148925, 0.091906, -0.375585, 0.136129, -0.078811, -1.203163, 0.013165, -0.007263, 1.556109, 0.052126, 0.0271, 0.01754, 0.004312, -0.070546, 0.020253, -0.056807, 0.037612, -0.015154]",3.14,21.4
disilane,-580.227020436834,7,0.0,"[-3.449581, -3.449524, -3.449524, -3.449381, -0.5211048, -0.4607344, -0.330012, -0.3300051, -0.3043376, -0.3043302, -0.2666886]","[-0.000112, 0.000446, 0.002315, -0.000112, -0.000444, -0.002064, -2e-06, -0.009494, 0.000599, 0.007847, 0.004626, 0.000775, -0.007732, 0.004818, 0.000629, -2e-06, 0.009574, -0.00071, 0.007939, -0.004668, -0.000845, -0.007824, -0.004859, -0.000699]",4.88,14.2
methylene_chloride,-956.439919995528,8,0.637773,"[-6.999015, -0.8354579, -0.7611823, -0.6097504, -0.4579208, -0.4309387, -0.4187251, -0.30223, -0.2963767, -0.2803839, -0.2743195]","[-0.000165, -0.0, -0.031557, 0.033973, 0.0, -0.027464, -0.033716, 0.0, -0.027556, -4.6e-05, -0.078408, 0.043919, -4.6e-05, 0.078408, 0.042658]",2.9,9.3
methlidyne_radical,-38.092255235248,11,0.574373,"[-9.895172, -0.5888641, -0.2851327, -0.2170537]","[-0.0, -0.0, -0.03714, 0.0, 0.0, 0.03714]",0.08,1.5
trifluoro_acetonitrile,-427.642509304396,11,0.623461000021,"[-9.861486, -1.265981, -1.175746, -1.175745, -0.8732752, -0.7285999, -0.62919, -0.5989043, -0.5989042, -0.4661831, -0.4661826, -0.436183, -0.4361828, -0.4249471, -0.4065886, -0.3613556, -0.3613556, -0.3582045]","[-0.000131, -0.073508, -0.767091, 1.7e-05, 0.007068, -1.518177, 9e-06, 0.001246, 1.635081, 1.6e-05, -0.313649, 0.200428, -0.290632, 0.189113, 0.215842, 0.290721, 0.18973, 0.233916]",9.52,40.3
acetyl_radical,-151.972160502215,10,1.01977550815,"[-18.64157, -9.876007, -9.80528, -0.9970983, -0.698096, -0.4957384, -0.4266521, -0.4254735, -0.4218534, -0.3623875, -0.3473574, -0.1658556]","[0.110793, 0.019501, 0.000126, 0.231009, -0.047988, -2e-05, -0.007843, 0.018821, -4e-06, -0.007226, -0.000412, 0.004643, -0.007669, -0.000457, -0.004733, -0.319064, 0.010534, -1.2e-05]",2.95,14.0
silylene_t,-289.408394158346,7,0.003578,"[-65.12249, -5.046888, -3.488913, -3.488216, -3.483512, -0.4826938, -0.3393929, -0.2318492, -0.1732954]","[-0.0, 5.1e-05, 0.00534, -0.0, 0.001368, -0.002743, 0.0, -0.001419, -0.002597]",0.19,1.9
oxygen_water,-151.826108196220,8,1.00054639775,"[-18.62358, -18.56482, -0.9533231, -0.8936045, -0.5155347, -0.4631412, -0.376573, -0.3198794, -0.2974665, -0.2461853]","[0.159244, -0.137141, -0.228432, 0.034653, -0.098708, 0.015999, -0.145379, 0.104455, 0.231621, -0.014509, 0.024432, 0.001073, 0.058223, 0.01785, -0.026385, -0.092232, 0.089112, 0.006123]",1.87,6.6
chlorine_monofluoride,-557.920093879130,8,0.304744,"[-9.217217, -7.084262, -7.062136, -7.062136, -1.145216, -0.767835, -0.5096254, -0.4401474, -0.4401474, -0.2938538, -0.2938538]","[0.0, 0.0, -1.144945, -0.0, -0.0, 1.144945]",0.45,2.4
sodium_hydride,-161.999733846948,9,2.233825,"[-37.6794, -2.050085, -1.047941, -1.047941, -1.045037, -0.1589144]","[-0.0, -0.0, 0.001827, 0.0, 0.0, -0.001827]",0.05,1.2
nitrogen_tribromide,-7766.272167176017,10,0.19923400001,"[-2.518029, -0.8939685, -0.7463046, -0.7463045, -0.6323697, -0.4474151, -0.447415, -0.3934921, -0.3106818, -0.3106816, -0.2781727, -0.2781726, -0.2621055, -0.2507905]","[6e-06, -0.003471, -17.357489, 3e-06]",10.93,32.0
phosphorus_pentafluoride,-836.612711218434,8,1.5e-05,"[-4.739285, -1.240701, -1.17457, -1.174566, -1.137738, -1.103765, -0.6580133, -0.5690425, -0.5690416, -0.5536366, -0.49517, -0.4951678, -0.4798453, -0.4798426, -0.4602851, -0.4379001, -0.4169464, -0.4011352, -0.4011351, -0.3743021, -0.3743014]","[-0.000294, -0.011408, 0.002123, -2.1e-05, -0.204686, 0.000214, -0.208948, 0.103781, 0.000216, 0.209295, 0.104137, 0.000216, -1.7e-05, 0.004084, 0.086189, -1.7e-05, 0.004093, -0.088959]",12.55,33.0
aminyl_radical,-55.420096917570,6,0.704996,"[-13.88553, -0.7781962, -0.4344585, -0.2908545, -0.2744415]","[-0.0, 0.000151, 0.034236, 0.0, -0.048846, -0.017698, 0.0, 0.048695, -0.016538]",0.13,1.3
allene,-115.597345269862,27,0.00592701020752,"[-9.797367, -9.77835, -9.778267, -0.7162554, -0.6375339, -0.4700106, -0.4084611, -0.4031214, -0.403116, -0.2467237, -0.2467212]","[0.0, 0.0, -0.006189, 0.0, 1e-05, 0.71748, 9e-06, 0.0, -0.71146, 0.0, -0.004224, -0.001675, 0.0, 0.004214, -0.001655, -0.004577, -0.0, 0.001759, 0.004568, 0.0, 0.001739]",4.49,34.2
methane,-40.117527042071,5,0.0,"[-9.746022, -0.6231628, -0.3481387, -0.3481387, -0.3481386]","[-0.000445, -0.000328, -0.0, -0.009987, -0.009986, -0.002317, -0.009971, 0.01015, 0.002243, 0.010209, -0.010031, 0.002058, 0.010194, 0.010195, -0.001983]",0.44,2.3
carbon_monosulfide,-434.525900859121,10,0.819732,"[-87.7486, -9.871432, -7.694687, -5.74564, -5.74564, -5.74396, -0.770334, -0.4807305, -0.3346465, -0.3346465, -0.2733808]","[-0.0, 0.0, -1.110342, 0.0, -0.0, 1.110342]",0.5,2.5
sulfur_hexafluoride,-992.403895803556,7,3e-06,"[-6.034903, -1.315624, -1.188359, -1.188359, -1.188359, -1.132942, -1.132942, -0.7508986, -0.6213975, -0.6213975, -0.6213974, -0.5186786, -0.5186785, -0.5186785, -0.4968729, -0.4968728, -0.4324312, -0.4324312, -0.4324312, -0.4245194, -0.4245194, -0.4245194, -0.3817925, -0.3817924, -0.3817924]","[-0.000699, -0.000699, 0.017533, -4.6e-05, -4.6e-05, 0.086831, -4.4e-05, -0.170708, 0.033419, -0.172127, -0.000734, 0.033419, -0.000734, 0.172276, 0.033421, 0.173694, -4.4e-05, 0.033421, -4.4e-05, -4.4e-05, -0.238043]",21.33,50.3
nonane,-351.763616359246,20,0.0371994217294,"[-9.752921, -0.7386863, -0.7202331, -0.6902149, -0.6501829, -0.6029962, -0.554106, -0.5204621, -0.5154423, -0.5108802, -0.4411121, -0.4238645, -0.3970641, -0.396023, -0.3891736, -0.3639723, -0.3626651, -0.3607569, -0.3297746, -0.3286326, -0.3124101, -0.3010306, -0.3009507, -0.2909517, -0.2855598, -0.2832121, -0.2770571, -0.2767259, -0.2649148]","[0.000664, 0.000396, -0.013392, 0.000584, -0.044329, 0.094646, -0.000676, 0.042851, 0.125052, 0.000512, 0.036021, -0.151696, -0.000575, -0.035347, -0.152144, -0.000398, 0.05571, 0.095797, 0.000393, -0.055498, 0.095849, -0.000194, 0.015735, -0.02755, 0.000189, -0.015672, -0.027599, -0.012071, -2.4e-05, -0.034662, 0.011581, -1.4e-05, -0.028495, -0.002017, 4.4e-05, 0.007471, 0.001564, 5e-05, 0.002, 0.002111, -1.6e-05, 0.007471, -0.001655, -2.2e-05, 0.001991, -0.003228, 0.001207, -0.010193, 0.002679, 0.001193, -0.006006, 0.003233, -0.00118, -0.010228, -0.002693, -0.001193, -0.006039, 0.009215, -0.009338, 0.018894, -0.008808, -0.009316, 0.016757, -0.009224, 0.009369, 0.018917, 0.008814, 0.009345, 0.016783, -4e-06, -0.020829, 0.006695, 0.014728, 0.003842, -0.012394, -0.014575, 0.003856, -0.011107, 4e-06, 0.020832, 0.006689, -0.014727, -0.00383, -0.012399, 0.014575, -0.003843, -0.01111]",731.37,5447.7
furan,-228.163178795776,18,0.252937000198,"[-9.77716, -1.023928, -0.7269841, -0.6791872, -0.5474763, -0.5148035, -0.495787, -0.4148524, -0.4034211, -0.3688537, -0.3578773, -0.3351235, -0.2611577, -0.2160541]","[-0.0, -0.000336, -0.201399, -0.0, 0.135038, 0.705345, -0.0, -0.136701, 0.609388, 0.0, -0.350555, -0.519801, 0.0, 0.352339, -0.550622, -0.0, -0.023484, 0.002908, 0.0, 0.023416, 0.00288, 0.0, 0.005887, -0.024766, -0.0, -0.005605, -0.023934]",17.76,90.9
methanol_radical,-114.161148814251,13,0.881284316691,"[-18.63858, -9.829855, -0.9272361, -0.6130442, -0.442116, -0.4156739, -0.3931627, -0.291557, -0.2392008]","[-0.018821, 0.326874, 8e-05, 0.035758, -0.346587, -3e-06, -0.025727, 0.030226, -1e-06, 0.004532, -0.005277, 0.006791, 0.004257, -0.005235, -0.006866]",1.36,7.9
sodium_lithium,-168.821141925202,8,0.068532,"[-37.66828, -2.035685, -1.850722, -1.033214, -1.033214, -1.033194, -0.1188218]","[0.0, -0.0, -0.000419, -0.0, 0.0, 0.000419]",0.08,1.0
ethylene_oxide,-152.578757466826,15,0.710195002468,"[-9.825637, -9.825588, -0.9944476, -0.6100206, -0.5745732, -0.4712807, -0.4422396, -0.3659389, -0.3438695, -0.2902068, -0.2350334]","[3e-06, -0.00168, 0.868896, -4.7e-05, 0.230693, -0.397377, 3.7e-05, -0.229496, -0.49766, 0.018964, -0.022325, 0.006219, -0.018888, -0.022461, 0.006403, -0.019758, 0.022564, 0.006666, 0.019688, 0.022705, 0.006853]",4.76,24.8
chlorine_diatomic,-917.457670916264,7,0.0,"[-7.037187, -7.037187, -7.037179, -7.037179, -0.8664066, -0.7041444, -0.4473439, -0.3734614, -0.3734614, -0.2731076, -0.2731076]","[-0.0, -0.0, 0.022084, 0.0, 0.0, -0.022084]",0.29,2.0
aziridine,-132.782167896942,17,0.665031131495,"[-9.80058, -9.799954, -0.8764789, -0.5941926, -0.5532301, -0.4743317, -0.4251858, -0.3341448, -0.3131202, -0.3048471, -0.2158017]","[0.001663, -0.392167, -0.051204, 0.316366, 0.204885, -0.045429, -0.319879, 0.20178, 0.002445, 0.001328, -0.002505, 0.059143, -0.014508, 0.004404, 0.016979, 0.004851, -0.009624, 0.000268, -0.001397, -0.001685, -0.004839, 0.011576, -0.005088, 0.022636]",7.12,39.2
methoxyethane,-192.744213056777,21,0.450242565551,"[-9.758691, -0.944511, -0.6916525, -0.6067601, -0.5439043, -0.447419, -0.4355889, -0.4095463, -0.376441, -0.3416958, -0.3244695, -0.310555, -0.2837102, -0.2183509]","[0.174316, 0.098849, -0.000196, -0.105172, -0.166968, 0.000448, -0.228338, 0.088369, -0.000162, 0.132552, -0.044424, -0.000202, 0.006928, 0.012979, -0.022104, 0.008487, 0.013688, 0.022138, 0.0003, 0.030121, -7e-06, 0.005713, 0.00377, 0.00084, 0.005991, 0.003668, -0.000807, -0.003218, -0.008784, -0.005704, -0.003596, -0.009187, 0.005763, 0.006037, -0.02208, -9e-06]",22.87,172.9
ethane,-79.069725624708,16,3.33016516107e-05,"[-9.755314, -9.755286, -0.677409, -0.5492459, -0.3893669, -0.3893625, -0.3277877, -0.2998916, -0.2998874]","[0.016674, 0.000114, 0.559116, -0.016411, -0.000116, -0.557485, 0.025565, 1e-06, -0.010445, -0.013334, -0.016478, -0.004808, -0.01334, 0.016352, -0.003766, -0.024756, -1e-06, 0.009524, 0.012798, 0.01606, 0.004453, 0.012804, -0.015933, 0.00341]",3.83,23.5
carbon_tetrabromide,-10320.451865857085,10,0.0,"[-2.511178, -0.8438254, -0.7421898, -0.7421898, -0.7421898, -0.5658039, -0.4344228, -0.4344228, -0.4344228, -0.3159651, -0.3159651, -0.2949796, -0.2949796, -0.2949796, -0.2629112, -0.2629112, -0.2629111]","[0.0, 1e-06, -6.2e-05, -87.716514, -87.716515, -87.914484, 87.716514, 87.716514, -87.922454, 87.715195, -87.715196, 87.914515, -87.715195, 87.715195, 87.922485]",22.67,66.3
beryllium_diatomic,-28.909970944303,5,0.0,"[-3.830937, -3.830915, -0.2649738, -0.1669852]","[0.0, 0.0, -0.002413, -0.0, -0.0, 0.002413]",0.01,1.0
tetrachloroethylene,-1910.524196225221,8,0.0014960013369,"[-7.024626, -0.8894595, -0.8415607, -0.8024578, -0.7792544, -0.6699711, -0.5268783, -0.4799504, -0.4786907, -0.4193629, -0.4152678, -0.3565391, -0.3347639, -0.3242362, -0.3219915, -0.3169168, -0.3103028, -0.2814473, -0.2335439]","[0.0, -0.0, 0.878066, -0.0, -0.0, -0.878472, -0.0, -0.075452, -0.033464, -0.0, 0.075452, -0.033528, -0.0, 0.070659, 0.033667, -0.0, -0.070659, 0.03373]",12.54,39.4
silicon_monoxide,-363.097727842745,10,1.167675,"[-65.1323, -18.58345, -5.056562, -3.498701, -3.498701, -3.490782, -0.8566894, -0.3969062, -0.3058098, -0.3058098, -0.279237]","[0.0, 0.0, -0.057729, -0.0, -0.0, 0.057729]",0.46,2.3
trimethylamine,-172.943721769555,28,0.214432002409,"[-9.785595, -0.8435809, -0.6356484, -0.6356329, -0.5288316, -0.4239695, -0.4239598, -0.4224541, -0.3508757, -0.3508697, -0.321575, -0.3215722, -0.3214707, -0.1810222]","[0.005745, 0.00538, -0.207152, 0.216304, 0.216319, 0.041353, -0.313214, 0.09922, 0.022672, 0.099762, -0.312567, 0.021613, 0.002219, 0.002206, 0.047363, -0.006799, -0.00015, 0.046404, -0.000173, -0.006802, 0.047107, 0.016152, -0.004643, -0.001637, -0.004597, 0.016081, -0.002563, -0.011137, 0.018884, -0.000682, -0.01501, -0.007849, -0.006855, -0.008042, -0.015046, -0.005992, 0.01879, -0.011033, -0.001632]",30.25,285.2
carbonyl_fluoride,-311.038881225396,8,0.436126,"[-10.02919, -1.240889, -1.16915, -1.026786, -0.6431935, -0.5833759, -0.5380852, -0.4976242, -0.4391921, -0.43145, -0.4175913, -0.373355, -0.3217524]","[0.0, 4.6e-05, 2.210245, -0.0, -0.000191, -2.232198, -0.0, 0.048458, 0.012915, -0.0, -0.048313, 0.009038]",2.71,7.7
phosphorus_mononitride,-394.416138320697,10,1.103188,"[-76.01507, -13.88294, -6.318438, -4.566882, -4.566882, -4.560995, -0.7777757, -0.4523859, -0.3130498, -0.3130498, -0.2886065]","[0.0, 0.0, -1.452724, -0.0, -0.0, 1.452724]",0.49,2.6
carbon_tetrachloride,-1872.757236790293,8,0.0,"[-7.022975, -0.9108206, -0.7890266, -0.7890266, -0.7890266, -0.5808146, -0.472248, -0.472248, -0.472248, -0.3462373, -0.3462373, -0.3233383, -0.3233383, -0.3233383, -0.2867762, -0.2867762, -0.2867762]","[0.0, 1e-06, -1.2e-05, -0.067938, -0.067938, -0.050001, 0.067937, 0.067937, -0.048924, 0.067727, -0.067727, 0.050007, -0.067727, 0.067727, 0.04893]",6.79,21.4
acrylonitrile,-169.368647369131,10,1.58362179536,"[-9.818342, -0.8262783, -0.7478488, -0.6023862, -0.4965599, -0.4414898, -0.3760035, -0.3562064, -0.3234687, -0.3118279, -0.2764831]","[0.035615, 0.054456, 0.0, -0.054456, -0.008289, -0.0, -0.001279, 0.030458, 0.0, 0.026106, -0.001489, 0.0, -0.011597, 0.015708, 0.0, -0.028694, 0.003723, -0.0, 0.034305, -0.094566, 0.0]",6.56,23.9
sodium_hydroxide,-236.788150316553,23,2.581508,"[-37.67396, -18.44856, -2.04852, -1.046115, -1.046115, -1.043524, -0.7346, -0.2928654, -0.1462983, -0.1462979]","[0.0, -0.0, 0.36204, -0.0, 0.0, 0.141379, -0.0, 0.0, -0.503419]",0.48,4.0
methylene_t,-38.763084301767,7,0.247185,"[-9.827885, -0.609522, -0.4165088, -0.2415145, -0.2112498]","[-0.0, 4e-06, 0.003434, 0.0, -0.015455, -0.001727, 0.0, 0.015451, -0.001707]",0.12,1.6
carbon_monophosphide,-377.714324832320,11,0.443491,"[-76.00245, -9.868649, -6.303882, -4.551796, -4.550046, -4.550046, -0.6695771, -0.4182464, -0.2947252, -0.2814119, -0.2814119]","[-0.0, -0.0, -0.887059, 0.0, 0.0, 0.887059]",0.48,2.8
formic_acid,-188.417451771657,10,0.558161832993,"[-18.59751, -9.911884, -1.035163, -0.9492455, -0.6119375, -0.4952888, -0.4469404, -0.4235554, -0.3678981, -0.3111542, -0.2540073]","[0.110135, -0.320277, 0.0, 0.245099, 0.144857, 0.0, -0.384218, 0.161918, -0.0, 0.040118, -0.036116, 0.0, -0.011134, 0.049617, 0.0]",2.2,8.3
aluminum_trifluoride,-539.405518855692,7,0.000113,"[-2.589581, -1.078855, -1.06631, -1.066287, -0.4652714, -0.4244626, -0.4244474, -0.4050418, -0.3919285, -0.3919128, -0.3857111, -0.3856893, -0.3669791]","[-7.2e-05, 0.003805, 0.0, -8e-06, -0.108264, 0.0, -0.095849, 0.05217, -0.0, 0.095929, 0.052289, -0.0]",2.11,7.1
vinyl_radical,-77.176803585913,11,0.307647656381,"[-9.806253, -9.780675, -0.6956638, -0.5217515, -0.4222655, -0.3897464, -0.267945, -0.2003695]","[-0.002377, -0.142306, 0.0, -0.004351, 0.120116, -0.0, 0.004795, -0.019833, -0.0, 0.020931, 0.021506, -0.0, -0.018999, 0.020516, 0.0]",1.08,6.4
nitrous_oxide,-183.364494977864,10,0.055957,"[-18.69871, -14.06981, -13.94238, -1.156139, -1.00652, -0.5505828, -0.5241554, -0.5241554, -0.4237467, -0.3172276, -0.3172276]","[0.0, -0.0, -1.794525, 0.0, -0.0, -0.210558, -0.0, 0.0, 2.005083]",0.91,3.4
2_butyne,-154.557590095665,23,0.00207803007678,"[-9.761749, -0.7018359, -0.6675319, -0.5954095, -0.4282132, -0.3893327, -0.3841206, -0.3841192, -0.3716262, -0.3716245, -0.2225726, -0.2225721]","[-1e-06, 0.01025, 0.554797, 1e-06, 0.010494, -0.536385, -6.4e-05, -0.012386, 0.387746, 6.7e-05, -0.012332, -0.404124, -1e-06, -0.007803, -0.015454, 0.001226, 0.0049, -0.009735, -0.001157, 0.004889, -0.009141, 1e-06, -0.007168, 0.014777, -0.000678, 0.004583, 0.009057, 0.000607, 0.004572, 0.00846]",12.04,96.9
hydrogen_diatomic,-1.137100976248,5,0.0,"[-0.3768228]","[-0.0, -0.0, 0.010329, 0.0, 0.0, -0.010329]",0.0,0.8
beryllium_dihydride,-15.657086643201,5,0.0,"[-3.783526, -0.3096884, -0.2748733]","[0.0, -0.0, -0.000256, -0.0, 0.0, -0.000915, -0.0, 0.0, 0.001171]",0.04,1.2
beryllium_monohydride,-15.019169863607,6,0.079831,"[-3.824565, -0.3069877, -0.1689681]","[0.0, -0.0, 0.002086, -0.0, 0.0, -0.002086]",0.03,0.6
sodium_monoxide,-236.090174152331,34,2.941217,"[-37.68496, -18.52242, -2.058101, -1.056569, -1.055568, -1.052826, -0.7149819, -0.2277886, -0.1850726, -0.1715771]","[0.0, -0.0, 0.032087, -0.0, 0.0, -0.032087]",0.19,3.4
phosphino_radical,-341.233720188782,7,0.236038,"[-75.98506, -6.285302, -4.537057, -4.531763, -4.528568, -0.5801837, -0.3513637, -0.281193, -0.2200557]","[0.0, 0.000116, 0.006109, -0.0, -0.000437, -0.003169, -0.0, 0.000321, -0.00294]",0.2,1.9
boron_monochloride,-483.244273893700,8,0.686776,"[-100.343, -9.194022, -7.047175, -7.044618, -7.044618, -6.530463, -0.8202553, -0.4733893, -0.3636898, -0.3636898, -0.2316044]","[0.0, 0.0, -0.420275, -0.0, -0.0, 0.420275]",0.48,2.1
ozone,-223.958390515918,13,0.249766,"[-18.7152, -18.7152, -1.262257, -1.010928, -0.7107142, -0.55894, -0.5484751, -0.5401703, -0.3470307, -0.304875, -0.3018127]","[0.0, -0.000131, 0.090949, -0.0, 0.072739, -0.070808, -0.0, -0.072608, -0.020141]",0.83,3.9
water,-75.906446452130,7,0.731898,"[-18.59461, -0.9259416, -0.4881114, -0.3457535, -0.2720773]","[-0.0, 0.000292, 0.002328, 0.0, -0.03898, -0.000159, -0.0, 0.038688, -0.002169]",0.15,1.6
acetate_anion,-226.841411552345,10,1.38546296215,"[-9.590169, -0.7225277, -0.6427414, -0.4611921, -0.2515341, -0.2067281, -0.1955499, -0.1789572, -0.1439865, -0.1253592, -0.02361748, -0.005085627, 0.005594456]","[0.011748, 0.250821, 8.5e-05, 0.008087, 0.025021, -1e-05, -0.012369, 0.014058, -6e-06, -0.009637, -0.000424, 0.013502, -0.010159, -0.0007, -0.013551, 0.241414, -0.135086, -1.1e-05, -0.229084, -0.153691, -9e-06]",6.31,25.3
tetrachlorosilane,-2123.574798355426,8,0.0,"[-3.579519, -0.8248292, -0.7778041, -0.7778041, -0.777804, -0.5115135, -0.4160045, -0.4160045, -0.4160044, -0.3443708, -0.3443708, -0.3351334, -0.3351334, -0.3351334, -0.3047482, -0.3047481, -0.3047481]","[-0.0, -0.0, -6e-06, 0.001919, 0.001919, 0.001853, -0.001919, -0.001919, 0.0015, -0.001932, 0.001932, -0.00185, 0.001932, -0.001932, -0.001497]",8.05,22.7
oxygen_diatomic,-149.327633273039,6,0.0,"[-18.7533, -18.75321, -1.212254, -0.7460792, -0.5099785, -0.5059818, -0.5059818, -0.2550313, -0.2550313]","[0.0, -0.0, -3.32545, -0.0, 0.0, 3.32545]",0.18,1.7
heptane,-273.851455421319,29,0.0376810542713,"[-9.757911, -0.7310932, -0.7027779, -0.6580677, -0.6016432, -0.543286, -0.5135814, -0.5097979, -0.4344885, -0.408742, -0.3900622, -0.3846245, -0.3709592, -0.3567566, -0.3322312, -0.3295209, -0.3160345, -0.2964568, -0.2959876, -0.2859909, -0.2790985, -0.2766916, -0.2705148]","[-0.000545, 0.000101, -0.202498, -0.000473, 0.043012, 0.159082, 0.000516, -0.043994, 0.155864, 0.000333, 0.072748, -0.103821, -0.000292, -0.072133, -0.104388, 0.000201, 0.030906, 0.044087, -0.000204, -0.030715, 0.044056, -0.008114, -1.1e-05, 0.006091, 0.008566, -8e-06, 0.010544, -0.002097, -0.003125, 0.007557, 0.002536, -0.003121, 0.003669, 0.00197, 0.003137, 0.0078, -0.002409, 0.003136, 0.003905, -0.00467, -0.01097, -0.016856, 0.004314, -0.010954, -0.014524, 0.0047, 0.010974, -0.016873, -0.004336, 0.010974, -0.014534, 4e-06, -0.013757, 4.2e-05, -0.007624, 0.003102, 0.00834, 0.007462, 0.003117, 0.007026, -3e-06, 0.013772, 3.7e-05, 0.007647, -0.003088, 0.008355, -0.007482, -0.003105, 0.007037]",166.18,2069.2
methylene_s,-38.740100180573,6,0.713491,"[-9.851671, -0.6140502, -0.370603, -0.2197531]","[0.0, 0.000142, -0.042045, -0.0, -0.037966, 0.0212, -0.0, 0.037824, 0.020846]",0.14,1.2
octane,-312.806708422021,4,-10000,"[-0.7339679, -0.71215, -0.6766782, -0.6301441, -0.5774246, -0.5294611, -0.515024, -0.5099877, -0.4374163, -0.4170134, -0.3956815, -0.3859178, -0.3790438, -0.3713052, -0.3490985, -0.3436892, -0.3197056, -0.3139809, -0.3109088, -0.2899503, -0.2885168, -0.2826298, -0.2770188, -0.2756758, -0.2729131]","[-0.153926, -0.100238, 7.7e-05, 0.153037, 0.104138, 7.1e-05, 0.147382, 0.092072, -0.000213, -0.145396, -0.095648, -0.000214, -0.163548, -0.077552, 0.00039, 0.163709, 0.076611, 0.000392, 0.137528, -0.04601, -0.000138, -0.137373, 0.045703, -0.000138, 0.010065, 0.003648, -0.008124, 0.009682, 0.003408, 0.00771, -0.011025, -0.00291, -0.008705, -0.010642, -0.002669, 0.008291, -0.007107, -0.007098, 0.008392, -0.006902, -0.007807, -0.008162, 0.007351, 0.00697, 0.008169, 0.007147, 0.00768, -0.00794, 0.014233, 0.00434, -0.014433, 0.016443, 0.004602, 0.014499, -0.014256, -0.004436, -0.01439, -0.016466, -0.004698, 0.014456, 2.6e-05, -0.022419, -9e-06, -0.008892, -0.003402, -0.002975, -0.009392, -0.003646, 0.002989, -1.8e-05, 0.022388, -9e-06, 0.008921, 0.003365, -0.002989, 0.009421, 0.003608, 0.003003]",240.42,1200.2
beryllium_difluoride,-213.218268979435,7,0.0,"[-24.06575, -24.06575, -3.834151, -1.063107, -1.05513, -0.427576, -0.4179384, -0.3888881, -0.3888881, -0.3672483, -0.3672483]","[0.0, 0.0, -0.000265, -0.0, -0.0, 0.123603, -0.0, -0.0, -0.123338]",0.31,1.8
dilithium_oxide,-89.536540099426,55,0.00147118795536,"[-18.40857, -1.753061, -1.752904, -0.6318078, -0.1410049, -0.1241925, -0.1241924]","[6e-06, 2e-06, 5e-06, -3e-06, -1e-06, 0.345983, -3e-06, -1e-06, -0.345988]",0.17,5.0
thiophene,-550.306394074042,21,0.169943366478,"[-5.715463, -0.8077222, -0.6698136, -0.6538315, -0.5101696, -0.5014393, -0.470709, -0.3699869, -0.3556562, -0.3521338, -0.3517073, -0.3136222, -0.2360594, -0.2226277]","[0.0, -0.000549, 0.077643, -0.0, 0.312366, 0.439132, -0.0, -0.312788, 0.276739, 0.0, -0.341087, -0.338947, -0.0, 0.341507, -0.422351, -0.0, -0.018262, 0.012945, 0.0, 0.01851, 0.012843, -0.0, 0.010403, -0.029466, 0.0, -0.0101, -0.02854]",19.0,112.3
ketene,-151.415034079136,11,0.569604,"[-18.65868, -9.89219, -9.782883, -1.030605, -0.707056, -0.4871507, -0.4524482, -0.4430104, -0.4144605, -0.3765129, -0.2236886]","[-0.0, 0.000179, -0.570728, 0.0, 1e-05, -1.13186, 0.0, 2e-06, 1.705106, 0.0, -0.004773, -0.001101, 0.0, 0.004583, -0.001417]",2.11,8.9
phosphorus_monofluoride,-439.326754845607,8,0.239592,"[-76.04644, -24.12117, -6.338821, -4.588401, -4.586642, -4.586642, -1.134772, -0.5828559, -0.438924, -0.438924, -0.417196, -0.206644, -0.206644]","[-0.0, 0.0, -0.039751, 0.0, -0.0, 0.039751]",0.46,2.5
boron_diatomic,-48.847633710108,6,0.00033,"[-6.517731, -6.517091, -0.5018591, -0.2758884, -0.2272016, -0.2272016]","[0.0, 0.0, -0.094202, -0.0, -0.0, 0.094202]",0.12,1.1
nitrogen_dioxide,-203.696761588433,7,0.111822,"[-18.70872, -18.70871, -14.09079, -1.195848, -1.057823, -0.6084615, -0.5353927, -0.5279398, -0.5261526, -0.3575038, -0.3413491, -0.2417339]","[0.0, -0.00044, -0.100379, -0.0, -0.45006, 0.06646, -0.0, 0.4505, 0.033919]",0.91,3.6
argon_dimer,-1051.876972986192,6,0.0,"[-8.44207, -8.44207, -8.44207, -0.8851248, -0.8838755, -0.3899639, -0.3843183, -0.3843183, -0.3823981, -0.3823981, -0.3771697]","[-0.0, -0.0, -0.000725, 0.0, 0.0, 0.000725]",0.09,1.8
sodium_diatomic,-322.918821124702,6,0.0,"[-37.67374, -37.67374, -2.04087, -2.040711, -1.039395, -1.03841, -1.03841, -1.038167, -1.038167, -1.037214, -0.1184749]","[0.0, -0.0, -0.00156, -0.0, 0.0, 0.00156]",0.06,1.1
dimethylamine,-133.991597255441,18,0.405330861665,"[-9.781967, -0.8167656, -0.6311987, -0.5631191, -0.4438851, -0.3972033, -0.3950564, -0.3422312, -0.3231893, -0.3225151, -0.1886072]","[0.101396, -0.575054, 0.013645, -0.064376, 0.3117, 0.144581, -0.052519, 0.325001, -0.157791, 0.003097, 0.023342, 0.000417, 0.022234, -0.0221, -0.001501, 0.020934, -0.021381, 0.001468, -0.014096, -0.011833, -0.002649, -0.013093, -0.011157, 0.002677, -0.001835, -0.008661, 0.002344, -0.001741, -0.009857, -0.003193]",12.69,73.2
cyclobutene,-154.562714518567,19,0.0846220652608,"[-9.77082, -0.7802599, -0.5884272, -0.5786502, -0.4570334, -0.4514643, -0.4184453, -0.3441764, -0.3221054, -0.2941976, -0.2791186, -0.2273798]","[2e-06, -0.002632, 0.433478, -1e-06, 0.004077, 0.286026, 1.2e-05, -0.163167, -0.402734, -1.5e-05, 0.161761, -0.302584, -0.0, -0.014289, -0.003608, -0.0, 0.014599, -0.004965, -0.015678, -0.017436, -0.00142, 0.016207, 0.017262, -0.000946, 0.015624, -0.017541, -0.001861, -0.01615, 0.017366, -0.001386]",16.08,93.5
acetic_acid,-227.394395434276,19,0.709311018256,"[-9.787485, -1.018014, -0.9303957, -0.6956789, -0.5623695, -0.446994, -0.4360321, -0.4352616, -0.3734754, -0.3591587, -0.3579884, -0.296971, -0.2474101]","[-0.154361, 0.102064, -5.8e-05, -0.048641, 0.085172, -4e-06, -0.09336, -0.330322, -3.6e-05, 0.248384, 0.203156, -3.8e-05, 0.068863, -0.038965, -2e-06, -0.018262, -0.006821, -1e-05, -0.001292, -0.006655, 0.004457, -0.001331, -0.00763, -0.004308]",8.64,54.8
hydrogen_fluoride,-99.843232099481,7,0.707999,"[-24.07214, -1.096004, -0.4988945, -0.3609724, -0.3609724]","[0.0, 0.0, -0.469521, -0.0, -0.0, 0.469521]",0.08,0.8
phosphorus_diatomic,-680.227577910528,7,1.3e-05,"[-4.542614, -4.542614, -4.542417, -4.542417, -4.53846, -4.536231, -0.6257259, -0.4270568, -0.2685732, -0.2670737, -0.2670737]","[0.0, 0.0, 0.083423, -0.0, -0.0, -0.083423]",0.3,2.1
sodium_fluoride,-260.754431436016,26,3.075855,"[-37.68095, -23.88391, -2.055706, -1.053579, -1.053579, -1.051961, -0.8494383, -0.2032852, -0.1945213, -0.1945213]","[0.0, -0.0, 0.046771, -0.0, 0.0, -0.046771]",0.18,2.6
lithium_diatomic,-14.724229177060,6,0.0,"[-1.842877, -1.842423, -0.1187769]","[-0.0, -0.0, 0.00139, 0.0, 0.0, -0.00139]",0.01,1.0
difluoromethane,-237.460515692942,7,0.721194,"[-9.927739, -1.1587, -1.100215, -0.6463364, -0.5068477, -0.5055069, -0.5048749, -0.3783353, -0.3745907, -0.3611302, -0.3027469]","[-9.2e-05, -5.5e-05, -0.145836, 0.028641, 5e-06, -0.030323, -0.028516, 5e-06, -0.030214, -1.6e-05, -0.005049, 0.100466, -1.6e-05, 0.005093, 0.105908]",1.95,6.8
propene,-116.818238523941,27,0.187230064725,"[-9.766006, -9.760543, -0.7108451, -0.6159395, -0.4966159, -0.4212416, -0.3784432, -0.3726631, -0.3286277, -0.3051781, -0.2351568]","[-0.127509, 0.047679, 4.1e-05, 0.095036, -0.096064, -3.1e-05, 0.089047, 0.043354, 1e-06, -0.0142, 0.027022, 6e-06, -0.014069, -0.010585, 2e-06, 0.010448, -0.024625, -1.6e-05, -0.008175, 0.018019, 8e-06, -0.015205, -0.002356, 0.00555, -0.015373, -0.002444, -0.005561]",8.91,67.9
difluorine_monoxide,-273.009953420652,8,0.104828000076,"[-18.81517, -1.244488, -1.133269, -0.8629262, -0.592225, -0.5356491, -0.4940379, -0.4112475, -0.4086404, -0.3976571, -0.2875256]","[-0.0, -3e-06, -0.022175, 0.0, 0.043154, 0.005615, -0.0, -0.043151, 0.016561]",0.8,3.0
phosphorus_monoxide,-414.811165655811,18,0.716944,"[-76.04261, -18.63543, -6.33852, -4.590881, -4.584268, -4.583051, -0.9429388, -0.5092347, -0.371699, -0.3665602, -0.3578044, -0.1683656]","[-0.0, 0.0, -1.759987, 0.0, -0.0, 1.759987]",0.49,4.0
tert_butyl_radical,-156.333574494672,31,0.110089257269,"[-9.759524, -0.7272969, -0.6220182, -0.6220144, -0.4773244, -0.400813, -0.3976886, -0.3976868, -0.3441852, -0.3441806, -0.3228988, -0.3059615, -0.3059613, -0.1378377]","[-0.000413, 0.024932, 0.006002, -0.000275, -0.148711, 0.019357, -0.08687, 0.06913, 0.032414, 0.087902, 0.068576, 0.058214, -1.5e-05, 0.009143, -0.053343, 0.021873, -0.019717, 0.007188, -0.021762, -0.019605, 0.008463, 0.010879, -0.00837, -0.054191, -0.021467, -0.011485, 0.009763, 0.000332, 0.027915, 0.004986, -0.011189, -0.008318, -0.054319, -0.000309, 0.027954, 0.00443, 0.021316, -0.011444, 0.011037]",26.65,325.0
lithium_fluoride,-106.697690291717,7,2.388387,"[-23.91878, -1.831273, -0.8937675, -0.245075, -0.2343948, -0.2343948]","[-0.0, -0.0, -0.481997, 0.0, 0.0, 0.481997]",0.1,1.2
acetyl_fluoride,-251.321069524834,24,1.14730648226,"[-9.801122, -1.148529, -0.9901585, -0.7073151, -0.5650195, -0.4775792, -0.4714786, -0.4484215, -0.3948667, -0.3892859, -0.3551059, -0.3467004, -0.2772883]","[-0.193931, 0.09918, -5.2e-05, -0.025872, 0.07763, 7.2e-05, -0.114335, -0.347586, -1.6e-05, 0.349723, 0.191935, -2.3e-05, -0.021794, -0.008993, -5e-06, 0.003134, -0.005711, -0.002822, 0.003076, -0.006454, 0.002846]",6.78,51.3
lithium_hydroxide,-82.735381696266,21,1.695829,"[-18.48294, -1.814143, -0.7656577, -0.3340082, -0.1833097, -0.1833096]","[0.0, 0.0, -0.205965, -0.0, -0.0, -0.298738, -0.0, -0.0, 0.504704]",0.36,2.8
propyne,-115.591509574191,24,0.361282017362,"[-9.797065, -9.778138, -9.758237, -0.7065416, -0.6308237, -0.4735682, -0.4067355, -0.3941827, -0.3941669, -0.2439498, -0.2439479]","[5.6e-05, -0.010543, -0.445466, -0.0, 0.007179, -0.583223, 4e-06, 0.0015, 0.919329, -0.0, 0.00012, 0.064702, 2e-06, -0.013862, 0.018705, -0.006818, 0.007803, 0.013445, 0.006757, 0.007802, 0.012507]",4.63,32.4
aluminum_monosulfide,-638.243736834986,20,1.418796,"[-5.668211, -5.661688, -5.661688, -3.951977, -2.581852, -2.581852, -2.580022, -0.609638, -0.3382155, -0.2339166, -0.2339166, -0.2328922]","[-0.0, -0.0, 0.012859, 0.0, 0.0, -0.012859]",0.64,4.2
boron_monocarbide,-62.028515541137,10,0.396339,"[-9.879859, -6.524099, -0.6363963, -0.3341322, -0.2838805, -0.2838805, -0.251607]","[-0.0, -0.0, -0.314637, 0.0, 0.0, 0.314637]",0.28,2.0
boron_trichloride,-1400.950787625393,8,6.1e-05,"[-6.561429, -0.8241576, -0.77849, -0.7784825, -0.4881412, -0.423275, -0.4232706, -0.3804035, -0.3217623, -0.3217605, -0.3181303, -0.3181254, -0.2882531]","[0.0, -0.002729, -0.0, 0.0, -0.127351, 0.0, -0.059761, 0.065044, 0.0, 0.059761, 0.065036, 0.0]",3.08,9.8
ethyl_radical,-78.405232100410,24,0.175441050074,"[-9.779455, -9.765622, -0.6854989, -0.5457347, -0.4093114, -0.37407, -0.3557619, -0.3167272, -0.1665787]","[0.028169, 0.11992, 8.7e-05, 0.000343, -0.148484, -0.000191, -0.020272, 0.018626, -5e-06, -0.007456, -0.001404, 0.007053, -0.007671, -0.001473, -0.007125, 0.003405, 0.006249, -0.013982, 0.003482, 0.006567, 0.014163]",3.26,38.6
magnesium_hydroxide,-274.474323369086,62,0.524757129814,"[-45.95542, -18.52638, -2.91612, -1.732501, -1.732501, -1.728783, -0.8220385, -0.4039156, -0.2325686, -0.2325683, -0.1705483]","[-1e-06, -1e-06, 0.173013, 4e-06, 4e-06, 0.349324, -3e-06, -3e-06, -0.522338]",0.53,11.9
hydrogen_peroxide,-150.537239517205,7,0.618387,"[-18.65627, -18.65625, -1.0367, -0.8289919, -0.4883508, -0.4594211, -0.390391, -0.2942372, -0.2423842]","[0.110942, -0.218188, 0.050381, -0.111491, 0.218216, 0.046002, -0.161531, -0.036215, -0.047979, 0.162079, 0.036187, -0.048405]",0.63,2.7
propane,-118.026026865472,16,0.0390581426082,"[-9.752742, -0.7053432, -0.6107153, -0.5215362, -0.4113728, -0.3915941, -0.3576919, -0.3372139, -0.2977638, -0.2961587, -0.2840364]","[-0.000458, -0.126768, 0.000131, 0.068307, 0.074122, 0.000113, -0.067794, 0.074623, -0.000213, -2e-05, 0.015669, -0.004349, -5.3e-05, 0.01687, 0.004337, 0.013952, -0.007237, -4e-06, -0.013922, -0.007196, -2e-06, -0.001375, -0.009743, 0.000653, -0.00159, -0.010163, -0.000818, 0.001356, -0.009869, -0.000847, 0.001596, -0.010308, 0.001]",13.74,78.4
butane,-156.982944080491,21,0.000314063687809,"[-9.754483, -0.7192914, -0.651685, -0.5624242, -0.5140431, -0.4234089, -0.3835875, -0.3781543, -0.3663448, -0.3254642, -0.3058808, -0.2969296, -0.2839585, -0.2785957]","[0.018137, -0.123673, 0.000246, -0.110767, 0.077109, -0.000197, 0.109611, -0.078323, -0.000214, -0.018907, 0.125272, 0.000259, -0.016783, -0.016687, 1.4e-05, 0.016521, 0.015654, 1.4e-05, -0.00814, 0.002974, 0.004817, -0.008465, 0.003479, -0.004884, 0.008918, -0.002465, 0.004643, 0.009245, -0.002971, -0.004711, 0.010938, -0.00757, 0.009004, 0.011939, -0.008844, -0.009, -0.010622, 0.007384, 0.008343, -0.011627, 0.008661, -0.008334]",32.03,251.3
carbon_dioxide,-187.269869158899,7,3.3e-05,"[-18.67534, -18.67533, -9.956102, -1.070029, -1.035238, -0.5077372, -0.4785326, -0.4785326, -0.4719166, -0.3425266, -0.3425266]","[-0.0, -0.0, -0.005161, 0.0, 0.0, 1.636025, 0.0, 0.0, -1.630864]",0.76,2.8
magnesium_monohydride,-199.671226942892,7,0.467014,"[-45.96094, -2.919167, -1.736005, -1.736005, -1.730917, -0.2609842, -0.1492637]","[0.0, 0.0, -0.001324, -0.0, -0.0, 0.001324]",0.06,0.9
cyclopropene,-115.564975840911,16,0.179033003491,"[-9.790005, -9.789038, -9.782634, -0.7951193, -0.537767, -0.5089011, -0.4576748, -0.3965303, -0.3137005, -0.2677021, -0.2290769]","[0.000103, -0.001698, 0.334333, 3e-06, 0.145103, -0.121168, 3e-06, -0.144197, -0.177787, 1e-06, -0.02505, -0.009575, 1e-06, 0.026065, -0.00841, -0.00711, -0.000112, -0.009486, 0.006999, -0.000112, -0.007907]",5.12,24.3
cyclobutane,-155.774412177974,21,0.00039920921833,"[-9.765086, -0.7678691, -0.5859086, -0.5859084, -0.4885298, -0.4319293, -0.4293002, -0.3379495, -0.3379494, -0.3200725, -0.271731, -0.2699317, -0.2699316]","[-0.003946, -0.239601, -0.10789, -0.003946, 0.231308, -0.150044, 0.241117, 0.003946, 0.107152, -0.232828, 0.003945, 0.149263, -0.000111, -0.018549, 0.00199, -0.000143, 0.017921, 0.047724, -0.000111, 0.018042, 0.001082, -0.000143, -0.017519, 0.049209, 0.019027, 0.00011, -0.00176, -0.018009, 0.000143, -0.047192, -0.018518, 0.000111, -0.00085, 0.01761, 0.000143, -0.048683]",24.98,173.7
silylene_s,-289.438483766472,7,0.0897735896687,"[-65.12005, -5.041192, -3.489109, -3.477909, -3.475047, -0.4653104, -0.2940048, -0.2153849]","[-0.0, 0.009287, -0.006477, 0.0, -0.002316, 0.004733, 0.0, -0.006971, 0.001744]",0.22,1.8
aluminum_monohydride,-241.919540941029,6,0.034119,"[-55.11175, -3.916525, -2.548931, -2.548931, -2.5395, -0.3313108, -0.1810346]","[0.0, 0.0, 0.003031, -0.0, -0.0, -0.003031]",0.12,1.3
beryllium_oxide,-89.199343256709,10,2.407086,"[-18.521, -3.829021, -0.7614702, -0.2556385, -0.2317097, -0.2317097]","[0.0, 0.0, -0.099422, -0.0, -0.0, 0.099422]",0.13,1.0
