,Energy,Iterations,Dipole Moment,Eigens,Derivatives,Derivative Time,Wall Time
bicyclo[3.1.0]hexane,-234.429139737942,7,0.0769803434261,"[-10.21217, -0.9059748, -0.7818595, -0.7260204, -0.6373318, -0.5689643, -0.5591536, -0.5263751, -0.4760698, -0.447436, -0.4189436, -0.4045344, -0.3632258, -0.3480148, -0.3461051, -0.3381865, -0.2895934, -0.2771873]","[-0.148245, 0.26944, 0.000847, 0.258124, 0.158392, 0.003842, 0.087777, -0.297833, 0.067738, 0.087817, -0.294244, -0.068685, -0.081523, 0.0801, 0.443343, -0.1193, 0.074735, -0.44673, 0.005168, 0.022838, 0.000148, 0.012886, -0.00706, 0.000145, 0.019569, -0.000658, 6.7e-05, -0.010502, -0.010472, 4.2e-05, -0.021897, 0.000779, 0.019198, -0.021967, 0.000952, -0.019315, -0.020156, -0.014389, -0.001188, -0.020293, -0.014596, 0.001165, -0.013974, 0.01632, 0.000883, -0.013483, 0.015696, -0.001499]",6.82,30.5
phosphine,-343.022331422577,6,0.31129800004,"[-77.18002, -6.602297, -4.737137, -4.737137, -4.733325, -0.6634404, -0.3970411, -0.3970394, -0.2885978]","[2e-06, 0.000324, -0.001284, 0.0, -0.000679, 0.001468, 0.001661, 0.000177, -3.3e-05, -0.001663, 0.000178, -0.00015]",0.09,1.3
beryllium_sulfide,-412.743418120331,9,2.189088,"[-88.95145, -7.950878, -5.884409, -5.88249, -5.88249, -4.137977, -0.6612227, -0.3170487, -0.2532048, -0.2532048]","[0.0, -0.0, 0.015983, -0.0, 0.0, -0.015983]",0.07,1.3
lithium_oxide,-82.611612759667,7,2.561552,"[-19.12772, -2.018162, -0.8529467, -0.3099811, -0.2541351, -0.2391072]","[0.0, 0.0, -0.256235, -0.0, -0.0, 0.256235]",0.04,1.1
carbon_monoxide,-113.228594706593,6,0.036345,"[-19.31052, -10.34113, -1.197615, -0.5991568, -0.4961258, -0.4961258, -0.3945407]","[0.0, 0.0, -2.133596, -0.0, -0.0, 2.133596]",0.11,1.5
magnesium_oxide,-275.056808216931,11,2.942792,"[-46.91562, -19.10827, -3.174845, -1.896394, -1.896394, -1.894311, -0.8131073, -0.2522701, -0.2233385, -0.2233385]","[-0.0, -0.0, -0.050531, 0.0, 0.0, 0.050531]",0.09,1.3
aluminum_nitride,-296.890117202159,11,1.064512,"[-56.15195, -14.41203, -4.202462, -2.732747, -2.730399, -2.729654, -0.7900502, -0.385221, -0.331758, -0.2784287, -0.2658106]","[0.0, 0.0, -0.044235, -0.0, -0.0, 0.044235]",0.15,2.9
imidogen,-55.179189989897,7,0.634874,"[-14.46001, -0.8738939, -0.4203644, -0.3581239, -0.3581239]","[-0.0, -0.0, -0.216208, 0.0, 0.0, 0.216208]",0.02,1.0
methyl_formate,-228.901018063843,8,0.763701343854,"[-10.28287, -1.144153, -1.055501, -0.7656933, -0.6222889, -0.5555418, -0.5080049, -0.5000244, -0.4429576, -0.4169405, -0.3880646, -0.3337213, -0.3084337]","[0.260087, -0.094698, 2e-06, -0.240753, 0.119559, 7.7e-05, -0.055713, 0.30519, 2e-06, 0.031471, -0.248353, 6e-06, 0.026261, -0.020897, 0.0, -0.02296, -0.018089, 1e-06, 0.000802, -0.02135, 0.015603, 0.000806, -0.021362, -0.015691]",1.07,6.1
hypochlorite,-535.127225585737,10,0.54533,"[-19.30642, -9.615248, -7.35011, -7.345674, -7.337431, -1.134594, -0.8186518, -0.5102807, -0.5087821, -0.4686504, -0.3464198, -0.3060482]","[0.0, 0.0, -1.203297, -0.0, -0.0, 1.203297]",0.15,1.6
methanol,-115.638234152734,7,0.683027678304,"[-19.1997, -10.26257, -1.045667, -0.7035539, -0.5225734, -0.4550597, -0.4436317, -0.3509481, -0.2906257]","[-0.039757, -0.314883, 6.4e-05, 0.028811, 0.283129, 5e-06, 0.022262, -0.011845, 1e-06, 0.020399, 0.003288, 0.018348, 0.020412, 0.003301, -0.018419, -0.052127, 0.037009, 0.0]",0.35,2.5
vinyl_fluoride,-177.703797679974,7,0.55958842699,"[-10.31291, -10.22776, -1.25866, -0.7976006, -0.6343065, -0.5501223, -0.5030088, -0.4834267, -0.4293286, -0.3949477, -0.2851637]","[-0.183674, -0.24188, -0.0, -0.092507, 0.077753, -0.0, 0.292182, 0.187477, 0.0, 0.004052, -0.036535, -0.0, -0.004236, 0.021894, -0.0, -0.015817, -0.008708, 0.0]",0.5,2.8
formaldehyde,-114.417675162184,7,0.949152,"[-19.22421, -10.32459, -1.095052, -0.6580028, -0.5162111, -0.47391, -0.4217394, -0.2891775]","[-0.0, 0.0, 1.614465, 0.0, 1e-05, -1.620311, 0.0, -0.006131, 0.003067, -0.0, 0.00612, 0.002778]",0.22,1.4
sulfur_diatomic,-796.127231150285,7,0.0,"[-5.987208, -5.987208, -5.987143, -5.987143, -5.985713, -5.98484, -0.8679714, -0.65353, -0.4155402, -0.3989384, -0.3989384, -0.2615234, -0.2615234]","[0.0, 0.0, 0.059079, -0.0, -0.0, -0.059079]",0.11,1.5
acetaldehyde,-153.711433419055,8,1.16765909075,"[-10.32106, -10.23592, -1.074462, -0.7825058, -0.6051756, -0.4996746, -0.4644744, -0.4560859, -0.4151979, -0.3821783, -0.278006]","[-0.21329, 0.013796, 2e-06, 0.115016, -0.066219, 5e-06, 0.134512, 0.056782, 8.9e-05, 0.017228, -0.021773, 0.0, -0.006357, 0.01667, 1e-06, -0.023552, 0.000371, 0.017755, -0.023557, 0.000372, -0.017853]",0.62,4.4
boron_monosulfide,-422.817984379894,11,0.368247,"[-89.00851, -8.010421, -6.88927, -5.944515, -5.941476, -5.941476, -0.7628285, -0.4494992, -0.3237859, -0.3220021, -0.3220021]","[-0.0, 0.0, -0.584765, 0.0, -0.0, 0.584765]",0.17,2.2
beryllium_monofluoride,-114.531941867050,7,0.460158,"[-24.74273, -4.11057, -1.195115, -0.4903197, -0.4409059, -0.4409059, -0.2362382]","[-0.0, -0.0, -0.089516, 0.0, 0.0, 0.089516]",0.04,0.9
phosphorus_tribromide,-8063.017989416227,7,0.164425000003,"[-2.678249, -0.8724448, -0.8125405, -0.8125405, -0.6194309, -0.4438419, -0.4438418, -0.4049178, -0.3532633, -0.3532633, -0.322613, -0.322613, -0.3132038, -0.2912606]","[-0.0, 0.001985, -34.261462, 0.0]",4.63,17.3
sulfur_dioxide,-548.408854444392,7,0.699081000001,"[-6.094535, -6.090447, -1.183293, -1.088915, -0.6592736, -0.5179953, -0.516048, -0.515919, -0.3971546, -0.3834159, -0.3505273]","[0.0, 0.0, 0.157917, -0.0, -0.140569, -0.078256, -0.0, 0.140568, -0.079662]",0.28,1.7
methanethiol_radical,-437.900848509368,7,0.702120674218,"[-10.25626, -8.01129, -5.954924, -5.944222, -5.936116, -0.8095266, -0.6514125, -0.4609906, -0.4536383, -0.3858354, -0.3010802, -0.25576]","[0.158884, 0.000415, -0.068295, -0.153137, 0.000392, -0.006538, -0.033889, -0.000507, 0.068687, 0.01428, -0.015264, 0.003229, 0.013863, 0.014964, 0.002917]",0.4,2.8
hydroxyl_radical,-75.686356309605,7,0.681996,"[-19.2778, -1.053022, -0.4984341, -0.443387, -0.3646858]","[0.0, 0.0, -0.522362, -0.0, -0.0, 0.522362]",0.02,0.7
lithium_monosulfide,-405.561606606120,6,2.785079,"[-88.93794, -7.935149, -5.880159, -5.863586, -5.863067, -2.050184, -0.6356723, -0.2641071, -0.2416692, -0.2175039]","[-0.0, -0.0, 0.004869, 0.0, 0.0, -0.004869]",0.07,1.0
phosphorus_dioxide,-491.586916132969,7,0.601457000013,"[-4.85831, -4.856597, -4.852069, -1.110589, -1.06355, -0.5927059, -0.491829, -0.4724182, -0.466134, -0.3927138, -0.3911892, -0.3288722]","[0.0, 1e-06, -0.113458, -0.0, -0.146328, 0.056405, -0.0, 0.146328, 0.057053]",0.27,2.0
formaldoxime_zwitterion,-169.678661430906,10,1.44477003971,"[-14.53705, -10.27378, -1.143991, -0.8898986, -0.6853967, -0.5709228, -0.5063149, -0.4733402, -0.4408875, -0.279715, -0.2535659]","[-0.178147, 0.103333, 0.000603, -0.211491, -0.312645, 0.000322, 0.407197, 0.227604, -9.8e-05, -0.005412, 0.023737, -3.5e-05, -0.01317, -0.006623, 0.000172, 0.001024, -0.035406, -0.000965]",0.83,4.0
tetrafluoroethylene,-475.257100987583,6,0.0,"[-10.41478, -1.355054, -1.340796, -1.296414, -1.285503, -0.8468915, -0.6981742, -0.6538756, -0.6455492, -0.5990874, -0.5908116, -0.5467111, -0.5198781, -0.496956, -0.4906457, -0.4849576, -0.4812243, -0.4660721, -0.2854955]","[0.0, -1e-06, 1.14346, 0.0, 1e-06, -1.130673, -0.0, -0.003112, -0.104504, -0.0, 0.003113, -0.105293, -0.0, -0.006589, 0.09811, -0.0, 0.006589, 0.0989]",1.32,5.2
boron_dioxide,-175.175261102413,7,0.0,"[-19.29191, -19.29191, -6.864708, -1.089121, -1.087504, -0.5157659, -0.4985676, -0.4974435, -0.4625355, -0.4374645, -0.3916224]","[-0.0, 0.0, -1e-05, 0.0, 0.0, 0.544556, -0.0, -0.0, -0.544546]",0.18,1.8
cyano_radical,-92.631722664192,12,0.587679,"[-14.44963, -10.34756, -0.9855575, -0.5245326, -0.424317, -0.4048482, -0.4048482]","[-0.0, 0.0, -1.452691, 0.0, -0.0, 1.452691]",0.1,1.3
boron_nitride,-79.337712514382,11,0.857493,"[-14.43369, -6.88269, -0.8722508, -0.4270259, -0.3852276, -0.3401101, -0.3360868]","[0.0, 0.0, -0.470657, -0.0, -0.0, 0.470657]",0.09,2.4
acetyl_chloride,-613.205767505924,8,1.13936320776,"[-7.262304, -1.129552, -0.881887, -0.7885962, -0.5878402, -0.514376, -0.4981499, -0.4973961, -0.4349042, -0.4209357, -0.3455175, -0.3411453, -0.3176382]","[-0.18405, 0.194392, 4e-06, -0.181031, 0.003221, 6.3e-05, 0.296816, -0.279894, 1e-06, 0.048836, 0.130996, 4e-06, -0.009637, -0.015556, 1e-06, 0.014532, -0.016578, 0.028854, 0.014534, -0.016581, -0.028926]",1.36,5.9
magnesium_diatomic,-399.935522114625,6,0.0,"[-46.88969, -3.143082, -3.143081, -1.864208, -1.864208, -1.864207, -1.864207, -1.864006, -1.863985, -0.2229, -0.1816274]","[-0.0, -0.0, -0.001031, 0.0, 0.0, 0.001031]",0.03,0.8
methyl_chloride,-499.942172979751,6,0.764561000079,"[-9.520669, -7.254952, -7.245987, -7.245987, -0.8751982, -0.6938992, -0.45734, -0.4573385, -0.432706, -0.3121791, -0.3121787]","[-0.017991, 2.9e-05, -0.452835, 0.014498, 0.0, 0.469618, -0.006497, 0.0, -0.002224, 0.004995, -0.001257, -0.007195, 0.004995, 0.001228, -0.007364]",0.38,2.2
dimethyl_ether,-154.902841452340,7,0.510416,"[-10.2603, -1.062894, -0.7418613, -0.6575242, -0.4907121, -0.488728, -0.4887278, -0.4092899, -0.391871, -0.3337421, -0.2721866]","[0.0, -0.000288, -0.140164, 2.4e-05, -0.08301, 0.051717, -2.4e-05, 0.083283, 0.053121, 0.0, 0.002332, -0.003555, -0.0, -0.002327, -0.003558, -0.009607, -0.005091, 0.010879, 0.009582, -0.005091, 0.010342, 0.009615, 0.005097, 0.010877, -0.00959, 0.005097, 0.010341]",0.95,5.4
methyl_ketene,-191.764100422738,8,0.756021280739,"[-10.23523, -1.140283, -0.8278512, -0.7090297, -0.5508118, -0.513771, -0.4735269, -0.4700887, -0.4318851, -0.417328, -0.3984365, -0.2434533]","[-0.06666, -0.013934, -0.00011, -0.036104, -0.078589, -1.1e-05, -0.121738, 0.028571, -0.000168, 0.183697, 0.058662, 7.5e-05, -0.006378, -0.023843, 1.3e-05, 0.005363, 0.021079, -3e-06, 0.020867, 0.004028, -0.018667, 0.020952, 0.004027, 0.01887]",1.12,6.7
tetrafluorosilane,-688.835948217707,6,0.0,"[-3.782055, -1.302943, -1.266037, -1.266037, -1.266037, -0.6422979, -0.572407, -0.572407, -0.572407, -0.5190959, -0.5190959, -0.509007, -0.509007, -0.509007, -0.4724799, -0.4724799, -0.4724799]","[0.0, -0.0, 0.0, -0.034697, -0.034697, -0.05704, 0.034697, 0.034697, -0.057239, 0.034606, -0.034606, 0.05704, -0.034606, 0.034606, 0.057239]",0.73,3.5
silicon_monosulfide,-687.459924901449,8,0.732893,"[-5.927051, -5.92608, -5.370699, -3.704692, -3.704692, -3.698705, -0.733854, -0.4518848, -0.3054498, -0.3054498, -0.2962967]","[0.0, -0.0, 0.037951, -0.0, 0.0, -0.037951]",0.25,1.6
sulfur_monochloride,-858.095950769998,8,0.010462,"[-7.305777, -7.300834, -6.003253, -5.998882, -5.985726, -0.9290453, -0.7116009, -0.4531863, -0.4287633, -0.4076248, -0.3077197, -0.2708052]","[-0.0, 0.0, 0.023573, 0.0, -0.0, -0.023573]",0.23,1.8
neon_dimer,-257.724154537739,5,0.0,"[-31.05648, -31.05648, -1.489493, -1.488901, -0.5910882, -0.5878788, -0.5878788, -0.5868082, -0.5868082, -0.583641]","[-0.0, -0.0, 2.2e-05, 0.0, 0.0, -2.2e-05]",0.01,0.7
formaldoxime,-169.692119075382,8,0.137000456437,"[-14.44806, -10.25905, -1.11855, -0.8928195, -0.6328105, -0.5545452, -0.4858988, -0.4399665, -0.4336275, -0.3073814, -0.2896424]","[-0.19927, 0.082207, -0.0, -0.068652, -0.272534, 0.0, 0.231121, 0.195153, 0.0, -0.008403, 0.030935, 0.0, -0.014237, -0.006452, -0.0, 0.059441, -0.029309, -0.0]",0.82,3.2
lithium_chloride,-467.644994463241,6,2.769539,"[-101.5825, -9.426369, -7.155059, -7.154494, -7.154494, -2.055039, -0.7329948, -0.286731, -0.2633221, -0.2633221]","[0.0, 0.0, 0.004847, -0.0, -0.0, -0.004847]",0.08,1.0
isopropyl_radical,-118.367712370952,7,0.117099284481,"[-10.211, -10.21099, -0.8064964, -0.7107794, -0.5880272, -0.4670363, -0.4453574, -0.4217109, -0.3987655, -0.36546, -0.3586405, -0.2007627]","[-0.014212, 0.247198, 0.000131, -0.003451, -0.155762, 0.126372, -0.003375, -0.155751, -0.126498, 0.005944, -0.011512, 3e-06, 0.004746, 0.020899, 0.014072, 0.004747, 0.020902, -0.014077, 0.013767, 0.008802, 0.000963, -0.010926, 0.008194, 0.00042, -0.011039, 0.008231, -0.000402, 0.013798, 0.0088, -0.000983]",1.06,7.4
cyanogen,-185.499673933347,6,0.0,"[-10.33689, -10.33628, -1.013781, -0.9945318, -0.7704839, -0.474027, -0.474027, -0.4535071, -0.4405883, -0.3932686, -0.3932686]","[-0.0, 0.0, -1.338789, 0.0, 0.0, 1.343852, -0.0, -0.0, 1.84645, 0.0, 0.0, -1.851513]",0.37,1.8
boron_monohydride,-25.247278077900,6,0.627819,"[-6.878006, -0.4986254, -0.2448385]","[-0.0, 0.0, -0.062855, 0.0, -0.0, 0.062855]",0.02,0.6
thiirane,-476.598522063832,7,0.788635,"[-5.924375, -5.917212, -0.8907035, -0.6420632, -0.6364874, -0.5132778, -0.4676789, -0.4024437, -0.3398878, -0.3303992, -0.24123]","[0.0, -0.002003, 0.011119, -3.1e-05, -0.125097, 0.007536, 3.1e-05, 0.126689, -0.0109, 0.01595, -0.020399, -0.001991, -0.015918, -0.020399, -0.002041, -0.016463, 0.020604, -0.001836, 0.016432, 0.020604, -0.001886]",0.84,4.4
sodium_chloride,-622.333365740642,6,3.503639,"[-7.131343, -7.130244, -7.130244, -2.292234, -1.204416, -1.204416, -1.202574, -0.7051245, -0.2546846, -0.2380877, -0.2380877]","[0.0, 0.0, 0.002721, -0.0, -0.0, -0.002721]",0.13,1.3
magnesium_sulfide,-598.022531377474,10,3.093093,"[-5.864477, -5.857932, -5.857932, -3.20412, -1.925156, -1.925093, -1.925093, -0.6181309, -0.2712116, -0.2153743, -0.2153743]","[0.0, 0.0, -0.003593, -0.0, -0.0, 0.003593]",0.15,1.6
methyl_silane,-331.056180403770,7,0.303335005169,"[-5.309442, -3.64237, -3.64237, -3.64186, -0.7234471, -0.5341321, -0.4259467, -0.4259364, -0.344227, -0.3442207, -0.3392435]","[-3.8e-05, 0.012201, -0.337093, -0.0, -0.008512, 0.343153, -0.0, 0.02154, 0.002334, 0.014229, -0.01232, -0.002609, -0.014191, -0.01232, -0.002932, -0.0, -0.002497, -0.001398, 0.000531, 0.000954, -0.000734, -0.00053, 0.000954, -0.000722]",0.62,3.8
aluminum_trichloride,-1622.751852946570,6,1.1e-05,"[-2.786888, -0.8708726, -0.8533421, -0.8533413, -0.4855004, -0.4216528, -0.4216526, -0.3889898, -0.3714398, -0.371439, -0.3654091, -0.3654085, -0.3478068]","[-0.0, -0.000343, -0.0, -0.0, 0.000213, -0.0, -0.00054, 6.5e-05, 0.0, 0.00054, 6.5e-05, -0.0]",0.79,3.4
methanethiol,-438.542079551047,7,0.669302081256,"[-7.991978, -5.928434, -5.924967, -5.91927, -0.8024965, -0.6626133, -0.463491, -0.4449933, -0.4134801, -0.3382244, -0.2488982]","[0.119798, -0.068848, -0.068934, -0.109319, 0.054385, 0.00266, -0.000989, -0.00843, -0.006031, 0.008366, -0.001188, 0.004479, 0.006923, 0.004502, -0.003515, -0.024779, 0.019579, 0.071342]",0.46,2.9
hypochlorous_acid,-535.782345283887,7,0.649190397823,"[-9.570681, -7.308771, -7.294482, -7.29416, -1.107167, -0.8245887, -0.5553972, -0.4676287, -0.4341459, -0.3356554, -0.3020121]","[-0.02631, -0.124285, 0.0, 0.057478, -0.026955, -0.0, -0.031169, 0.151241, 0.0]",0.29,1.6
lithium_hydride,-8.051615725366,6,2.259933,"[-2.022067, -0.199936]","[0.0, 0.0, -0.017796, -0.0, -0.0, 0.017796]",0.01,0.8
monosulfur_monofluoride,-497.788441362859,8,0.356546,"[-24.8183, -8.085528, -6.026948, -6.023628, -6.007904, -1.282401, -0.7551486, -0.5253306, -0.5246217, -0.5075498, -0.3262798, -0.2805233]","[0.0, 0.0, -0.13088, -0.0, -0.0, 0.13088]",0.14,1.4
ammonia,-56.516002724581,6,0.645635000484,"[-14.35676, -0.8763979, -0.4751506, -0.475133, -0.2821019]","[0.000139, 0.009214, 0.047324, 1e-06, 0.052937, -0.013367, -0.047483, -0.031073, -0.016553, 0.047343, -0.031078, -0.017404]",0.06,0.9
boron_monofluoride,-124.578179982229,6,0.385619,"[-24.85287, -6.891766, -1.330872, -0.6408998, -0.5485656, -0.5485656, -0.2951621]","[-0.0, 0.0, -0.574664, 0.0, -0.0, 0.574664]",0.11,0.9
carbon_tetrafluoride,-437.265081141485,6,0.0,"[-10.56932, -1.426455, -1.307181, -1.307181, -1.307181, -0.767539, -0.674893, -0.674893, -0.674893, -0.5387124, -0.5387124, -0.5098989, -0.5098989, -0.5098989, -0.4662258, -0.4662258, -0.4662258]","[-0.0, -1e-06, 2e-06, -0.052304, -0.052304, -0.156252, 0.052305, 0.052305, -0.157188, 0.051779, -0.051779, 0.156251, -0.051779, 0.051779, 0.157187]",0.85,3.6
silicon_diatomic,-578.620468423656,6,3e-06,"[-5.363346, -5.363159, -3.699187, -3.699092, -3.69781, -3.696802, -3.692671, -3.692578, -0.5582719, -0.4023272, -0.2598998, -0.2468554, -0.2222157]","[0.0, 0.0, -0.018361, -0.0, -0.0, 0.018361]",0.1,1.6
acetylene,-77.256488066353,6,0.0,"[-10.23356, -10.23094, -0.7784554, -0.5873052, -0.5137025, -0.3100435, -0.3100435]","[-0.0, -0.0, 0.88938, -0.0, 0.0, -0.887699, 0.0, -0.0, 0.087284, -0.0, 0.0, -0.088965]",0.13,1.5
phosphorus_trichloride,-1721.525104388453,7,0.273381006806,"[-4.861462, -0.938014, -0.8717285, -0.8717233, -0.6341899, -0.4794817, -0.4794779, -0.4394922, -0.3901282, -0.3901265, -0.3563643, -0.3563605, -0.3457134, -0.3055247]","[0.0, -5.7e-05, 0.004137, -0.0, -0.00107, -0.001642, -0.001354, 0.000564, -0.001257, 0.001354, 0.000564, -0.001238]",0.85,3.8
magnesium_monochloride,-660.093522775773,7,1.379692,"[-7.204746, -7.201953, -7.201953, -3.194431, -1.916532, -1.916532, -1.914041, -0.7851506, -0.3549291, -0.3080488, -0.3080488, -0.2127669]","[-0.0, -0.0, 0.007185, 0.0, 0.0, -0.007185]",0.14,1.2
carbon_disulfide,-834.217212059907,7,0.0,"[-5.965984, -5.965984, -5.965984, -0.8855666, -0.7936569, -0.5268213, -0.4467276, -0.4081718, -0.4081718, -0.2891257, -0.2891257]","[0.0, 0.0, 0.0, -0.0, -0.0, 1.346944, 0.0, 0.0, -1.346944]",0.37,2.3
magnesium_monofluoride,-299.802776566289,7,1.261908,"[-46.91537, -24.65425, -3.174512, -1.897162, -1.897162, -1.893786, -1.09049, -0.381552, -0.3511165, -0.3511165, -0.2111593]","[-0.0, -0.0, -0.019308, 0.0, 0.0, 0.019308]",0.08,1.4
methyl_radical,-39.799917356985,6,7e-06,"[-10.2334, -0.7095738, -0.4349163, -0.434916, -0.250764]","[0.000148, -2.8e-05, -0.0, -0.024731, -0.0, 0.0, 0.012292, 0.013356, 0.0, 0.012291, -0.013328, 0.0]",0.05,1.5
ethylene,-78.512723309403,6,0.0,"[-10.22443, -10.22349, -0.7838059, -0.598341, -0.4859977, -0.4326838, -0.3698325, -0.2887916]","[-0.0, 2e-05, 0.674937, 0.0, 2e-05, -0.673305, 0.0, -0.003664, -0.002938, 0.0, 0.003644, -0.002675, 0.0, -0.002481, 0.002122, 0.0, 0.002461, 0.001859]",0.27,2.2
trifluoroacetate_anion,-525.970767195366,10,1.91062183495,"[-10.14224, -1.179061, -1.090029, -1.089835, -0.8825214, -0.8000775, -0.576332, -0.4642677, -0.4461588, -0.4436769, -0.3278159, -0.327536, -0.3178028, -0.2898503, -0.285263, -0.2670574, -0.2607077, -0.2480755, -0.2312702, -0.09507883, -0.08682283, -0.08493111]","[-0.706502, -0.164886, -0.0, 0.055786, -0.046281, 0.0, 0.286852, -0.28067, 0.0, 0.169017, 0.060348, 0.109285, 0.169851, 0.060845, -0.109286, 0.270425, 0.131434, 0.0, -0.245429, 0.23921, 0.0]",2.1,11.3
bromoform,-7760.362155143474,7,0.364813002775,"[-2.676187, -0.9131434, -0.8129764, -0.8129744, -0.6584499, -0.4997275, -0.4606301, -0.4606299, -0.3431642, -0.343162, -0.3182937, -0.3164587, -0.3164576, -0.2992616]","[-0.0, 0.017833, -12.17957, 0.0, 0.002424, -2.483581, 0.0]",4.64,16.6
nitrogen_trifluoride,-353.898972045341,7,0.0671000007452,"[-14.6873, -1.423419, -1.290681, -1.290652, -0.8608917, -0.6647438, -0.6647301, -0.6164184, -0.5234662, -0.5234657, -0.4779922, -0.4779757, -0.4629058, -0.3783338]","[-3e-06, -0.014385, -0.371661, -0.0, -0.237299, 0.134874, -0.180848, 0.125839, 0.11795, 0.180851, 0.125845, 0.118837]",0.43,2.6
phosphorus_tetramer,-1365.021307980725,6,1.96468827044e-05,"[-4.767172, -0.8288212, -0.5595618, -0.5595616, -0.5595544, -0.3632816, -0.3112105, -0.3112072, -0.3112023, -0.2814048, -0.2814018]","[4.1e-05, -0.0, 0.010685, 0.014403, -0.0, -0.003631, -0.007223, -0.012356, -0.003566, -0.00722, 0.012357, -0.003488]",0.92,3.9
phosphorus_monochloride,-801.273631857871,8,0.239925,"[-7.282513, -7.282513, -6.66338, -4.800468, -4.800468, -4.796703, -0.8922302, -0.6220934, -0.4075392, -0.3978978, -0.3978978, -0.2553398, -0.2553398]","[0.0, 0.0, 0.016236, -0.0, -0.0, -0.016236]",0.23,1.8
mercapto_radical,-398.619500694767,7,0.38204,"[-89.03296, -8.030721, -5.974844, -5.963086, -5.955477, -0.7598285, -0.4262875, -0.3393072, -0.2882723]","[0.0, 0.0, 0.016921, -0.0, -0.0, -0.016921]",0.04,1.0
pentane,-197.587028738187,7,0.035009,"[-10.20277, -0.8265881, -0.7731872, -0.6950395, -0.6154017, -0.5911296, -0.4908038, -0.4520865, -0.4450605, -0.417399, -0.4057792, -0.3875051, -0.3638874, -0.3440019, -0.3365826, -0.3293618, -0.3257584]","[3e-05, -7.1e-05, -0.082242, 3.1e-05, -0.007885, 0.086205, -3e-05, 0.007948, 0.086886, -3e-05, -0.055919, -0.044382, 3e-05, 0.055924, -0.044384, -0.01289, -1e-06, -0.00963, 0.012859, -1e-06, -0.009101, -0.01236, -0.000401, 0.009516, 0.012329, -0.000401, 0.009004, 0.012363, 0.000403, 0.009517, -0.012331, 0.000403, 0.009006, -0.0, -0.011815, 0.004247, 0.0, 0.011815, 0.004247, 0.010192, -0.002366, -0.00748, -0.010161, -0.002366, -0.006964, -0.010192, 0.002366, -0.00748, 0.010162, 0.002366, -0.006964]",4.64,22.6
isopropyl_alcohol,-194.206090197861,7,0.649457505755,"[-10.20518, -1.044967, -0.7962492, -0.7122029, -0.6026191, -0.5295524, -0.4695447, -0.4511452, -0.4038244, -0.3931177, -0.3820196, -0.367862, -0.3387242, -0.2876169]","[0.04289, -0.301421, 0.041364, -0.006539, 0.168347, -0.198314, 0.113211, 0.080186, 0.121852, -0.086689, 0.084391, 0.111432, -0.071131, -0.055042, 0.026506, 0.001549, 0.010067, 0.107088, 3e-06, -0.007399, -0.106432, -0.000383, -0.006019, -0.105479, 0.016041, -0.009322, 0.004513, -0.015153, -0.007448, 0.003614, 0.005766, 0.022646, -0.003424, 0.000435, 0.021014, -0.002721]",4.04,13.9
glyoxal_trans,-227.656039134293,7,0.0,"[-10.34886, -1.126269, -1.112433, -0.7400018, -0.6216208, -0.520165, -0.5196998, -0.4831883, -0.4734788, -0.4211559, -0.3564455, -0.2923364]","[-0.259975, 0.032848, -0.0, 0.263206, -0.034451, -0.0, -0.003857, -0.01624, 0.0, 0.00445, 0.016494, 0.0, 0.286131, -0.269378, 0.0, -0.289955, 0.270727, 0.0]",0.67,3.8
ethanol,-154.920589486579,7,0.667605414029,"[-10.2082, -1.043818, -0.7725328, -0.6268324, -0.5294312, -0.4851959, -0.4188632, -0.3955108, -0.3804293, -0.3476925, -0.2865126]","[-0.065389, 0.110414, 8.7e-05, -0.114561, -0.228434, 8.3e-05, 0.187731, 0.131157, 9e-06, 0.042484, -0.009708, 1e-06, -0.015164, 0.000394, 2e-06, -0.008113, -0.02131, 0.018125, -0.008113, -0.021312, -0.018217, -0.009438, 0.019387, 0.010235, -0.009438, 0.019413, -0.010324]",1.01,5.3
nitrogen_monofluoride,-154.349080429281,8,0.042469,"[-24.86167, -14.53811, -1.356433, -0.8424204, -0.5705134, -0.5705134, -0.5406218, -0.3335466, -0.3335466]","[-0.0, 0.0, -1.811752, 0.0, -0.0, 1.811752]",0.09,1.4
vinyl_chloride,-537.989430271069,7,0.562224756425,"[-7.260998, -7.260421, -0.9027493, -0.7746053, -0.604651, -0.5079217, -0.4665225, -0.40222, -0.3869676, -0.329711, -0.2782007]","[0.0, 0.060837, 0.799081, -0.0, 0.004619, -0.753758, 0.0, -0.065274, -0.053254, 0.0, -0.000644, 0.000292, 0.0, -0.007415, 0.004584, -0.0, 0.007877, 0.003055]",0.63,3.8
ammonia_oxide,-131.593503294687,7,2.12343400001,"[-19.11807, -14.52212, -1.079161, -0.8277476, -0.5869447, -0.5869438, -0.4371485, -0.2235852, -0.2235849]","[0.000132, -0.025685, -1.506825, 1e-06, 0.014823, 1.517338, 1e-06, -0.045551, -0.000815, -0.039995, 0.028202, -0.004756, 0.039862, 0.02821, -0.004943]",0.29,2.4
methylenecyclopropane,-155.823677770126,7,0.161553,"[-10.21725, -0.893125, -0.7352192, -0.6326509, -0.5501943, -0.4940614, -0.4846943, -0.4405088, -0.3852109, -0.3272604, -0.3058398, -0.2692248]","[0.0, -0.000141, 0.631164, -0.0, -0.001229, -0.391942, 3.5e-05, -0.027439, -0.094289, -3.5e-05, 0.028507, -0.134802, -0.0, -0.003883, 0.002027, -0.0, 0.003838, 0.002282, -0.012938, -0.012213, -0.003604, 0.012903, -0.012213, -0.003725, 0.013302, 0.012387, -0.003495, -0.013267, 0.012386, -0.003617]",1.64,7.6
oxygen_monofluoride,-174.777541689170,8,0.010876,"[-24.87207, -19.37746, -1.362432, -0.9932562, -0.592458, -0.5870094, -0.5515594, -0.4193365, -0.3619849]","[-0.0, 0.0, -1.100499, 0.0, -0.0, 1.100499]",0.09,1.4
methylamine,-95.779674002624,6,0.521328522225,"[-14.35789, -10.23301, -0.8979124, -0.6786114, -0.50411, -0.453076, -0.4158089, -0.3788574, -0.2503132]","[-0.052305, -0.246481, 7.6e-05, 0.137569, 0.315222, -0.000244, 0.020354, -0.020333, 1e-06, 0.014374, 0.006479, 0.016507, 0.014372, 0.006477, -0.016603, -0.067165, -0.030673, -0.064096, -0.067199, -0.030691, 0.06436]",0.48,2.6
hydrogen_chloride,-460.673510851427,6,0.502643,"[-101.6926, -9.53666, -7.270411, -7.262043, -7.262043, -0.869394, -0.4882746, -0.3479903, -0.3479903]","[0.0, -0.0, -0.154215, -0.0, 0.0, 0.154215]",0.04,1.2
ethanethiol,-477.822604866458,7,0.668130935686,"[-5.916921, -0.8264375, -0.7254396, -0.6203345, -0.4780308, -0.4760826, -0.4062988, -0.3780683, -0.3768818, -0.3393727, -0.2487432]","[0.083555, 0.133522, 8.6e-05, -0.023774, -0.171343, 8.2e-05, -0.063377, 0.050177, 1.1e-05, 0.013505, -0.006497, 2e-06, 0.003494, -0.023864, 0.017833, 0.003492, -0.023872, -0.017925, -0.002869, 0.025562, 0.01961, -0.002868, 0.025582, -0.019699, -0.011157, -0.009268, 0.0]",1.12,6.7
acetamide,-209.061779019301,8,1.54168249782,"[-10.23969, -1.064358, -0.9282265, -0.7591026, -0.6056898, -0.5515068, -0.487663, -0.4637471, -0.422969, -0.4107521, -0.3840977, -0.2915126, -0.2718034]","[0.164632, 0.134032, -0.010726, 0.060817, 0.131835, 0.002262, -0.08791, 0.083499, -0.028404, -0.125672, -0.302942, 0.000851, 0.003036, 0.009552, -0.002469, -0.001905, -0.029151, -0.027085, -0.006389, -0.033823, 0.041168, -0.01321, -0.007072, 0.008952, 0.006601, 0.01407, 0.01545]",1.55,7.9
nitromethane,-244.849020646088,10,1.44989024391,"[-10.29375, -1.272117, -1.096489, -0.8508562, -0.6519595, -0.5780609, -0.5673551, -0.549123, -0.4705141, -0.4570995, -0.340476, -0.3349302, -0.3215444]","[-0.344768, -0.050822, 6.6e-05, -0.268711, -0.00828, 4e-06, -0.022176, 0.028789, 1e-06, 0.003694, 0.016296, 0.021971, 0.003695, 0.016299, -0.022046, 0.309276, -0.495568, 2e-06, 0.318989, 0.493286, 1e-06]",1.15,5.8
hydrogen_sulfide,-399.268780727062,6,0.486013,"[-89.0027, -8.004465, -5.940446, -5.937465, -5.931863, -0.7670368, -0.4617424, -0.3818462, -0.276926]","[-0.0, 9e-06, 0.016064, 0.0, -0.00624, -0.008146, 0.0, 0.006231, -0.007918]",0.07,1.0
monosodium_sulfide,-560.253207460289,7,3.344956,"[-7.921607, -5.866504, -5.850802, -5.849104, -2.285911, -1.198489, -1.197765, -1.195901, -0.6178406, -0.2481857, -0.2196775, -0.2006509]","[-0.0, 0.0, 0.001364, 0.0, -0.0, -0.001364]",0.13,1.5
silicon_nitride,-343.960861366782,12,1.072165,"[-66.26067, -14.41749, -5.365516, -3.699494, -3.697189, -3.697189, -0.8259876, -0.4574295, -0.3343367, -0.3135677, -0.3135677]","[0.0, -0.0, -0.080983, -0.0, 0.0, 0.080983]",0.16,2.0
hydrogen_cyanide,-93.344199575627,7,1.197787,"[-14.4095, -10.27892, -0.9515313, -0.6294783, -0.4041704, -0.3822062, -0.3822062]","[0.0, -0.0, 1.615773, -0.0, -0.0, 0.067968, -0.0, 0.0, -1.683742]",0.18,1.2
carbonyl_sulfide,-511.340968791506,8,0.28721,"[-5.973348, -5.967532, -5.967532, -1.173759, -0.8496374, -0.5735587, -0.4982871, -0.4982871, -0.4897203, -0.3205438, -0.3205438]","[0.0, 0.0, -0.783348, -0.0, -0.0, 1.966655, -0.0, 0.0, -1.183307]",0.56,2.6
chlorine_trifluoride,-759.228778082350,8,0.269468,"[-7.477204, -1.35838, -1.235289, -1.234975, -0.9220308, -0.6410758, -0.6380721, -0.589482, -0.5304624, -0.4825981, -0.4618117, -0.4596991, -0.4386813, -0.411188, -0.3634011]","[-0.0, -0.0, 0.1731, 0.0, -0.0, -0.176245, -0.0, -0.092853, 0.001555, 0.0, 0.092853, 0.001589]",0.41,3.0
ethanol_radical,-154.245555507466,8,0.788927867793,"[-10.28116, -10.21282, -1.056818, -0.7680834, -0.637877, -0.5213484, -0.4786586, -0.4321755, -0.4072029, -0.3972455, -0.3516256, -0.2982885]","[-0.09407, 0.138303, 8.3e-05, -0.208972, -0.252501, 7.6e-05, 0.31203, 0.132514, 8e-06, 0.009552, 0.01606, 0.018607, 0.009552, 0.016069, -0.018689, -0.021747, -0.004945, 2e-06, -0.003171, -0.022751, 0.021306, -0.003175, -0.022749, -0.021394]",0.8,5.7
phosphorus_trifluoride,-640.723603454969,6,0.199115000814,"[-4.862862, -1.33659, -1.282279, -1.282277, -0.7044709, -0.6001157, -0.6001155, -0.5666769, -0.5281028, -0.5281019, -0.4880855, -0.4880852, -0.4716883, -0.3201286]","[-0.0, 0.016978, -0.197841, -0.0, -0.158987, 0.068651, -0.117968, 0.071004, 0.064324, 0.117969, 0.071004, 0.064867]",0.47,2.8
nitrogen_diatomic,-109.443708760055,5,0.0,"[-14.48441, -14.4825, -1.156235, -0.5743433, -0.4843667, -0.4843667, -0.4480153]","[-0.0, 0.0, -2.783106, 0.0, -0.0, 2.783106]",0.05,0.8
acetone,-193.001806344935,7,1.247026,"[-10.2286, -1.064857, -0.7977606, -0.7365054, -0.5541406, -0.4791693, -0.4789245, -0.4706927, -0.4207938, -0.4117783, -0.3942785, -0.3650574, -0.2676856]","[-0.0, -4e-06, 1.566758, 0.0, -5.4e-05, -1.649054, -2.9e-05, -0.07053, 0.03396, 2.9e-05, 0.070584, 0.03341, -0.0, -0.001238, -0.001729, 0.0, 0.001239, -0.00173, 0.00695, -0.001283, 0.004874, -0.006919, -0.001283, 0.004317, -0.006951, 0.001284, 0.004876, 0.006921, 0.001284, 0.004318]",2.98,9.6
glycine_zwitterion,-284.198173077034,8,4.11443301512,"[-10.29192, -1.070929, -1.033534, -0.959849, -0.7667599, -0.6495243, -0.6284211, -0.5414307, -0.5078776, -0.4677048, -0.4331712, -0.3998208, -0.3799054, -0.2519127, -0.2500904, -0.2347665]","[0.028863, 0.06682, 1e-05, 0.226091, -0.032241, 9.3e-05, -0.303867, 0.114854, 1.5e-05, 0.195549, -0.300882, 5e-06, -0.214465, 0.115948, 0.000349, -0.023295, -0.002602, 0.019295, -0.023299, -0.002602, -0.019384, 0.048798, 0.005919, 0.030372, 0.048793, 0.005912, -0.030761, 0.016832, 0.028874, 5e-06]",2.33,11.0
hexane,-236.865421367768,6,0.0,"[-10.20262, -0.8312731, -0.7913256, -0.7295123, -0.6565419, -0.5979617, -0.5914513, -0.4950127, -0.4599339, -0.4503539, -0.4346793, -0.4110871, -0.3937501, -0.3896245, -0.3643959, -0.3514618, -0.3358623, -0.3351928, -0.3285807, -0.3192231]","[0.030616, -0.184533, 7.6e-05, -0.030402, 0.184746, -8.6e-05, 0.110852, -0.102693, 7.2e-05, -0.111832, 0.102178, -8.6e-05, 0.125431, -0.088425, -9.2e-05, -0.124431, 0.088501, -7.8e-05, 0.019725, 0.018592, -2e-06, -0.019706, -0.018582, 1e-06, -0.016472, 0.006292, 0.018415, -0.016474, 0.006298, -0.018505, 0.016489, -0.006259, -0.018401, 0.016492, -0.006265, 0.018489, 0.011822, -0.00648, -0.015077, 0.011827, -0.006484, 0.015176, -0.011764, 0.00644, -0.015055, -0.011771, 0.006445, 0.015153, -0.01241, 0.005758, 0.015799, -0.012416, 0.005763, -0.015898, 0.012208, -0.005642, -0.015446, 0.012215, -0.005648, 0.015543]",7.07,31.1
pyridine,-248.073279643993,8,0.900905,"[-10.24008, -0.9703065, -0.833482, -0.7885628, -0.6525855, -0.6522869, -0.5500768, -0.5003503, -0.4885428, -0.4460847, -0.4222787, -0.418868, -0.3795435, -0.3072927, -0.2820286, -0.2755731]","[0.0, -0.000462, -0.110788, 0.0, 0.000196, 0.134574, 0.0, -0.313173, 0.681641, 0.0, 0.313634, 0.683906, -0.0, 0.074618, -0.633124, -0.0, -0.074818, -0.633626, -0.0, 1e-06, -0.116951, 0.0, -0.011745, -0.000935, 0.0, 0.011751, -0.000937, -0.0, 0.014086, -0.00188, -0.0, -0.014088, -0.001881]",5.29,17.6
silane,-291.761816937613,5,0.0,"[-66.20748, -5.318694, -3.651369, -3.651369, -3.651369, -0.5629154, -0.3627916, -0.3627916, -0.3627916]","[-0.0, 0.0, 2e-06, -0.000957, -0.000957, -0.000867, 0.000957, 0.000957, -0.000847, 0.000957, -0.000957, 0.000866, -0.000957, 0.000957, 0.000847]",0.11,1.6
isobutylene,-157.081312521294,7,0.230876,"[-10.20326, -0.8309772, -0.7141023, -0.6993947, -0.5397559, -0.467114, -0.4585126, -0.4468672, -0.399012, -0.3816575, -0.376481, -0.3510694, -0.2582669]","[-0.0, 1.8e-05, 0.731776, 0.0, -6.9e-05, -0.816943, 2.9e-05, -0.060806, 0.035989, -2.9e-05, 0.060875, 0.036343, 0.0, -0.004474, -0.0019, -0.0, 0.004452, -0.001646, 0.0, -0.004669, -0.002237, -0.007543, -0.001754, 0.005488, 0.007513, -0.001754, 0.004938, -0.0, 0.00467, -0.002238, 0.007545, 0.001755, 0.00549, -0.007515, 0.001755, 0.00494]",2.05,10.6
fluorine_diatomic,-199.403793985017,6,2e-06,"[-24.88076, -24.8807, -1.386279, -1.144128, -0.6234759, -0.5649388, -0.5649388, -0.4347638, -0.4347638]","[0.0, -0.0, -1.012017, -0.0, 0.0, 1.012017]",0.05,0.8
ethylamine,-135.061134169172,7,0.542780907184,"[-10.20922, -0.9048024, -0.7499641, -0.627287, -0.5116898, -0.4519873, -0.4246158, -0.4220955, -0.3722634, -0.3494267, -0.2541304]","[-0.069878, 0.112387, 8.2e-05, -0.110389, -0.222183, -7.8e-05, 0.19347, 0.280547, 0.000283, -0.012755, -0.007414, 1e-06, -0.001251, -0.024344, 0.01772, -0.001251, -0.024351, -0.01781, 4.8e-05, 0.018995, -0.013247, 4.5e-05, 0.018996, 0.013354, 0.000982, -0.076292, 0.060962, 0.000979, -0.076341, -0.061268]",2.86,9.1
aluminum_diatomic,-484.552169729385,7,0.0,"[-56.15822, -4.205027, -4.204979, -2.733585, -2.733585, -2.73355, -2.733546, -2.733546, -2.733115, -0.4008405, -0.2900181, -0.1714705, -0.1714705]","[-0.0, 0.0, -0.018164, 0.0, -0.0, 0.018164]",0.09,1.4
methyl_nitrite,-244.838787460211,8,0.916514122997,"[-10.28968, -1.244566, -1.090971, -0.7939995, -0.6571364, -0.5759373, -0.5364503, -0.5314913, -0.4566345, -0.4388574, -0.3986158, -0.3497257, -0.3040791]","[0.23791, 0.131661, 7.5e-05, -0.018886, -0.310006, 5e-06, 0.09485, 0.563681, 3e-06, 0.023214, -0.016752, 1e-06, 0.001542, -0.02244, 0.015135, 0.001536, -0.022454, -0.015221, -0.340166, -0.323689, 2e-06]",1.14,5.5
isobutane,-158.309926986070,7,0.0551210000091,"[-10.20373, -0.8269417, -0.7004576, -0.7004573, -0.5743215, -0.4778818, -0.4438943, -0.4438938, -0.3935003, -0.3935001, -0.3718523, -0.3377714, -0.3377713, -0.3305828]","[-9.4e-05, 0.010316, -0.161055, -4.3e-05, -0.147691, 0.136763, -0.086634, 0.074437, 0.112216, 0.086753, 0.074447, 0.112415, -1e-06, 0.004106, 0.104922, -1e-06, 0.001658, -0.102515, 0.015257, -0.01662, 0.002267, -0.015218, -0.016618, 0.002527, 0.004098, -0.004422, -0.105304, -0.014387, -0.008656, 0.003513, -0.000814, 0.021057, -0.001994, -0.004096, -0.004422, -0.105301, 0.000833, 0.021014, -0.002237, 0.014348, -0.008606, 0.003783]",2.78,14.5
boron_trifluoride,-324.384674633128,6,8e-06,"[-6.945108, -1.31263, -1.27294, -1.272939, -0.6352766, -0.5980716, -0.5980713, -0.558702, -0.4917152, -0.4917146, -0.4830777, -0.4830775, -0.4507247]","[-1e-06, -0.066975, 0.0, -0.0, -0.221673, -0.0, -0.194299, 0.144324, -0.0, 0.1943, 0.144325, -0.0]",0.38,2.0
nitrosyl_chloride,-589.872071843157,10,0.76335473214,"[-7.251836, -7.250193, -1.340283, -0.8541771, -0.7329806, -0.5891181, -0.5843492, -0.5636286, -0.3378501, -0.3319148, -0.320818]","[0.062897, 0.053466, 0.0, 0.518284, 0.106234, -0.0, -0.581181, -0.159699, 0.0]",0.51,2.8
silicon_monophosphide,-630.519074704893,9,0.649572,"[-5.382117, -4.765125, -4.757667, -4.757667, -3.716826, -3.713851, -3.713851, -0.636397, -0.4427202, -0.3006977, -0.258586, -0.258586]","[0.0, 0.0, -0.032298, -0.0, -0.0, 0.032298]",0.24,1.7
pyrrole,-209.999482047107,8,0.756557,"[-10.20262, -1.004766, -0.7961527, -0.7406126, -0.6097619, -0.5817652, -0.5605349, -0.4433612, -0.4360839, -0.4248261, -0.3984166, -0.3876795, -0.2590867, -0.2244025]","[0.0, -0.000725, -0.331825, 0.0, -2.2e-05, 0.317183, -0.0, 0.174787, 0.536727, -0.0, -0.17437, 0.538905, -0.0, -0.289462, -0.509804, -0.0, 0.289441, -0.50691, 0.0, -0.013029, 0.0022, 0.0, 0.013077, 0.002109, 0.0, 0.02231, -0.024543, 0.0, -0.022007, -0.024042]",4.3,13.1
aluminum_monoxide,-317.455295052071,11,1.690571,"[-56.14861, -19.16861, -4.20287, -2.731641, -2.731641, -2.730379, -0.9165048, -0.3924323, -0.3014871, -0.3014871, -0.2867501]","[0.0, 0.0, -0.071363, -0.0, -0.0, 0.071363]",0.15,1.6
trifluoromethane,-338.059486414341,7,0.568661008618,"[-10.47913, -1.362187, -1.276089, -1.276065, -0.7521254, -0.634868, -0.6268323, -0.6268228, -0.5014603, -0.5014596, -0.4685309, -0.4685191, -0.4456859, -0.4122663]","[-2e-06, -0.04672, -0.4659, -0.0, 0.001546, 0.104513, -0.0, -0.318559, 0.128031, -0.266866, 0.181864, 0.116386, 0.266867, 0.181868, 0.11697]",0.6,3.5
silicon_monofluoride,-389.148298151302,7,0.382077,"[-66.27959, -24.77505, -5.378036, -3.713617, -3.711157, -3.70844, -1.235428, -0.565663, -0.4800473, -0.4746531, -0.3772282, -0.1832721]","[0.0, 0.0, -0.082011, -0.0, -0.0, 0.082011]",0.15,1.6
ethyl_chloride,-539.226032317566,7,0.839318910292,"[-7.238259, -0.8821949, -0.7661287, -0.6397548, -0.4943677, -0.4703046, -0.4257272, -0.3901055, -0.385822, -0.3085959, -0.3070564]","[0.04102, 0.022922, 0.000811, -0.057808, 0.109286, -7.9e-05, 0.037242, -0.127511, -0.004266, -0.017413, -0.008683, -1.2e-05, -0.002861, -0.022624, -0.016983, -0.002842, -0.022598, 0.017112, 0.002213, 0.023942, -0.015032, 0.000448, 0.025265, 0.018449]",0.91,5.9
bicyclo[1.1.0]butane,-155.815272346250,7,0.294703,"[-10.23449, -0.948537, -0.7069122, -0.5926577, -0.5924933, -0.5321624, -0.4410439, -0.4401943, -0.3832601, -0.3393236, -0.327732, -0.2532771]","[-0.279493, -0.000105, 0.082397, 0.282096, -0.000105, 0.053288, -0.00134, -0.222087, -0.163335, -0.00134, 0.222293, -0.164048, -6.4e-05, 0.005435, 0.107855, -6.4e-05, -0.005431, 0.107875, -6.1e-05, 0.009236, -0.005831, -6.1e-05, -0.009231, -0.005833, -0.000406, -2e-06, -0.006416, 0.000734, -2e-06, -0.005953]",1.97,8.6
silyl_radical,-291.113741252994,6,0.0729100000069,"[-66.22031, -5.330469, -3.668265, -3.661237, -3.661237, -0.56016, -0.3712859, -0.3712859, -0.2369984]","[0.0, 0.000344, -0.005712, 0.0, -0.008893, 0.00266, -0.005708, 0.004275, 0.001532, 0.005708, 0.004275, 0.00152]",0.08,1.3
cyclopentane,-196.381088085878,6,0.00866795131505,"[-10.20783, -0.8567168, -0.7247927, -0.7243508, -0.5839972, -0.5745436, -0.4933819, -0.4913688, -0.4250273, -0.4234076, -0.3465275, -0.3457743, -0.3433896, -0.3394537, -0.3323265, -0.3211593]","[-0.137871, 0.14436, -0.208091, -0.000173, -0.216256, -0.097159, 0.228472, -0.067758, -0.016577, 0.12365, 0.194126, 0.14265, -0.186366, -0.062406, 0.174876, 0.010862, 0.02941, 0.07121, 0.001861, -0.016078, 0.007368, -0.011014, 0.002328, -0.008941, -0.019912, -0.000953, 0.019193, 0.000937, -0.024359, -0.078904, 0.014502, 0.017757, -0.001086, -0.017196, 0.018633, -0.003722, 0.003727, 0.001566, 0.099576, 0.009692, -0.00906, -0.100711, -0.021171, -0.011309, 0.000319]",4.6,19.8
dimethyl_sulfoxide,-552.970472211927,8,1.65446842561,"[-6.012037, -1.042848, -0.8226615, -0.7514643, -0.6228886, -0.4985565, -0.4769477, -0.4749653, -0.4432729, -0.4199985, -0.4133892, -0.372766, -0.2893914, -0.2453484]","[-3.6e-05, 0.039507, -0.054515, -2e-06, -0.061268, 0.051116, 0.055558, 0.025955, 0.111763, -0.055522, 0.025958, 0.11143, -0.04161, -0.02506, 0.001319, 0.04161, -0.02506, 0.001319, 0.003878, 0.023265, -0.003821, -0.017602, -0.013281, -0.107397, -0.003877, 0.023266, -0.003821, 0.017604, -0.013281, -0.107393]",1.97,9.7
trifluoroacetic_acid,-526.499418467856,10,0.722379102497,"[-10.40194, -1.386755, -1.296478, -1.293488, -1.182858, -1.093388, -0.8056681, -0.7079274, -0.6518636, -0.6505891, -0.6215173, -0.5425653, -0.525536, -0.5210472, -0.505573, -0.4977605, -0.4801992, -0.4746692, -0.4595011, -0.4386472, -0.3808292, -0.3402759]","[-1.202732, -0.255267, -1e-06, -0.032051, -0.142175, 0.0, -0.234627, 0.187238, 0.0, 0.366637, 0.221304, 0.0, 0.297404, -0.299644, 0.0, 0.397733, 0.123812, 0.360482, 0.398776, 0.124145, -0.360481, 0.00886, 0.040587, 0.0]",2.5,12.8
nitric_oxide,-129.803403681587,8,0.039756,"[-19.34451, -14.52428, -1.281391, -0.7160153, -0.5619093, -0.5297636, -0.5063159, -0.2358617]","[0.0, 0.0, -2.563599, -0.0, -0.0, 2.563599]",0.09,1.0
hydrazine,-111.780840790143,6,1.117979,"[-14.39117, -14.39103, -0.9840408, -0.773992, -0.5256677, -0.5021669, -0.4486983, -0.309368, -0.2491941]","[0.025705, -0.278757, -0.074282, -0.025935, 0.278658, -0.061202, -0.013917, -0.005931, 0.053497, 0.013795, 0.006073, 0.053061, -0.034379, -0.023988, 0.014481, 0.034732, 0.023945, 0.014445]",0.3,2.3
aluminum_carbide,-280.185835141986,10,0.691718,"[-56.15146, -10.2845, -4.200669, -2.73011, -2.73011, -2.727397, -0.6333748, -0.3493722, -0.2665874, -0.2665874, -0.236673]","[-0.0, -0.0, -0.026636, 0.0, 0.0, 0.026636]",0.14,2.7
sulfur_monoxide,-473.196496066776,8,0.66489,"[-89.09515, -19.27993, -8.0883, -6.023862, -6.023862, -6.020957, -1.124823, -0.7091278, -0.480303, -0.480303, -0.4741786, -0.2801614, -0.2801614]","[-0.0, 0.0, -0.078383, 0.0, -0.0, 0.078383]",0.16,1.4
hydroxymethyl_radical,-114.979530991800,8,0.59504834093,"[-19.24087, -10.27048, -1.087529, -0.6959716, -0.5465749, -0.467982, -0.424434, -0.3715164, -0.2018238]","[-0.318185, -0.023877, 0.014308, 0.309579, 0.072435, -0.002464, 0.050007, -0.044881, -0.017372, -0.020004, -0.025818, 0.001397, -0.021397, 0.022141, 0.004132]",0.29,2.3
dimethyl_sulfide,-477.821734584181,6,0.643411,"[-5.914362, -0.8206863, -0.7256293, -0.6146942, -0.4560661, -0.4540579, -0.4381858, -0.4202586, -0.3756337, -0.3263908, -0.2310035]","[2.5e-05, 0.004051, 0.016393, -2.5e-05, -0.00403, 0.016318, 0.0, -2.2e-05, -0.044978, 0.0, -0.009581, -0.004594, -0.01087, -0.000123, 0.005589, 0.010844, -0.000122, 0.005138, -0.0, 0.009581, -0.004595, 0.010871, 0.000123, 0.00559, -0.010845, 0.000123, 0.005139]",1.01,5.4
beryllium_monochloride,-474.797387358782,7,0.377223,"[-101.6804, -9.525382, -7.255264, -7.252704, -7.252704, -4.129045, -0.8440167, -0.4240661, -0.3570516, -0.3570516, -0.2328547]","[0.0, 0.0, 0.018771, -0.0, -0.0, -0.018771]",0.08,1.1
n_propyl_chloride,-578.502498994955,7,0.869497038597,"[-7.237891, -0.8799687, -0.798989, -0.6888509, -0.613844, -0.499882, -0.4597849, -0.4427254, -0.4261622, -0.3803284, -0.3731884, -0.3577715, -0.3061343, -0.3059144]","[-0.070206, 0.022942, 1.1e-05, -0.000659, -0.132691, 6.3e-05, -0.077465, 0.136928, 7.3e-05, 0.157549, -0.090435, 6.5e-05, -0.007168, 0.030658, 0.031207, -0.007168, 0.030677, -0.031275, 0.005005, -0.024389, 0.025782, 0.005009, -0.024395, -0.025861, -0.007022, 0.0272, 0.028159, -0.00703, 0.027208, -0.028226, 0.009156, -0.003702, 2e-06]",5.42,14.0
chloroform,-1418.873699028686,7,0.483754000103,"[-7.280005, -0.980944, -0.8688511, -0.8688503, -0.6807923, -0.5372415, -0.497785, -0.4977849, -0.3772436, -0.3772427, -0.3499113, -0.3423037, -0.3423033, -0.325203]","[-0.0, 0.003757, -0.213637, 0.0, 0.002367, 0.131009, 0.0, -0.171036, 0.0434, -0.112809, 0.082456, 0.019602, 0.112809, 0.082456, 0.019626]",1.03,4.8
phosphorus_monosulfide,-739.283180881026,12,0.307271,"[-5.960905, -5.959236, -5.959017, -4.793909, -4.79234, -4.787972, -0.7954491, -0.5566618, -0.3601994, -0.3566954, -0.3433199, -0.2124484]","[-0.0, -0.0, 0.073438, 0.0, 0.0, -0.073438]",0.25,2.0
cyclopropane,-117.791361564368,6,1.7e-05,"[-10.21883, -10.21883, -0.876556, -0.6142452, -0.6142379, -0.5102487, -0.4796304, -0.3733439, -0.3733359, -0.3081979, -0.3081912]","[-0.001132, -0.323711, 6.9e-05, -0.26326, 0.157583, 6.4e-05, 0.264096, 0.15617, 6.4e-05, -5.3e-05, 0.02129, 0.028635, 0.017378, -0.008231, 0.029843, -0.017177, -0.00808, 0.029399, -5.3e-05, 0.021286, -0.028704, 0.017373, -0.00823, -0.029907, -0.017171, -0.008078, -0.029463]",1.06,5.3
formyl_radical,-113.766980852033,8,0.693383025233,"[-19.27306, -10.33361, -1.134092, -0.6531136, -0.5235634, -0.4572433, -0.4489748, -0.2478404]","[-0.180913, 0.259708, -0.0, -0.048272, 0.011052, -0.0, 0.229185, -0.270759, 0.0]",0.18,1.4
spiropentane,-195.104460015895,7,0.0,"[-10.21997, -0.9074116, -0.8208666, -0.6207835, -0.6207835, -0.5568756, -0.5001797, -0.4864896, -0.4864896, -0.3841059, -0.370223, -0.361834, -0.2991405, -0.2991405, -0.2838544]","[0.001215, -0.001215, 0.000159, 0.000193, -0.056179, 0.064554, 0.000125, 0.057424, 0.100243, 0.055426, -0.000193, -0.064631, -0.056671, -0.000125, -0.10032, -0.019297, -0.019507, 0.002833, 0.019285, -0.019497, 0.00299, 0.019721, 0.019664, 0.00272, -0.019664, 0.019674, 0.002835, 0.019504, 0.019295, -0.002834, 0.019495, -0.019284, -0.002992, -0.019661, -0.019719, -0.002722, -0.019671, 0.019662, -0.002836]",3.62,16.3
acetonitrile,-132.496538430089,8,1.84348429675,"[-14.38011, -10.29061, -10.27026, -0.9398497, -0.8807906, -0.6079723, -0.5210853, -0.395517, -0.3805947, -0.3544991, -0.298094]","[-0.014176, 0.014484, -0.421568, 0.003594, -0.002037, -1.358193, 0.009314, -0.005287, 1.787875, 0.050613, 0.019236, 0.009823, 0.009037, -0.063707, 0.011754, -0.058384, 0.037311, -0.029692]",0.52,3.0
disilane,-582.347874708983,6,0.0,"[-3.648999, -3.648935, -3.648935, -3.648791, -0.5889405, -0.5227822, -0.3797927, -0.3797848, -0.3535177, -0.353509, -0.3059443]","[-0.0, 0.000728, -0.001934, -0.0, -0.000728, 0.001936, -0.0, -0.007579, -0.005009, 0.004668, 0.003665, -0.003819, -0.004668, 0.003665, -0.003805, -0.0, 0.007577, 0.005009, 0.004667, -0.003664, 0.003818, -0.004666, -0.003664, 0.003805]",0.51,3.6
methylene_chloride,-959.411400575409,7,0.698517,"[-7.265021, -0.9339981, -0.8526297, -0.6925045, -0.520878, -0.4828493, -0.4646566, -0.3489081, -0.3454037, -0.3265356, -0.3230476]","[-3e-05, -0.0, -0.052183, 0.031717, 0.0, -0.020947, -0.031687, 0.0, -0.020445, -0.0, -0.052146, 0.046768, -0.0, 0.052146, 0.046806]",0.65,3.2
methlidyne_radical,-38.437451199055,6,0.599975,"[-10.33502, -0.6673814, -0.3344671, -0.2736762]","[0.0, -0.0, -0.072718, -0.0, 0.0, 0.072718]",0.03,0.9
trifluoro_acetonitrile,-430.201451235445,8,0.589839000003,"[-10.30932, -1.406651, -1.315796, -1.315796, -0.9840943, -0.8212094, -0.7050137, -0.6708649, -0.6708647, -0.5393876, -0.5393874, -0.50637, -0.5063699, -0.4946352, -0.4802524, -0.4254659, -0.4071481, -0.407148]","[-2e-06, -0.066829, -0.845284, -0.0, 0.007031, -1.461912, -0.0, 0.001501, 1.988951, -0.0, -0.309588, 0.113204, -0.268201, 0.183941, 0.102244, 0.268203, 0.183945, 0.102797]",1.4,7.0
acetyl_radical,-153.063356658914,8,1.05426467867,"[-19.24834, -10.32582, -10.25639, -1.115724, -0.7924754, -0.5727741, -0.4907593, -0.4821903, -0.4777293, -0.4078068, -0.4075, -0.2206237]","[0.137004, 0.032301, 9.2e-05, 0.204118, -0.059033, 5e-06, -0.007514, 0.017787, 1e-06, -0.021885, 0.000891, 0.017692, -0.021886, 0.000894, -0.017793, -0.289837, 0.00716, 2e-06]",0.5,3.7
silylene_t,-290.467118534589,7,0.051986,"[-66.24362, -5.349533, -3.685935, -3.685316, -3.678515, -0.5484182, -0.3859345, -0.2763326, -0.2121103]","[0.0, -0.0, 0.004322, 0.0, 0.005865, -0.002157, -0.0, -0.005865, -0.002164]",0.06,1.1
oxygen_water,-152.769899900537,7,1.0123099896,"[-19.23271, -19.17253, -1.07011, -1.00955, -0.5768829, -0.5240252, -0.4383008, -0.3811113, -0.3554626, -0.3039189]","[0.18379, -0.164988, -0.247396, 0.037659, -0.086356, 0.024373, -0.155238, 0.113596, 0.262457, -0.024636, 0.045613, -0.0146, 0.039404, 0.014307, -0.014587, -0.080979, 0.077828, -0.010247]",0.17,2.3
chlorine_monofluoride,-559.775560043361,7,0.382258,"[-9.608956, -7.349101, -7.331647, -7.331647, -1.279807, -0.8607448, -0.5583308, -0.5121396, -0.5121396, -0.3485897, -0.3485897]","[0.0, -0.0, -1.137509, -0.0, 0.0, 1.137509]",0.14,1.5
sodium_hydride,-162.746759300510,6,2.437422,"[-38.52795, -2.255547, -1.16776, -1.16776, -1.164568, -0.188185]","[0.0, 0.0, 0.00033, -0.0, -0.0, -0.00033]",0.02,1.1
nitrogen_tribromide,-7776.308166516716,10,0.248693000032,"[-2.69031, -0.9917264, -0.822298, -0.8222976, -0.7038911, -0.4888921, -0.4888918, -0.4447799, -0.3536944, -0.3536942, -0.3187607, -0.3187604, -0.3039849, -0.2900111]","[-0.0, 0.004493, -17.452406, 0.0]",3.5,15.1
phosphorus_pentafluoride,-840.372352922054,7,1.1e-05,"[-4.977162, -1.382221, -1.318081, -1.318078, -1.278601, -1.246447, -0.7433324, -0.6448352, -0.6448347, -0.6309295, -0.5728615, -0.5728596, -0.5515908, -0.5515885, -0.5248273, -0.5102133, -0.4883816, -0.4729239, -0.4729234, -0.4476363, -0.4476356]","[0.0, 0.006129, -0.0, 0.0, -0.237603, -0.0, -0.203872, 0.110464, -0.0, 0.203872, 0.110464, -0.0, -0.0, 0.005273, 0.099391, -0.0, 0.005273, -0.099391]",1.49,6.3
aminyl_radical,-55.836032089978,7,0.757133,"[-14.41195, -0.8836679, -0.490367, -0.3451828, -0.3387692]","[0.0, 0.000121, 0.015599, -0.0, -0.041021, -0.008551, -0.0, 0.0409, -0.007048]",0.04,1.1
allene,-116.549716670985,7,0.0,"[-10.24895, -10.22963, -10.22958, -0.817333, -0.7280266, -0.5396855, -0.4678103, -0.4607802, -0.4607802, -0.2841077, -0.2841077]","[0.0, 0.0, -5e-05, 0.0, 2e-05, 0.751281, 2e-05, 0.0, -0.751232, 0.0, 0.001089, 0.00071, 0.0, -0.00111, 0.000957, 0.001089, 0.0, -0.000709, -0.001109, 0.0, -0.000956]",0.56,3.4
methane,-40.475423933200,5,0.0,"[-10.19874, -0.7146697, -0.4042004, -0.4042004, -0.4042004]","[6.3e-05, 3.9e-05, -0.0, -0.003081, -0.003081, -0.004169, -0.00307, 0.003061, 0.00413, 0.003049, -0.003058, 0.00365, 0.003038, 0.003038, -0.003611]",0.08,1.4
carbon_monosulfide,-436.051963541792,8,0.725684,"[-89.05071, -10.32846, -8.054263, -5.9865, -5.9865, -5.98542, -0.8615058, -0.5411493, -0.3717855, -0.3717855, -0.3273741]","[0.0, 0.0, -1.076551, -0.0, -0.0, 1.076551]",0.16,1.4
sulfur_hexafluoride,-996.768490424388,6,0.0,"[-6.303002, -1.457027, -1.331442, -1.331442, -1.331442, -1.277975, -1.277975, -0.8460101, -0.7007479, -0.7007479, -0.7007479, -0.598243, -0.598243, -0.598243, -0.5589187, -0.5589187, -0.5048954, -0.5048954, -0.5048954, -0.5024282, -0.5024282, -0.5024282, -0.4585829, -0.4585829, -0.4585829]","[-0.0, -0.0, -5.7e-05, -0.0, -0.0, 0.156578, -0.0, -0.242819, -0.000408, -0.24282, -0.0, -0.000408, -0.0, 0.24282, -0.000408, 0.24282, -0.0, -0.000408, -0.0, -0.0, -0.154889]",2.44,8.3
nonane,-354.700604140656,7,0.034966,"[-10.2025, -0.8378076, -0.817892, -0.7852728, -0.7417518, -0.6905276, -0.6374692, -0.5981367, -0.592178, -0.5871129, -0.5009554, -0.4828026, -0.4544897, -0.4499093, -0.4434186, -0.4196915, -0.414553, -0.4142358, -0.3840377, -0.380711, -0.3600675, -0.3542558, -0.3507265, -0.3388235, -0.3355928, -0.3320547, -0.3283058, -0.3280137, -0.307505]","[3e-05, -7.3e-05, -0.09004, 3.1e-05, -0.003442, 0.089836, -3e-05, 0.003503, 0.090572, 3e-05, -0.006955, -0.08874, -3e-05, 0.00696, -0.088741, -3.1e-05, -0.01123, 0.091107, 3.1e-05, 0.011233, 0.091107, -3e-05, -0.063816, -0.046534, 3e-05, 0.063817, -0.046535, -0.016041, -1e-06, -0.010284, 0.01601, -1e-06, -0.009756, -0.01576, -8.3e-05, 0.010163, 0.015729, -8.3e-05, 0.009637, 0.015762, 8.5e-05, 0.010164, -0.015731, 8.5e-05, 0.009638, -0.01524, -0.000264, -0.010033, 0.015209, -0.000264, -0.009508, 0.01524, 0.000264, -0.010033, -0.015209, 0.000264, -0.009508, 0.014263, -0.000577, 0.009931, -0.014231, -0.000577, 0.009425, -0.014263, 0.000578, 0.009931, 0.014232, 0.000578, 0.009425, -0.0, -0.013672, 0.004553, 0.011766, -0.002554, -0.007839, -0.011735, -0.002554, -0.007326, 0.0, 0.013672, 0.004553, -0.011766, 0.002554, -0.007839, 0.011735, 0.002554, -0.007326]",18.44,80.0
furan,-229.843477730740,7,0.258536,"[-10.22467, -1.143308, -0.8266859, -0.7692563, -0.6188903, -0.5904258, -0.5631574, -0.4719299, -0.4616205, -0.4263448, -0.4126414, -0.3916979, -0.2985004, -0.245857]","[0.0, -0.000898, -0.109064, 0.0, 0.1481, 0.682274, -0.0, -0.147565, 0.685616, 0.0, -0.319411, -0.603846, -0.0, 0.319453, -0.597687, -0.0, -0.011836, -0.000655, 0.0, 0.011879, -0.000743, 0.0, 0.022389, -0.028183, 0.0, -0.022112, -0.027712]",3.65,10.6
methanol_radical,-114.967309887423,8,0.820454394068,"[-19.25355, -10.2777, -1.056446, -0.699849, -0.505849, -0.4787599, -0.4534908, -0.3562969, -0.3078602]","[0.050134, 0.346122, 5.4e-05, 0.012927, -0.346717, 4e-06, -0.028524, 0.018865, 1e-06, -0.017263, -0.009129, 0.018814, -0.017274, -0.009141, -0.018873]",0.28,2.4
sodium_lithium,-169.674394487382,6,0.151282,"[-38.51837, -2.244095, -2.026245, -1.155552, -1.155552, -1.155479, -0.1359884]","[0.0, 0.0, 0.00076, -0.0, -0.0, -0.00076]",0.04,0.8
ethylene_oxide,-153.673940837148,7,0.767967,"[-10.27489, -10.27449, -1.108054, -0.7015481, -0.6555548, -0.5352404, -0.5014351, -0.4138021, -0.4008254, -0.3336525, -0.2917765]","[-0.0, -0.002129, 0.866353, -3e-05, 0.223189, -0.418277, 3e-05, -0.221474, -0.44432, 0.015793, -0.019458, -0.000986, -0.015762, -0.019458, -0.001017, -0.016335, 0.019665, -0.000861, 0.016304, 0.019665, -0.000892]",0.7,4.0
chlorine_diatomic,-920.103654632625,6,0.0,"[-7.306, -7.306, -7.305991, -7.305991, -0.9636971, -0.7904441, -0.4897981, -0.4281314, -0.4281314, -0.3212208, -0.3212208]","[-0.0, 0.0, 0.024775, 0.0, -0.0, -0.024775]",0.1,1.5
aziridine,-133.812843848570,7,0.693833188659,"[-10.24894, -10.24815, -0.9804263, -0.6790146, -0.6342188, -0.5353273, -0.4837332, -0.3898659, -0.357538, -0.3523829, -0.2637511]","[0.003694, -0.426158, -0.013437, 0.300428, 0.208158, -0.040757, -0.30921, 0.208868, -0.047872, 0.000999, 0.027056, 0.060742, -0.023168, 0.009233, 0.034537, -0.006024, -0.016638, -0.014023, 0.012112, -0.007525, -0.018542, 0.021166, -0.002996, 0.039352]",0.94,5.0
methoxyethane,-194.187032760057,7,0.481003444621,"[-10.20801, -1.060456, -0.7840322, -0.692685, -0.6242056, -0.5021651, -0.4973785, -0.4671622, -0.4332541, -0.3956526, -0.3737526, -0.3644173, -0.33592, -0.2723505]","[0.173609, 0.139419, -2e-06, -0.124466, -0.210212, 6e-05, -0.25883, 0.096357, -6.2e-05, 0.169089, -0.04395, -7.1e-05, 0.01333, 0.007097, 0.014718, 0.013348, 0.00711, -0.014797, 0.000587, 0.030364, -1e-06, 0.016173, 0.011921, -0.017893, 0.016189, 0.011932, 0.017966, -0.012751, -0.013634, -0.022557, -0.01275, -0.013635, 0.022641, 0.006473, -0.022769, -1e-06]",3.85,13.6
ethane,-79.751497736548,6,0.0,"[-10.20669, -10.20645, -0.7729401, -0.6329351, -0.4473975, -0.4473944, -0.3767749, -0.3539427, -0.3539398]","[0.017303, 4e-05, 0.561089, -0.017246, -4e-05, -0.559822, 0.020391, 0.0, -0.004393, -0.011224, -0.013096, -0.000232, -0.011224, 0.013056, 3.5e-05, -0.019617, -0.0, 0.003893, 0.010808, 0.012467, -0.000152, 0.010809, -0.012426, -0.000419]",0.47,2.9
carbon_tetrabromide,-10333.646451528957,7,0.0,"[-2.683405, -0.9352568, -0.8196475, -0.8196475, -0.8196475, -0.6297915, -0.4792641, -0.4792641, -0.4792641, -0.360585, -0.360585, -0.3344207, -0.3344207, -0.3344207, -0.3047677, -0.3047677, -0.3047677]","[-0.0, -0.0, 2e-06, -87.974916, -87.974916, -88.221302, 87.974916, 87.974916, -88.221238, 87.974945, -87.974945, 88.221302, -87.974945, 87.974945, 88.221238]",5.44,16.9
beryllium_diatomic,-29.279897622692,6,0.0,"[-4.105955, -4.105914, -0.3049856, -0.1915756]","[0.0, -0.0, 0.000905, -0.0, 0.0, -0.000905]",0.01,0.6
tetrachloroethylene,-1916.394043569954,8,0.0,"[-7.292294, -0.9941957, -0.9395552, -0.8961518, -0.8725333, -0.7577203, -0.5919204, -0.5346643, -0.5328503, -0.4750835, -0.4612373, -0.4068428, -0.3831824, -0.3745954, -0.3714483, -0.3655247, -0.3592111, -0.329905, -0.2704617]","[-0.0, -0.0, 0.963775, -0.0, 0.0, -0.956537, 0.0, -0.061287, -0.038048, 0.0, 0.061287, -0.038077, 0.0, 0.053211, 0.034428, 0.0, -0.053211, 0.034458]",2.05,8.0
silicon_monoxide,-364.561828725503,7,1.227518,"[-66.25335, -19.18837, -5.359939, -3.694238, -3.694238, -3.687339, -0.9689292, -0.4527386, -0.3486897, -0.3486897, -0.3232823]","[-0.0, 0.0, -0.06747, 0.0, -0.0, 0.06747]",0.17,1.2
trimethylamine,-174.318927046379,7,0.248979028456,"[-10.23513, -0.9485664, -0.7227094, -0.7226908, -0.6059978, -0.4820031, -0.4790464, -0.4790377, -0.4045618, -0.4045537, -0.3752444, -0.3704856, -0.370483, -0.2269428]","[0.009795, 0.010215, 0.036653, 0.18087, 0.18095, -0.086885, -0.278961, 0.098581, -0.112007, 0.098774, -0.279267, -0.112205, -0.004973, -0.004975, 0.098029, 0.002712, -0.002334, 0.094779, -0.002331, 0.002707, 0.094777, 0.01031, -0.004017, -0.001209, -0.004008, 0.010272, -0.001471, -0.009203, 0.014329, 0.000292, -0.011952, -0.005315, -0.005519, -0.00535, -0.011949, -0.005272, 0.014318, -0.009196, 3.7e-05]",4.52,16.8
carbonyl_fluoride,-312.843482574852,8,0.445664,"[-10.49046, -1.382449, -1.31021, -1.150086, -0.7278902, -0.6564705, -0.6082078, -0.5783497, -0.5113593, -0.5027843, -0.4905268, -0.4264639, -0.382666]","[-0.0, -0.0, 2.085007, -0.0, -2e-06, -2.169818, -0.0, 0.090068, 0.042301, 0.0, -0.090066, 0.042511]",0.57,2.9
phosphorus_mononitride,-395.902419700623,9,1.120997,"[-77.2275, -14.41943, -6.651345, -4.786159, -4.786159, -4.781263, -0.8772991, -0.5113426, -0.3497072, -0.3497072, -0.3412299]","[0.0, -0.0, -1.234634, -0.0, 0.0, 1.234634]",0.16,1.6
carbon_tetrachloride,-1878.331752739981,7,0.0,"[-7.291955, -1.015306, -0.8835858, -0.8835858, -0.8835858, -0.6540808, -0.5255859, -0.5255859, -0.5255859, -0.3982493, -0.3982493, -0.3702968, -0.3702968, -0.3702968, -0.3366098, -0.3366098, -0.3366098]","[0.0, 0.0, 0.0, -0.041263, -0.041263, -0.048184, 0.041263, 0.041263, -0.048198, 0.041266, -0.041266, 0.048184, -0.041266, 0.041266, 0.048198]",1.25,5.4
acrylonitrile,-170.680912868827,8,1.60947191838,"[-10.27119, -0.9338958, -0.8464189, -0.683168, -0.5618104, -0.5017577, -0.435847, -0.3999664, -0.3876974, -0.3536265, -0.309252]","[0.041614, 0.069705, -0.0, -0.08223, 0.012141, 0.0, 0.026715, -0.014447, -0.0, 0.024052, -0.000805, -0.0, -0.009423, 0.012913, -0.0, -0.025036, 0.003687, -0.0, 0.024307, -0.083193, 0.0]",0.95,5.0
sodium_hydroxide,-237.979760962793,18,2.568368,"[-38.51991, -19.04127, -2.250217, -1.162797, -1.162797, -1.160261, -0.8362607, -0.3413965, -0.1866114, -0.1866113]","[-0.0, 0.0, 0.406196, 0.0, -0.0, 0.13362, 0.0, -0.0, -0.539816]",0.16,1.7
methylene_t,-39.115791567877,7,0.252494,"[-10.27123, -0.7024387, -0.4698302, -0.2975471, -0.2641656]","[-0.0, 5e-06, 0.002728, -0.0, -0.008948, -0.001279, 0.0, 0.008943, -0.001448]",0.04,0.9
carbon_monophosphide,-379.140614642278,12,0.356775,"[-77.21438, -10.32252, -6.635572, -4.771403, -4.76783, -4.76783, -0.7594948, -0.4817117, -0.3510341, -0.3174071, -0.3174071]","[-0.0, -0.0, -0.834036, 0.0, 0.0, 0.834036]",0.17,1.8
formic_acid,-189.630316332469,8,0.577222427328,"[-19.20541, -10.36649, -1.156806, -1.066376, -0.6867591, -0.5608868, -0.5198743, -0.4785137, -0.4295201, -0.3584408, -0.3080895]","[0.104649, -0.328171, -0.0, 0.225924, 0.158599, 0.0, -0.363983, 0.165431, 0.0, 0.04194, -0.031037, -0.0, -0.00853, 0.035179, -0.0]",0.42,2.5
aluminum_trifluoride,-541.933151095550,6,1.3e-05,"[-2.764925, -1.215111, -1.202892, -1.202891, -0.532148, -0.4902622, -0.4902619, -0.4692932, -0.4578221, -0.457821, -0.4507591, -0.4507588, -0.4330016]","[0.0, 0.00659, 0.0, 0.0, -0.104084, -0.0, -0.086074, 0.048747, -0.0, 0.086074, 0.048747, -0.0]",0.4,2.5
vinyl_radical,-77.829698012566,11,0.284859791213,"[-10.25584, -10.23011, -0.7939747, -0.5985011, -0.4817425, -0.4478171, -0.3024169, -0.2585933]","[-0.00518, -0.156247, -0.0, -0.00194, 0.132767, 0.0, 0.005304, -0.01678, -0.0, 0.017886, 0.020612, 0.0, -0.016069, 0.019648, -0.0]",0.19,3.0
nitrous_oxide,-184.540829308041,7,0.029862,"[-19.30699, -14.61438, -14.48333, -1.281845, -1.119313, -0.6300091, -0.5881177, -0.5881177, -0.4995257, -0.3620352, -0.3620352]","[0.0, 0.0, -1.942296, -0.0, -0.0, -0.241924, -0.0, -0.0, 2.18422]",0.22,1.4
2_butyne,-155.833297447040,6,1.5e-05,"[-10.21115, -0.8020596, -0.7604195, -0.6835951, -0.4905755, -0.4442559, -0.440606, -0.4406049, -0.4270915, -0.4270902, -0.2617237, -0.2617233]","[-0.0, 0.009196, 0.581408, 0.0, 0.0095, -0.575887, -2.9e-05, -0.012395, 0.408637, 2.9e-05, -0.012384, -0.413323, -0.0, -0.002101, 0.002109, -0.002413, 0.002571, 0.00665, 0.002442, 0.002571, 0.006848, 0.0, -0.001906, -0.002387, 0.002582, 0.002474, -0.006929, -0.002611, 0.002474, -0.007127]",1.26,6.3
hydrogen_diatomic,-1.168696130061,4,0.0,"[-0.440792]","[-0.0, 0.0, -0.005228, 0.0, -0.0, 0.005228]",0.0,0.8
beryllium_dihydride,-15.873615950189,5,0.0,"[-4.058083, -0.3607662, -0.3245071]","[-0.0, -0.0, -0.0, 0.0, 0.0, -0.001961, 0.0, 0.0, 0.001961]",0.01,0.9
beryllium_monohydride,-15.224461420715,7,0.116976,"[-4.097353, -0.3569583, -0.2097207]","[0.0, 0.0, -5.1e-05, -0.0, -0.0, 5.1e-05]",0.01,1.1
sodium_monoxide,-237.290855803726,8,3.110378,"[-38.53473, -19.10499, -2.263988, -1.177227, -1.176326, -1.173274, -0.8221233, -0.2825006, -0.2215248, -0.210257]","[-0.0, 0.0, -0.000858, 0.0, -0.0, 0.000858]",0.07,1.4
phosphino_radical,-342.386517102629,6,0.296914,"[-77.19881, -6.618459, -4.75936, -4.751504, -4.748549, -0.6559666, -0.3997201, -0.3226384, -0.2658521]","[-0.0, 2e-06, -3e-05, 0.0, 0.001147, -4.9e-05, -0.0, -0.001149, 7.9e-05]",0.07,1.1
boron_monochloride,-484.818359487041,7,0.624592,"[-101.7347, -9.579906, -7.30951, -7.307172, -7.307172, -6.89503, -0.9128949, -0.5286773, -0.4076065, -0.4076065, -0.2746087]","[0.0, 0.0, -0.437618, -0.0, -0.0, 0.437618]",0.16,1.7
ozone,-225.270424129633,7,0.271493,"[-19.33143, -19.33141, -1.393518, -1.123719, -0.8187617, -0.6188259, -0.6158191, -0.6142032, -0.3820234, -0.3701816, -0.3645865]","[0.0, -1.6e-05, 0.047724, -0.0, 0.110006, -0.022531, -0.0, -0.109991, -0.025193]",0.17,1.3
water,-76.380681361677,6,0.786345,"[-19.20336, -1.042403, -0.5491067, -0.4075127, -0.3312035]","[0.0, 0.000291, 0.035129, 0.0, -0.027264, -0.016514, -0.0, 0.026973, -0.018615]",0.05,1.0
acetate_anion,-228.359478147900,10,1.46185357385,"[-10.03838, -0.8324793, -0.7474292, -0.5496462, -0.3177707, -0.2584774, -0.2508898, -0.2341156, -0.195522, -0.169264, -0.05695625, -0.04652343, -0.04008788]","[0.032312, 0.263149, 7.2e-05, 0.00592, 0.06639, 4e-06, -0.013801, 0.016142, 1e-06, -0.018445, -0.007943, 0.025726, -0.018447, -0.007943, -0.025806, 0.239199, -0.153488, 2e-06, -0.226739, -0.176306, 2e-06]",0.87,6.1
tetrachlorosilane,-2129.880037729808,7,0.0,"[-3.789094, -0.9249378, -0.8751213, -0.8751213, -0.8751213, -0.5735741, -0.4701593, -0.4701593, -0.4701593, -0.3968309, -0.3968309, -0.3853129, -0.3853129, -0.3853129, -0.3552853, -0.3552853, -0.3552853]","[0.0, 0.0, 0.0, 0.000747, 0.000747, 0.000582, -0.000747, -0.000747, 0.000577, -0.000746, 0.000746, -0.000582, 0.000746, -0.000746, -0.000577]",1.33,5.6
oxygen_diatomic,-150.231661881739,6,0.0,"[-19.36819, -19.36797, -1.34397, -0.8717046, -0.5909816, -0.5909816, -0.5737208, -0.3316713, -0.3316713]","[-0.0, 0.0, -3.231433, 0.0, -0.0, 3.231433]",0.04,0.8
heptane,-276.142482350510,6,0.035136,"[-10.20811, -0.8297616, -0.799119, -0.7504866, -0.6891799, -0.6256555, -0.5885293, -0.5874764, -0.4939307, -0.4667755, -0.4445642, -0.4378605, -0.4269377, -0.4106465, -0.3836655, -0.3812058, -0.3679654, -0.3488877, -0.3451221, -0.3328169, -0.3309797, -0.3276596, -0.3141703]","[-2.5e-05, -6.5e-05, -0.104178, -2.5e-05, -0.006452, 0.102563, 2.5e-05, 0.006508, 0.103215, 2.6e-05, -0.007774, -0.105221, -2.6e-05, 0.007778, -0.105223, 2.5e-05, -0.041716, 0.053667, -2.5e-05, 0.041718, 0.053667, 0.007704, -1e-06, -0.004774, -0.007678, -1e-06, -0.004293, 0.007312, -0.000215, 0.004607, -0.007287, -0.000215, 0.004129, -0.007315, 0.000216, 0.004608, 0.007289, 0.000216, 0.004131, -0.006447, -0.000455, -0.004501, 0.006421, -0.000454, -0.004041, 0.006447, 0.000455, -0.004501, -0.006421, 0.000455, -0.004042, 0.0, -0.004979, 0.000376, -0.00393, -0.002042, 0.002589, 0.003904, -0.002042, 0.002128, -0.0, 0.004979, 0.000376, 0.00393, 0.002042, 0.002589, -0.003904, 0.002042, 0.002128]",9.9,41.0
methylene_s,-39.087290100960,6,0.768059,"[-10.29625, -0.6929897, -0.426007, -0.2674701]","[-0.0, 3.4e-05, -0.027809, 0.0, -0.031701, 0.014353, 0.0, 0.031667, 0.013456]",0.04,0.8
octane,-315.421649240500,7,0.0,"[-10.20522, -0.832821, -0.8092337, -0.770641, -0.7200348, -0.6627423, -0.6102632, -0.5900448, -0.5869141, -0.49712, -0.4756006, -0.4499759, -0.4427673, -0.4309248, -0.4262667, -0.4041673, -0.3954835, -0.3688675, -0.3676694, -0.3613152, -0.3411911, -0.3384013, -0.3289521, -0.3287726, -0.3266757, -0.3162983]","[-0.149719, -0.124, 7.9e-05, 0.15072, 0.123373, 7.9e-05, 0.154394, 0.116431, -7e-05, -0.155351, -0.116262, -7e-05, -0.150798, -0.134339, 7.5e-05, 0.150608, 0.134547, 7.5e-05, 0.17963, -0.065933, -7.5e-05, -0.179712, 0.065975, -7.5e-05, 0.013854, 0.006072, 0.01734, 0.013861, 0.006078, -0.017436, -0.013652, -0.005975, 0.017011, -0.013659, -0.005981, -0.017106, -0.013606, -0.006576, -0.017154, -0.013612, -0.006583, 0.017249, 0.013547, 0.006545, -0.017129, 0.013553, 0.006552, 0.017224, 0.014499, 0.005273, 0.01762, 0.014503, 0.00528, -0.017715, -0.014514, -0.00524, 0.017605, -0.014518, -0.005247, -0.017701, -0.000586, -0.022138, -1e-06, -0.017704, -0.009993, -0.021011, -0.017708, -0.009997, 0.021098, 0.000579, 0.022145, -1e-06, 0.017693, 0.009996, -0.021008, 0.017697, 0.009999, 0.021096]",13.91,61.5
beryllium_difluoride,-214.467611359281,6,0.0,"[-24.74637, -24.74637, -4.105902, -1.198296, -1.191135, -0.4946351, -0.4854061, -0.4523287, -0.4523287, -0.4311198, -0.4311198]","[-0.0, -0.0, 0.0, 0.0, 0.0, 0.117995, -0.0, 0.0, -0.117995]",0.07,1.3
dilithium_oxide,-90.207718145826,79,0.000328805413581,"[-19.00592, -1.930015, -1.929838, -0.7363142, -0.1887673, -0.1593955, -0.1593955]","[-0.0, -1e-06, -0.0, -9e-06, 2e-06, 0.278906, 9e-06, -1e-06, -0.278906]",0.06,4.5
thiophene,-552.758813029025,7,0.188258,"[-5.959841, -0.9080745, -0.7584391, -0.7461198, -0.5825002, -0.5717301, -0.5335451, -0.4256939, -0.4090309, -0.4020882, -0.3998988, -0.3592041, -0.2681784, -0.2526557]","[-0.0, -0.000638, 0.078387, -0.0, 0.282456, 0.417539, 0.0, -0.282076, 0.416713, 0.0, -0.319412, -0.430963, 0.0, 0.319345, -0.425025, 0.0, -0.010148, 0.005145, 0.0, 0.010205, 0.005061, -0.0, 0.027968, -0.033682, -0.0, -0.027699, -0.033175]",5.91,13.4
ketene,-152.486489162068,8,0.577252,"[-19.27168, -10.34993, -10.23284, -1.154171, -0.8041177, -0.5632685, -0.5090859, -0.5079876, -0.4758362, -0.4275266, -0.2625748]","[-0.0, 2.1e-05, -0.638283, -0.0, 0.0, -1.242759, 0.0, 0.0, 1.884057, 0.0, 0.004248, -0.001392, -0.0, -0.004269, -0.001623]",0.38,2.6
phosphorus_monofluoride,-440.987972662807,8,0.356954,"[-77.25953, -24.79942, -6.671911, -4.808961, -4.808961, -4.805823, -1.267649, -0.6583782, -0.506299, -0.506299, -0.4723051, -0.2548594, -0.2548594]","[-0.0, -0.0, -0.102042, 0.0, 0.0, 0.102042]",0.15,1.7
boron_diatomic,-49.339994121098,6,5e-06,"[-6.883703, -6.88294, -0.5778161, -0.3108646, -0.2655355, -0.2655355]","[0.0, 0.0, -0.101873, -0.0, -0.0, 0.101873]",0.05,1.5
nitrogen_dioxide,-204.948633337942,7,0.141994,"[-19.32067, -19.32065, -14.63612, -1.326309, -1.176023, -0.708032, -0.6076306, -0.6004424, -0.5951505, -0.4072309, -0.400077, -0.3096474]","[0.0, 1e-05, 0.00958, -0.0, -0.378856, -0.003269, 0.0, 0.378846, -0.006311]",0.2,1.9
argon_dimer,-1054.763278208314,5,0.0,"[-8.730384, -8.730377, -8.730377, -0.9924496, -0.9911793, -0.4465754, -0.4409995, -0.4409995, -0.4391329, -0.4391329, -0.433689]","[-0.0, -0.0, 0.000284, 0.0, 0.0, -0.000284]",0.06,1.4
sodium_diatomic,-324.386469483335,5,0.0,"[-38.52059, -38.52059, -2.246145, -2.246009, -1.158615, -1.157629, -1.157629, -1.157379, -1.157379, -1.156548, -0.1325831]","[0.0, -0.0, 3.8e-05, -0.0, 0.0, -3.8e-05]",0.03,0.9
dimethylamine,-135.048174264926,7,0.419584907584,"[-10.23205, -0.9207773, -0.7191113, -0.6443782, -0.5022784, -0.455417, -0.4471167, -0.3967195, -0.3748739, -0.3739798, -0.2370103]","[0.087273, -0.481831, 0.000315, -0.047002, 0.276375, 0.203454, -0.047082, 0.2763, -0.203745, 0.0027, 0.016502, 8e-06, 0.015836, -0.01197, -0.00021, 0.015817, -0.011956, 0.000201, -0.011436, -0.006804, -0.001454, -0.011419, -0.00679, 0.001445, -0.002344, -0.024909, 0.01457, -0.002344, -0.024915, -0.014582]",2.92,8.8
cyclobutene,-155.834784528888,6,0.067344,"[-10.21992, -0.8820793, -0.6755309, -0.6633612, -0.5289685, -0.5132722, -0.4761069, -0.3940519, -0.3752235, -0.3417286, -0.3269144, -0.2624392]","[0.0, -0.069902, 0.404253, -0.0, 0.069649, 0.389355, 3.2e-05, -0.142986, -0.40972, -3.2e-05, 0.142579, -0.400933, 0.0, 0.003974, 0.008137, -0.0, -0.003549, 0.007493, -0.012511, -0.016888, 0.000343, 0.012901, 0.017006, 0.0006, 0.012478, -0.016889, 0.000108, -0.012868, 0.017007, 0.000365]",1.8,7.9
acetic_acid,-228.929174715041,8,0.716297467848,"[-10.23879, -1.139802, -1.048022, -0.7888141, -0.6329362, -0.5162779, -0.5028573, -0.4923115, -0.4302406, -0.4190497, -0.4129325, -0.3453799, -0.3014871]","[-0.162133, 0.068893, 5e-06, -0.053973, 0.129032, 9e-05, -0.080908, -0.303256, 2e-06, 0.263791, 0.180289, 3e-06, 0.056575, -0.023141, 0.0, -0.01776, -0.006558, 1e-06, -0.002795, -0.022629, 0.019011, -0.002798, -0.022631, -0.019111]",1.09,6.0
hydrogen_fluoride,-100.393158312624,6,0.73792,"[-24.75798, -1.232862, -0.5687634, -0.4325978, -0.4325978]","[0.0, -0.0, -0.484735, -0.0, 0.0, 0.484735]",0.02,0.7
phosphorus_diatomic,-682.456005318767,6,0.0,"[-4.7645, -4.7645, -4.764289, -4.764289, -4.761258, -4.75902, -0.7033809, -0.4783141, -0.3069018, -0.2994274, -0.2994274]","[0.0, -0.0, 0.060173, -0.0, 0.0, -0.060173]",0.12,1.2
sodium_fluoride,-262.022042579684,7,3.153791,"[-38.53125, -24.5497, -2.261255, -1.174056, -1.174056, -1.17258, -0.9717213, -0.2529029, -0.2448971, -0.2448971]","[0.0, 0.0, -0.00473, -0.0, -0.0, 0.00473]",0.08,0.9
lithium_diatomic,-14.963314786153,6,0.0,"[-2.021975, -2.021598, -0.139473]","[0.0, 0.0, 0.001764, -0.0, -0.0, -0.001764]",0.01,0.6
difluoromethane,-238.851531372522,7,0.762517,"[-10.38301, -1.295532, -1.237147, -0.7372372, -0.5759592, -0.5732853, -0.5704135, -0.451437, -0.438744, -0.4294116, -0.3662536]","[-2.1e-05, -1e-06, -0.14651, 0.02685, -0.0, -0.028358, -0.026828, -0.0, -0.027803, -0.0, -0.000627, 0.100876, -0.0, 0.000628, 0.101794]",0.36,2.5
propene,-117.797198314144,7,0.167088560859,"[-10.21654, -10.21126, -0.8100282, -0.7054769, -0.571139, -0.4816506, -0.434728, -0.4269965, -0.3830174, -0.357977, -0.2703196]","[-0.13514, 0.048668, 1e-06, 0.079577, -0.104467, 5e-06, 0.123167, 0.039617, 8.7e-05, -0.012409, 0.022951, 0.0, -0.013154, -0.007552, 0.0, 0.009889, -0.021666, 0.0, -0.006455, 0.017034, 1e-06, -0.022734, 0.002706, 0.01929, -0.022742, 0.002709, -0.019384]",0.91,5.5
difluorine_monoxide,-274.511512591837,7,0.132431,"[-19.43654, -1.382017, -1.270631, -0.9815555, -0.6442885, -0.5999891, -0.5769308, -0.4885278, -0.4750047, -0.4687806, -0.364055]","[-0.0, -1e-06, -0.022234, -0.0, 0.089736, 0.01063, 0.0, -0.089735, 0.011604]",0.17,1.5
phosphorus_monoxide,-416.376771849613,7,0.861466,"[-77.25516, -19.2406, -6.671414, -4.809044, -4.806803, -4.802173, -1.055947, -0.5779962, -0.4282239, -0.409618, -0.4080897, -0.2144964]","[0.0, 0.0, -1.527269, -0.0, -0.0, 1.527269]",0.16,1.4
tert_butyl_radical,-157.652106003502,8,0.102791000486,"[-10.20865, -0.828145, -0.7100641, -0.7100637, -0.5516776, -0.4614155, -0.4532565, -0.4532561, -0.3983055, -0.398305, -0.3770332, -0.3537135, -0.3537132, -0.1885958]","[-0.000101, 0.022355, 0.0283, -3.8e-05, -0.176253, 0.087274, -0.102575, 0.085824, 0.073514, 0.102693, 0.085827, 0.073363, -0.0, 0.020154, -0.084019, 0.016452, -0.018013, -0.001008, -0.016416, -0.018012, -0.000678, 0.021073, -0.014225, -0.085497, -0.015979, -0.007822, 0.001573, -0.000266, 0.021099, -0.004463, -0.021072, -0.014225, -0.085495, 0.000283, 0.021069, -0.004777, 0.015947, -0.007778, 0.001914]",2.37,16.3
lithium_fluoride,-107.348320148359,6,2.440989,"[-24.59264, -2.013009, -1.023049, -0.304778, -0.2903936, -0.2903936]","[-0.0, -0.0, -0.3901, 0.0, 0.0, 0.3901]",0.04,0.9
acetyl_fluoride,-252.933420641021,8,1.17319670283,"[-10.25315, -1.287238, -1.112369, -0.8028725, -0.642114, -0.544902, -0.5348145, -0.5222522, -0.4546501, -0.4495121, -0.4199234, -0.3968624, -0.3328618]","[-0.189057, 0.055494, 6e-06, -0.042118, 0.117834, 0.000106, -0.09702, -0.305692, 2e-06, 0.353648, 0.181179, 4e-06, -0.021474, -0.009446, 2e-06, -0.001987, -0.019685, 0.012337, -0.001992, -0.019683, -0.012457]",1.08,5.0
lithium_hydroxide,-83.308364514110,7,1.694898,"[-19.08305, -1.99428, -0.8732333, -0.3886125, -0.2288166, -0.2288166]","[-0.0, -0.0, -0.265793, 0.0, 0.0, -0.235219, 0.0, 0.0, 0.501012]",0.1,1.3
propyne,-116.546313348880,7,0.334876000215,"[-10.24838, -10.22682, -10.20958, -0.8050689, -0.7225831, -0.5436336, -0.4636441, -0.4500841, -0.4500701, -0.2831425, -0.2831408]","[3.1e-05, -0.012215, -0.366299, 0.0, 0.00791, -0.667247, 0.0, 0.001401, 0.940551, 0.0, 7.8e-05, 0.090669, 0.0, -0.008512, 0.003869, -0.002497, 0.005669, -0.000669, 0.002466, 0.005669, -0.000874]",0.54,3.3
aluminum_monosulfide,-640.386253327740,9,1.578106,"[-5.908014, -5.900569, -5.900569, -4.226221, -2.754668, -2.754668, -2.754156, -0.6881864, -0.3833161, -0.2724051, -0.2673644, -0.2673644]","[0.0, 0.0, 0.006967, -0.0, -0.0, -0.006967]",0.25,1.8
boron_monocarbide,-62.595081622970,11,0.593626,"[-10.31909, -6.888504, -0.7244842, -0.3948031, -0.3204632, -0.3204632, -0.3001838]","[0.0, -0.0, -0.362826, -0.0, 0.0, 0.362826]",0.1,1.3
boron_trichloride,-1405.158700709133,7,9.1e-05,"[-6.935875, -0.9230452, -0.8728565, -0.8728484, -0.5511876, -0.476306, -0.4763011, -0.4300121, -0.3700113, -0.3700095, -0.3646953, -0.36469, -0.3368608]","[0.0, 0.008978, -0.0, 0.0, -0.130792, 0.0, -0.060263, 0.060907, 0.0, 0.060263, 0.060907, 0.0]",0.68,3.5
ethyl_radical,-79.083401714428,7,0.129607865336,"[-10.22672, -10.21411, -0.781588, -0.6292008, -0.4668266, -0.4300537, -0.4054706, -0.3697346, -0.2192582]","[0.044413, 0.151362, 7.7e-05, -0.001535, -0.196384, -4.6e-05, -0.020314, 0.019687, 1e-06, -0.016003, -0.007275, 0.018761, -0.016003, -0.007277, -0.018847, 0.00472, 0.019942, -0.029146, 0.004721, 0.019945, 0.029198]",0.36,8.3
magnesium_hydroxide,-275.765173682784,17,0.4488,"[-46.89684, -19.12713, -3.156424, -1.878967, -1.878967, -1.875911, -0.9323341, -0.4609464, -0.2804595, -0.2804595, -0.1980653]","[0.0, 0.0, 0.23568, -0.0, -0.0, 0.36552, 0.0, 0.0, -0.6012]",0.17,3.8
hydrogen_peroxide,-151.453280029139,6,0.650959,"[-19.26812, -19.26805, -1.155858, -0.9382469, -0.5396335, -0.5297384, -0.4492816, -0.3572083, -0.3056763]","[0.099919, -0.212045, 0.033961, -0.100136, 0.212058, 0.03255, -0.15423, -0.038066, -0.033198, 0.154446, 0.038054, -0.033313]",0.12,1.3
propane,-119.030001214096,6,0.0348300397358,"[-10.20331, -0.8028235, -0.7000641, -0.6009656, -0.4703443, -0.4480783, -0.4114947, -0.3925667, -0.3481578, -0.3452845, -0.3369662]","[0.000146, -0.154688, 5e-05, 0.079861, 0.107326, 8.5e-05, -0.080001, 0.107303, -6.1e-05, 1e-06, 0.022061, 0.01364, -4.1e-05, 0.022078, -0.013723, 0.013416, -0.006896, 2e-06, -0.01339, -0.006869, 3e-06, -0.002739, -0.022573, 0.015133, -0.002741, -0.022582, -0.015229, 0.002734, -0.022575, -0.015129, 0.002754, -0.022585, 0.015229]",1.3,7.1
butane,-158.308673688625,7,0.0,"[-10.2047, -0.8175485, -0.7441623, -0.6470563, -0.5911912, -0.4827568, -0.4390948, -0.4324239, -0.4225799, -0.3787324, -0.3596347, -0.3440943, -0.3321004, -0.3306877]","[0.031204, -0.184341, 6.9e-05, -0.12151, 0.09453, -7.9e-05, 0.122282, -0.085347, -7.9e-05, -0.031903, 0.174551, 6.9e-05, -0.016537, -0.017164, 1e-06, 0.016834, 0.017204, 1e-06, -0.017509, 0.00747, 0.020781, -0.017513, 0.007475, -0.020865, 0.017322, -0.00741, 0.020493, 0.017325, -0.007415, -0.020578, 0.013692, -0.006837, -0.017495, 0.013698, -0.006842, 0.017588, -0.013689, 0.00706, -0.017579, -0.013696, 0.007065, 0.017672]",2.64,15.0
carbon_dioxide,-188.462812910449,6,0.0,"[-19.28871, -19.28869, -10.41389, -1.197358, -1.155678, -0.5897385, -0.5444422, -0.5409825, -0.5409825, -0.394322, -0.394322]","[0.0, 0.0, -7e-06, 0.0, -0.0, 1.799636, -0.0, 0.0, -1.799628]",0.19,1.3
magnesium_monohydride,-200.519128564658,7,0.494497,"[-46.90257, -3.159858, -1.88249, -1.88249, -1.878384, -0.3028643, -0.1806611]","[-0.0, -0.0, 0.002405, 0.0, 0.0, -0.002405]",0.01,0.8
cyclopropene,-116.516697971533,7,0.181118,"[-10.23907, -10.23777, -10.23302, -0.8954284, -0.619675, -0.5836357, -0.5201357, -0.4525349, -0.3626205, -0.3101922, -0.2666202]","[2e-05, -0.001218, 0.381951, 0.0, 0.169809, -0.155265, 0.0, -0.169151, -0.211563, 0.0, -0.014519, -0.004074, 0.0, 0.015205, -0.003595, -0.002549, -6.3e-05, -0.003826, 0.002529, -6.3e-05, -0.003628]",0.65,3.5
cyclobutane,-157.071587972450,6,0.0,"[-10.21381, -0.8678615, -0.672088, -0.672088, -0.5629198, -0.4903715, -0.4902882, -0.3930467, -0.3930467, -0.3643113, -0.3234684, -0.3158123, -0.3158123]","[0.000238, -0.234784, -0.116514, 0.000238, 0.235256, -0.117109, 0.234707, -0.000238, 0.116603, -0.235179, -0.000238, 0.117199, 5e-06, -0.010638, 0.003386, 6e-06, 0.030032, 0.084759, 5e-06, 0.010653, 0.003393, 6e-06, -0.030021, 0.084738, 0.010262, -5e-06, -0.003348, -0.029838, -6e-06, -0.084886, -0.010277, -5e-06, -0.003355, 0.029826, -6e-06, -0.084865]",2.42,11.5
silylene_s,-290.490924582553,5,0.118682341016,"[-66.24143, -5.344464, -3.683311, -3.674421, -3.671863, -0.5237557, -0.3413194, -0.2506706]","[-0.0, 0.006413, -0.005867, 0.0, -0.001009, 0.005125, 0.0, -0.005403, 0.000742]",0.06,0.9
aluminum_monohydride,-242.862945401728,5,0.01807,"[-56.13801, -4.18662, -2.717065, -2.717065, -2.709417, -0.3765604, -0.2131879]","[-0.0, -0.0, 0.003902, 0.0, 0.0, -0.003902]",0.04,0.9
beryllium_oxide,-89.819460632263,10,2.531601,"[-19.1213, -4.097164, -0.8683898, -0.3058303, -0.2706452, -0.2706452]","[0.0, 0.0, -0.107407, -0.0, -0.0, 0.107407]",0.04,0.8
