,Energy,Iterations,Dipole Moment,Eigens,Derivatives,Derivative Time,Wall Time
bicyclo[3.1.0]hexane,-234.446515226396,7,0.075962211724,"[-10.21519, -0.9059631, -0.7819445, -0.7261919, -0.6375017, -0.5690998, -0.5592792, -0.5260755, -0.4758995, -0.4472017, -0.4188033, -0.4043784, -0.362972, -0.347778, -0.3459713, -0.3379786, -0.2894476, -0.2770405]","[-0.008963, 0.017264, -7.7e-05, 0.049857, 0.02492, -0.000288, 0.01114, -0.035723, -0.00378, 0.011188, -0.036021, 0.003811, -0.016015, 0.014457, 0.176074, -0.027406, 0.011878, -0.175761, 0.000705, 0.002325, -1.4e-05, 0.002432, -0.001154, -1.4e-05, 0.000734, -0.000567, -7e-06, -0.000652, -0.001252, -5e-06, -0.006241, 0.001108, 0.008467, -0.006231, 0.001086, -0.008454, -0.0033, -0.001617, -0.001471, -0.003284, -0.001595, 0.001471, -0.001946, 0.002399, 0.000523, -0.002019, 0.002492, -0.000475]",56.93,351.6
phosphine,-343.027521235578,6,0.259566000031,"[-77.18106, -6.602606, -4.737175, -4.737175, -4.733502, -0.6626588, -0.396466, -0.3964643, -0.2893506]","[0.0, -9.9e-05, 0.007711, 0.0, -0.009936, -0.003635, 0.007176, 0.005017, -0.002028, -0.007176, 0.005017, -0.002049]",0.72,4.8
beryllium_sulfide,-412.750759479746,9,2.159893,"[-88.95133, -7.950892, -5.883962, -5.882184, -5.882184, -4.137853, -0.6604962, -0.3169464, -0.2527404, -0.2527404]","[-0.0, -0.0, -0.176883, 0.0, 0.0, 0.176883]",0.61,4.0
lithium_oxide,-82.618909508021,7,2.572272,"[-19.13257, -2.013963, -0.8545107, -0.3111561, -0.2552902, -0.2400554]","[0.0, 0.0, -0.150063, -0.0, -0.0, 0.150063]",0.3,2.6
carbon_monoxide,-113.237358002627,6,0.039174,"[-19.31517, -10.34525, -1.197466, -0.5995133, -0.495949, -0.495949, -0.3948932]","[0.0, 0.0, -0.940101, -0.0, -0.0, 0.940101]",0.92,3.4
magnesium_oxide,-275.069339848026,12,3.032185,"[-46.91022, -19.11177, -3.170967, -1.892852, -1.892852, -1.890558, -0.8132665, -0.2524145, -0.2233131, -0.2233131]","[-0.0, -0.0, 0.088454, 0.0, 0.0, -0.088454]",0.6,4.0
aluminum_nitride,-296.898328131029,11,1.08512,"[-56.15323, -14.41608, -4.202973, -2.733002, -2.730741, -2.730012, -0.7901847, -0.3851719, -0.3318483, -0.2783314, -0.266311]","[0.0, 0.0, 0.059513, -0.0, -0.0, -0.059513]",1.12,9.7
imidogen,-55.183502328108,7,0.608567,"[-14.46442, -0.874773, -0.4212236, -0.3590903, -0.3590903]","[-0.0, 0.0, -0.039421, 0.0, -0.0, 0.039421]",0.19,2.1
methyl_formate,-228.918259764633,8,0.756708045756,"[-10.28501, -1.144292, -1.05578, -0.7656746, -0.6224784, -0.5554251, -0.5078213, -0.5003864, -0.4428197, -0.4167453, -0.3882062, -0.3338365, -0.3086673]","[0.024246, -0.014817, 0.0, -0.014212, 0.019682, -0.0, -0.005412, 0.035819, 0.0, -0.010868, -0.018202, 0.0, 0.003952, -0.001436, 0.0, -0.003126, -0.002149, 0.0, 0.002711, -0.009448, 0.013022, 0.00271, -0.009449, -0.013022]",9.01,52.6
hypochlorite,-535.141135782445,10,0.506639,"[-19.31073, -9.615871, -7.35006, -7.346159, -7.337829, -1.134197, -0.8191173, -0.5110129, -0.508567, -0.4686433, -0.3468191, -0.306433]","[0.0, -0.0, -0.233438, -0.0, 0.0, 0.233438]",1.22,7.0
methanol,-115.647430722766,7,0.65810993871,"[-19.20615, -10.2652, -1.047462, -0.7044124, -0.5236118, -0.4556438, -0.4444751, -0.3524129, -0.2921482]","[-0.024466, -0.02036, -0.0, 0.005584, 0.012968, 0.0, -0.000234, 0.004408, 0.0, 0.009922, 0.00206, 0.013599, 0.009924, 0.002061, -0.013598, -0.00073, -0.001136, 0.0]",2.9,16.4
vinyl_fluoride,-177.716933511408,7,0.543648977706,"[-10.31527, -10.23142, -1.25964, -0.7978894, -0.6346337, -0.5501453, -0.5031591, -0.4838996, -0.4293297, -0.395161, -0.2852612]","[-0.059944, -0.040002, -0.0, 0.001495, 0.007975, 0.0, 0.066777, 0.042299, 0.0, -0.004013, -0.005151, -0.0, -0.002081, -0.00301, 0.0, -0.002234, -0.00211, -0.0]",4.11,20.4
formaldehyde,-114.426386250657,7,0.944995,"[-19.22944, -10.32735, -1.095571, -0.6585991, -0.5163772, -0.474465, -0.4219833, -0.2896532]","[0.0, 0.0, 0.622765, -0.0, -0.0, -0.617036, 0.0, 0.001443, -0.002861, 0.0, -0.001443, -0.002868]",2.01,7.8
sulfur_diatomic,-796.141353170417,7,0.0,"[-5.987201, -5.987201, -5.987137, -5.987137, -5.985452, -5.984582, -0.8648449, -0.653592, -0.4157998, -0.3969373, -0.3969373, -0.261027, -0.261027]","[-0.0, -0.0, 0.199093, 0.0, 0.0, -0.199093]",0.82,5.0
acetaldehyde,-153.723071961409,7,1.16609128859,"[-10.32381, -10.23935, -1.074922, -0.7828242, -0.6055029, -0.4997957, -0.4644184, -0.4563438, -0.4152438, -0.3823898, -0.2784025]","[-0.017647, 0.00111, 0.0, 0.00579, -0.014495, 0.0, 0.026555, 0.015817, -0.0, 0.00037, -0.003015, 0.0, 0.001107, 0.000882, 0.0, -0.008087, -0.00015, 0.011018, -0.008087, -0.00015, -0.011018]",5.33,28.2
boron_monosulfide,-422.824991669618,11,0.344438,"[-89.00919, -8.010838, -6.892307, -5.944528, -5.941605, -5.941605, -0.7621112, -0.4498924, -0.3237386, -0.3215017, -0.3215017]","[0.0, -0.0, -0.127631, -0.0, 0.0, 0.127631]",1.28,7.4
beryllium_monofluoride,-114.543346702785,7,0.461186,"[-24.74709, -4.106797, -1.19616, -0.4908264, -0.4415017, -0.4415017, -0.2360065]","[-0.0, -0.0, -0.273463, 0.0, 0.0, 0.273463]",0.31,2.5
phosphorus_tribromide,-8063.062809851785,8,0.136007,"[-2.677366, -0.8711501, -0.8120274, -0.8120274, -0.618377, -0.4425216, -0.4425215, -0.4041295, -0.3529953, -0.3529952, -0.322056, -0.322056, -0.3127281, -0.2904895]","[-1e-06, -0.004202, -36.441965, -1e-06]",19.31,63.7
sulfur_dioxide,-548.436089407364,7,0.648906,"[-6.091548, -6.088312, -1.182922, -1.089538, -0.6602564, -0.5178115, -0.5176707, -0.5164263, -0.3992759, -0.3850731, -0.3532653]","[0.0, 0.0, 0.003724, -0.0, 0.020542, -0.00177, 0.0, -0.020542, -0.001954]",2.79,10.8
methanethiol_radical,-437.909251736014,7,0.682087079529,"[-10.25893, -8.012721, -5.955967, -5.945236, -5.937408, -0.8095522, -0.6519316, -0.460854, -0.4535336, -0.3863778, -0.3016393, -0.2562627]","[0.002115, -0.000286, -0.013727, 0.004446, 0.000161, -0.003698, -0.01239, -6.2e-05, 0.023231, 0.002972, -0.002947, -0.002871, 0.002858, 0.003133, -0.002935]",3.05,16.3
hydroxyl_radical,-75.692397762187,7,0.654675,"[-19.28329, -1.054707, -0.4998856, -0.4451002, -0.3662402]","[-0.0, 0.0, -0.07621, 0.0, -0.0, 0.07621]",0.21,1.9
lithium_monosulfide,-405.567580538577,6,2.758627,"[-88.93859, -7.936125, -5.880657, -5.864235, -5.863762, -2.046878, -0.6360084, -0.2647335, -0.2418935, -0.2178126]","[-0.0, -0.0, -0.047654, 0.0, 0.0, 0.047654]",0.53,2.9
phosphorus_dioxide,-491.608637173947,7,0.574528000014,"[-4.856364, -4.854614, -4.849763, -1.110149, -1.063445, -0.5928883, -0.4921266, -0.4720008, -0.4655546, -0.3935554, -0.3916264, -0.3300223]","[-0.0, -0.0, -0.019973, 0.0, 0.026675, 0.00997, -0.0, -0.026674, 0.010004]",2.63,11.7
formaldoxime_zwitterion,-169.692219922740,10,1.42454271423,"[-14.53997, -10.27752, -1.144547, -0.8903124, -0.6856267, -0.5712248, -0.5072755, -0.4734715, -0.4413508, -0.2807649, -0.254678]","[-0.031153, 0.016521, -4.1e-05, 0.016604, -0.0288, 0.001015, 0.013082, 0.006289, 0.00024, 0.000592, -0.002296, 4.2e-05, 0.001894, 0.001016, 0.000221, -0.001019, 0.007269, -0.001478]",6.76,32.2
tetrafluoroethylene,-475.292273677887,7,0.0,"[-10.41561, -1.355112, -1.340897, -1.296628, -1.285765, -0.8466093, -0.6981398, -0.6535412, -0.6452793, -0.5988742, -0.5904552, -0.5464426, -0.5196314, -0.4968196, -0.4904578, -0.4848338, -0.4810829, -0.4658648, -0.2853552]","[0.0, -0.0, 0.189633, -0.0, -0.0, -0.190349, 0.0, 0.051742, 0.006663, 0.0, -0.051742, 0.006605, -0.0, -0.050914, -0.006305, -0.0, 0.050914, -0.006247]",10.74,46.0
boron_dioxide,-175.187735406747,8,1.5e-05,"[-19.29583, -19.29582, -6.86638, -1.08949, -1.087735, -0.5159976, -0.4985054, -0.4974606, -0.4623681, -0.4376337, -0.3916311]","[-0.0, 0.0, -1.1e-05, -0.0, -0.0, 0.30022, 0.0, 0.0, -0.300208]",1.63,8.8
cyano_radical,-92.638591621494,12,0.583411,"[-14.45368, -10.35121, -0.9857357, -0.5251543, -0.4247975, -0.4047092, -0.4047092]","[0.0, 0.0, -0.617653, -0.0, -0.0, 0.617653]",0.91,4.7
boron_nitride,-79.343633513286,11,0.858554,"[-14.43793, -6.886595, -0.8728848, -0.4278588, -0.3856414, -0.3406708, -0.3362929]","[0.0, 0.0, -0.203832, -0.0, -0.0, 0.203832]",0.81,6.9
acetyl_chloride,-613.223039006723,8,1.11552004127,"[-7.26213, -1.129131, -0.8812411, -0.7881165, -0.5876728, -0.513856, -0.4977198, -0.4966042, -0.434241, -0.4203363, -0.3453676, -0.3409138, -0.3173021]","[-0.037625, 0.056776, 0.0, -0.038477, 0.001425, -0.0, 0.053291, -0.052204, 0.0, -0.001706, -0.001048, 0.0, 0.0048, 0.007944, 0.0, 0.009858, -0.006446, 0.018719, 0.009858, -0.006446, -0.018719]",10.01,47.0
magnesium_diatomic,-399.941892273640,6,0.0,"[-46.88531, -3.141771, -3.141771, -1.862733, -1.862733, -1.862732, -1.862732, -1.862444, -1.862418, -0.2224949, -0.181233]","[-0.0, 0.0, -0.001178, 0.0, -0.0, 0.001178]",0.13,2.2
methyl_chloride,-499.950846295125,6,0.744074000081,"[-9.521982, -7.255662, -7.246977, -7.246977, -0.8754589, -0.6943551, -0.4572902, -0.4572887, -0.4331081, -0.3127656, -0.3127652]","[-0.002009, -0.0, -0.056642, 0.001176, -0.0, 0.086634, 0.012018, 0.0, -0.009967, -0.005592, 0.009986, -0.010001, -0.005592, -0.009986, -0.010023]",2.9,12.4
dimethyl_ether,-154.914602695422,7,0.497967,"[-10.26264, -1.063946, -0.7423435, -0.6581294, -0.4910429, -0.4890613, -0.4890359, -0.4093932, -0.3919556, -0.334588, -0.2729979]","[-0.0, 1e-06, -0.050084, 0.0, -0.054741, 0.020171, -0.0, 0.05474, 0.020132, 0.0, 0.009728, 0.003022, 0.0, -0.009727, 0.003022, 0.001659, -0.003529, 0.000959, -0.001659, -0.003529, 0.000914, -0.001659, 0.003529, 0.000954, 0.001659, 0.003529, 0.000909]",7.78,48.5
methyl_ketene,-191.778398863621,8,0.75856499314,"[-10.23856, -1.140089, -0.8279637, -0.7091868, -0.5508836, -0.513537, -0.4731845, -0.4697456, -0.431843, -0.4171274, -0.3982506, -0.2434167]","[-0.008437, 0.003461, -5.4e-05, 0.016018, -0.010644, -4e-06, -0.032387, 0.006583, -1.8e-05, 0.008848, -0.003045, 3.5e-05, -0.000382, -0.002914, 1e-05, -0.000347, 0.001781, -6e-06, 0.008331, 0.002392, -0.011035, 0.008355, 0.002387, 0.011073]",9.39,52.9
tetrafluorosilane,-688.872678129445,6,0.0,"[-3.776941, -1.302205, -1.265629, -1.265629, -1.265629, -0.6411394, -0.5714523, -0.5714523, -0.5714523, -0.5183363, -0.5183363, -0.5083931, -0.5083931, -0.5083931, -0.4717365, -0.4717365, -0.4717365]","[-0.0, -0.0, -0.0, -0.013085, -0.013085, -0.013131, 0.013085, 0.013085, -0.01312, 0.013078, -0.013078, 0.013131, -0.013078, 0.013078, 0.01312]",6.14,26.5
silicon_monosulfide,-687.471072909292,8,0.695726,"[-5.926289, -5.925335, -5.370986, -3.704772, -3.704772, -3.698799, -0.7311866, -0.451304, -0.3039749, -0.3039749, -0.2959346]","[-0.0, -0.0, 0.140619, 0.0, 0.0, -0.140619]",1.48,5.5
sulfur_monochloride,-858.109402101702,8,0.005285,"[-7.3058, -7.300868, -6.002995, -5.998407, -5.985714, -0.926919, -0.7109709, -0.4528409, -0.4276326, -0.4066309, -0.3068667, -0.2698875]","[-0.0, -0.0, 0.113234, 0.0, 0.0, -0.113234]",1.34,5.9
neon_dimer,-257.742617935658,5,0.0,"[-31.06046, -31.06046, -1.491032, -1.490444, -0.591828, -0.5886275, -0.5886275, -0.5875269, -0.5875269, -0.5843835]","[0.0, -0.0, 4.1e-05, -0.0, 0.0, -4.1e-05]",0.07,1.5
formaldoxime,-169.705054070632,8,0.152299720633,"[-14.45232, -10.26263, -1.119253, -0.8934518, -0.6334076, -0.5550098, -0.4864628, -0.4404144, -0.4340647, -0.308098, -0.2902366]","[-0.037699, 0.013255, -0.0, 0.022654, -0.024249, -0.0, 0.012257, 0.009146, -0.0, -0.002682, 0.002802, 0.0, -0.000807, 0.002138, 0.0, 0.006277, -0.003091, 0.0]",6.67,25.5
lithium_chloride,-467.651563463508,6,2.753997,"[-101.583, -9.427359, -7.15558, -7.155039, -7.155039, -2.050706, -0.7334534, -0.2871695, -0.263829, -0.263829]","[-0.0, -0.0, -0.048361, 0.0, 0.0, 0.048361]",0.52,3.0
isopropyl_radical,-118.376571237518,7,0.115974870123,"[-10.21401, -10.214, -0.8067841, -0.7110574, -0.5882909, -0.4668733, -0.4452928, -0.4215696, -0.3987299, -0.3653288, -0.3585881, -0.2008761]","[0.002486, 0.112967, -1.4e-05, -0.004843, -0.065029, 0.068513, -0.004856, -0.065056, -0.068502, -0.000984, -9.8e-05, -1e-06, 0.002327, 0.006854, 0.008158, 0.002326, 0.006852, -0.008155, 0.002175, 0.001037, 0.00234, -0.000403, 0.000717, 0.00049, -0.000404, 0.000719, -0.000493, 0.002176, 0.001038, -0.002335]",10.42,67.9
cyanogen,-185.512931089325,7,0.0,"[-10.34035, -10.33974, -1.013841, -0.9944468, -0.7704868, -0.4736852, -0.4736852, -0.4538064, -0.4407811, -0.393009, -0.393009]","[-0.0, 0.0, -1.016561, 0.0, 0.0, 1.014867, 0.0, -0.0, 1.195746, 0.0, -0.0, -1.194052]",3.75,15.0
boron_monohydride,-25.249235732636,5,0.628291,"[-6.881832, -0.4989193, -0.2452888]","[0.0, -0.0, -0.036428, -0.0, 0.0, 0.036428]",0.14,1.9
thiirane,-476.609925763956,7,0.758004,"[-5.925032, -5.918127, -0.8903167, -0.642066, -0.6367456, -0.5128758, -0.4676932, -0.4020949, -0.3400059, -0.3304021, -0.2419114]","[0.0, -3.7e-05, -0.051867, -0.0, -0.035067, 0.030401, -0.0, 0.0351, 0.025294, 0.001394, -0.002055, -0.000957, -0.001394, -0.002055, -0.000962, -0.001409, 0.002057, -0.000952, 0.001409, 0.002057, -0.000957]",6.61,35.4
sodium_chloride,-622.342912263654,6,3.470679,"[-7.133349, -7.132331, -7.132331, -2.28745, -1.199816, -1.199816, -1.197894, -0.7070069, -0.2565554, -0.2400569, -0.2400569]","[0.0, 0.0, 0.021372, -0.0, -0.0, -0.021372]",0.64,2.8
magnesium_sulfide,-598.032791196626,10,3.120347,"[-5.86356, -5.8573, -5.8573, -3.199884, -1.921084, -1.921084, -1.920793, -0.6171947, -0.2705869, -0.2150653, -0.2150653]","[0.0, 0.0, 0.022213, -0.0, -0.0, -0.022213]",0.74,4.0
methyl_silane,-331.063798883619,7,0.312383005384,"[-5.309201, -3.641958, -3.641958, -3.641451, -0.7236659, -0.5335596, -0.4259008, -0.4258904, -0.3439402, -0.3439336, -0.3389139]","[0.0, -0.000977, -0.054087, 0.0, 0.001703, 0.065905, 0.0, 0.003993, -0.003456, 0.003548, -0.00246, -0.00397, -0.003548, -0.00246, -0.004004, -0.0, 0.002027, 0.000557, -0.000184, -0.000913, -0.000474, 0.000184, -0.000913, -0.000471]",4.77,29.3
aluminum_trichloride,-1622.774528667475,7,1.1e-05,"[-2.782679, -0.8681019, -0.8509622, -0.8509614, -0.482759, -0.4194617, -0.4194615, -0.3866399, -0.3694544, -0.3694536, -0.3636373, -0.3636367, -0.3458741]","[-0.0, -0.006362, -0.0, -0.0, 0.025311, 0.0, 0.008734, -0.009474, 0.0, -0.008734, -0.009474, -0.0]",4.68,19.5
methanethiol,-438.550987625663,7,0.639452380483,"[-7.993385, -5.929375, -5.926056, -5.92058, -0.8024691, -0.6627947, -0.4635584, -0.4449314, -0.4133398, -0.3392285, -0.2496015]","[0.005907, -0.016857, -0.025061, -0.007912, 0.001882, 0.008175, 0.010215, 0.005925, -0.004282, 0.004273, 0.006643, -0.005309, -0.005744, -0.004739, -0.006029, -0.006739, 0.007145, 0.032507]",3.68,18.8
hypochlorous_acid,-535.794958793411,7,0.610880515355,"[-9.571162, -7.308586, -7.294697, -7.294363, -1.10761, -0.8246457, -0.5559229, -0.4685444, -0.4347179, -0.335681, -0.3023198]","[0.003995, 0.006506, -0.0, -0.000469, -0.001312, 0.0, -0.003525, -0.005194, 0.0]",2.25,7.9
lithium_hydride,-8.052370160253,6,2.263237,"[-2.019769, -0.1999614]","[-0.0, -0.0, -0.01662, 0.0, 0.0, 0.01662]",0.05,1.2
monosulfur_monofluoride,-497.802709446548,8,0.298636,"[-24.82412, -8.086035, -6.027207, -6.02361, -6.008355, -1.284271, -0.7556536, -0.5265979, -0.5259412, -0.509186, -0.3265536, -0.2804711]","[-0.0, 0.0, 0.083672, 0.0, -0.0, -0.083672]",1.15,6.0
ammonia,-56.520828023910,6,0.607852000474,"[-14.36125, -0.8780029, -0.4762917, -0.4762741, -0.2843591]","[-0.0, 0.001884, 0.022379, -0.0, 0.025452, -0.007672, -0.02347, -0.013668, -0.007303, 0.02347, -0.013668, -0.007404]",0.55,4.0
boron_monofluoride,-124.587723998464,6,0.383801,"[-24.8566, -6.894955, -1.330968, -0.6407278, -0.5482236, -0.5482236, -0.295593]","[-0.0, 0.0, -0.32207, 0.0, -0.0, 0.32207]",0.79,2.8
carbon_tetrafluoride,-437.297019173900,6,0.0,"[-10.56649, -1.425584, -1.306664, -1.306664, -1.306664, -0.7669679, -0.6738898, -0.6738898, -0.6738898, -0.53789, -0.53789, -0.5090638, -0.5090638, -0.5090638, -0.4654316, -0.4654316, -0.4654316]","[-0.0, -0.0, 8e-06, 0.024717, 0.024718, -0.003362, -0.024717, -0.024717, -0.003496, -0.024752, 0.024752, 0.003358, 0.024752, -0.024752, 0.003492]",6.54,28.2
silicon_diatomic,-578.630512134641,7,4e-06,"[-5.362604, -5.362418, -3.698159, -3.698064, -3.696856, -3.695854, -3.691767, -3.691676, -0.5549248, -0.4010739, -0.2587187, -0.2457406, -0.2196264]","[-0.0, -0.0, 0.007912, 0.0, 0.0, -0.007912]",0.68,4.4
acetylene,-77.261963504526,6,0.0,"[-10.23673, -10.23411, -0.7790144, -0.5875207, -0.5136889, -0.3100882, -0.3100882]","[0.0, 0.0, 0.739503, -0.0, -0.0, -0.73953, 0.0, 0.0, 0.050926, 0.0, 0.0, -0.0509]",1.06,5.8
phosphorus_trichloride,-1721.553571972143,8,0.200739007263,"[-4.858558, -0.9333231, -0.8682395, -0.8682343, -0.6309171, -0.4761869, -0.4761831, -0.4364621, -0.3880449, -0.3880432, -0.3535338, -0.35353, -0.3429333, -0.3025427]","[0.0, -0.002155, 0.031576, 0.0, 0.035852, -0.01584, 0.021391, -0.016848, -0.007842, -0.021391, -0.016849, -0.007895]",5.28,23.6
magnesium_monochloride,-660.104114266067,7,1.342585,"[-7.205233, -7.202566, -7.202566, -3.189486, -1.911498, -1.911498, -1.908785, -0.785295, -0.3547874, -0.3086904, -0.3086904, -0.2118939]","[0.0, 0.0, 0.029394, -0.0, -0.0, -0.029394]",0.68,3.7
carbon_disulfide,-834.230706750763,7,3e-06,"[-5.965177, -5.965177, -5.965177, -0.8840825, -0.7921499, -0.5269896, -0.4464423, -0.4069062, -0.4069062, -0.2884279, -0.2884279]","[-0.0, -0.0, -7e-06, 0.0, 0.0, 0.213359, 0.0, 0.0, -0.213352]",2.88,11.1
magnesium_monofluoride,-299.817179895029,7,1.25063,"[-46.90701, -24.66069, -3.168933, -1.891546, -1.891546, -1.888013, -1.093078, -0.3838346, -0.3533925, -0.3533925, -0.2103487]","[-0.0, -0.0, 0.130077, 0.0, 0.0, -0.130077]",0.58,3.5
methyl_radical,-39.802877890790,7,6e-06,"[-10.23637, -0.7100973, -0.4350082, -0.4350079, -0.2510158]","[-0.000779, -0.0, -0.0, -0.000856, 0.0, 0.0, 0.000817, 0.00102, 0.0, 0.000817, -0.00102, 0.0]",0.43,4.7
ethylene,-78.518469928996,6,0.0,"[-10.22787, -10.22694, -0.7841423, -0.5986101, -0.485845, -0.4325799, -0.369746, -0.2887655]","[-0.0, 0.0, 0.174757, 0.0, -0.0, -0.174807, -0.0, 0.000302, 0.001757, -0.0, -0.000302, 0.001777, 0.0, 0.000245, -0.001732, 0.0, -0.000245, -0.001752]",4.34,14.6
trifluoroacetate_anion,-526.010386670315,10,1.89034338921,"[-10.14645, -1.179971, -1.091253, -1.090951, -0.8856475, -0.8033147, -0.5774759, -0.4653047, -0.4467786, -0.4442422, -0.3284364, -0.3283142, -0.3200809, -0.2906244, -0.2859552, -0.2677111, -0.2626716, -0.2510668, -0.2335818, -0.09820409, -0.08959769, -0.08794526]","[-0.302858, -0.091464, 1e-06, 0.006334, -0.024046, 0.0, 0.059961, -0.047882, 0.0, 0.11936, 0.060116, 0.126956, 0.119417, 0.060154, -0.126958, 0.040464, 0.013204, 0.0, -0.042678, 0.029918, 0.0]",17.3,105.7
bromoform,-7760.402698730471,7,0.35075700276,"[-2.675743, -0.9125403, -0.8129135, -0.8129116, -0.6584519, -0.4991103, -0.4600747, -0.4600744, -0.3430241, -0.343022, -0.3181099, -0.3162916, -0.3162904, -0.2991414]","[-3e-06, -4e-06, -12.830713, -0.0, -0.000129, -2.770403, -3e-06]",21.39,65.7
nitrogen_trifluoride,-353.925564968504,7,0.0672490016729,"[-14.68802, -1.422666, -1.290425, -1.290396, -0.8606737, -0.6640073, -0.6639936, -0.6157561, -0.5229216, -0.5229212, -0.4774136, -0.477397, -0.4622996, -0.3779686]","[0.0, -0.001753, -0.025977, -0.0, -0.014128, 0.008684, -0.012585, 0.00794, 0.008493, 0.012585, 0.007941, 0.008799]",3.55,16.4
phosphorus_tetramer,-1365.047489744322,6,0.000118308917669,"[-4.766584, -0.8243612, -0.5567956, -0.5567954, -0.5567892, -0.3630823, -0.3098748, -0.3098716, -0.3098671, -0.2789427, -0.2789398]","[0.001526, -7e-06, 0.019374, 0.033509, -1e-05, -0.003096, -0.017525, -0.029211, -0.006807, -0.017509, 0.029228, -0.009471]",6.59,32.0
phosphorus_monochloride,-801.285704331633,8,0.191299,"[-7.282779, -7.282779, -6.663169, -4.800128, -4.800128, -4.79614, -0.8908196, -0.6212632, -0.4071282, -0.3971313, -0.3971313, -0.2540992, -0.2540992]","[-0.0, -0.0, 0.07967, 0.0, 0.0, -0.07967]",1.32,6.1
mercapto_radical,-398.624969394673,7,0.322395,"[-89.03487, -8.03233, -5.976111, -5.964263, -5.957009, -0.760034, -0.4269025, -0.3402057, -0.2890218]","[-0.0, -0.0, 0.026547, 0.0, 0.0, -0.026547]",0.35,3.4
pentane,-197.601711482865,7,0.035069,"[-10.20561, -0.8267133, -0.7733419, -0.6952206, -0.6155983, -0.5912469, -0.4906008, -0.4518285, -0.4449038, -0.417082, -0.4056652, -0.3873944, -0.3637054, -0.3439168, -0.3364002, -0.3293272, -0.3254459]","[-0.0, 0.0, -0.013464, 0.0, 0.008713, 0.01367, -0.0, -0.008713, 0.013612, 0.0, -0.013452, -0.006816, -0.0, 0.013453, -0.006817, -0.000842, -0.0, 0.000725, 0.000842, 0.0, 0.000759, -0.000842, -0.000179, -0.000586, 0.000841, -0.000179, -0.000634, 0.000842, 0.000179, -0.000587, -0.000841, 0.000178, -0.000634, -0.0, -0.002549, -0.000765, 0.0, 0.002549, -0.000765, 0.001235, -0.000354, 0.000545, -0.001235, -0.000355, 0.000606, -0.001235, 0.000354, 0.000545, 0.001235, 0.000355, 0.000606]",42.99,266.2
isopropyl_alcohol,-194.220778346636,7,0.642048762265,"[-10.20836, -1.045757, -0.7966198, -0.7125744, -0.6029753, -0.5297089, -0.4695637, -0.4512839, -0.4038895, -0.3933413, -0.3822841, -0.3680162, -0.3390336, -0.2881622]","[0.009343, -0.07944, -0.023538, 0.002743, 0.052738, -0.046749, 0.025293, 0.01606, 0.037515, -0.023482, 0.018983, 0.034132, -0.014731, -0.009199, 0.018636, 0.000415, 0.001866, 0.047964, -0.000309, -0.001629, -0.039434, -0.000247, -0.001434, -0.037488, 0.002415, -0.000868, 0.002118, -0.002232, -0.00053, 0.002156, 0.000795, 0.001691, 0.002493, -3e-06, 0.001762, 0.002196]",18.03,119.1
glyoxal_trans,-227.673398862869,7,0.0,"[-10.35158, -1.126234, -1.112406, -0.7399332, -0.6215454, -0.5203279, -0.5194352, -0.4831567, -0.4731469, -0.4210277, -0.3564062, -0.2923313]","[-0.069036, 0.027762, 0.0, 0.06909, -0.027764, 0.0, 0.0134, -0.002, 0.0, -0.013387, 0.002004, 0.0, 0.05273, -0.038081, -0.0, -0.052797, 0.03808, -0.0]",6.01,27.4
ethanol,-154.932565055422,7,0.648501839018,"[-10.21158, -1.045026, -0.7731574, -0.6274288, -0.5299718, -0.4854607, -0.4194961, -0.3958924, -0.380875, -0.348449, -0.2874858]","[-0.007949, 0.020129, -0.0, 0.016282, -0.033847, -0.0, 0.021107, -0.004172, 0.0, -0.004153, 0.011798, 0.0, -0.000645, 0.008403, 0.0, -0.006469, -0.007844, 0.011471, -0.00647, -0.007844, -0.01147, -0.005852, 0.006687, 0.010136, -0.005852, 0.006689, -0.010136]",8.0,49.4
nitrogen_monofluoride,-154.360407485480,8,0.044945,"[-24.86521, -14.54037, -1.356437, -0.8426676, -0.5702234, -0.5702234, -0.5405195, -0.3334347, -0.3334347]","[0.0, 0.0, -0.353217, -0.0, -0.0, 0.353217]",0.76,3.9
vinyl_chloride,-538.000951598052,7,0.553877723814,"[-7.261156, -7.260585, -0.9024153, -0.7747331, -0.6047193, -0.5076363, -0.4663057, -0.4019618, -0.3869159, -0.3296639, -0.2781527]","[-0.0, 0.006462, 0.185625, -0.0, 0.00348, -0.18948, 0.0, -0.005767, -0.00017, 0.0, -0.003682, 0.003587, 0.0, -0.003757, 0.000656, 0.0, 0.003265, -0.000217]",5.17,23.5
ammonia_oxide,-131.605607467672,7,2.08273700001,"[-19.12897, -14.52556, -1.081913, -0.8308114, -0.5879612, -0.5879603, -0.4414944, -0.2284827, -0.2284824]","[-0.0, -0.00298, -0.292009, -0.0, 0.001301, 0.296862, -0.0, -0.011953, -0.001781, -0.01149, 0.006816, -0.001533, 0.01149, 0.006816, -0.001539]",2.48,12.2
methylenecyclopropane,-155.835111060830,7,0.162134,"[-10.22049, -0.8931909, -0.7355372, -0.6328639, -0.5502856, -0.4938517, -0.4845677, -0.4404548, -0.3850974, -0.3270798, -0.3056914, -0.2692116]","[0.0, -3e-06, 0.171183, 0.0, -1.5e-05, -0.01656, -0.0, 0.058677, -0.08239, -0.0, -0.058662, -0.082656, 0.0, -0.001777, 0.007224, 0.0, 0.001777, 0.007239, -0.001177, 0.001945, -0.001006, 0.001177, 0.001945, -0.001019, 0.001187, -0.001943, -0.001002, -0.001187, -0.001943, -0.001015]",15.27,78.2
oxygen_monofluoride,-174.790418887215,8,0.00827,"[-24.87484, -19.3798, -1.362048, -0.9933931, -0.5919526, -0.5864819, -0.5509708, -0.4189818, -0.3614719]","[0.0, -0.0, -0.305284, -0.0, 0.0, 0.305284]",0.72,4.6
methylamine,-95.787236519241,6,0.504888215954,"[-14.36276, -10.23606, -0.8992627, -0.6795367, -0.504905, -0.4538346, -0.4164395, -0.3793879, -0.2519658]","[-0.0164, -0.058871, -0.0, 0.021695, 0.063598, 1e-06, 0.001775, -0.001529, -0.0, 0.007411, 0.004898, 0.011449, 0.007413, 0.004898, -0.011449, -0.010946, -0.006497, -0.01613, -0.010948, -0.006498, 0.016129]",3.77,19.4
hydrogen_chloride,-460.679554880419,6,0.447709,"[-101.6947, -9.538584, -7.271707, -7.263727, -7.263727, -0.8698994, -0.4891657, -0.3490739, -0.3490739]","[-0.0, -0.0, -0.044163, 0.0, 0.0, 0.044163]",0.36,2.4
ethanethiol,-477.834269467532,7,0.652725635582,"[-5.917879, -0.8265818, -0.7256005, -0.6206683, -0.4781144, -0.4760572, -0.4065489, -0.3783778, -0.3768749, -0.339967, -0.2492589]","[-0.000798, 0.016942, -0.0, 0.004226, -0.02154, -0.0, 0.00452, 0.009169, 0.0, -0.000827, 0.002186, 0.0, 0.002117, -0.009217, 0.011827, 0.002117, -0.009218, -0.011827, -0.002059, 0.010472, 0.013259, -0.002059, 0.010474, -0.013259, -0.007236, -0.009266, 0.0]",8.66,51.7
acetamide,-209.077537316083,8,1.5213575392,"[-10.2428, -1.06498, -0.9287524, -0.759331, -0.6058794, -0.5514889, -0.4879647, -0.4637556, -0.4233452, -0.4107424, -0.3842403, -0.2920187, -0.2724086]","[0.036973, 0.028052, -0.002449, 0.013075, 0.028555, 0.00062, -0.022212, 0.023437, -0.01864, -0.015856, -0.053807, 0.00129, -0.013441, 0.016309, -0.002221, -0.002718, -0.017058, -0.023708, -0.004525, -0.017603, 0.028738, 0.010007, 0.002101, 0.00687, -0.001303, -0.009986, 0.009501]",12.23,70.2
nitromethane,-244.868425160997,8,1.42262097339,"[-10.29568, -1.271808, -1.096362, -0.85035, -0.652244, -0.5774724, -0.5671955, -0.5494671, -0.4698184, -0.4563888, -0.3409175, -0.3350785, -0.3217612]","[-0.020948, -0.012389, -0.0, -0.00805, -0.000229, 0.0, -0.002242, 0.000408, 0.0, 0.003792, 0.006327, 0.015114, 0.00379, 0.006327, -0.015114, 0.010452, -0.024946, 0.0, 0.013206, 0.024502, 0.0]",9.35,46.0
hydrogen_sulfide,-399.274804389473,6,0.412398,"[-89.0049, -8.006052, -5.941593, -5.938721, -5.933407, -0.7669025, -0.4614733, -0.3832496, -0.277904]","[-0.0, -0.0, -0.001151, 0.0, 0.004954, 0.000559, 0.0, -0.004954, 0.000592]",0.53,3.7
monosodium_sulfide,-560.261868481531,7,3.325648,"[-7.923117, -5.86753, -5.851916, -5.85037, -2.281921, -1.19464, -1.193958, -1.192019, -0.61879, -0.2493967, -0.2205765, -0.2016816]","[-0.0, -0.0, 0.012045, 0.0, 0.0, -0.012045]",0.64,3.4
silicon_nitride,-343.969780847655,12,1.091307,"[-66.26234, -14.42094, -5.366029, -3.699723, -3.697566, -3.697566, -0.8255986, -0.4574894, -0.3348824, -0.3129734, -0.3129734]","[0.0, 0.0, 0.13892, -0.0, -0.0, -0.13892]",1.31,8.2
hydrogen_cyanide,-93.350953916580,7,1.19655,"[-14.41328, -10.28259, -0.9516527, -0.6297739, -0.4045919, -0.3820757, -0.3820757]","[0.0, -0.0, 1.137892, -0.0, -0.0, 0.04678, -0.0, 0.0, -1.184672]",1.66,5.2
carbonyl_sulfide,-511.355002594416,7,0.317073,"[-5.97265, -5.967109, -5.967109, -1.17303, -0.8482255, -0.5734613, -0.4972259, -0.4972259, -0.4898733, -0.3200388, -0.3200388]","[0.0, -0.0, -0.796737, -0.0, 0.0, 0.983051, -0.0, -0.0, -0.186314]",4.19,11.6
chlorine_trifluoride,-759.264838849355,8,0.230621,"[-7.473762, -1.356754, -1.23561, -1.235428, -0.9200473, -0.6395511, -0.6371879, -0.58773, -0.5301231, -0.4819571, -0.4627555, -0.4603713, -0.43897, -0.41249, -0.3619323]","[0.0, -0.0, -0.166475, -0.0, -0.0, 0.158249, 0.0, 0.004702, 0.004111, 0.0, -0.004702, 0.004115]",3.55,17.3
ethanol_radical,-154.257191686824,8,0.779657285839,"[-10.28363, -10.21587, -1.057437, -0.7683987, -0.6381228, -0.5213017, -0.4788222, -0.4322215, -0.4073713, -0.3972611, -0.3518353, -0.2986484]","[-0.01384, 0.00885, -0.0, -0.02056, 0.005704, -0.0, 0.021369, -0.014859, 0.0, 0.009877, 0.007151, 0.016364, 0.009877, 0.007154, -0.016364, -0.003913, 0.003925, 0.0, -0.001405, -0.008963, 0.012228, -0.001406, -0.008962, -0.012227]",6.28,48.5
phosphorus_trifluoride,-640.755327168237,7,0.161344000077,"[-4.860705, -1.336774, -1.28299, -1.282986, -0.7044475, -0.6004362, -0.600435, -0.5667372, -0.5286779, -0.5286765, -0.4885434, -0.4885417, -0.4720716, -0.3200365]","[0.0, -0.002175, -0.055293, 0.0, -0.006649, 0.010737, -0.01906, 0.004411, 0.022272, 0.01906, 0.004413, 0.022283]",4.22,19.4
nitrogen_diatomic,-109.452048012314,5,0.0,"[-14.48747, -14.48555, -1.155299, -0.5745154, -0.4836846, -0.4836846, -0.4476544]","[0.0, 0.0, -0.857354, -0.0, -0.0, 0.857354]",0.52,2.4
acetone,-193.016428991762,7,1.243116,"[-10.23162, -1.064983, -0.7978639, -0.7366306, -0.5543077, -0.4789157, -0.4786849, -0.4706953, -0.4205984, -0.4117223, -0.3940649, -0.3650754, -0.2677916]","[0.0, -0.0, 0.564706, -0.0, 0.0, -0.565348, -0.0, -0.010035, 0.000421, 0.0, 0.010034, 0.000266, 0.0, 0.002097, 0.003858, -0.0, -0.002097, 0.003858, -0.001434, 0.000497, -0.001909, 0.001434, 0.000497, -0.001971, 0.001434, -0.000497, -0.001909, -0.001434, -0.000497, -0.001971]",13.65,74.8
glycine_zwitterion,-284.220556252762,8,4.07001375764,"[-10.29472, -1.070622, -1.034385, -0.9611837, -0.7664574, -0.6483664, -0.6272434, -0.5410538, -0.5080151, -0.467288, -0.4341378, -0.4013491, -0.3806373, -0.2534741, -0.2513507, -0.2360698]","[0.015167, 0.036648, 0.0, 0.029931, -0.004951, -0.0, -0.047597, 0.016546, 0.0, 0.030674, -0.054831, 0.0, -0.023165, 0.005124, -1e-06, -0.010825, -0.000699, 0.013167, -0.010825, -0.0007, -0.013167, 0.008281, 0.000956, 0.011233, 0.008286, 0.000947, -0.011233, 7.3e-05, 0.000958, 0.0]",18.86,109.0
hexane,-236.883037180539,8,0.0,"[-10.20546, -0.8313951, -0.7914607, -0.7296644, -0.6567131, -0.5981475, -0.591548, -0.4948027, -0.4597574, -0.4500536, -0.4344338, -0.4109427, -0.3934882, -0.3894382, -0.3642832, -0.3512897, -0.3357863, -0.3349944, -0.3285481, -0.3188829]","[0.012076, -0.017016, 0.0, -0.01207, 0.01702, 0.0, 0.020483, -0.026163, 1e-06, -0.020496, 0.026169, -1e-06, 0.022109, -0.01281, 1e-06, -0.022099, 0.0128, 1e-06, 0.002588, 0.00183, -0.0, -0.002588, -0.00183, 0.0, -0.00596, 0.00372, 0.009918, -0.005961, 0.00372, -0.009918, 0.005961, -0.00372, -0.009918, 0.005962, -0.003719, 0.009918, 0.007427, -0.005153, -0.011234, 0.007424, -0.005154, 0.011232, -0.007424, 0.005152, -0.011233, -0.007426, 0.005151, 0.011233, -0.007142, 0.004721, 0.011055, -0.007143, 0.004721, -0.011055, 0.00714, -0.004719, -0.011043, 0.00714, -0.004719, 0.011044]",66.8,462.7
pyridine,-248.091707971057,8,0.895345,"[-10.24374, -0.9703496, -0.8335454, -0.7886556, -0.6525947, -0.6522867, -0.5497313, -0.49997, -0.4885121, -0.4457248, -0.4220067, -0.4187189, -0.3792654, -0.3070522, -0.2817087, -0.2759129]","[0.0, 1e-06, -0.008721, 0.0, 1e-06, 0.037908, 0.0, -0.060913, 0.142895, 0.0, 0.060912, 0.142959, -0.0, 0.001736, -0.133866, -0.0, -0.001737, -0.133747, -0.0, 0.0, -0.046634, 0.0, -0.000954, 0.002451, 0.0, 0.000954, 0.002451, -0.0, 0.001158, -0.002848, -0.0, -0.001158, -0.002849]",33.78,170.1
silane,-291.766223930169,5,0.0,"[-66.20864, -5.31863, -3.651131, -3.651131, -3.651131, -0.5625065, -0.3626433, -0.3626433, -0.3626433]","[-0.0, -0.0, 0.0, -0.001588, -0.001588, -0.000911, 0.001588, 0.001588, -0.000906, 0.001588, -0.001588, 0.000911, -0.001588, 0.001588, 0.000906]",0.78,5.7
isobutylene,-157.092998094941,7,0.230462,"[-10.2065, -0.8311334, -0.714229, -0.6995928, -0.5398377, -0.4668597, -0.4582544, -0.446716, -0.3988766, -0.3814793, -0.3762623, -0.3507768, -0.2582269]","[-0.0, -0.0, 0.165294, -0.0, 1e-06, -0.180433, -0.0, -0.007165, 0.005155, 0.0, 0.007164, 0.005078, 0.0, -0.000375, 0.003133, 0.0, 0.000375, 0.003165, -0.0, 0.002021, 0.003056, 0.000425, 0.000317, -0.00184, -0.000425, 0.000317, -0.001912, -0.0, -0.002021, 0.003056, -0.000425, -0.000317, -0.00184, 0.000425, -0.000317, -0.001912]",19.24,107.8
fluorine_diatomic,-199.418125390433,6,0.0,"[-24.88297, -24.88291, -1.385731, -1.144179, -0.6226933, -0.5641967, -0.5641967, -0.4340398, -0.4340398]","[-0.0, 0.0, -0.215516, 0.0, -0.0, 0.215516]",0.32,2.5
ethylamine,-135.071486525332,7,0.534712351563,"[-10.2123, -0.9056302, -0.7504859, -0.6277975, -0.5119896, -0.4521846, -0.4247799, -0.4223322, -0.3724267, -0.3496184, -0.255264]","[-0.005687, 0.021467, -0.0, -0.038846, -0.053639, 0.0, 0.043297, 0.052244, -1e-06, -6e-06, 0.000213, 0.0, -0.000443, -0.008903, 0.011836, -0.000444, -0.008903, -0.011836, 0.000201, 0.012311, -0.014397, 0.0002, 0.012313, 0.014397, 0.000864, -0.013551, 0.018017, 0.000864, -0.013552, -0.018016]",9.85,63.9
aluminum_diatomic,-484.561021542529,7,2e-06,"[-56.15698, -4.203429, -4.203382, -2.731795, -2.731795, -2.731756, -2.731756, -2.731675, -2.731245, -0.3973511, -0.2871852, -0.1701649, -0.1701649]","[0.0, -0.0, -0.016829, -0.0, 0.0, 0.016829]",0.51,4.1
methyl_nitrite,-244.857683083125,8,0.901185316184,"[-10.29151, -1.244032, -1.090864, -0.7938049, -0.6573857, -0.5757591, -0.5360957, -0.5313354, -0.4560776, -0.4384594, -0.3986305, -0.3494327, -0.3041357]","[0.011498, 0.020215, -0.0, 0.006509, -0.013564, 0.0, 0.021756, 0.094356, 0.0, 0.0033, -0.00213, 0.0, -0.00204, -0.009803, 0.012993, -0.002039, -0.009803, -0.012993, -0.038984, -0.07927, 0.0]",9.37,45.1
isobutane,-158.321676649949,7,0.0549380000091,"[-10.20652, -0.8270384, -0.7006538, -0.7006536, -0.5744339, -0.477651, -0.4436817, -0.4436807, -0.3933877, -0.3933872, -0.3717581, -0.3375235, -0.3375234, -0.3304642]","[1e-06, -0.00158, -0.037057, -0.0, -0.02279, 0.03244, -0.019335, 0.013412, 0.031232, 0.019334, 0.01342, 0.031294, 0.0, 8.4e-05, 0.044482, -0.0, 0.001281, -0.038774, 0.00179, -0.001749, 0.002274, -0.00179, -0.001749, 0.002318, 0.001246, -0.000924, -0.038792, -0.002064, -0.000733, 0.002317, -0.000461, 0.001492, 0.002371, -0.001246, -0.000924, -0.038793, 0.000462, 0.001492, 0.002327, 0.002064, -0.000733, 0.002361]",23.83,161.8
boron_trifluoride,-324.408259421222,6,9e-06,"[-6.942918, -1.31256, -1.273008, -1.273007, -0.6349528, -0.5976294, -0.5976294, -0.5582408, -0.4913518, -0.491351, -0.482715, -0.4827143, -0.450407]","[0.0, 0.001632, 0.0, -0.0, -0.061771, -0.0, -0.048768, 0.030071, -0.0, 0.048768, 0.030068, -0.0]",3.3,13.6
nitrosyl_chloride,-589.888070883904,11,0.742387411087,"[-7.251751, -7.250155, -1.33888, -0.8535986, -0.7328877, -0.5882545, -0.5832412, -0.5629817, -0.337767, -0.3317611, -0.3204588]","[0.00091, -0.008459, 0.0, 0.042217, 0.017801, -0.0, -0.043127, -0.009342, 0.0]",3.68,14.3
silicon_monophosphide,-630.528860692073,9,0.636401,"[-5.381868, -4.76356, -4.756174, -4.756174, -3.716342, -3.713391, -3.713391, -0.6332342, -0.4419172, -0.2999763, -0.256244, -0.256244]","[-0.0, -0.0, 0.004831, 0.0, 0.0, -0.004831]",1.4,7.1
pyrrole,-210.015279659004,8,0.732362,"[-10.20693, -1.005188, -0.7967292, -0.7410876, -0.6099272, -0.5820774, -0.5606881, -0.4434529, -0.4360645, -0.4250915, -0.3986655, -0.387859, -0.2596437, -0.2248442]","[-0.0, -7e-06, -0.084306, 0.0, -0.0, 0.078737, 0.0, 0.029664, 0.115287, 0.0, -0.029662, 0.11515, 0.0, -0.063305, -0.103526, -0.0, 0.063305, -0.100183, 0.0, -0.001136, 0.001129, 0.0, 0.001137, 0.001128, -0.0, 0.00958, -0.011712, 0.0, -0.009576, -0.011705]",22.99,119.2
aluminum_monoxide,-317.465136899649,11,1.72088,"[-56.1501, -19.17302, -4.203325, -2.731927, -2.731927, -2.73069, -0.9168755, -0.3925383, -0.3015598, -0.3015598, -0.2876292]","[-0.0, 0.0, 0.1462, 0.0, -0.0, -0.1462]",1.22,7.4
trifluoromethane,-338.084182658877,7,0.560619008219,"[-10.47826, -1.362098, -1.276269, -1.276245, -0.7520709, -0.6342961, -0.626504, -0.6264945, -0.5012649, -0.5012642, -0.4683307, -0.4683189, -0.4455072, -0.4119419]","[-0.0, -0.002178, -0.176148, 0.0, 0.00024, 0.081459, 0.0, -0.039139, 0.03238, -0.033514, 0.020537, 0.031158, 0.033514, 0.020539, 0.031151]",4.88,22.7
silicon_monofluoride,-389.161197660064,8,0.32309,"[-66.28136, -24.78171, -5.379166, -3.714449, -3.712242, -3.709325, -1.238221, -0.5676751, -0.482088, -0.4769928, -0.3779721, -0.18421]","[-0.0, -0.0, 0.110906, 0.0, 0.0, -0.110906]",1.16,6.1
ethyl_chloride,-539.237558438800,7,0.831418864738,"[-7.238732, -0.8821542, -0.7663897, -0.6400053, -0.4941703, -0.4702801, -0.4255561, -0.390076, -0.3858065, -0.3088917, -0.3073538]","[-0.007193, -0.004943, 0.000532, -0.010971, 0.031547, 4.3e-05, 0.021687, -0.031077, -0.002105, -0.00254, 0.000178, -9e-06, -0.001728, -0.008677, -0.0111, -0.001703, -0.008647, 0.011141, 0.001982, 0.010852, -0.012154, 0.000465, 0.010768, 0.013651]",7.03,42.0
bicyclo[1.1.0]butane,-155.826952947846,7,0.289731,"[-10.23766, -0.9483131, -0.7069232, -0.5927605, -0.5926917, -0.5318331, -0.4407943, -0.4400258, -0.3829507, -0.3391237, -0.3274304, -0.2531795]","[-0.056208, -0.0, 0.032302, 0.056246, -0.0, 0.019733, -1.9e-05, -0.045494, -0.05819, -1.9e-05, 0.045494, -0.057519, -1e-06, 0.00638, 0.048508, -1e-06, -0.00638, 0.048516, -1e-06, -0.002955, -0.008001, -1e-06, 0.002955, -0.008001, 0.007588, 0.0, -0.008681, -0.007582, 0.0, -0.008667]",17.85,90.5
silyl_radical,-291.118158052454,6,0.0284210000176,"[-66.22199, -5.330984, -3.668573, -3.661595, -3.661594, -0.5601069, -0.3715721, -0.371572, -0.2369848]","[0.0, -0.000218, -0.001595, -0.0, -0.002868, -8.2e-05, -0.00412, 0.001543, 0.00084, 0.00412, 0.001543, 0.000837]",0.65,6.0
cyclopentane,-196.395617561393,6,0.00933734807105,"[-10.21081, -0.856851, -0.7249865, -0.7245468, -0.5841766, -0.574722, -0.4932201, -0.4911136, -0.4249163, -0.423294, -0.346348, -0.3456013, -0.3431453, -0.3392052, -0.332274, -0.3211063]","[-0.014707, 0.019193, -0.034565, 0.0039, -0.028377, -0.024135, 0.031021, -0.00794, -0.005839, 0.017361, 0.01941, 0.029598, -0.023411, -0.009598, 0.033683, 0.004028, 0.011296, 0.031542, 0.000144, -0.001523, -0.000858, -0.007373, 0.003069, -0.008998, -0.010519, 0.000954, 0.013606, -0.001103, -0.01024, -0.034063, 0.002409, 0.003242, 0.000307, -0.003436, 0.004409, -0.00104, 0.002468, -0.000104, 0.03754, 0.003585, -0.001984, -0.037908, -0.004366, -0.001807, 0.001127]",38.19,222.4
dimethyl_sulfoxide,-552.993093687336,8,1.60826340852,"[-6.009663, -1.042943, -0.8220411, -0.7509887, -0.622379, -0.4978644, -0.4760724, -0.4747349, -0.4426786, -0.4205762, -0.4125978, -0.3730037, -0.2911376, -0.2464489]","[0.0, -0.001528, 0.02171, -0.0, 0.040518, -0.023425, 0.05385, -0.003462, 0.035617, -0.05385, -0.003459, 0.035633, -0.024353, -0.016762, 0.00014, 0.024353, -0.016762, 0.00014, 0.003144, 0.004956, 0.00282, -0.008298, -0.004228, -0.037727, -0.003144, 0.004956, 0.00282, 0.008297, -0.004228, -0.037729]",15.93,90.5
trifluoroacetic_acid,-526.538606300967,10,0.713071277627,"[-10.40299, -1.386173, -1.296249, -1.293146, -1.182092, -1.092744, -0.8048246, -0.7071742, -0.6510108, -0.6498585, -0.6205104, -0.5422267, -0.5248338, -0.520486, -0.5047735, -0.49711, -0.4795625, -0.4740395, -0.4589235, -0.4379786, -0.3801776, -0.3395549]","[-0.377316, -0.070507, 5e-06, -0.051402, -0.013769, 1e-06, -0.029108, 0.005814, 1e-06, 0.084332, 0.020934, 0.0, 0.065884, -0.053243, 1e-06, 0.153237, 0.054006, 0.170018, 0.153335, 0.054079, -0.170026, 0.001037, 0.002686, 0.0]",20.52,127.0
nitric_oxide,-129.813531748835,8,0.045481,"[-19.34909, -14.52681, -1.280903, -0.7166113, -0.5616955, -0.5294383, -0.5063182, -0.2359624]","[-0.0, 0.0, -1.560735, 0.0, -0.0, 1.560735]",0.95,4.1
hydrazine,-111.790027558124,6,1.072805,"[-14.39524, -14.39509, -0.9849935, -0.7749666, -0.5262548, -0.5028864, -0.4493079, -0.3107833, -0.2508408]","[0.00814, -0.023157, -0.026113, -0.008137, 0.02316, -0.028219, 0.001598, -0.008785, 0.010683, -0.001598, 0.008787, 0.010667, -0.007627, -0.002329, 0.01649, 0.007625, 0.002325, 0.016492]",5.05,16.6
aluminum_carbide,-280.192824185458,8,0.688278,"[-56.15229, -10.28883, -4.20088, -2.730083, -2.730083, -2.727499, -0.6329893, -0.3487826, -0.2664646, -0.2664646, -0.236595]","[0.0, 0.0, 0.036123, -0.0, -0.0, -0.036123]",0.98,7.1
sulfur_monoxide,-473.210969030153,8,0.610284,"[-89.09712, -19.28486, -8.089448, -6.024961, -6.024961, -6.021519, -1.12471, -0.7100271, -0.4802632, -0.4802632, -0.4755283, -0.2812207, -0.2812207]","[-0.0, 0.0, 0.291813, 0.0, -0.0, -0.291813]",1.34,6.0
hydroxymethyl_radical,-114.988603330601,8,0.575076134342,"[-19.24659, -10.27342, -1.088786, -0.6968503, -0.5472432, -0.4687617, -0.425309, -0.3724662, -0.2028384]","[-0.026417, 0.000406, -0.008272, 0.031409, -0.003649, 0.013977, 0.000473, 0.003799, -0.012033, -0.001935, -0.004839, 0.003406, -0.00353, 0.004285, 0.002923]",2.53,14.6
dimethyl_sulfide,-477.833439568503,6,0.638554,"[-5.915107, -0.8205341, -0.7258306, -0.6149148, -0.4560336, -0.454059, -0.4381028, -0.4201314, -0.3754333, -0.326883, -0.2312416]","[-0.0, -0.00077, 0.002282, -0.0, 0.00077, 0.002342, 0.0, 0.0, 0.002771, -0.0, 0.000339, 0.001285, -0.00097, 0.000346, -0.002459, 0.00097, 0.000346, -0.002523, 0.0, -0.000339, 0.001285, 0.00097, -0.000346, -0.00246, -0.00097, -0.000346, -0.002524]",7.93,43.0
beryllium_monochloride,-474.805390988104,7,0.336655,"[-101.6806, -9.52588, -7.255282, -7.252813, -7.252813, -4.128388, -0.8438605, -0.4239806, -0.3570745, -0.3570745, -0.2322651]","[-0.0, 0.0, -0.181603, 0.0, -0.0, 0.181603]",0.59,3.4
n_propyl_chloride,-578.516817779830,7,0.865734169207,"[-7.238233, -0.8798882, -0.799139, -0.6890798, -0.6139827, -0.4996658, -0.4596548, -0.4425395, -0.4260282, -0.3802196, -0.3730096, -0.357726, -0.3063286, -0.3061546]","[0.010698, -0.002947, 0.0, -0.002315, -0.032623, -0.0, -0.015982, 0.033684, -0.0, 0.024934, -0.019413, -0.0, -0.005003, 0.018469, 0.024927, -0.005002, 0.018471, -0.024927, 0.004923, -0.016564, 0.022549, 0.004924, -0.016565, -0.022549, -0.005599, 0.014046, 0.020838, -0.005599, 0.014047, -0.020838, -0.005979, -0.010604, 0.0]",15.15,95.5
chloroform,-1418.894361988950,7,0.450844000217,"[-7.279347, -0.9789835, -0.8675257, -0.867525, -0.679811, -0.5357313, -0.4966735, -0.4966734, -0.3765527, -0.376552, -0.3489565, -0.3413378, -0.3413373, -0.3241777]","[-0.0, -0.002719, -0.033601, 0.0, 0.000178, 0.052174, 0.0, -0.00688, -0.006707, -0.008989, 0.004711, -0.005894, 0.008989, 0.00471, -0.005972]",7.13,29.0
phosphorus_monosulfide,-739.296036897377,9,0.265147,"[-5.960819, -5.95906, -5.959036, -4.793937, -4.792599, -4.788022, -0.792723, -0.5566267, -0.3604092, -0.3550034, -0.341985, -0.2122411]","[0.0, 0.0, 0.203737, -0.0, -0.0, -0.203737]",1.52,6.8
cyclopropane,-117.800128392924,6,1.6e-05,"[-10.22184, -10.22184, -0.8765481, -0.6144781, -0.6144709, -0.509999, -0.4793682, -0.3732269, -0.3732189, -0.3080311, -0.3080244]","[-2.2e-05, -0.068685, -0.0, -0.05449, 0.03378, -0.0, 0.054511, 0.033727, -0.0, -1e-06, 0.014584, 0.020386, 0.012396, -0.007, 0.020111, -0.012394, -0.006995, 0.020099, -1e-06, 0.014585, -0.020385, 0.012397, -0.007, -0.020111, -0.012395, -0.006995, -0.020099]",10.19,46.9
formyl_radical,-113.775792178228,8,0.679781914095,"[-19.27829, -10.33713, -1.13468, -0.6537335, -0.5240794, -0.457726, -0.4493094, -0.2485108]","[-0.001085, 0.021289, 0.0, -0.025488, 0.007837, 0.0, 0.026573, -0.029127, -0.0]",1.67,6.3
spiropentane,-195.118925034968,7,0.0,"[-10.22292, -0.9074452, -0.8207395, -0.6210017, -0.6210017, -0.556954, -0.4999097, -0.4863113, -0.4863113, -0.3840235, -0.3701516, -0.3616058, -0.2989381, -0.2989381, -0.283648]","[1.6e-05, -1.6e-05, -2e-06, 4e-06, 0.055637, 0.073681, 2e-06, -0.055616, 0.072713, -0.055685, -2e-06, -0.07368, 0.055665, -4e-06, -0.072712, -0.004942, -0.00371, 0.001812, 0.004944, -0.003713, 0.001824, 0.004953, 0.003712, 0.001808, -0.004955, 0.003715, 0.001819, 0.003713, 0.004944, -0.00181, 0.00371, -0.004942, -0.001825, -0.003715, -0.004955, -0.001806, -0.003712, 0.004952, -0.00182]",31.21,176.9
acetonitrile,-132.506839914814,8,1.83954527249,"[-14.38362, -10.29382, -10.27405, -0.9398158, -0.8806294, -0.6078875, -0.5208141, -0.3955108, -0.3806791, -0.3541415, -0.2984354]","[0.000991, 0.001548, -0.209748, -0.00646, 0.003706, -0.955527, 0.00503, -0.002889, 1.170311, 0.049789, 0.011987, 0.011292, 0.013034, -0.050166, 0.011932, -0.062384, 0.035814, -0.028261]",4.72,24.0
disilane,-582.356948791415,6,0.0,"[-3.648576, -3.648513, -3.648513, -3.648386, -0.5879252, -0.5221802, -0.3793386, -0.3793306, -0.3532384, -0.3532298, -0.3048931]","[0.0, 0.00626, -0.047245, 0.0, -0.00626, 0.04729, 0.0, -0.001135, -0.002164, 0.002512, 0.000731, -0.00292, -0.002512, 0.000731, -0.002917, -0.0, 0.00108, 0.002149, 0.002465, -0.000704, 0.002905, -0.002465, -0.000704, 0.002901]",3.99,22.8
methylene_chloride,-959.425941767875,7,0.663938,"[-7.265341, -0.9333281, -0.8523722, -0.6924121, -0.5200698, -0.4825299, -0.4645355, -0.3489532, -0.3455508, -0.3264536, -0.3229945]","[0.0, -0.0, 0.013491, 0.011226, 0.0, -0.004703, -0.011226, 0.0, -0.004625, -0.0, 0.003933, -0.002023, -0.0, -0.003933, -0.00214]",4.44,20.1
methlidyne_radical,-38.440636070656,6,0.574589,"[-10.3393, -0.6677479, -0.3351671, -0.2744542]","[-0.0, -0.0, -0.020265, 0.0, 0.0, 0.020265]",0.18,2.0
trifluoro_acetonitrile,-430.232977036243,8,0.605838000003,"[-10.3126, -1.406123, -1.315563, -1.315563, -0.983393, -0.8205703, -0.7041884, -0.6701709, -0.6701708, -0.5388476, -0.5388473, -0.5057911, -0.5057911, -0.4941816, -0.4797419, -0.4249811, -0.4061841, -0.406184]","[-0.0, -0.003287, -0.24387, 0.0, 0.000819, -1.061067, 0.0, 0.000216, 1.228961, 0.0, -0.043221, 0.025995, -0.037395, 0.022735, 0.024989, 0.037395, 0.022737, 0.024993]",11.69,57.0
acetyl_radical,-153.075124355820,8,1.04642604983,"[-19.25352, -10.32945, -10.25962, -1.116299, -0.7928438, -0.5734459, -0.4909217, -0.4824639, -0.4777327, -0.4080678, -0.4077362, -0.2212423]","[0.029507, 0.008748, -0.0, 0.009738, -0.007546, 0.0, -0.000394, 0.000135, 0.0, -0.008364, 0.000401, 0.011603, -0.008364, 0.000402, -0.011602, -0.022123, -0.002139, 0.0]",4.31,26.8
silylene_t,-290.471199235546,7,0.027111,"[-66.24513, -5.350219, -3.686442, -3.685771, -3.679045, -0.5484411, -0.38617, -0.2765292, -0.2120297]","[0.0, -0.0, 0.007181, -0.0, 0.006879, -0.00359, -0.0, -0.006879, -0.003592]",0.44,4.2
oxygen_water,-152.782574199135,7,0.9819680328,"[-19.23749, -19.18015, -1.07128, -1.012624, -0.5774508, -0.52629, -0.4397907, -0.3840617, -0.3571427, -0.3070106]","[0.020603, -0.013384, -0.043461, 0.02794, -0.034398, 0.015931, -0.021641, 0.016211, 0.048401, 0.00131, -0.003358, -0.004955, 0.001118, 0.000303, -0.008854, -0.02933, 0.034625, -0.007063]",4.02,14.2
chlorine_monofluoride,-559.790133763555,7,0.334724,"[-9.609043, -7.348499, -7.331503, -7.331503, -1.281044, -0.8605606, -0.5592003, -0.513093, -0.513093, -0.3483868, -0.3483868]","[-0.0, 0.0, -0.226986, 0.0, -0.0, 0.226986]",1.08,4.7
sodium_hydride,-162.750023460578,6,2.439282,"[-38.52355, -2.252528, -1.164893, -1.164893, -1.161863, -0.1884195]","[0.0, -0.0, 0.0032, -0.0, 0.0, -0.0032]",0.13,2.4
nitrogen_tribromide,-7776.350281941466,10,0.21973800002,"[-2.690079, -0.9910982, -0.822314, -0.8223136, -0.7044659, -0.4885289, -0.4885287, -0.4447262, -0.3536205, -0.3536204, -0.3186605, -0.3186603, -0.3039468, -0.290108]","[-3e-06, -0.002346, -18.502867, -4e-06]",18.9,66.4
phosphorus_pentafluoride,-840.421794801050,8,1.1e-05,"[-4.969664, -1.379949, -1.316383, -1.31638, -1.277306, -1.245489, -0.7411195, -0.6426372, -0.6426366, -0.6289777, -0.5713733, -0.5713715, -0.5500813, -0.5500788, -0.524253, -0.5084503, -0.4867725, -0.4716278, -0.4716273, -0.4462908, -0.4462901]","[0.0, 0.002841, -0.0, 0.0, 0.004252, -0.0, -0.021067, 0.003105, -0.0, 0.021067, 0.003106, -0.0, 0.0, -0.006652, -0.07259, 0.0, -0.006652, 0.07259]",11.71,56.6
aminyl_radical,-55.840966750697,7,0.708881,"[-14.41696, -0.8847834, -0.4910342, -0.3472806, -0.3403097]","[0.0, 0.0, 0.012345, 0.0, -0.024287, -0.006249, -0.0, 0.024287, -0.006096]",0.31,3.1
allene,-116.558108530893,7,0.0,"[-10.25319, -10.23283, -10.23279, -0.817751, -0.7282461, -0.5398339, -0.4676886, -0.4606439, -0.4606438, -0.2840387, -0.2840387]","[0.0, 0.0, 2.6e-05, 0.0, 0.0, 0.19384, 0.0, 0.0, -0.193864, 0.0, 0.002294, 0.003005, 0.0, -0.002294, 0.003023, 0.002296, 0.0, -0.003006, -0.002296, 0.0, -0.003024]",6.66,26.5
methane,-40.478439133287,5,0.0,"[-10.20139, -0.7149883, -0.4041356, -0.4041356, -0.4041356]","[-0.0, -0.0, 0.0, -0.001152, -0.001152, 0.000578, -0.001151, 0.001152, -0.000578, 0.001152, -0.001151, -0.00064, 0.001152, 0.001152, 0.00064]",0.66,5.1
carbon_monosulfide,-436.060489906931,7,0.758859,"[-89.05082, -10.33133, -8.053887, -5.985871, -5.985871, -5.984631, -0.859675, -0.541138, -0.3706834, -0.3706834, -0.3266437]","[0.0, -0.0, -0.2122, -0.0, 0.0, 0.2122]",1.32,5.2
sulfur_hexafluoride,-996.832852788674,7,0.0,"[-6.292637, -1.452869, -1.328446, -1.328446, -1.328446, -1.2758, -1.2758, -0.8423945, -0.6972433, -0.6972433, -0.6972433, -0.5960835, -0.5960835, -0.5960835, -0.5575903, -0.5575902, -0.5022929, -0.5022929, -0.5022929, -0.4999041, -0.4999041, -0.4999041, -0.4560344, -0.4560344, -0.4560344]","[-0.0, -0.0, 3e-05, -0.0, -0.0, -0.120945, -0.0, -0.004341, 7.1e-05, -0.004339, 2e-06, 7.1e-05, 2e-06, 0.004339, 7.1e-05, 0.004338, -0.0, 7.1e-05, -0.0, -0.0, 0.12063]",18.43,80.3
nonane,-354.726965839721,20,0.0349940000286,"[-10.20528, -0.8379094, -0.8180022, -0.7853753, -0.7418656, -0.6906534, -0.6376182, -0.5982886, -0.5922635, -0.5872402, -0.5007359, -0.482605, -0.4543046, -0.4495583, -0.4431234, -0.4195323, -0.4142149, -0.4139997, -0.3838996, -0.380508, -0.3597654, -0.3541418, -0.3504968, -0.3386258, -0.3355068, -0.3318511, -0.3282594, -0.3279866, -0.307095]","[-1e-06, 7e-06, -0.015682, 3e-06, -0.000647, 0.015554, -1e-06, 0.000653, 0.015556, -1e-06, -0.000524, -0.015524, -2e-06, 0.000528, -0.015517, -2e-06, -0.002436, 0.015006, -0.0, 0.002428, 0.015007, 0.0, -0.014343, -0.007091, -1e-06, 0.01434, -0.00709, -0.000974, 1e-06, 0.000403, 0.000975, -1e-06, 0.000443, -0.000985, -5.1e-05, -0.000419, 0.000982, -5.1e-05, -0.00046, 0.000977, 5e-05, -0.000422, -0.000977, 5.4e-05, -0.000461, -0.00109, -0.0001, 0.00049, 0.00109, -9.8e-05, 0.000527, 0.001099, 9.9e-05, 0.000488, -0.001097, 9.8e-05, 0.000526, 0.001143, -0.000194, -0.000422, -0.001142, -0.000194, -0.000468, -0.00114, 0.000193, -0.000424, 0.00114, 0.000193, -0.000468, 0.0, -0.002997, -0.000661, 0.001592, -0.000384, 0.000412, -0.001591, -0.000383, 0.000474, 0.0, 0.002996, -0.000661, -0.001591, 0.000382, 0.000413, 0.001592, 0.000383, 0.000473]",180.65,3327.5
furan,-229.860599581084,7,0.261097,"[-10.22858, -1.143427, -0.8269868, -0.7693356, -0.6188672, -0.590582, -0.5630081, -0.4718968, -0.4614666, -0.4261661, -0.4124792, -0.3916585, -0.2985493, -0.2458046]","[0.0, -5e-06, -0.047521, -0.0, -0.02099, 0.152863, -0.0, 0.020989, 0.15322, 0.0, -0.061982, -0.118143, -0.0, 0.061983, -0.114416, -0.0, -0.00076, 0.001188, 0.0, 0.000761, 0.001186, -0.0, 0.007878, -0.014192, -0.0, -0.007874, -0.014185]",19.17,87.4
methanol_radical,-114.976131623962,8,0.800425638333,"[-19.25913, -10.28015, -1.057646, -0.7004646, -0.5062876, -0.4790128, -0.4543239, -0.3570764, -0.3087852]","[0.021267, 0.016585, -0.0, 0.001343, -0.00618, 0.0, -0.004648, 0.002932, 0.0, -0.00898, -0.006668, 0.012808, -0.008983, -0.006669, -0.012808]",2.26,14.4
sodium_lithium,-169.677532773026,6,0.148533,"[-38.51537, -2.242897, -2.026196, -1.154333, -1.154333, -1.154235, -0.1360029]","[0.0, -0.0, -0.000395, -0.0, 0.0, 0.000395]",0.2,1.8
ethylene_oxide,-153.685784698283,7,0.742096,"[-10.27759, -10.2772, -1.108843, -0.7022357, -0.6559516, -0.535299, -0.5018814, -0.4143334, -0.4007515, -0.3340035, -0.2928195]","[0.0, -3.5e-05, 0.114748, -0.0, 0.012943, -0.054906, -0.0, -0.012914, -0.061843, 0.001699, -0.002744, 0.000499, -0.001699, -0.002744, 0.000498, -0.001713, 0.002747, 0.000503, 0.001713, 0.002747, 0.000502]",5.93,32.7
chlorine_diatomic,-920.117203260433,6,0.0,"[-7.305748, -7.305748, -7.30574, -7.30574, -0.9615498, -0.789768, -0.4892134, -0.427232, -0.427232, -0.3202298, -0.3202298]","[-0.0, -0.0, 0.130732, 0.0, 0.0, -0.130732]",0.74,3.7
aziridine,-133.823264290213,7,0.670147505978,"[-10.2518, -10.25102, -0.980847, -0.6795769, -0.6345774, -0.5353443, -0.4839113, -0.3898191, -0.3579055, -0.3525489, -0.2649102]","[-0.000373, -0.083176, 0.008266, 0.064923, 0.050724, -0.019286, -0.068042, 0.05285, -0.017735, 0.001386, -0.001944, 0.00825, -0.015218, 0.006312, 0.022303, -0.006537, -0.014826, -0.011909, 0.010995, -0.006409, -0.015445, 0.012867, -0.003532, 0.025556]",7.71,43.7
methoxyethane,-194.201607527381,7,0.47178130634,"[-10.21115, -1.0611, -0.7843416, -0.6930052, -0.6245958, -0.5021934, -0.497444, -0.467186, -0.4332435, -0.3957864, -0.373638, -0.364491, -0.3363699, -0.27279]","[-0.000131, -0.001585, -0.0, -0.035572, -0.009624, -0.0, -0.024, -0.004511, 0.0, 0.03557, -0.001753, 0.0, 0.009469, 0.007337, 0.013961, 0.009471, 0.007338, -0.013961, -0.001094, 0.002674, -0.0, 0.009571, 0.005315, -0.01364, 0.009573, 0.005316, 0.013639, -0.006715, -0.005848, -0.012482, -0.006715, -0.005849, 0.012482, 0.000574, 0.001188, -0.0]",16.9,107.2
ethane,-79.757437009065,6,0.0,"[-10.20956, -10.20932, -0.7731627, -0.633175, -0.4472555, -0.4472523, -0.37654, -0.3538728, -0.35387]","[0.002148, -0.0, 0.062869, -0.002148, 0.0, -0.062915, 0.004843, -0.0, 0.001573, -0.00274, -0.004458, 0.00162, -0.00274, 0.004458, 0.001649, -0.004911, 0.0, -0.00156, 0.002775, 0.004521, -0.001603, 0.002775, -0.004521, -0.001632]",5.65,25.7
carbon_tetrabromide,-10333.699444213695,7,0.0,"[-2.682815, -0.9344336, -0.8194329, -0.8194329, -0.8194329, -0.629762, -0.478571, -0.478571, -0.478571, -0.3603818, -0.3603818, -0.3340755, -0.3340755, -0.3340755, -0.3045626, -0.3045626, -0.3045626]","[0.0, -1e-06, -3e-06, -93.404332, -93.404333, -93.724112, 93.404334, 93.404334, -93.723863, 93.404371, -93.404371, 93.724114, -93.404372, 93.404372, 93.723864]",35.24,106.8
beryllium_diatomic,-29.282908953088,6,0.0,"[-4.112014, -4.11198, -0.3055923, -0.1922896]","[0.0, -0.0, -0.001193, -0.0, 0.0, 0.001193]",0.03,1.0
tetrachloroethylene,-1916.424143068435,8,0.0,"[-7.291352, -0.9923748, -0.9377916, -0.8945401, -0.8710126, -0.7565713, -0.5910703, -0.5334484, -0.5316433, -0.4738822, -0.4599594, -0.405739, -0.3821795, -0.3733178, -0.370561, -0.3644437, -0.3581242, -0.3284973, -0.2695796]","[0.0, -0.0, 0.205562, -0.0, 0.0, -0.206015, -0.0, -0.000594, 0.005313, -0.0, 0.000594, 0.005368, 0.0, 0.001296, -0.005087, 0.0, -0.001296, -0.005142]",16.05,65.5
silicon_monoxide,-364.572963814176,7,1.241471,"[-66.25566, -19.19321, -5.360948, -3.695105, -3.695105, -3.688106, -0.9691219, -0.453203, -0.3488607, -0.3488607, -0.324074]","[-0.0, 0.0, 0.32463, 0.0, -0.0, -0.32463]",1.29,5.3
trimethylamine,-174.332006425346,7,0.250228028224,"[-10.23771, -0.9490928, -0.7230709, -0.7230524, -0.6064444, -0.4821906, -0.4790699, -0.4790612, -0.4046717, -0.4046636, -0.3752272, -0.3705096, -0.370507, -0.2276075]","[-0.002136, -0.001956, 0.015563, 0.072309, 0.072376, -0.025859, -0.096387, 0.027914, -0.026861, 0.027957, -0.096575, -0.027036, -0.00037, -0.000372, 0.029409, 0.000203, -0.000258, 0.02929, -0.000254, 0.0002, 0.02929, -0.006337, 0.002022, -0.003962, 0.00203, -0.006371, -0.004031, 0.001099, -0.006315, -0.003911, 0.003716, 0.004495, -0.003976, 0.004519, 0.003739, -0.003933, -0.006348, 0.001102, -0.003982]",21.45,143.2
carbonyl_fluoride,-312.866693048829,8,0.439291,"[-10.48977, -1.382083, -1.310088, -1.149577, -0.7275549, -0.6558955, -0.6074799, -0.5780703, -0.5108609, -0.5024829, -0.4900505, -0.4260324, -0.3822695]","[-0.0, 0.0, 0.754404, 0.0, -0.0, -0.714436, -0.0, 0.074239, -0.019994, 0.0, -0.074239, -0.019975]",4.96,19.2
phosphorus_mononitride,-395.912474193507,7,1.14355,"[-77.22922, -14.42368, -6.652089, -4.786742, -4.786742, -4.781658, -0.8764932, -0.5121153, -0.3494092, -0.3494092, -0.3418516]","[0.0, 0.0, -0.21759, -0.0, -0.0, 0.21759]",1.36,5.6
carbon_tetrachloride,-1878.358625980441,7,0.0,"[-7.290393, -1.012232, -0.8812876, -0.8812876, -0.8812876, -0.6526098, -0.5235497, -0.5235497, -0.5235497, -0.3968803, -0.3968803, -0.368498, -0.368498, -0.368498, -0.33479, -0.33479, -0.33479]","[-0.0, 0.0, -0.0, -0.003899, -0.003899, -0.002155, 0.003899, 0.003899, -0.002058, 0.003923, -0.003923, 0.002155, -0.003923, 0.003923, 0.002058]",9.55,39.4
acrylonitrile,-170.693285964527,10,1.61075604858,"[-10.27447, -0.9339344, -0.846523, -0.6832692, -0.5616353, -0.501524, -0.4357477, -0.3996675, -0.3878648, -0.3533357, -0.3091107]","[0.004606, 0.004161, 0.0, -0.010289, 0.014009, 0.0, 0.032406, -0.065732, -0.0, -0.000592, -0.000487, -0.0, -0.000589, -0.000114, -0.0, 0.000313, -0.000701, -0.0, -0.025856, 0.048862, -0.0]",7.76,45.9
sodium_hydroxide,-237.990965244493,19,2.611977,"[-38.51844, -19.05131, -2.248824, -1.161726, -1.161726, -1.159488, -0.8420085, -0.3466412, -0.1919496, -0.1919492]","[0.0, -0.0, 0.153921, -0.0, 0.0, 0.013092, -0.0, 0.0, -0.167013]",1.25,9.6
methylene_t,-39.118634766371,7,0.237563,"[-10.27433, -0.7029086, -0.4698214, -0.2978164, -0.2643611]","[-0.0, -0.0, 0.006265, 0.0, 0.003179, -0.003122, -0.0, -0.003179, -0.003143]",0.26,2.9
carbon_monophosphide,-379.148563973178,12,0.376648,"[-77.2151, -10.32566, -6.635709, -4.771178, -4.767755, -4.767755, -0.7583327, -0.4819556, -0.3512611, -0.3164499, -0.3164499]","[0.0, 0.0, -0.151487, -0.0, -0.0, 0.151487]",1.33,7.9
formic_acid,-189.644802966822,8,0.577068809771,"[-19.21045, -10.36823, -1.15699, -1.066723, -0.6868174, -0.560838, -0.5204421, -0.4784947, -0.4299023, -0.3586595, -0.3084064]","[0.019854, -0.048114, -0.0, 0.02425, 0.012605, 0.0, -0.080224, 0.042535, 0.0, 0.033929, -0.000519, 0.0, 0.00219, -0.006508, -0.0]",3.98,17.6
aluminum_trifluoride,-541.960141921136,6,1.2e-05,"[-2.762331, -1.215475, -1.203314, -1.203313, -0.5320253, -0.4902821, -0.4902817, -0.4691447, -0.4577871, -0.4577861, -0.4507529, -0.4507526, -0.4329765]","[0.0, -0.00438, 0.0, 0.0, 0.017945, 0.0, 0.003379, -0.006782, -0.0, -0.003379, -0.006782, -0.0]",3.22,13.6
vinyl_radical,-77.835439246273,11,0.275342649637,"[-10.25947, -10.2337, -0.7943631, -0.5987702, -0.4816611, -0.4477854, -0.3023792, -0.2587698]","[-8.9e-05, 0.001747, -0.0, -0.003322, -0.004824, 0.0, 0.000818, -0.00267, 0.0, 0.004398, 0.003381, 0.0, -0.001805, 0.002365, -0.0]",1.59,15.7
nitrous_oxide,-184.555206929006,7,0.023462,"[-19.31075, -14.61643, -14.48599, -1.281134, -1.11841, -0.6303924, -0.587172, -0.587172, -0.499605, -0.3618375, -0.3618375]","[0.0, 0.0, -0.513451, -0.0, -0.0, -0.782824, 0.0, -0.0, 1.296275]",2.12,7.9
2_butyne,-155.844518720743,6,1.4e-05,"[-10.21471, -0.8025547, -0.7606214, -0.6839057, -0.4905899, -0.444076, -0.4404802, -0.4404791, -0.4269384, -0.4269372, -0.261784, -0.2617837]","[0.0, 0.000797, 0.60367, 0.0, 0.00082, -0.604321, -0.0, -0.001584, 0.163696, -0.0, -0.001583, -0.16313, 0.0, 0.009585, 0.006564, -0.007899, -0.004404, 0.006579, 0.007899, -0.004404, 0.006603, 0.0, 0.009563, -0.006536, 0.00788, -0.004394, -0.00655, -0.00788, -0.004394, -0.006574]",12.8,54.6
hydrogen_diatomic,-1.169028612867,4,0.0,"[-0.4411034]","[-0.0, 0.0, -0.007424, 0.0, -0.0, 0.007424]",0.01,1.1
beryllium_dihydride,-15.875760906518,5,0.0,"[-4.059289, -0.361015, -0.3248812]","[0.0, -0.0, 0.0, -0.0, -0.0, 0.006344, 0.0, 0.0, -0.006344]",0.09,1.5
beryllium_monohydride,-15.226662632843,7,0.101758,"[-4.099864, -0.3576497, -0.2100522]","[0.0, 0.0, -0.010134, -0.0, -0.0, 0.010134]",0.06,1.4
sodium_monoxide,-237.301332689583,8,3.127448,"[-38.53096, -19.11161, -2.26087, -1.174337, -1.173463, -1.170567, -0.8250723, -0.2850682, -0.2241164, -0.2127481]","[-0.0, -0.0, 0.069608, 0.0, 0.0, -0.069608]",0.53,3.5
phosphino_radical,-342.391669260376,6,0.239942,"[-77.20043, -6.619498, -4.760208, -4.752257, -4.749402, -0.6555517, -0.3992698, -0.3235096, -0.2662787]","[-0.0, 0.0, -0.007861, 0.0, 0.005478, 0.003921, 0.0, -0.005478, 0.00394]",0.49,3.9
boron_monochloride,-484.825974416337,7,0.637039,"[-101.7347, -9.580025, -7.309171, -7.306916, -7.306916, -6.898343, -0.9120951, -0.5283103, -0.4070308, -0.4070308, -0.2744852]","[0.0, -0.0, -0.082021, -0.0, 0.0, 0.082021]",1.16,4.9
ozone,-225.288154017750,7,0.255216,"[-19.33446, -19.33444, -1.392264, -1.12283, -0.8188614, -0.6176647, -0.6154721, -0.6134157, -0.3815255, -0.3696211, -0.3641523]","[0.0, -0.0, -0.051931, 0.0, 0.047721, 0.025939, -0.0, -0.04772, 0.025992]",1.63,8.4
water,-76.387345332634,6,0.740099,"[-19.21029, -1.044825, -0.5508766, -0.4105111, -0.3337702]","[-0.0, -0.0, 0.002331, 0.0, -0.027546, -0.001021, -0.0, 0.027546, -0.001311]",0.34,2.4
acetate_anion,-228.378164868528,10,1.45891629267,"[-10.04308, -0.8370119, -0.752105, -0.5516013, -0.3209077, -0.2601572, -0.2528667, -0.2377287, -0.1991046, -0.1724381, -0.06139839, -0.05044039, -0.04442655]","[0.010478, 0.019646, -0.0, 0.001712, 0.01876, 0.0, 0.005609, -0.001231, 0.0, -0.008707, -0.005957, 0.015231, -0.008707, -0.005956, -0.015231, 0.024929, -0.011254, 0.0, -0.025314, -0.014007, 0.0]",7.52,50.8
tetrachlorosilane,-2129.911765828571,7,0.0,"[-3.784342, -0.9200472, -0.871186, -0.871186, -0.871186, -0.5697124, -0.4662465, -0.4662465, -0.4662465, -0.394044, -0.394044, -0.3819529, -0.3819529, -0.3819529, -0.3519005, -0.3519005, -0.3519005]","[0.0, 0.0, -0.0, 0.006034, 0.006034, 0.007257, -0.006034, -0.006034, 0.00727, -0.00603, 0.00603, -0.007257, 0.00603, -0.00603, -0.00727]",8.55,36.8
oxygen_diatomic,-150.243278682209,7,0.0,"[-19.37068, -19.37045, -1.342735, -0.8717353, -0.5900462, -0.5900462, -0.5729704, -0.3309999, -0.3309999]","[-0.0, 0.0, -0.457953, 0.0, -0.0, 0.457953]",0.51,3.8
heptane,-276.162883239160,16,0.0353090000142,"[-10.21087, -0.8298775, -0.7992267, -0.7506124, -0.6893266, -0.6258227, -0.5886264, -0.58764, -0.4937248, -0.4665825, -0.4442825, -0.437528, -0.4267745, -0.4104445, -0.3835356, -0.3808909, -0.3677852, -0.3487782, -0.3449218, -0.3326277, -0.3309125, -0.3276437, -0.3138027]","[0.0, 2e-06, -0.017822, -3e-06, -0.000474, 0.017832, -1e-06, 0.000472, 0.017803, -0.0, -0.001907, -0.017138, 1e-06, 0.00191, -0.01714, 1e-06, -0.016185, 0.008162, -1e-06, 0.016183, 0.008162, -0.005527, -4e-06, 0.005053, 0.005527, 4e-06, 0.005094, -0.005475, -0.00014, -0.00513, 0.005478, -0.000141, -0.005169, 0.005475, 0.000139, -0.005131, -0.005475, 0.000141, -0.005169, 0.005496, -0.000195, 0.005079, -0.005496, -0.000195, 0.005126, -0.005495, 0.000195, 0.00508, 0.005495, 0.000195, 0.005126, -0.0, 0.004216, 0.005265, 0.005277, -1.2e-05, -0.005058, -0.005276, -1.3e-05, -0.005116, 0.0, -0.004216, 0.005265, -0.005277, 1.2e-05, -0.005058, 0.005276, 1.3e-05, -0.005116]",95.45,1488.2
methylene_s,-39.090882957665,6,0.715675,"[-10.30064, -0.6931595, -0.4260151, -0.2692275]","[-0.0, -0.0, -0.015523, -0.0, -0.018962, 0.007807, 0.0, 0.018962, 0.007716]",0.3,2.7
octane,-315.445010378688,11,0.0,"[-10.20802, -0.8329284, -0.8093521, -0.7707552, -0.7201615, -0.6628847, -0.6104286, -0.5901285, -0.5870621, -0.4969125, -0.4754154, -0.4496616, -0.4425968, -0.4305762, -0.4260357, -0.4040244, -0.3952551, -0.3685707, -0.3675514, -0.3611165, -0.3410984, -0.3382178, -0.3287547, -0.3287251, -0.3266584, -0.3159094]","[-0.024917, -0.015216, -0.0, 0.02493, 0.015216, -2e-06, 0.024361, 0.015779, -1e-06, -0.024374, -0.015787, 4e-06, -0.026044, -0.014443, -1e-06, 0.026038, 0.014445, 1e-06, 0.021894, 0.003653, 1e-06, -0.021894, -0.003651, 1e-06, 0.008271, 0.005198, 0.012884, 0.008272, 0.0052, -0.012884, -0.008266, -0.005196, 0.012871, -0.008269, -0.005198, -0.012873, -0.0081, -0.005126, -0.012781, -0.008101, -0.005127, 0.012782, 0.0081, 0.005127, -0.012782, 0.008099, 0.005126, 0.012781, 0.00882, 0.005458, 0.013162, 0.008821, 0.005459, -0.013162, -0.00882, -0.005458, 0.013161, -0.00882, -0.005458, -0.013161, -0.000974, 0.000979, 0.0, -0.00775, -0.003765, -0.011481, -0.00775, -0.003766, 0.011481, 0.000974, -0.000978, 0.0, 0.007748, 0.003765, -0.011479, 0.007749, 0.003765, 0.011479]",135.32,1164.5
beryllium_difluoride,-214.486521061223,6,0.0,"[-24.75032, -24.75032, -4.099556, -1.199187, -1.191871, -0.4948799, -0.485377, -0.4528879, -0.4528879, -0.4315333, -0.4315333]","[0.0, 0.0, 0.0, -0.0, -0.0, 0.254264, -0.0, -0.0, -0.254264]",0.64,3.2
dilithium_oxide,-90.216243108091,78,0.000556625547384,"[-19.00883, -1.925138, -1.924967, -0.7363169, -0.1882114, -0.1588763, -0.1588758]","[0.0, 3e-06, -0.00198, 1e-05, -2e-06, 0.190646, -1e-05, -1e-06, -0.188666]",0.43,18.0
thiophene,-552.776540813531,8,0.195516,"[-5.959161, -0.9074277, -0.7579636, -0.7461484, -0.5824092, -0.5714676, -0.5331583, -0.4252766, -0.4087637, -0.4015211, -0.3996283, -0.358637, -0.267677, -0.2526368]","[0.0, -1.1e-05, 0.074862, 0.0, 0.093483, 0.077001, 0.0, -0.093477, 0.077474, -0.0, -0.072154, -0.101379, -0.0, 0.072155, -0.10093, -0.0, 0.000175, 0.00314, 0.0, -0.000174, 0.003139, -0.0, 0.012407, -0.016658, 0.0, -0.012402, -0.016649]",20.22,101.5
ketene,-152.497842818867,8,0.578566,"[-19.27571, -10.35277, -10.23594, -1.154021, -0.8042464, -0.563507, -0.5087154, -0.5079213, -0.4754997, -0.4273188, -0.2625837]","[0.0, 0.0, -0.206924, -0.0, -0.0, -0.773553, -0.0, 0.0, 0.984986, -0.0, 0.003696, -0.002238, -0.0, -0.003696, -0.002272]",3.54,17.5
phosphorus_monofluoride,-441.001326949424,8,0.294294,"[-77.2606, -24.80585, -6.672513, -4.809452, -4.809452, -4.806046, -1.270106, -0.6595916, -0.5081563, -0.5081563, -0.4735494, -0.2550344, -0.2550344]","[-0.0, -0.0, 0.07071, 0.0, 0.0, -0.07071]",1.17,5.9
boron_diatomic,-49.343989676602,6,1e-06,"[-6.887851, -6.887091, -0.577927, -0.3111924, -0.2655167, -0.2655167]","[0.0, 0.0, -0.040591, -0.0, -0.0, 0.040591]",0.29,2.6
nitrogen_dioxide,-204.964785832804,7,0.137881,"[-19.32482, -19.32481, -14.6371, -1.325523, -1.175403, -0.7083812, -0.6071022, -0.6004019, -0.5943475, -0.4068411, -0.3997669, -0.3094446]","[0.0, 0.0, -0.028592, -0.0, -0.049657, 0.014622, 0.0, 0.049657, 0.01397]",2.16,9.7
argon_dimer,-1054.774227540798,5,0.0,"[-8.730552, -8.730542, -8.730542, -0.9927494, -0.9914835, -0.4467197, -0.4411651, -0.4411651, -0.4392678, -0.4392678, -0.433832]","[-0.0, -0.0, 0.000329, 0.0, 0.0, -0.000329]",0.28,2.7
sodium_diatomic,-324.391491630565,5,0.0,"[-38.51738, -38.51738, -2.24489, -2.244752, -1.157293, -1.156344, -1.156344, -1.156086, -1.156086, -1.155224, -0.1326817]","[-0.0, -0.0, -0.00063, 0.0, 0.0, 0.00063]",0.15,1.6
dimethylamine,-135.058496038574,7,0.41364746367,"[-10.23484, -0.921656, -0.7196901, -0.6450235, -0.5025978, -0.4557908, -0.4474389, -0.3969619, -0.3751599, -0.3741806, -0.2381189]","[0.043161, -0.227985, -3.1e-05, -0.022919, 0.124044, 0.114841, -0.022884, 0.124109, -0.114813, -0.003513, -0.002014, -1e-06, 0.003346, -0.001006, 2.6e-05, 0.003351, -0.001009, -2.6e-05, 0.000641, 0.001591, -0.00164, 0.000636, 0.001587, 0.00164, -0.000909, -0.009661, 0.009631, -0.000909, -0.009657, -0.009627]",9.74,63.3
cyclobutene,-155.846461031056,6,0.059974,"[-10.22352, -0.8820291, -0.6757026, -0.6635012, -0.5291719, -0.5130337, -0.4758216, -0.3937492, -0.3750238, -0.3413908, -0.3266342, -0.2624289]","[-0.0, -0.002703, 0.157797, -0.0, 0.002698, 0.148648, 0.0, 0.0068, -0.16061, 0.0, -0.006806, -0.15954, 0.0, 0.006312, 0.007073, 0.0, -0.006303, 0.007056, -0.002151, -0.002675, -9.2e-05, 0.002161, 0.002675, -8.5e-05, 0.002151, -0.002675, -0.000127, -0.002161, 0.002675, -0.00012]",16.55,75.0
acetic_acid,-228.946491306144,8,0.718663290089,"[-10.24202, -1.139768, -1.048134, -0.7889647, -0.632768, -0.5165305, -0.502789, -0.4920825, -0.4302235, -0.4191199, -0.4128809, -0.3453752, -0.3015261]","[-0.00658, 0.014065, 0.0, -0.01389, 0.028087, -0.0, -0.00668, -0.037773, 0.0, 0.033358, 0.001829, 0.0, -0.003863, 0.008851, 0.0, -0.000181, 0.001004, 0.0, -0.001082, -0.008031, 0.011398, -0.001083, -0.008031, -0.011398]",9.17,52.8
hydrogen_fluoride,-100.401161776213,6,0.713944,"[-24.76496, -1.235642, -0.5711165, -0.4350613, -0.4350613]","[-0.0, -0.0, -0.253586, 0.0, 0.0, 0.253586]",0.21,1.5
phosphorus_diatomic,-682.467612606175,6,1e-06,"[-4.764176, -4.764176, -4.763966, -4.763966, -4.760947, -4.758713, -0.6998694, -0.4782914, -0.3070487, -0.297522, -0.297522]","[0.0, 0.0, 0.172594, -0.0, -0.0, -0.172594]",0.84,4.6
sodium_fluoride,-262.035359556327,7,3.144769,"[-38.52688, -24.55964, -2.257438, -1.170535, -1.170535, -1.169441, -0.9772769, -0.2583618, -0.2497861, -0.2497861]","[-0.0, -0.0, 0.092423, 0.0, 0.0, -0.092423]",0.51,2.7
lithium_diatomic,-14.964510260686,5,0.0,"[-2.022134, -2.021758, -0.1394563]","[0.0, 0.0, 0.00076, -0.0, -0.0, -0.00076]",0.03,1.1
difluoromethane,-238.869118849686,7,0.749933,"[-10.38399, -1.296347, -1.238152, -0.7377346, -0.5760384, -0.5734974, -0.570865, -0.4520343, -0.4392236, -0.4299686, -0.3665157]","[-0.0, -0.0, 0.013196, 0.003606, -0.0, -0.003241, -0.003606, 0.0, -0.00318, 0.0, 0.046803, -0.003407, 0.0, -0.046803, -0.003369]",3.05,16.1
propene,-117.805916729423,7,0.16764603134,"[-10.21951, -10.21462, -0.8102862, -0.7057313, -0.5712932, -0.4814607, -0.4345414, -0.4269166, -0.3828891, -0.3578128, -0.2702922]","[-0.006512, 0.003428, 0.0, -0.009401, -0.017243, 0.0, 0.03219, 0.011175, -0.0, 0.000301, 0.000424, -0.0, -0.000242, -0.000717, 0.0, -3.6e-05, 0.000113, 0.0, 0.00066, -0.000297, 0.0, -0.008479, 0.001558, 0.011604, -0.008481, 0.001559, -0.011604]",9.25,46.2
difluorine_monoxide,-274.531866065029,7,0.128636,"[-19.43851, -1.381347, -1.270412, -0.9814729, -0.6435172, -0.5993235, -0.5762097, -0.4879429, -0.4744582, -0.4681376, -0.3633734]","[-0.0, 0.0, 0.029577, 0.0, 0.024929, -0.014889, 0.0, -0.024929, -0.014689]",1.46,6.7
phosphorus_monoxide,-416.390191104246,8,0.806005,"[-77.25765, -19.24683, -6.672916, -4.810321, -4.80833, -4.803242, -1.057036, -0.5791077, -0.4289108, -0.4108839, -0.4096974, -0.2164857]","[-0.0, -0.0, -0.335248, 0.0, 0.0, 0.335248]",1.36,6.4
tert_butyl_radical,-157.663885099160,8,0.100228000499,"[-10.21157, -0.828369, -0.7102991, -0.7102987, -0.5518532, -0.461315, -0.4530618, -0.4530611, -0.3982579, -0.3982576, -0.3769644, -0.3535303, -0.3535301, -0.1886619]","[1e-06, -0.001439, 0.017828, -0.0, -0.032659, 0.022284, -0.027617, 0.01833, 0.021593, 0.027616, 0.018336, 0.021572, -0.0, 0.00774, -0.031899, 0.002288, -0.002042, 0.002021, -0.002288, -0.002042, 0.002074, 0.006899, -0.004172, -0.03201, -0.002689, -0.001008, 0.002071, -0.000483, 0.002069, 0.002202, -0.006899, -0.004172, -0.03201, 0.000483, 0.002069, 0.002148, 0.00269, -0.001009, 0.002125]",21.4,169.3
lithium_fluoride,-107.358359701947,6,2.444241,"[-24.59817, -2.007243, -1.025139, -0.3066422, -0.2917879, -0.2917879]","[-0.0, -0.0, -0.24929, 0.0, 0.0, 0.24929]",0.28,2.2
acetyl_fluoride,-252.952357677609,8,1.15999912727,"[-10.25607, -1.287589, -1.112347, -0.8027429, -0.6422118, -0.5446219, -0.5345546, -0.5224048, -0.454379, -0.4492055, -0.4198054, -0.3968104, -0.3328631]","[-0.054353, 0.028343, 0.0, -0.009724, 0.02416, -0.0, -0.011549, -0.068728, 0.0, 0.075867, 0.029471, 0.0, -0.001747, -0.002256, 0.0, 0.000753, -0.005496, 0.005295, 0.000752, -0.005494, -0.005294]",8.59,43.0
lithium_hydroxide,-83.316317032490,7,1.758546,"[-19.08889, -1.991115, -0.8753803, -0.3902479, -0.2306969, -0.2306969]","[-0.0, 0.0, 0.039807, -0.0, -0.0, -0.185024, 0.0, -0.0, 0.145217]",0.83,3.2
propyne,-116.554696848442,7,0.334392000215,"[-10.25123, -10.23037, -10.21272, -0.8055146, -0.7229431, -0.5438108, -0.4635194, -0.4499401, -0.4499261, -0.2832104, -0.2832087]","[-0.0, -0.001697, -0.212595, -0.0, 0.000757, -0.589076, 0.0, 0.000127, 0.756619, -0.0, 7e-06, 0.047781, 0.0, 0.006213, -0.000884, 0.004989, -0.002703, -0.000911, -0.004989, -0.002703, -0.000933]",6.64,27.4
aluminum_monosulfide,-640.396007317806,8,1.556461,"[-5.907212, -5.899914, -5.899914, -4.22595, -2.754209, -2.754209, -2.75373, -0.6863756, -0.3825284, -0.2722176, -0.2661791, -0.2661791]","[-0.0, -0.0, 0.058805, 0.0, 0.0, -0.058805]",1.41,6.2
boron_monocarbide,-62.600039522000,11,0.590569,"[-10.32375, -6.892875, -0.7247513, -0.3953449, -0.3205726, -0.3205726, -0.3004888]","[0.0, -0.0, -0.141768, -0.0, 0.0, 0.141768]",0.68,4.5
boron_trichloride,-1405.176717842791,7,9.4e-05,"[-6.935035, -0.9215311, -0.8716, -0.8715921, -0.5503121, -0.4751826, -0.4751778, -0.4287946, -0.3689988, -0.368997, -0.3637118, -0.3637066, -0.3357604]","[-0.0, -0.0027, -0.0, 0.0, 0.015001, 0.0, 0.010863, -0.00615, 0.0, -0.010863, -0.006151, 0.0]",5.16,20.2
ethyl_radical,-79.089328599920,7,0.130060479632,"[-10.23002, -10.21724, -0.7819752, -0.629589, -0.4667814, -0.4300585, -0.4053845, -0.3697819, -0.2194466]","[0.014864, 0.027802, -0.0, -0.003273, -0.040969, 0.0, -0.003055, 0.002312, 0.0, -0.006191, -0.004277, 0.009932, -0.006192, -0.004278, -0.009931, 0.001923, 0.009704, -0.015223, 0.001924, 0.009705, 0.015223]",4.89,37.6
magnesium_hydroxide,-275.776856494049,17,0.477463,"[-46.89063, -19.13399, -3.152575, -1.875076, -1.875076, -1.87192, -0.9353536, -0.4632107, -0.2830532, -0.2830532, -0.1980466]","[-0.0, -0.0, 0.087988, 0.0, 0.0, 0.094473, 0.0, 0.0, -0.182461]",1.36,14.3
hydrogen_peroxide,-151.464951129738,6,0.624974,"[-19.27275, -19.27268, -1.156774, -0.9393532, -0.5401639, -0.5306899, -0.4503821, -0.3581412, -0.3066691]","[0.049624, 0.008876, 0.008933, -0.049625, -0.008874, 0.008697, -0.066204, -0.018666, -0.008815, 0.066205, 0.018664, -0.008815]",1.13,6.5
propane,-119.038864027098,6,0.0347930382979,"[-10.20615, -0.802992, -0.7002834, -0.6011493, -0.4701681, -0.4478648, -0.4113103, -0.3924642, -0.3480039, -0.3450686, -0.3369094]","[3.3e-05, -0.026607, -1.9e-05, 0.010406, 0.015194, -3e-06, -0.010434, 0.015159, 2.4e-05, 0.0, 0.012109, 0.013561, -3.7e-05, 0.012148, -0.01357, 0.001138, 0.000764, -0.0, -0.001114, 0.000789, 4e-06, -0.001997, -0.007386, 0.009509, -0.001997, -0.007387, -0.009507, 0.001993, -0.007389, -0.009509, 0.00201, -0.007394, 0.00951]",12.42,66.2
butane,-158.320431503556,7,0.0,"[-10.2075, -0.817689, -0.7443385, -0.6472558, -0.5913386, -0.4825644, -0.4388827, -0.4321693, -0.422441, -0.3785914, -0.359537, -0.3438586, -0.3318706, -0.3306474]","[0.011968, -0.01867, -0.0, -0.02363, 0.01396, 0.0, 0.023636, -0.014147, 0.0, -0.011974, 0.018849, -0.0, 0.000324, -0.000817, 0.0, -0.000319, 0.000815, 0.0, -0.007137, 0.004759, 0.012114, -0.007138, 0.004759, -0.012114, 0.007133, -0.004759, 0.012107, 0.007134, -0.004759, -0.012107, 0.008669, -0.005675, -0.013073, 0.00867, -0.005675, 0.013073, -0.008668, 0.00568, -0.013073, -0.008668, 0.005681, 0.013072]",22.83,150.6
carbon_dioxide,-188.476996854274,6,0.0,"[-19.29263, -19.29261, -10.41516, -1.197073, -1.15522, -0.5900589, -0.5444314, -0.54036, -0.54036, -0.394178, -0.394178]","[-0.0, -0.0, 3.7e-05, -0.0, -0.0, 0.950167, 0.0, 0.0, -0.950203]",1.92,6.7
magnesium_monohydride,-200.522722969920,7,0.512336,"[-46.89729, -3.157533, -1.87997, -1.87997, -1.876017, -0.3027988, -0.1807907]","[0.0, 0.0, 0.005183, -0.0, -0.0, -0.005183]",0.13,1.7
cyclopropene,-116.525253419765,7,0.183225,"[-10.2424, -10.2411, -10.23589, -0.8953212, -0.6198594, -0.5838526, -0.5199492, -0.4522565, -0.3623785, -0.3099365, -0.2664589]","[-0.0, -3.8e-05, 0.181529, 0.0, 0.072518, -0.088964, 0.0, -0.072497, -0.093923, 0.0, -0.001148, -0.000868, 0.0, 0.001168, -0.000852, 0.000966, -2e-06, 0.001537, -0.000966, -2e-06, 0.001541]",7.71,31.5
cyclobutane,-157.083266968776,6,0.0,"[-10.2168, -0.8678994, -0.6723075, -0.6723075, -0.5631054, -0.4901674, -0.4901131, -0.3929612, -0.3929612, -0.364043, -0.323441, -0.3156179, -0.3156179]","[0.0, -0.033726, -0.028998, 0.0, 0.033726, -0.02879, 0.033673, -0.0, 0.02901, -0.033673, -0.0, 0.028802, 0.0, 0.002155, -0.002703, 0.0, 0.011166, 0.037237, 0.0, -0.002155, -0.002702, 0.0, -0.011166, 0.037238, -0.002181, -0.0, 0.002723, -0.011168, -0.0, -0.037269, 0.002181, -0.0, 0.002722, 0.011168, -0.0, -0.03727]",21.32,113.0
silylene_s,-290.495350871856,6,0.0936674623762,"[-66.24292, -5.345331, -3.683792, -3.675125, -3.672665, -0.5233181, -0.3411408, -0.2516433]","[0.0, 0.001595, -0.025457, -0.0, -0.00143, 0.02498, -0.0, -0.000165, 0.000477]",0.46,3.7
aluminum_monohydride,-242.866313366478,5,0.020984,"[-56.13925, -4.187487, -2.717641, -2.717641, -2.710225, -0.3764497, -0.2138752]","[0.0, 0.0, 0.013062, -0.0, -0.0, -0.013062]",0.28,2.0
beryllium_oxide,-89.828491498973,10,2.573115,"[-19.12574, -4.09238, -0.8691286, -0.3060123, -0.2708838, -0.2708838]","[0.0, -0.0, -0.373888, -0.0, 0.0, 0.373888]",0.35,2.0
