,Energy,Iterations,Dipole Moment,Eigens,Derivatives,Derivative Time,Wall Time
bicyclo[3.1.0]hexane,-234.432026692176,8,0.0748609827747,"[-10.2148, -0.9063061, -0.7821759, -0.7264375, -0.6375862, -0.5691138, -0.5593577, -0.5259992, -0.4758123, -0.4471364, -0.4187071, -0.4041886, -0.3629203, -0.3476879, -0.345808, -0.337854, -0.2892904, -0.2769124]","[-0.014525, 0.077201, 0.003198, -0.045829, 0.019984, 0.005978, 0.016653, -0.074755, -0.001286, 0.017738, -0.066408, -0.003292, 0.029481, 0.026114, 0.072174, 0.023017, 0.021399, -0.076021, 0.001379, 0.008239, 0.000254, -0.005041, 0.00297, 0.000254, 0.007927, 0.002221, 0.000164, -0.007143, -0.012259, 0.000175, 0.000834, -0.001316, -0.006231, 0.000457, -0.000958, 0.005752, -0.008549, -0.002825, -0.001224, -0.009195, -0.003273, 0.001219, -0.004077, 0.00252, -0.005605, -0.003126, 0.001147, 0.00449]",84.38,419.5
phosphine,-343.024049277533,6,0.253635000018,"[-77.20609, -6.606937, -4.742069, -4.742068, -4.738411, -0.6629925, -0.3964967, -0.396495, -0.2894824]","[-0.0, 0.00027, -0.001523, -0.0, 0.001606, 6.4e-05, -0.002122, -0.000938, 0.00073, 0.002122, -0.000938, 0.00073]",0.82,4.2
beryllium_sulfide,-412.747775320138,10,2.167645,"[-88.97393, -7.954341, -5.888006, -5.886101, -5.886101, -4.137157, -0.6606471, -0.3169789, -0.2526948, -0.2526948]","[-0.0, 0.0, -0.020989, 0.0, -0.0, 0.020989]",1.64,6.4
lithium_oxide,-82.613560243547,7,2.572232,"[-19.13394, -2.013137, -0.855995, -0.3115725, -0.2558569, -0.2405583]","[0.0, -0.0, -0.013736, -0.0, 0.0, 0.013736]",0.55,2.2
carbon_monoxide,-113.229038745363,7,0.039695,"[-19.31672, -10.34543, -1.198905, -0.6001461, -0.4961392, -0.4961392, -0.3950918]","[0.0, 0.0, -0.91029, -0.0, -0.0, 0.91029]",0.61,1.9
magnesium_oxide,-275.063024743608,13,3.048006,"[-46.93946, -19.1127, -3.174588, -1.896814, -1.896814, -1.894903, -0.8144585, -0.2528659, -0.2235838, -0.2235838]","[0.0, -0.0, -0.011124, -0.0, 0.0, 0.011124]",1.54,7.1
aluminum_nitride,-296.893456077009,12,1.08759,"[-56.18247, -14.41581, -4.208819, -2.739323, -2.737424, -2.736349, -0.7908777, -0.3854065, -0.3317563, -0.2782814, -0.2665043]","[0.0, 0.0, 0.008986, -0.0, -0.0, -0.008986]",1.41,9.9
imidogen,-55.180173325165,7,0.602547,"[-14.46455, -0.8753108, -0.4214846, -0.3590408, -0.3590408]","[0.0, -0.0, 0.014018, -0.0, 0.0, -0.014018]",0.11,1.0
methyl_formate,-228.901820293083,8,0.756008462114,"[-10.28495, -1.145171, -1.056768, -0.7659625, -0.6227002, -0.5554888, -0.5077651, -0.5006687, -0.4427881, -0.4166568, -0.3882227, -0.33375, -0.3086318]","[-0.027813, -0.048502, -0.0, 0.006224, 0.006706, -0.0, -0.02817, 0.045831, 0.0, 0.054231, 0.011158, 0.0, 0.006197, -0.010119, 0.0, -0.00752, -0.001643, -0.0, -0.001575, -0.001716, -0.003769, -0.001575, -0.001716, 0.003769]",8.86,37.5
hypochlorite,-535.132040608152,10,0.491139,"[-19.31266, -9.619944, -7.35458, -7.350605, -7.342326, -1.135892, -0.8202802, -0.5121023, -0.5092559, -0.4693632, -0.3474366, -0.3071089]","[0.0, -0.0, 0.035948, -0.0, 0.0, -0.035948]",1.45,6.8
methanol,-115.638785135070,7,0.654105523509,"[-19.20704, -10.26511, -1.048342, -0.7046717, -0.5237625, -0.4556033, -0.4445254, -0.3524985, -0.292153]","[-0.018631, 0.008743, 0.0, 0.000185, -7.9e-05, 0.0, 0.005664, -0.001822, -0.0, 0.006841, -0.003798, 0.0022, 0.006841, -0.003798, -0.0022, -0.000899, 0.000754, 0.0]",2.45,8.8
vinyl_fluoride,-177.703378795110,8,0.540313666481,"[-10.31528, -10.2312, -1.260884, -0.798292, -0.6348592, -0.550197, -0.5032027, -0.4838566, -0.4292558, -0.3950764, -0.2851321]","[0.039086, 0.096398, 0.0, -0.014772, -0.044102, -0.0, -0.036328, -0.046862, 0.0, 0.009321, -0.016405, -0.0, -0.004998, 0.00903, -0.0, 0.007691, 0.001942, 0.0]",3.89,14.7
formaldehyde,-114.417931673368,7,0.944082,"[-19.23052, -10.32742, -1.096623, -0.6588572, -0.5163731, -0.4747463, -0.4219974, -0.2896091]","[0.0, -0.0, 0.54018, -0.0, -0.0, -0.560061, -0.0, 0.002926, 0.009941, 0.0, -0.002926, 0.009941]",1.5,4.3
sulfur_diatomic,-796.135342035440,7,0.0,"[-5.992146, -5.992146, -5.992086, -5.992086, -5.990561, -5.989708, -0.8661159, -0.6544954, -0.4167813, -0.3975636, -0.3975636, -0.2617428, -0.2617428]","[-0.0, -0.0, -0.153598, 0.0, 0.0, 0.153598]",1.48,7.9
acetaldehyde,-153.712257695017,8,1.16400587908,"[-10.32383, -10.23903, -1.075719, -0.7830611, -0.6056297, -0.4997891, -0.4643055, -0.4563418, -0.4151055, -0.3822063, -0.2781837]","[-0.15465, 0.02661, 0.0, 0.137224, -0.00931, -0.0, 0.032085, -0.013387, 0.0, 0.00478, -0.003553, -0.0, -0.004516, 0.005189, -0.0, -0.007461, -0.002775, -0.000782, -0.007461, -0.002775, 0.000782]",5.17,20.6
boron_monosulfide,-422.820886128861,12,0.345473,"[-89.03219, -8.014586, -6.892234, -5.948974, -5.945773, -5.945773, -0.7626519, -0.4502057, -0.3238607, -0.3216318, -0.3216318]","[-0.0, 0.0, 0.015468, 0.0, -0.0, -0.015468]",1.59,7.9
beryllium_monofluoride,-114.533930021359,7,0.462478,"[-24.74917, -4.106342, -1.197405, -0.4909311, -0.4413818, -0.4413818, -0.2361015]","[-0.0, 0.0, -0.06468, 0.0, -0.0, 0.06468]",0.59,2.3
phosphorus_tribromide,-8063.035187174703,7,0.139854000004,"[-2.691756, -0.8718137, -0.8124992, -0.8124992, -0.6189756, -0.4429827, -0.4429826, -0.404392, -0.3531817, -0.3531816, -0.3222437, -0.3222436, -0.312907, -0.2908963]","[-1e-06, -0.001432, -33.856255, -0.0]",41.25,133.2
sulfur_dioxide,-548.417962477163,7,0.640169000003,"[-6.099263, -6.095571, -1.185298, -1.091781, -0.6619637, -0.5190971, -0.51885, -0.517648, -0.3998045, -0.3856833, -0.3537953]","[-0.0, 2.3e-05, 0.028484, 0.0, 0.052552, -0.014003, 0.0, -0.052574, -0.014481]",2.7,9.6
methanethiol_radical,-437.903774722851,7,0.680438400582,"[-10.25898, -8.016344, -5.960075, -5.949439, -5.941588, -0.8100022, -0.6522068, -0.4608838, -0.4535793, -0.3865784, -0.3018468, -0.2564785]","[0.078988, -0.000253, 0.000568, -0.081489, 0.000238, -0.002224, -0.004012, 0.000107, -0.001645, 0.003338, 5.8e-05, 0.001665, 0.003175, -0.000151, 0.001637]",3.61,13.7
hydroxyl_radical,-75.686609425194,7,0.648703,"[-19.28471, -1.055783, -0.5003195, -0.4452064, -0.3664671]","[0.0, -0.0, 0.035331, -0.0, 0.0, -0.035331]",0.12,1.0
lithium_monosulfide,-405.565471975388,7,2.750115,"[-88.9612, -7.939727, -5.884763, -5.868432, -5.867935, -2.045658, -0.6363338, -0.2650376, -0.2421566, -0.2180638]","[-0.0, 0.0, -0.019291, 0.0, -0.0, 0.019291]",1.48,5.8
phosphorus_dioxide,-491.591766018959,8,0.563484000001,"[-4.863536, -4.862027, -4.8579, -1.111854, -1.065162, -0.594079, -0.4929998, -0.4726934, -0.466101, -0.3937071, -0.3918804, -0.3300231]","[-0.0, 3.6e-05, -0.01502, 0.0, 0.023122, 0.007397, 0.0, -0.023159, 0.007623]",2.7,12.0
formaldoxime_zwitterion,-169.680242215677,10,1.41798238552,"[-14.54041, -10.27754, -1.145548, -0.8909989, -0.6858256, -0.5713885, -0.5075925, -0.473525, -0.441402, -0.280822, -0.2547176]","[-0.048152, 0.032987, -0.000549, 0.082693, -0.080965, 0.001598, -0.038218, 0.028407, -0.000534, -0.000822, 0.008105, -0.000576, 0.003789, 0.011789, 0.000195, 0.00071, -0.000323, -0.000132]",5.88,21.0
tetrafluoroethylene,-475.253015758535,7,0.0,"[-10.41643, -1.356554, -1.34237, -1.298146, -1.287323, -0.8475203, -0.6988635, -0.6540138, -0.6458113, -0.5993558, -0.5906261, -0.5465987, -0.5198392, -0.4969258, -0.4905835, -0.4850394, -0.4813092, -0.4660503, -0.285382]","[-0.0, -2.6e-05, 0.29316, -0.0, 2.6e-05, -0.272521, 0.0, -0.084839, -0.091455, -0.0, 0.084867, -0.091498, -0.0, 0.071447, 0.081135, 0.0, -0.071474, 0.081178]",9.85,35.0
boron_dioxide,-175.174229794922,8,5.4e-05,"[-19.29709, -19.29708, -6.867319, -1.090623, -1.088964, -0.516499, -0.4985574, -0.4978559, -0.4624717, -0.4376225, -0.3916905]","[0.0, -0.0, 0.000244, -0.0, 0.0, 0.103933, 0.0, 0.0, -0.104177]",1.23,5.8
cyano_radical,-92.632986224296,12,0.582488,"[-14.4538, -10.35139, -0.9865419, -0.5255352, -0.4247881, -0.4047372, -0.4047372]","[-0.0, 0.0, -0.403989, 0.0, -0.0, 0.403989]",0.62,3.1
boron_nitride,-79.339034666731,11,0.857411,"[-14.43805, -6.886669, -0.8735953, -0.4281847, -0.3856124, -0.3406043, -0.3363101]","[0.0, 0.0, -0.144152, -0.0, -0.0, 0.144152]",0.58,5.0
acetyl_chloride,-613.209162099376,10,1.11171500375,"[-7.2658, -1.130332, -0.8816027, -0.7884215, -0.5880311, -0.5139752, -0.4979862, -0.4966423, -0.4342332, -0.4203501, -0.345448, -0.3410059, -0.3174263]","[0.090253, -0.018026, 0.0, -0.096833, -0.016234, 0.0, -0.036445, -0.001989, -0.0, 0.016227, 0.04414, -0.0, 0.005993, 0.003983, -0.0, 0.010404, -0.005938, 0.011212, 0.010404, -0.005938, -0.011212]",11.93,49.7
magnesium_diatomic,-399.940299825085,5,0.0,"[-46.91314, -3.144403, -3.144395, -1.865795, -1.865795, -1.865794, -1.865794, -1.865471, -1.865446, -0.2223675, -0.1810394]","[-0.0, -0.0, -0.003093, 0.0, 0.0, 0.003093]",0.95,6.2
methyl_chloride,-499.945006110754,6,0.744405000081,"[-9.525345, -7.259445, -7.250793, -7.250793, -0.8759254, -0.6946389, -0.457331, -0.4573295, -0.4333167, -0.3129627, -0.3129624]","[-0.001171, -0.0, -0.070413, 0.005974, 0.0, 0.084742, 0.003, -0.0, -0.003931, -0.003902, 0.007852, -0.005199, -0.003902, -0.007852, -0.005199]",3.42,10.5
dimethyl_ether,-154.903602337757,7,0.496327,"[-10.26255, -1.064769, -0.7426036, -0.6583403, -0.4909825, -0.4891314, -0.4890132, -0.4092605, -0.3918206, -0.3346107, -0.2729023]","[-0.0, -0.0009, -0.063471, -0.0, 0.006181, 0.014053, -0.0, -0.005407, 0.020551, -0.0, 0.001482, -0.003214, -0.0, -0.001538, -0.003155, -0.002332, -0.002854, 0.008792, 0.002332, -0.002854, 0.008792, 0.002269, 0.002945, 0.008826, -0.002269, 0.002945, 0.008826]",8.38,32.2
methyl_ketene,-191.765338139471,8,0.758981441916,"[-10.23841, -1.14109, -0.8283146, -0.7094194, -0.5511357, -0.513642, -0.4732215, -0.4697265, -0.4317573, -0.4170833, -0.3981475, -0.2433035]","[0.071105, -0.003673, -3e-06, -0.078868, -0.048031, -6e-06, -0.01251, -0.00768, -4e-06, 0.008492, 0.066847, 4e-06, -0.001939, -0.015308, -4e-06, 0.001424, 0.0108, 7e-06, 0.006144, -0.001475, 0.002734, 0.006152, -0.001482, -0.002728]",9.69,38.8
tetrafluorosilane,-688.828540253057,7,0.0,"[-3.78795, -1.304033, -1.267343, -1.267343, -1.267343, -0.6424643, -0.5721533, -0.5721533, -0.5721533, -0.5184933, -0.5184933, -0.5083989, -0.5083989, -0.5083989, -0.4716744, -0.4716744, -0.4716744]","[0.0, -2.4e-05, 4.4e-05, -0.000994, -0.000994, -0.006651, 0.001006, 0.001006, -0.006774, 0.001041, -0.001042, 0.006629, -0.001054, 0.001054, 0.006752]",6.56,28.9
silicon_monosulfide,-687.466101189513,7,0.680836,"[-5.930801, -5.930085, -5.37703, -3.711297, -3.711297, -3.705753, -0.7321642, -0.4521225, -0.3043638, -0.3043638, -0.2965809]","[0.0, 0.0, -0.128055, -0.0, -0.0, 0.128055]",3.55,9.7
sulfur_monochloride,-858.103222882279,8,0.002022,"[-7.310065, -7.30516, -6.007571, -6.003026, -5.990349, -0.927881, -0.7117244, -0.453569, -0.4281403, -0.4071545, -0.3074349, -0.2705007]","[0.0, -0.0, 0.017404, -0.0, 0.0, -0.017404]",3.35,10.3
neon_dimer,-257.716702831024,5,0.0,"[-31.06615, -31.06614, -1.493254, -1.492665, -0.5922248, -0.589005, -0.589005, -0.5879035, -0.5879035, -0.5847305]","[-0.0, -0.0, 5e-06, 0.0, 0.0, -5e-06]",0.06,0.8
formaldoxime,-169.693185224114,8,0.153540184199,"[-14.45234, -10.2626, -1.120177, -0.8941568, -0.6336641, -0.5551818, -0.4866829, -0.4404611, -0.4340944, -0.308229, -0.290202]","[-0.030678, 0.019491, 0.0, 0.071158, -0.059177, -0.0, -0.041852, 0.027042, -0.0, -0.00378, 0.013901, 0.0, 0.003599, 0.00879, -0.0, 0.001553, -0.010046, 0.0]",5.69,16.6
lithium_chloride,-467.648819675089,7,2.751856,"[-101.6042, -9.430761, -7.159477, -7.158899, -7.158899, -2.049654, -0.733816, -0.2874625, -0.2640772, -0.2640772]","[-0.0, -0.0, -0.027391, 0.0, 0.0, 0.027391]",1.41,5.0
isopropyl_radical,-118.368833147363,7,0.116277145067,"[-10.21382, -10.21381, -0.8070939, -0.7112619, -0.5883888, -0.4668405, -0.4452059, -0.4215376, -0.3986243, -0.3652876, -0.3584988, -0.2006476]","[-0.012985, 0.114398, 0.000584, -0.001466, -0.054173, 0.054721, -0.001626, -0.054585, -0.055201, 0.008372, -0.011628, 2.2e-05, -0.000143, -0.001607, -0.002161, -0.000119, -0.001518, 0.002046, 0.009486, 0.000716, 0.000482, -0.005482, 0.003965, 0.000647, -0.00537, 0.00381, -0.000627, 0.009333, 0.000623, -0.000512]",12.47,48.7
cyanogen,-185.502020147755,7,0.0,"[-10.34061, -10.34, -1.01447, -0.9951372, -0.7706976, -0.4736336, -0.4736336, -0.4541098, -0.4410306, -0.3929361, -0.3929361]","[0.0, -0.0, -0.475403, -0.0, 0.0, 0.487845, -0.0, 0.0, 0.562499, 0.0, -0.0, -0.574941]",3.0,12.3
boron_monohydride,-25.248128357302,5,0.627075,"[-6.881077, -0.4991522, -0.2454743]","[0.0, 0.0, -0.091386, -0.0, -0.0, 0.091386]",0.1,0.7
thiirane,-476.601876874412,7,0.757001,"[-5.929131, -5.922283, -0.8909252, -0.6423078, -0.6370254, -0.512922, -0.4678199, -0.4020527, -0.3401268, -0.3304936, -0.2420345]","[0.0, -0.000147, 0.045602, -0.0, -0.010904, -0.031411, -0.0, 0.011326, -0.026444, -0.001022, -0.004559, 0.003074, 0.001022, -0.004559, 0.003074, 0.000867, 0.004422, 0.003052, -0.000867, 0.004422, 0.003052]",7.77,29.6
sodium_chloride,-622.339897519376,6,3.469614,"[-7.137362, -7.136311, -7.136311, -2.29129, -1.203725, -1.203725, -1.202076, -0.7074355, -0.2568409, -0.2403567, -0.2403567]","[-0.0, 0.0, 0.03059, 0.0, -0.0, -0.03059]",3.88,10.0
magnesium_sulfide,-598.029742541469,10,3.118719,"[-5.867376, -5.861125, -5.861125, -3.203291, -1.924882, -1.924882, -1.924815, -0.6171485, -0.2705532, -0.2149783, -0.2149783]","[-0.0, -0.0, 0.01002, 0.0, 0.0, -0.01002]",4.29,12.1
methyl_silane,-331.057439985917,7,0.311790005582,"[-5.315105, -3.648523, -3.648523, -3.648021, -0.7239059, -0.5339791, -0.4258293, -0.425819, -0.3439305, -0.3439239, -0.3389736]","[-0.0, -0.003393, -0.062105, 0.0, -0.000908, 0.052483, 0.0, 0.011805, 0.003791, 0.006568, -0.004004, 0.002807, -0.006568, -0.004004, 0.002807, 0.0, -0.00161, 0.000437, 0.002407, 0.001057, -0.00011, -0.002407, 0.001057, -0.00011]",6.43,24.5
aluminum_trichloride,-1622.762228099961,7,1e-05,"[-2.791396, -0.8686523, -0.8514142, -0.8514135, -0.4834575, -0.4198264, -0.4198262, -0.386758, -0.3696277, -0.3696269, -0.3637523, -0.3637517, -0.3461133]","[1e-06, -0.004579, 0.0, 0.0, 0.010005, 0.0, 0.00035, -0.002713, 0.0, -0.000351, -0.002713, -0.0]",10.65,41.6
methanethiol,-438.545040444479,7,0.635609571677,"[-7.997182, -5.933687, -5.930364, -5.924836, -0.8028815, -0.6630597, -0.4636303, -0.4449138, -0.4133888, -0.3393756, -0.2497992]","[0.050388, -0.031931, -0.009231, -0.052737, 0.039738, 0.004292, 0.00248, -0.008001, -0.003228, 0.005757, 0.005916, 0.001091, -0.006811, -0.009465, -0.002553, 0.000922, 0.003742, 0.009628]",4.33,15.1
hypochlorous_acid,-535.785698542300,7,0.604625281989,"[-9.574613, -7.31239, -7.298578, -7.298242, -1.108715, -0.8252727, -0.5563165, -0.4690467, -0.4350174, -0.3360392, -0.3025909]","[-0.000496, -0.049716, -0.0, 0.002762, -0.004428, 0.0, -0.002266, 0.054145, -0.0]",2.51,6.9
lithium_hydride,-8.052269505845,6,2.264069,"[-2.018406, -0.1999162]","[-0.0, -0.0, -0.005872, 0.0, 0.0, 0.005872]",0.09,0.7
monosulfur_monofluoride,-497.790492985481,8,0.286549,"[-24.8273, -8.090141, -6.031745, -6.028237, -6.012963, -1.2863, -0.7567075, -0.5272254, -0.5265334, -0.5098016, -0.3270719, -0.2810083]","[-0.0, -0.0, 0.053564, 0.0, 0.0, -0.053564]",1.4,5.7
ammonia,-56.516704807051,6,0.60000400048,"[-14.36113, -0.8783435, -0.4762453, -0.4762277, -0.2844434]","[-0.0, -0.002837, -0.027617, 0.0, 0.011886, 0.011282, -0.003792, -0.004524, 0.008167, 0.003792, -0.004524, 0.008167]",0.34,1.7
boron_monofluoride,-124.577348820825,7,0.38377,"[-24.85973, -6.895069, -1.332655, -0.6413755, -0.5484685, -0.5484685, -0.2958858]","[0.0, -0.0, -0.364157, -0.0, 0.0, 0.364157]",0.58,1.9
carbon_tetrafluoride,-437.259999729423,7,0.0,"[-10.56742, -1.426961, -1.308119, -1.308119, -1.308119, -0.7678337, -0.6743214, -0.6743213, -0.6743213, -0.5379904, -0.5379904, -0.5092166, -0.5092166, -0.5092166, -0.4654897, -0.4654897, -0.4654897]","[-0.0, -1e-06, -1.4e-05, -0.002346, -0.002346, -0.027689, 0.002347, 0.002347, -0.027349, 0.002104, -0.002104, 0.027696, -0.002105, 0.002105, 0.027356]",5.1,21.7
silicon_diatomic,-578.627385810879,7,1e-06,"[-5.367756, -5.367573, -3.703906, -3.703813, -3.702758, -3.701769, -3.697541, -3.69745, -0.5555525, -0.4016584, -0.2591665, -0.2460511, -0.2198456]","[0.0, 0.0, -0.09817, -0.0, -0.0, 0.09817]",1.38,7.4
acetylene,-77.257253625424,6,3e-05,"[-10.23674, -10.23412, -0.7795252, -0.5875852, -0.5137101, -0.3100686, -0.3100686]","[-0.0, -0.0, 0.465729, 0.0, 0.0, -0.460908, -0.0, 0.0, -0.00718, 0.0, 0.0, 0.002359]",0.86,3.5
phosphorus_trichloride,-1721.540912980802,8,0.20007100702,"[-4.864126, -0.9340621, -0.8688168, -0.8688116, -0.631658, -0.4766642, -0.4766604, -0.4367855, -0.3883088, -0.3883072, -0.3538398, -0.353836, -0.343253, -0.3030658]","[-0.0, -0.001827, 0.008732, 0.0, 0.009079, -0.005536, 0.002818, -0.003626, -0.001483, -0.002818, -0.003625, -0.001713]",11.34,49.7
magnesium_monochloride,-660.100640661058,7,1.319688,"[-7.209356, -7.206672, -7.206672, -3.192717, -1.915109, -1.915109, -1.91267, -0.7857713, -0.355158, -0.3090762, -0.3090762, -0.2118652]","[0.0, 0.0, 0.032021, -0.0, -0.0, -0.032021]",4.06,10.8
carbon_disulfide,-834.222067918946,7,0.0,"[-5.969633, -5.969631, -5.969631, -0.8850474, -0.7929702, -0.5273845, -0.4467902, -0.4072684, -0.4072684, -0.2887533, -0.2887533]","[0.0, -0.0, -4e-06, 0.0, 0.0, -0.285354, -0.0, 0.0, 0.285358]",4.23,14.5
magnesium_monofluoride,-299.807347904671,7,1.242195,"[-46.93703, -24.66331, -3.172672, -1.895624, -1.895624, -1.892478, -1.094891, -0.384353, -0.3538793, -0.3538793, -0.2105317]","[0.0, 0.0, 0.090199, -0.0, -0.0, -0.090199]",1.51,6.1
methyl_radical,-39.800103415405,7,6e-06,"[-10.23624, -0.7103033, -0.434957, -0.4349567, -0.2508451]","[0.008605, -0.0, -0.0, -0.009645, -0.0, 0.0, 0.00052, -0.005564, -0.0, 0.00052, 0.005564, 0.0]",0.35,2.3
ethylene,-78.513351739610,6,0.000240002083324,"[-10.22775, -10.22682, -0.784511, -0.598703, -0.4858075, -0.4325932, -0.3696081, -0.2887064]","[0.0, -0.0, 0.311291, -0.0, -0.0, -0.308784, 0.0, -0.008268, -0.013245, 0.0, 0.008268, -0.013245, 0.0, -0.006517, 0.011992, 0.0, 0.006517, 0.011992]",4.53,10.3
trifluoroacetate_anion,-525.969160860921,10,1.88783704143,"[-10.14712, -1.181397, -1.092763, -1.092472, -0.8870703, -0.8047741, -0.57839, -0.4658249, -0.447235, -0.4447069, -0.3286385, -0.3285792, -0.3207427, -0.290825, -0.2861619, -0.2678479, -0.2631263, -0.251756, -0.2339858, -0.09862869, -0.09004139, -0.08839677]","[-0.027561, -0.204035, 2.7e-05, -0.015435, 0.07803, 1.4e-05, -0.01386, 0.072231, 2.9e-05, -0.005963, 0.005283, -0.018654, -0.005842, 0.005291, 0.018565, 0.074157, 0.031237, 7e-06, -0.005495, 0.011962, 1.2e-05]",15.84,82.5
bromoform,-7760.375805894399,7,0.350523002637,"[-2.689963, -0.9132761, -0.8133853, -0.8133834, -0.6588136, -0.4993945, -0.4604015, -0.4604012, -0.3432341, -0.343232, -0.3182965, -0.3165044, -0.3165032, -0.2993022]","[-0.0, 0.036202, -11.943578, 0.0, 0.002163, -2.627499, -0.0]",43.55,134.1
nitrogen_trifluoride,-353.896597124204,7,0.0705020010212,"[-14.68882, -1.424307, -1.292165, -1.292137, -0.8620352, -0.6646719, -0.6646585, -0.6162433, -0.5232889, -0.5232885, -0.4777334, -0.4777172, -0.4625807, -0.3785279]","[-9e-06, 0.008777, -0.061296, -1e-06, -0.030955, 0.032009, -0.000491, 0.011089, 0.014323, 0.000501, 0.011089, 0.014964]",2.55,10.8
phosphorus_tetramer,-1365.037557649670,6,7.9605276207e-05,"[-4.77161, -0.8254016, -0.5573117, -0.5573117, -0.5573051, -0.3635342, -0.3101987, -0.3101955, -0.3101908, -0.279221, -0.2792181]","[0.000497, -8e-06, 0.117969, 0.01624, -2e-05, -0.032261, -0.008525, -0.015393, -0.039403, -0.008212, 0.015421, -0.046305]",11.58,42.9
phosphorus_monochloride,-801.280129477075,8,0.189328,"[-7.286993, -7.286993, -6.667588, -4.80514, -4.80514, -4.801212, -0.8916484, -0.621972, -0.4077304, -0.3975768, -0.3975768, -0.2545695, -0.2545695]","[0.0, -0.0, 0.035942, -0.0, 0.0, -0.035942]",3.35,10.1
mercapto_radical,-398.622027509701,7,0.311446,"[-89.05747, -8.036101, -5.980362, -5.968643, -5.961328, -0.7605438, -0.4272092, -0.3405934, -0.2893922]","[-0.0, -0.0, 0.011109, 0.0, 0.0, -0.011109]",0.43,3.5
pentane,-197.588836918431,7,0.0349280000716,"[-10.20536, -0.8270028, -0.7735794, -0.6953966, -0.6157094, -0.5913004, -0.4905455, -0.4517758, -0.4448102, -0.417065, -0.4055438, -0.3872607, -0.3636158, -0.3437517, -0.3363247, -0.3291525, -0.3253831]","[-0.0, 0.000752, -0.103214, 0.0, -0.002775, 0.090194, -0.0, 0.002098, 0.090196, 0.0, 0.008622, -0.040772, -0.0, -0.00846, -0.040988, -0.012339, 3.4e-05, -0.004957, 0.012339, 3.4e-05, -0.004957, -0.011701, -0.000432, 0.005118, 0.011701, -0.000432, 0.005118, 0.011696, 0.000276, 0.005058, -0.011696, 0.000276, 0.005058, -0.0, -0.001334, 0.007847, 0.0, 0.001351, 0.007844, 0.008007, -7.9e-05, -0.005382, -0.008007, -7.9e-05, -0.005382, -0.008015, 7.5e-05, -0.005391, 0.008015, 7.5e-05, -0.005391]",59.25,292.1
isopropyl_alcohol,-194.207305199426,7,0.640676260064,"[-10.20819, -1.046519, -0.7969321, -0.7127491, -0.6031153, -0.5297364, -0.4695386, -0.4512754, -0.4037881, -0.3932489, -0.3822477, -0.3679105, -0.3390127, -0.2880829]","[-0.017126, -0.027252, 0.002456, -0.019786, -0.047233, -0.033381, 0.020691, 0.038014, 0.017833, 0.002315, 0.033322, 0.016066, 0.014691, 0.006029, -0.001559, -3.3e-05, 0.000979, 0.008454, 0.00022, -0.002023, 0.001158, 0.000573, -0.001701, 0.001244, -0.002225, -0.002225, -0.002463, -0.000233, -0.003116, -0.003425, -0.000394, 0.002662, -0.003116, 0.001307, 0.002545, -0.003266]",23.38,90.6
glyoxal_trans,-227.657130476374,7,0.0,"[-10.35164, -1.127231, -1.113436, -0.7403515, -0.621673, -0.5206286, -0.5195048, -0.4833138, -0.4731493, -0.421007, -0.3563595, -0.2922557]","[0.014447, -0.06238, 0.0, -0.014669, 0.061751, 0.0, 0.011638, -0.004642, 0.0, -0.011804, 0.00498, 0.0, -0.027216, -0.042642, -0.0, 0.027604, 0.042934, -0.0]",5.57,19.7
ethanol,-154.921515140908,7,0.645501880835,"[-10.2114, -1.045835, -0.7734425, -0.627587, -0.5300563, -0.4854019, -0.4195537, -0.3958449, -0.3807645, -0.3484866, -0.2874234]","[0.003825, 0.01172, 0.0, 0.029124, -0.013375, -0.0, 0.003965, -0.003272, -0.0, -0.013245, 0.006373, -0.0, -0.001739, 0.004594, -0.0, -0.005248, -0.004062, -0.003277, -0.005248, -0.004062, 0.003277, -0.005716, 0.001042, -0.006407, -0.005716, 0.001042, 0.006407]",8.87,32.8
nitrogen_monofluoride,-154.348512907335,8,0.044193,"[-24.8684, -14.541, -1.358203, -0.8438239, -0.5705743, -0.5705743, -0.5411744, -0.3336076, -0.3336076]","[-0.0, 0.0, 0.081371, 0.0, -0.0, -0.081371]",0.54,2.4
vinyl_chloride,-537.992788462576,7,0.557174577299,"[-7.265016, -7.264454, -0.9029813, -0.7752048, -0.6049472, -0.5077751, -0.4664871, -0.4020353, -0.3870903, -0.3298626, -0.2782724]","[-0.0, 0.02103, 0.347511, -0.0, 0.015412, -0.291817, -0.0, -0.039837, -0.072372, 0.0, 0.0024, -0.011196, 0.0, -0.010521, 0.01497, 0.0, 0.011516, 0.012904]",6.05,20.8
ammonia_oxide,-131.596135726970,8,2.07152600001,"[-19.13031, -14.52629, -1.083004, -0.831755, -0.58815, -0.588149, -0.4423411, -0.2290328, -0.2290325]","[-0.0, 0.002972, 0.132671, -0.0, -0.000559, -0.158222, 0.0, -0.013032, 0.009244, -0.008303, 0.00531, 0.008153, 0.008303, 0.00531, 0.008153]",1.84,6.8
methylenecyclopropane,-155.825545092476,7,0.162192001236,"[-10.2203, -0.8935793, -0.7358348, -0.6329924, -0.5503528, -0.4937857, -0.484591, -0.4403804, -0.3849361, -0.327038, -0.305625, -0.2691147]","[-0.0, 1.6e-05, 0.273948, -0.0, 5.1e-05, -0.194969, 1e-06, 0.023799, -0.035032, 1e-06, -0.024327, -0.043322, -0.0, -0.011072, -0.007019, -0.0, 0.011076, -0.007017, 0.002453, 0.00083, 0.003346, -0.002454, 0.00083, 0.003346, -0.002625, -0.000602, 0.003359, 0.002624, -0.000601, 0.003359]",17.87,68.8
oxygen_monofluoride,-174.776502668132,9,0.007993,"[-24.87833, -19.38209, -1.363973, -0.9952914, -0.5929935, -0.5870432, -0.551583, -0.4195072, -0.3621102]","[0.0, 0.0, 0.075171, -0.0, -0.0, -0.075171]",0.51,2.5
methylamine,-95.780617792624,7,0.502388208767,"[-14.36263, -10.23573, -0.8996993, -0.679678, -0.5048829, -0.4538408, -0.416368, -0.3792327, -0.2519958]","[-0.006914, -0.017702, -0.0, -0.009041, 0.030656, 0.0, 0.006733, -0.005054, -0.0, 0.002882, -0.000514, 0.000218, 0.002882, -0.000514, -0.000218, 0.001729, -0.003437, 0.003193, 0.001729, -0.003437, -0.003193]",3.63,12.8
hydrogen_chloride,-460.676195309621,6,0.440397,"[-101.7158, -9.54208, -7.275679, -7.267662, -7.267662, -0.8703789, -0.4894704, -0.3494073, -0.3494073]","[-0.0, -0.0, 0.000104, 0.0, 0.0, -0.000104]",0.43,3.0
ethanethiol,-477.825832094895,7,0.651649018203,"[-5.9221, -0.8269796, -0.7259061, -0.6208522, -0.4781162, -0.4761243, -0.4065683, -0.3783041, -0.3768961, -0.3400653, -0.249405]","[-0.001675, -0.000715, -0.0, 0.01741, -0.016698, 0.0, -0.011239, 0.026591, -0.0, 0.003814, -0.001752, -0.0, 0.000654, -0.007304, -0.002101, 0.000654, -0.007304, 0.002101, -0.000783, 0.008265, -0.001635, -0.000783, 0.008265, 0.001635, -0.008052, -0.00935, 0.0]",11.4,43.6
acetamide,-209.063030738725,10,1.5190409823,"[-10.24263, -1.065951, -0.9292489, -0.7595978, -0.6060449, -0.5514114, -0.4881345, -0.4637175, -0.4234969, -0.4106846, -0.3841717, -0.2919449, -0.2724311]","[0.066286, 0.053916, 0.000284, 0.009183, 0.029025, -0.002099, -0.014792, 0.020747, 0.01116, -0.047441, -0.072209, -0.001277, -0.016644, 0.012226, -0.00153, -0.003072, -0.015722, -0.015654, -0.004334, -0.014795, 0.017417, 0.006824, -0.00407, -0.003727, 0.00399, -0.009118, -0.004574]",13.43,61.8
nitromethane,-244.850477862838,10,1.41899752864,"[-10.29576, -1.272908, -1.097373, -0.8507553, -0.6527274, -0.5774723, -0.5673896, -0.5497679, -0.4697428, -0.4562811, -0.3408943, -0.335049, -0.3217441]","[-0.050929, -0.005241, 0.0, 0.039829, -0.003616, -0.0, -0.00701, 0.009569, -0.0, -0.002301, 0.001026, 0.000648, -0.002301, 0.001026, -0.000648, 0.010562, 0.044386, 0.0, 0.012149, -0.04715, -0.0]",8.75,37.3
hydrogen_sulfide,-399.271333448294,6,0.401321,"[-89.0279, -8.009912, -5.945972, -5.943132, -5.93771, -0.7673493, -0.4616235, -0.3835064, -0.27817]","[0.0, -0.0, 0.019115, -0.0, -0.016412, -0.009557, -0.0, 0.016412, -0.009557]",0.6,3.2
monosodium_sulfide,-560.259487725143,7,3.317449,"[-7.926778, -5.871691, -5.856143, -5.854621, -2.285618, -1.198398, -1.197739, -1.19606, -0.6190986, -0.2497002, -0.2207421, -0.2019556]","[0.0, 0.0, 0.019292, -0.0, -0.0, -0.019292]",4.02,12.0
silicon_nitride,-343.963416631597,13,1.087669,"[-66.29043, -14.42118, -5.372169, -3.70688, -3.704146, -3.704146, -0.8266032, -0.4579341, -0.3350028, -0.3130257, -0.3130257]","[-0.0, -0.0, 0.00774, 0.0, 0.0, -0.00774]",1.54,8.4
hydrogen_cyanide,-93.345152584127,7,1.195979,"[-14.4132, -10.28269, -0.9523704, -0.6297499, -0.4048238, -0.3820028, -0.3820028]","[0.0, -0.0, 0.615555, -0.0, 0.0, -0.006266, -0.0, 0.0, -0.609289]",1.2,3.2
carbonyl_sulfide,-511.343614327057,10,0.312346,"[-5.977111, -5.971276, -5.971276, -1.17425, -0.8488391, -0.5740023, -0.4973898, -0.4973898, -0.490023, -0.3201301, -0.3201301]","[-0.0, -0.0, -0.776251, 0.0, -0.0, 0.482377, 0.0, 0.0, 0.293875]",4.81,14.3
chlorine_trifluoride,-759.233900547400,8,0.225531,"[-7.478398, -1.358683, -1.237431, -1.237266, -0.9216399, -0.6405549, -0.6383213, -0.5883797, -0.5306957, -0.4824277, -0.4630399, -0.460841, -0.4393505, -0.412913, -0.3625702]","[-0.0, 2e-06, -0.056457, 0.0, -0.0, 0.050006, 0.0, -0.022527, 0.003219, 0.0, 0.022525, 0.003232]",3.73,16.3
ethanol_radical,-154.246538007156,8,0.778554799115,"[-10.28359, -10.21566, -1.058255, -0.7686909, -0.6382901, -0.5212384, -0.4788814, -0.4322401, -0.4072134, -0.3971529, -0.3516387, -0.2985676]","[-0.007099, -0.003289, 0.0, 0.008159, 0.032216, 0.0, -0.004531, -0.018142, -0.0, 0.006336, 0.000849, 0.000195, 0.006336, 0.000849, -0.000195, -0.011309, 0.000293, -0.0, 0.001054, -0.006388, -0.000754, 0.001054, -0.006388, 0.000754]",6.81,32.3
phosphorus_trifluoride,-640.722297942609,7,0.16340200011,"[-4.868406, -1.338795, -1.284918, -1.284915, -0.7060203, -0.601328, -0.6013271, -0.5673719, -0.5290566, -0.5290553, -0.4888044, -0.4888031, -0.4723457, -0.3208787]","[9e-06, 0.001043, -0.105748, 0.0, -0.019298, 0.040408, -0.005958, 0.009127, 0.032445, 0.005948, 0.009128, 0.032896]",4.21,17.3
nitrogen_diatomic,-109.445339480517,5,1e-06,"[-14.48881, -14.4869, -1.157297, -0.5758932, -0.4845625, -0.4845625, -0.4487815]","[-0.0, 0.0, -1.311571, 0.0, -0.0, 1.311571]",0.3,1.3
acetone,-193.003159313046,8,1.241763,"[-10.23155, -1.065891, -0.7982433, -0.7368742, -0.5545603, -0.4789352, -0.4786676, -0.4707452, -0.4205208, -0.4117269, -0.3939928, -0.3649753, -0.2676994]","[0.0, -5e-06, 0.417271, 0.0, -0.000147, -0.488235, -0.0, -0.003272, 0.032472, -0.0, 0.003449, 0.031423, -0.0, 0.004446, -0.005071, -0.0, -0.004443, -0.005075, 0.004491, 0.000328, 0.004307, -0.004491, 0.000328, 0.004307, -0.004506, -0.000341, 0.0043, 0.004506, -0.000341, 0.0043]",15.56,62.3
glycine_zwitterion,-284.200402106428,10,4.06522977543,"[-10.29463, -1.071105, -1.035242, -0.9622334, -0.7666723, -0.6482316, -0.6270824, -0.5411589, -0.5081712, -0.4671667, -0.4344057, -0.4016826, -0.3806564, -0.2535257, -0.2514343, -0.2361314]","[-0.024024, -0.038025, -0.0, 0.013371, 0.02958, -0.0, -0.063355, 0.049073, -0.0, 0.085716, -0.0175, 0.0, -0.00332, -0.016002, 0.0, -0.004582, -0.000194, -0.005671, -0.004582, -0.000194, 0.005671, -0.002547, -0.003233, -0.016048, -0.002547, -0.003233, 0.016048, 0.005871, -0.000271, 0.0]",20.47,97.3
hexane,-236.867709908126,7,6.48074069841e-06,"[-10.20524, -0.8316768, -0.7917282, -0.7298824, -0.6568735, -0.5982466, -0.5915865, -0.4947394, -0.4596807, -0.4500198, -0.4343772, -0.4108309, -0.3934563, -0.3893512, -0.3641373, -0.3511968, -0.3356182, -0.3349178, -0.328361, -0.3188235]","[0.011063, -0.042887, -0.0, -0.010704, 0.042951, 0.0, 0.019656, -0.046232, 0.0, -0.019619, 0.048007, 0.0, 0.016517, -0.040279, 0.0, -0.016206, 0.038479, 0.0, 0.004369, -0.000102, -0.0, -0.004348, 9.5e-05, 0.0, -0.005961, 0.004491, 0.000492, -0.005961, 0.004492, -0.000492, 0.005999, -0.004462, -0.000474, 0.005999, -0.004462, 0.000474, 0.012771, -0.006343, -0.000943, 0.012771, -0.006343, 0.000943, -0.01282, 0.006253, -0.001006, -0.01282, 0.006253, 0.001006, -0.012816, 0.007568, 0.001824, -0.012816, 0.007568, -0.001824, 0.012463, -0.007523, -0.001352, 0.012463, -0.007523, 0.001352]",93.25,497.3
pyridine,-248.076796954288,8,0.893897000002,"[-10.24363, -0.9709341, -0.834015, -0.7890647, -0.6528744, -0.6525634, -0.5497305, -0.5001293, -0.4885244, -0.4457143, -0.4220217, -0.4186943, -0.3792492, -0.3070165, -0.2816605, -0.2759447]","[-0.0, 0.001006, -0.093092, 0.0, -0.001032, 0.109993, 0.0, 0.043728, 0.259909, 0.0, -0.043854, 0.273369, -0.0, 0.057565, -0.285098, -0.0, -0.057212, -0.281156, -0.0, -1e-06, 0.016081, 0.0, -0.006921, -0.012808, -0.0, 0.006862, -0.012821, 0.0, 0.012168, 0.012761, -0.0, -0.01231, 0.012863]",41.29,174.4
silane,-291.762269930881,6,0.0,"[-66.23774, -5.324655, -3.65783, -3.65783, -3.65783, -0.563053, -0.3627391, -0.3627391, -0.3627391]","[0.0, 0.0, 0.0, -0.003248, -0.003248, -0.001608, 0.003248, 0.003248, -0.001608, 0.003248, -0.003248, 0.001608, -0.003248, 0.003248, 0.001608]",0.98,5.3
isobutylene,-157.082930292326,7,0.230638000297,"[-10.20632, -0.8314963, -0.7144115, -0.6998244, -0.5399306, -0.4668177, -0.4582024, -0.4466379, -0.3987547, -0.3813374, -0.3762079, -0.3507347, -0.2581273]","[0.0, -2.9e-05, 0.296363, 0.0, -0.000554, -0.353262, 0.0, -0.015186, 0.036722, 0.0, 0.015679, 0.036736, -0.0, -0.01547, -0.010444, -0.0, 0.015469, -0.010447, -0.0, 0.004228, -0.005097, -0.004544, 0.000848, 0.003619, 0.004544, 0.000848, 0.003619, -0.0, -0.004244, -0.005068, 0.004546, -0.000794, 0.00363, -0.004546, -0.000794, 0.00363]",24.8,101.8
fluorine_diatomic,-199.401171797763,6,0.0,"[-24.88697, -24.88692, -1.388032, -1.146606, -0.6240631, -0.565102, -0.565102, -0.4348991, -0.4348991]","[-0.0, -0.0, 0.032382, 0.0, 0.0, -0.032382]",0.21,1.3
ethylamine,-135.062424959023,7,0.533444807275,"[-10.21211, -0.9060621, -0.7507337, -0.6279244, -0.5119638, -0.4521713, -0.4246902, -0.4223469, -0.3723428, -0.3494731, -0.2552722]","[0.000507, 0.036186, -0.0, 0.009004, -0.047905, 0.0, -0.01, 0.023352, 0.0, -0.002451, -0.006044, -0.0, 0.000527, -0.005787, -0.000132, 0.000527, -0.005787, 0.000132, -0.000588, 0.006929, 0.001254, -0.000588, 0.006929, -0.001254, 0.001531, -0.003937, -0.006567, 0.001531, -0.003937, 0.006567]",11.39,42.7
aluminum_diatomic,-484.559432943931,8,0.0,"[-56.18449, -4.207924, -4.207879, -2.736887, -2.736887, -2.736853, -2.736853, -2.736793, -2.736379, -0.3974593, -0.2873742, -0.1700903, -0.1700903]","[0.0, 0.0, -0.005479, -0.0, -0.0, 0.005479]",1.25,10.0
methyl_nitrite,-244.840367182848,8,0.9011310569,"[-10.29149, -1.245119, -1.091855, -0.7942595, -0.657874, -0.5760178, -0.5361179, -0.5314627, -0.4560219, -0.4384058, -0.3987464, -0.3493616, -0.3042325]","[-0.022408, 0.00012, 0.0, -0.024416, 0.033672, 0.0, 0.042084, 0.001594, -0.0, 0.007287, 5.6e-05, -0.0, 0.001147, -0.002373, -0.003502, 0.001147, -0.002373, 0.003502, -0.004841, -0.030696, 0.0]",8.49,31.2
isobutane,-158.311303996731,7,0.0548590001458,"[-10.20631, -0.8273467, -0.7008195, -0.7008194, -0.5745172, -0.4776111, -0.4436059, -0.443605, -0.3932683, -0.3932679, -0.3716048, -0.3374609, -0.3374608, -0.3303355]","[-6.6e-05, 0.001568, -0.023439, 5e-06, -0.0259, 0.01626, 0.001277, 0.008784, 0.009679, -0.001218, 0.008874, 0.010519, 1e-06, 0.002213, 0.003938, 1e-06, -0.002064, -4.2e-05, -0.001168, 0.003392, -0.001649, 0.001169, 0.003391, -0.001649, -1.3e-05, -0.002043, 0.0001, 0.002451, -0.001611, -0.003143, -0.000115, 0.003528, -0.003762, 1.3e-05, -0.002044, 8.8e-05, 0.000119, 0.00352, -0.003759, -0.002457, -0.001609, -0.003141]",32.78,154.5
boron_trifluoride,-324.379705145940,7,8e-06,"[-6.943742, -1.313983, -1.274455, -1.274453, -0.6355521, -0.5980065, -0.5980065, -0.5583356, -0.491435, -0.4914338, -0.4827545, -0.4827534, -0.4505162]","[-1.2e-05, 0.033211, 0.0, -1e-06, -0.056071, 0.0, 0.025532, 0.011431, -0.0, -0.02552, 0.011429, -0.0]",2.56,10.3
nitrosyl_chloride,-589.876026770403,11,0.744579353343,"[-7.255657, -7.254079, -1.340552, -0.8542234, -0.7338693, -0.5887012, -0.5836353, -0.5636215, -0.3381234, -0.3321327, -0.320983]","[-0.005231, -0.009536, -0.0, 0.11076, 0.056458, -0.0, -0.10553, -0.046922, 0.0]",4.13,14.0
silicon_monophosphide,-630.524708564357,14,0.633863,"[-5.387037, -4.768612, -4.761131, -4.761131, -3.722328, -3.71908, -3.71908, -0.6340384, -0.4423166, -0.3003555, -0.2565999, -0.2565999]","[0.0, -0.0, -0.014129, -0.0, 0.0, 0.014129]",3.46,15.0
pyrrole,-210.002240577348,8,0.729703,"[-10.2068, -1.005757, -0.7971233, -0.7414664, -0.6100373, -0.5822554, -0.5607515, -0.4434873, -0.4360598, -0.4250509, -0.3986889, -0.3879025, -0.2595703, -0.2247639]","[-0.0, 0.001082, -0.004565, 0.0, 4.2e-05, -0.070665, 0.0, 0.122545, 0.207787, 0.0, -0.123994, 0.222253, 0.0, -0.202732, -0.171273, 0.0, 0.202973, -0.166549, 0.0, -0.01297, -0.015912, 0.0, 0.012912, -0.015951, 0.0, 0.001395, 0.007406, -0.0, -0.001253, 0.007469]",25.83,107.0
aluminum_monoxide,-317.456869858314,12,1.721499,"[-56.18061, -19.17395, -4.210034, -2.739063, -2.739063, -2.738386, -0.9183112, -0.3931923, -0.3016919, -0.3016919, -0.2880058]","[-0.0, 0.0, 0.025705, 0.0, -0.0, -0.025705]",1.47,7.2
trifluoromethane,-338.055793384598,7,0.560946008387,"[-10.47888, -1.363426, -1.277691, -1.277667, -0.7527674, -0.6344494, -0.626875, -0.6268655, -0.5013624, -0.5013617, -0.468409, -0.4683971, -0.4455573, -0.4119265]","[-3.2e-05, 0.010037, -0.059188, -0.0, 0.002436, -0.002352, -3e-06, -0.034258, 0.030402, 0.006997, 0.010896, 0.015537, -0.006962, 0.010889, 0.015601]",3.83,15.2
silicon_monofluoride,-389.149126173116,8,0.306538,"[-66.30901, -24.78465, -5.385524, -3.721238, -3.719133, -3.716543, -1.240414, -0.5688455, -0.4827294, -0.4776481, -0.3784249, -0.1846351]","[0.0, -0.0, 0.013057, -0.0, 0.0, -0.013057]",1.42,5.9
ethyl_chloride,-539.229218447998,7,0.833831997878,"[-7.242487, -0.8825565, -0.766677, -0.6401922, -0.4941803, -0.4703212, -0.4256304, -0.3900134, -0.3858301, -0.3090242, -0.307468]","[0.015491, 0.002776, 0.001664, 0.005144, 0.006255, 5.1e-05, -0.013283, -0.007258, -0.002335, -0.006509, -0.003462, -2.6e-05, -0.000523, -0.007035, 0.002927, -0.000487, -0.006926, -0.002939, 0.000798, 0.008046, 0.003532, -0.000632, 0.007602, -0.002874]",8.96,35.5
bicyclo[1.1.0]butane,-155.817409696660,7,0.289222,"[-10.23744, -0.9487777, -0.7071714, -0.5928261, -0.5928186, -0.5318294, -0.4407618, -0.4399421, -0.382863, -0.3390421, -0.3273933, -0.2530543]","[-0.093723, 0.003119, 0.005838, 0.090157, 0.003119, -0.027972, 0.001868, -0.019185, -0.005726, 0.001868, 0.013116, 0.006838, 5.8e-05, 0.005615, -0.007129, 5.8e-05, -0.006004, -0.007288, 5.8e-05, 0.001196, 0.006671, 5.8e-05, -0.001085, 0.006482, -0.009794, 5.4e-05, 0.011093, 0.009392, 5.4e-05, 0.011193]",20.32,66.5
silyl_radical,-291.114851053105,7,0.0112760000443,"[-66.25076, -5.336794, -3.674936, -3.668184, -3.668184, -0.560698, -0.3717933, -0.3717929, -0.2371237]","[0.0, -0.000558, -0.003638, -0.0, -0.006988, 0.000857, -0.007245, 0.003773, 0.001391, 0.007245, 0.003773, 0.001391]",0.77,5.2
cyclopentane,-196.383282588515,7,0.00875028279543,"[-10.21055, -0.8571569, -0.7252144, -0.7247649, -0.584265, -0.574788, -0.4931658, -0.4910728, -0.4248102, -0.4232018, -0.3462851, -0.3455281, -0.3430601, -0.3391652, -0.3321473, -0.3209223]","[-0.004937, -0.002066, -0.013646, -0.008232, -0.004155, -0.004236, 0.022539, -0.004815, -0.009926, 0.002431, 0.012426, 0.013038, 0.00251, 0.001946, 0.014687, 0.000756, 0.006669, -0.003653, -2.2e-05, 0.001306, 0.007098, -0.006777, 0.001609, 0.00341, -0.007173, -0.000404, -0.004384, 0.000643, -0.003918, 0.00302, -0.00239, -0.004369, -0.003991, -3.6e-05, -0.001174, 0.002017, -0.000347, -3.4e-05, -0.002314, 0.002281, -0.001208, 0.003597, -0.001244, -0.001813, -0.004718]",56.14,291.0
dimethyl_sulfoxide,-552.976920451114,8,1.60509984895,"[-6.014965, -1.044048, -0.8225668, -0.7512686, -0.6228215, -0.497893, -0.4762611, -0.4748098, -0.4425873, -0.4207969, -0.4125907, -0.3731191, -0.2908005, -0.2462657]","[6.4e-05, 0.000271, -0.038773, 1.5e-05, 0.022248, 0.016483, 0.040186, 0.007161, 0.019958, -0.040256, 0.00724, 0.020666, -0.024812, -0.020381, -0.006111, 0.024815, -0.020387, -0.006113, 0.00417, 0.006442, -0.00288, -0.002598, -0.00452, -0.000179, -0.004179, 0.006445, -0.002874, 0.002595, -0.004519, -0.000178]",20.31,81.5
trifluoroacetic_acid,-526.496632245764,10,0.713227597666,"[-10.40327, -1.387417, -1.297584, -1.294483, -1.182951, -1.093681, -0.8053946, -0.7075538, -0.6512852, -0.6501583, -0.6206551, -0.5425446, -0.5248263, -0.5205271, -0.5047779, -0.4971795, -0.4795819, -0.4740148, -0.4588998, -0.4380203, -0.3800803, -0.3394927]","[0.02299, -0.152416, 1e-05, -0.006182, 0.087705, 1.4e-05, -0.004789, -0.031633, 1.1e-05, 0.04754, 0.026367, 7e-06, -0.025578, 0.070529, 2.6e-05, -0.024371, -0.006822, -0.049409, -0.024236, -0.006874, 0.049341, 0.014626, 0.013143, 1e-06]",19.92,100.6
nitric_oxide,-129.804315229776,8,0.047233,"[-19.35076, -14.52734, -1.282568, -0.7177472, -0.5620823, -0.5298888, -0.5070334, -0.2362129]","[0.0, 0.0, -0.782048, -0.0, -0.0, 0.782048]",0.64,2.5
hydrazine,-111.782362534262,6,1.064835,"[-14.3951, -14.39496, -0.9855024, -0.7752758, -0.526246, -0.5029322, -0.4492798, -0.3108332, -0.2509276]","[-0.006489, -0.048033, 0.011601, 0.006514, 0.048287, 0.014019, 0.012871, -0.014537, -0.016915, -0.012749, 0.014504, -0.016818, -0.005072, -0.003006, 0.004043, 0.004925, 0.002785, 0.00407]",4.8,10.6
aluminum_carbide,-280.189824236549,10,0.685272,"[-56.18074, -10.2888, -4.20608, -2.735806, -2.735806, -2.733462, -0.6335881, -0.3491911, -0.2665742, -0.2665742, -0.2365323]","[-0.0, -0.0, -0.004111, 0.0, 0.0, 0.004111]",1.35,8.8
sulfur_monoxide,-473.201560718497,8,0.590536,"[-89.12002, -19.28668, -8.0942, -6.030118, -6.030118, -6.027021, -1.126654, -0.7111066, -0.4809807, -0.4809807, -0.4765373, -0.2817616, -0.2817616]","[0.0, 0.0, 0.131056, -0.0, -0.0, -0.131056]",1.54,5.9
hydroxymethyl_radical,-114.980130121340,8,0.572425694275,"[-19.24746, -10.27346, -1.08975, -0.6971893, -0.547435, -0.4688982, -0.4253605, -0.3725633, -0.2027285]","[0.018023, 0.004084, 0.013176, 0.008194, -0.016989, -0.005483, -0.006963, 0.015231, 0.000747, -0.008827, 0.001602, -0.005523, -0.010429, -0.003927, -0.002919]",1.96,8.6
dimethyl_sulfide,-477.824914204312,6,0.639605,"[-5.9193, -0.8209391, -0.7260984, -0.615126, -0.4560031, -0.4540458, -0.4381389, -0.4200733, -0.3754456, -0.3269551, -0.2313764]","[-0.0, 0.004888, 0.02378, -0.0, -0.004873, 0.024689, 0.0, -7e-06, -0.055115, -0.0, 0.000341, -0.005225, -0.004876, 0.000881, 0.004276, 0.004876, 0.000881, 0.004276, -0.0, -0.000342, -0.005225, 0.004873, -0.000885, 0.004272, -0.004873, -0.000885, 0.004272]",10.23,37.4
beryllium_monochloride,-474.802150685954,7,0.333321,"[-101.702, -9.529435, -7.259354, -7.256813, -7.256813, -4.127802, -0.8443158, -0.4242946, -0.3573458, -0.3573458, -0.2322857]","[0.0, -0.0, -0.095136, -0.0, 0.0, 0.095136]",1.57,5.7
n_propyl_chloride,-578.506160031834,7,0.869203087691,"[-7.241961, -0.8802801, -0.79946, -0.6893269, -0.6141336, -0.4996766, -0.4597053, -0.4425946, -0.4259953, -0.3802665, -0.3730016, -0.3576313, -0.3064446, -0.3062488]","[-0.00759, 0.000665, -0.0, 0.010709, -0.01374, -0.0, -0.034949, 0.035173, 0.0, 0.045884, -0.036913, -0.0, -0.002227, 0.017111, 0.010994, -0.002227, 0.017111, -0.010994, 0.004613, -0.018779, 0.011125, 0.004613, -0.018779, -0.011125, -0.005056, 0.013225, 0.011632, -0.005056, 0.013225, -0.011632, -0.008711, -0.0083, -0.0]",21.95,84.8
chloroform,-1418.882415676212,7,0.449051000188,"[-7.28322, -0.979704, -0.8680316, -0.8680308, -0.6802273, -0.5359862, -0.4969559, -0.4969558, -0.3768366, -0.3768359, -0.3492223, -0.3416428, -0.3416424, -0.3244885]","[-0.0, 0.01851, -0.035359, 0.0, 0.001544, -0.009097, 0.0, -0.04036, 0.030461, 0.004261, 0.010151, 0.00719, -0.004261, 0.010156, 0.006805]",10.73,42.4
phosphorus_monosulfide,-739.290655589068,6,-10000,"[-5.964345, -5.964116, -4.799496, -4.798245, -4.793912, -0.7939825, -0.5575726, -0.3614036, -0.3557269, -0.3424973, -0.2129933]","[0.0, 0.0, 0.11565, -0.0, -0.0, -0.11565]",3.7,28.8
cyclopropane,-117.792545312724,6,1.4e-05,"[-10.22164, -10.22164, -0.8769247, -0.6145878, -0.6145806, -0.509942, -0.4793725, -0.3730693, -0.3730613, -0.3079622, -0.3079556]","[0.000825, -0.045374, -0.0, -0.100761, 0.015798, 0.0, 0.100097, 0.014338, 0.0, 1.7e-05, 0.00367, -0.005603, 0.001084, 0.001975, -0.00117, -0.001181, 0.001974, -0.001176, 1.7e-05, 0.00367, 0.005603, 0.001084, 0.001975, 0.00117, -0.001181, 0.001974, 0.001176]",10.99,32.7
formyl_radical,-113.767596328243,8,0.67709962032,"[-19.27955, -10.33722, -1.135914, -0.6541296, -0.524406, -0.4578985, -0.4494594, -0.2485112]","[0.053421, -0.039309, 0.0, -0.042672, 0.006808, -0.0, -0.010749, 0.032501, -0.0]",1.21,4.0
spiropentane,-195.106845660893,7,5.91100668245e-05,"[-10.22274, -0.9078454, -0.8210918, -0.6211206, -0.6211203, -0.557058, -0.4999337, -0.4862402, -0.4862398, -0.3838589, -0.3699899, -0.3615865, -0.29887, -0.2988693, -0.2835812]","[-0.000131, 0.000132, -0.001874, -4e-06, 0.002769, 0.027567, -3e-06, -0.003618, 0.03688, -0.002811, -1e-06, -0.026649, 0.003664, -2e-06, -0.035963, -0.00248, -0.005657, -0.002708, 0.002477, -0.00566, -0.002707, 0.00222, 0.006013, -0.002752, -0.002224, 0.00601, -0.002753, 0.00577, 0.002632, 0.002718, 0.005773, -0.002626, 0.002716, -0.006126, -0.002369, 0.002761, -0.006124, 0.002377, 0.002764]",38.55,175.6
acetonitrile,-132.498637879379,8,1.83792071937,"[-14.3834, -10.29349, -10.27413, -0.9403511, -0.8808582, -0.6079731, -0.5207192, -0.3955287, -0.3807869, -0.3540142, -0.2983432]","[0.001682, -0.001643, -0.105963, -0.009941, 0.004113, -0.482282, 0.006691, -0.0046, 0.575989, 0.050041, 0.01975, 0.019891, 0.012963, -0.048041, 0.015691, -0.061437, 0.03042, -0.023327]",3.95,15.2
disilane,-582.350056588092,6,0.0,"[-3.655131, -3.655068, -3.655067, -3.654837, -0.5883828, -0.5225889, -0.3794215, -0.3794134, -0.353223, -0.3532142, -0.3049631]","[-0.0, 0.00176, 0.048227, -0.0, -0.00176, -0.048142, -0.0, -0.007161, -0.002583, 0.007306, 0.003858, -0.003046, -0.007306, 0.003858, -0.003046, -0.0, 0.007241, 0.002555, 0.007375, -0.003898, 0.003018, -0.007375, -0.003898, 0.003018]",6.26,31.0
methylene_chloride,-959.417067144992,7,0.660997,"[-7.269188, -0.9339132, -0.8528317, -0.6927644, -0.5202021, -0.4827381, -0.4648048, -0.3492125, -0.3458269, -0.3267353, -0.3232107]","[-0.0, 4e-06, -0.019241, 0.015437, 0.0, -0.013597, -0.015437, 0.0, -0.013597, 0.0, 0.005569, 0.023415, 0.0, -0.005574, 0.023021]",6.18,23.5
methlidyne_radical,-38.438740802870,7,0.567965,"[-10.33896, -0.6680893, -0.3353861, -0.2743727]","[-0.0, -0.0, -0.011313, 0.0, 0.0, 0.011313]",0.11,1.0
trifluoro_acetonitrile,-430.199579759319,10,0.605830000007,"[-10.31287, -1.407368, -1.316907, -1.316907, -0.9841575, -0.8211585, -0.7044555, -0.6704779, -0.6704778, -0.5388743, -0.5388741, -0.5058142, -0.5058141, -0.4942633, -0.4797263, -0.4252855, -0.4061822, -0.4061822]","[-3.8e-05, 0.002786, -0.070568, -1e-06, -0.001135, -0.60404, -0.0, 0.000773, 0.604947, -4e-06, -0.045623, 0.029821, -0.020225, 0.021605, 0.019766, 0.020269, 0.021595, 0.020073]",10.58,51.4
acetyl_radical,-153.064457316196,8,1.04535133665,"[-19.25464, -10.32948, -10.25947, -1.117431, -0.7931788, -0.5738423, -0.4909375, -0.4825987, -0.4777306, -0.4080724, -0.4077268, -0.2211848]","[0.010921, 0.004276, 0.0, 0.103358, -0.002795, -0.0, -0.004628, 0.00446, -0.0, -0.00703, -0.001853, -0.001904, -0.00703, -0.001853, 0.001904, -0.095591, -0.002235, 0.0]",3.87,17.8
silylene_t,-290.468605409376,7,0.016296,"[-66.27305, -5.355543, -3.692371, -3.691792, -3.685227, -0.5490002, -0.3864633, -0.2766982, -0.2121613]","[-0.0, -0.0, 0.006925, 0.0, 0.005931, -0.003463, 0.0, -0.005931, -0.003463]",0.55,3.9
oxygen_water,-152.769985788173,7,0.977231155728,"[-19.23839, -19.18138, -1.072018, -1.013578, -0.5774786, -0.526529, -0.439949, -0.3843807, -0.3571915, -0.3072045]","[-0.006711, 0.004314, 0.013878, -0.005014, -0.004594, -0.010361, 0.008706, -0.006979, -0.015735, -0.00067, 0.003581, 0.002032, 0.00254, 0.004914, 0.00441, 0.001149, -0.001236, 0.005776]",3.85,9.3
chlorine_monofluoride,-559.777775687207,7,0.324843,"[-9.612723, -7.352512, -7.335598, -7.335598, -1.283017, -0.8615529, -0.5600162, -0.5136938, -0.5136938, -0.3489149, -0.3489149]","[-0.0, 0.0, 0.010573, 0.0, -0.0, -0.010573]",1.31,4.7
sodium_hydride,-162.749570986895,7,2.446921,"[-38.55421, -2.255914, -1.168358, -1.168358, -1.165577, -0.1881722]","[-0.0, -0.0, 0.018761, 0.0, 0.0, -0.018761]",0.39,4.1
nitrogen_tribromide,-7776.322150220891,10,0.21022600001,"[-2.704283, -0.9923148, -0.8229111, -0.8229108, -0.7050203, -0.4890996, -0.4890994, -0.4452641, -0.3538904, -0.3538903, -0.3189111, -0.3189109, -0.3041204, -0.2905633]","[0.0, 0.034558, -17.250469, -0.0]",35.29,144.6
phosphorus_pentafluoride,-840.369830065820,8,1.1e-05,"[-4.977902, -1.381609, -1.317929, -1.317925, -1.278849, -1.246958, -0.7424523, -0.6433672, -0.6433667, -0.6297209, -0.571435, -0.5714332, -0.5500196, -0.5500173, -0.5240896, -0.5085128, -0.4867319, -0.4716651, -0.4716646, -0.4462532, -0.4462524]","[-4e-06, 0.008793, -2.7e-05, -0.0, -0.050746, 0.0, -0.034202, 0.026146, 0.0, 0.034207, 0.026145, 0.0, -0.0, -0.005169, -0.037488, -0.0, -0.005169, 0.037513]",11.33,51.7
aminyl_radical,-55.837285948105,7,0.699361,"[-14.41698, -0.8852605, -0.4911099, -0.3475868, -0.340268]","[0.0, 0.0, 0.033225, -0.0, -0.011185, -0.016612, -0.0, 0.011185, -0.016612]",0.2,1.5
allene,-116.550962182359,7,5.38516480713e-06,"[-10.25319, -10.23267, -10.23263, -0.8180988, -0.7285116, -0.5398831, -0.4676801, -0.4605712, -0.4605708, -0.2839361, -0.2839358]","[-0.0, -0.0, -0.0022, -0.0, -0.0, 0.274603, -0.0, -0.0, -0.272342, 0.0, -0.003681, -0.010487, 0.0, 0.003681, -0.010487, -0.003562, 0.0, 0.010457, 0.003562, 0.0, 0.010457]",7.53,22.1
methane,-40.475422789837,5,0.0,"[-10.20111, -0.7151262, -0.4040162, -0.4040162, -0.4040162]","[0.0, 0.0, 0.0, -0.000209, -0.000209, -0.003314, -0.000209, 0.000209, 0.003314, 0.000209, -0.000209, 0.003314, 0.000209, 0.000209, -0.003314]",0.59,2.5
carbon_monosulfide,-436.055483212285,5,-10000,"[-10.33209, -8.058606, -5.990949, -5.990949, -5.990177, -0.8610828, -0.5420812, -0.3713893, -0.3713893, -0.3276717]","[0.0, 0.0, 0.154619, -0.0, -0.0, -0.154619]",1.62,9.6
sulfur_hexafluoride,-996.771933935692,7,0.0,"[-6.299907, -1.454517, -1.329981, -1.329981, -1.329981, -1.277258, -1.277258, -0.8439715, -0.6981868, -0.6981868, -0.6981868, -0.5960402, -0.5960402, -0.5960402, -0.5574176, -0.5574176, -0.5023987, -0.5023987, -0.5023987, -0.4999833, -0.4999833, -0.4999833, -0.4559173, -0.4559173, -0.4559173]","[-1.3e-05, -1.3e-05, -0.001362, -3e-06, -3e-06, -0.141963, -6e-06, -0.031758, 0.000909, -0.03184, -6.2e-05, 0.000909, -6.2e-05, 0.031844, 0.000909, 0.031925, -6e-06, 0.000909, -3e-06, -3e-06, 0.139688]",18.33,72.5
nonane,-354.704227650899,23,0.0348449126416,"[-10.20509, -0.8381999, -0.818288, -0.7856409, -0.7421025, -0.6908534, -0.6377751, -0.5983801, -0.5923167, -0.5873012, -0.5006862, -0.4825466, -0.4542277, -0.4495424, -0.4430851, -0.4194332, -0.4142094, -0.4139374, -0.3837756, -0.3804252, -0.3597372, -0.353995, -0.3504174, -0.3385552, -0.3353435, -0.3317818, -0.3280866, -0.3278079, -0.30705]","[0.0, 0.000939, -0.075668, 0.0, -0.000921, 0.076794, 1e-06, 1.7e-05, 0.076016, 1e-06, -0.000756, -0.087107, -1e-06, 0.000896, -0.087293, -0.0, -0.001143, 0.086778, 2e-06, 0.001192, 0.086785, 1e-06, 0.011078, -0.039487, 2e-06, -0.011059, -0.039501, -0.012385, 3.6e-05, -0.006359, 0.012385, 3.5e-05, -0.006359, -0.012713, 0.000373, 0.006072, 0.012713, 0.000373, 0.006072, 0.012679, -0.000525, 0.006016, -0.012681, -0.000524, 0.006016, -0.012219, 0.000175, -0.005478, 0.012218, 0.000176, -0.005477, 0.012225, -0.00018, -0.005487, -0.012225, -0.000182, -0.005487, 0.011665, -0.000364, 0.005141, -0.011665, -0.000364, 0.005141, -0.01167, 0.000367, 0.005144, 0.011668, 0.000367, 0.005143, -0.0, -0.001624, 0.007615, 0.008156, -0.000158, -0.005662, -0.008157, -0.000157, -0.005662, -0.0, 0.001622, 0.007615, -0.008155, 0.000155, -0.005661, 0.008154, 0.000157, -0.005659]",241.4,4746.4
furan,-229.845685286778,7,0.261117000232,"[-10.22849, -1.144336, -0.8275021, -0.7697753, -0.6191042, -0.5907927, -0.5630727, -0.4718799, -0.4614791, -0.4261773, -0.4125149, -0.3917596, -0.2984794, -0.2457251]","[0.0, 0.001735, -0.10131, 0.0, 0.06046, 0.276053, -0.0, -0.062134, 0.290553, 0.0, -0.169862, -0.23206, 0.0, 0.1697, -0.208949, 0.0, -0.010373, -0.016777, -0.0, 0.010272, -0.016766, 0.0, 0.001082, 0.004656, 0.0, -0.00088, 0.004598]",20.75,79.6
methanol_radical,-114.967903707428,8,0.79758179727,"[-19.26003, -10.28009, -1.05856, -0.7007808, -0.5062481, -0.4789923, -0.4545245, -0.3569321, -0.3087616]","[0.011854, -0.023116, 0.0, 0.008546, 0.014516, 0.0, -0.011458, 0.007605, 0.0, -0.004471, 0.000498, 0.001647, -0.004471, 0.000498, -0.001647]",1.83,8.1
sodium_lithium,-169.677627455205,5,0.147925,"[-38.54611, -2.246361, -2.025139, -1.157938, -1.157938, -1.15791, -0.1360223]","[0.0, -0.0, 0.001713, -0.0, 0.0, -0.001713]",1.29,4.6
ethylene_oxide,-153.675254336356,7,0.737361,"[-10.2776, -10.27721, -1.109704, -0.7026556, -0.6561228, -0.5352472, -0.502038, -0.4143944, -0.4005856, -0.3340413, -0.2927291]","[-0.0, -0.00018, -0.097091, -0.0, -0.065825, 0.044587, -0.0, 0.065355, 0.039132, -0.003234, -0.005525, 0.003326, 0.003234, -0.005525, 0.003326, 0.003372, 0.00585, 0.00336, -0.003372, 0.00585, 0.00336]",5.45,20.4
chlorine_diatomic,-920.110668685816,6,0.0,"[-7.309919, -7.309919, -7.309913, -7.309913, -0.9624628, -0.7904343, -0.4899054, -0.4277212, -0.4277212, -0.3207696, -0.3207696]","[0.0, 0.0, -0.142915, -0.0, -0.0, 0.142915]",1.38,7.2
aziridine,-133.814734778671,7,0.666124779917,"[-10.25168, -10.25091, -0.9813762, -0.6798007, -0.634702, -0.5353455, -0.4839141, -0.3896584, -0.357885, -0.3525086, -0.264926]","[-0.004627, -0.001189, 0.044511, 0.078301, -0.001291, -0.010153, -0.076127, -0.007544, -0.011904, 0.001615, 0.000898, -0.016009, 0.000615, 0.008287, -0.006089, 0.002073, -0.004636, 0.002234, 0.001457, 0.003397, 0.001666, -0.003308, 0.002078, -0.004255]",7.55,28.2
methoxyethane,-194.188208150103,7,0.470412408175,"[-10.21095, -1.061893, -0.7846214, -0.6932191, -0.6247381, -0.5022357, -0.4973801, -0.4671608, -0.4331296, -0.395689, -0.373561, -0.3643309, -0.3363807, -0.272666]","[-0.003545, 0.009463, 0.0, -0.043098, -0.009877, -0.0, -0.004303, 0.005521, -0.0, 0.038153, -0.012372, 0.0, 0.009631, 0.004346, 0.001992, 0.009631, 0.004346, -0.001992, -0.001352, 0.01295, -0.0, 0.003558, 0.000638, -0.002144, 0.003558, 0.000638, 0.002144, -0.006647, -0.004051, -0.002365, -0.006647, -0.004051, 0.002365, 0.001062, -0.007551, -0.0]",20.7,81.2
ethane,-79.751976380244,6,0.0,"[-10.20933, -10.20909, -0.7733797, -0.633266, -0.4471594, -0.4471562, -0.3765058, -0.3537066, -0.3537037]","[-0.004193, -0.0, 0.098574, 0.00429, 0.0, -0.095266, 0.011144, 0.0, -0.004054, -0.003306, -0.005712, -0.003306, -0.003306, 0.005712, -0.003306, -0.008081, 0.0, 0.002638, 0.001726, 0.003352, 0.002359, 0.001726, -0.003352, 0.002359]",6.39,17.3
carbon_tetrabromide,-10333.664496378033,7,0.0,"[-2.69705, -0.9352477, -0.8199173, -0.8199173, -0.8199173, -0.6301667, -0.4789046, -0.4789046, -0.4789046, -0.3605791, -0.3605791, -0.3343418, -0.3343418, -0.3343418, -0.3047348, -0.3047348, -0.3047348]","[0.0, 4e-06, -1.3e-05, -86.786135, -86.786135, -87.087752, 86.786133, 86.786133, -87.087308, 86.786261, -86.786261, 87.087758, -86.786259, 86.786259, 87.087314]",72.92,238.2
beryllium_diatomic,-29.283182505116,6,0.0,"[-4.110644, -4.11061, -0.3053621, -0.1922367]","[0.0, 0.0, 0.007226, -0.0, -0.0, -0.007226]",0.16,1.3
tetrachloroethylene,-1916.406639915902,9,0.0,"[-7.295395, -0.9932928, -0.9385867, -0.8952071, -0.8716656, -0.7573538, -0.5916303, -0.5338978, -0.5320812, -0.4742793, -0.4604496, -0.4061381, -0.382569, -0.3736773, -0.3709544, -0.3648102, -0.3585414, -0.3288889, -0.2699551]","[-0.0, 6e-06, 0.348497, 0.0, -6e-06, -0.336484, -0.0, -0.026856, -0.067987, -0.0, 0.02685, -0.066853, 0.0, 0.018471, 0.061981, 0.0, -0.018465, 0.060847]",27.54,118.8
silicon_monoxide,-364.563941010838,8,1.232933,"[-66.28443, -19.19463, -5.367623, -3.702181, -3.702181, -3.695855, -0.9709633, -0.454237, -0.3493025, -0.3493025, -0.3245138]","[0.0, 0.0, 0.094882, -0.0, -0.0, -0.094882]",1.53,5.5
trimethylamine,-174.320511489256,7,0.251350027143,"[-10.23756, -0.9496294, -0.723291, -0.7232723, -0.6065969, -0.4821223, -0.4790678, -0.4790591, -0.4045663, -0.404558, -0.3750771, -0.3704566, -0.370454, -0.2275624]","[0.012104, 0.014037, 0.064224, -0.009457, -0.009245, 0.001403, -0.014229, 0.009185, -0.013537, 0.009409, -0.016115, -0.013045, -0.00023, -0.000222, -0.012522, -0.002411, -0.000635, -0.012436, -0.000651, -0.002462, -0.012445, -0.005777, 0.000729, 0.000108, 0.000724, -0.005815, 9.2e-05, 0.000209, -0.005057, 0.000485, 0.006409, 0.00894, -0.00138, 0.008982, 0.006497, -0.001426, -0.005082, 0.000162, 0.000478]",27.7,133.5
carbonyl_fluoride,-312.840895079469,8,0.437554,"[-10.49059, -1.383523, -1.311615, -1.150835, -0.7282891, -0.6563725, -0.6075815, -0.578455, -0.5109446, -0.5028277, -0.4902071, -0.4260979, -0.3824172]","[-0.0, 0.0, 0.584801, 0.0, 9e-06, -0.783096, -0.0, -0.063147, 0.099409, 0.0, 0.063138, 0.098885]",3.78,12.9
phosphorus_mononitride,-395.905982010088,10,1.126758,"[-77.25564, -14.42436, -6.657737, -4.792742, -4.792742, -4.788331, -0.8780843, -0.5129466, -0.349979, -0.349979, -0.3427259]","[0.0, 0.0, -0.117041, -0.0, -0.0, 0.117041]",1.61,6.4
carbon_tetrachloride,-1878.343568106258,7,0.0,"[-7.294342, -1.013079, -0.8818541, -0.8818541, -0.8818541, -0.6531367, -0.5238672, -0.5238672, -0.5238672, -0.3971826, -0.3971826, -0.3688345, -0.3688345, -0.3688345, -0.3351425, -0.3351425, -0.3351425]","[-0.0, 7e-06, 4.8e-05, 0.024797, 0.024797, -0.001185, -0.024801, -0.024801, -0.001307, -0.024809, 0.02481, 0.001161, 0.024814, -0.024813, 0.001283]",18.57,70.9
acrylonitrile,-170.683066797911,10,1.60929911335,"[-10.27434, -0.9345404, -0.8469271, -0.6834494, -0.5616564, -0.501548, -0.4356674, -0.3996211, -0.3880458, -0.3532619, -0.3090184]","[-0.000439, 0.019084, -0.0, -0.030058, 0.014868, 0.0, -0.010704, -0.083677, 0.0, 0.010682, -0.001268, -0.0, -0.002329, -0.004406, 0.0, -0.015496, 0.000277, -0.0, 0.048344, 0.055122, -0.0]",7.87,39.8
sodium_hydroxide,-237.984779185920,18,2.639179,"[-38.55016, -19.05298, -2.253055, -1.165985, -1.165985, -1.164077, -0.8435149, -0.3473902, -0.192591, -0.1925892]","[0.0, -0.0, -0.021951, 0.0, -0.0, -0.0089, -0.0, 0.0, 0.030852]",2.49,13.7
methylene_t,-39.116211720493,7,0.234266,"[-10.27422, -0.7031671, -0.4698067, -0.2977274, -0.2642121]","[-0.0, 0.0, -0.026906, -0.0, -0.002946, 0.013453, 0.0, 0.002946, 0.013453]",0.19,1.5
carbon_monophosphide,-379.143545051933,8,-10000,"[-10.32619, -6.640678, -4.777034, -4.773128, -4.773128, -0.7593755, -0.482472, -0.3515369, -0.316745, -0.316745]","[-0.0, -0.0, 0.225846, 0.0, 0.0, -0.225846]",1.58,27.9
formic_acid,-189.630533319768,8,0.576014691231,"[-19.21145, -10.36854, -1.1579, -1.067749, -0.6870869, -0.5609502, -0.5207931, -0.4784881, -0.4300602, -0.3586341, -0.3083961]","[0.012475, 0.054551, -0.0, -0.001487, -0.069216, -0.0, -0.035904, 0.03039, 0.0, 0.03594, -0.017625, 0.0, -0.011024, 0.0019, -0.0]",3.0,11.1
aluminum_trifluoride,-541.927123328907,7,0.0,"[-2.773488, -1.217533, -1.205373, -1.205368, -0.5332315, -0.4911612, -0.4911589, -0.4696338, -0.4581635, -0.45816, -0.4509757, -0.4509715, -0.4333328]","[-6e-06, -0.000146, -0.0, -0.0, -0.013731, -0.0, -0.006947, 0.00694, 0.0, 0.006953, 0.006938, 0.0]",3.57,14.8
vinyl_radical,-77.830599081252,11,0.273177794436,"[-10.2594, -10.23365, -0.7947954, -0.5988869, -0.4816805, -0.447771, -0.3023528, -0.2586402]","[0.002892, -0.144796, -0.0, -0.003829, 0.131089, 0.0, -0.001048, 0.005238, -0.0, -0.001463, 0.004359, 0.0, 0.003447, 0.00411, 0.0]",1.44,9.2
nitrous_oxide,-184.542488356074,8,0.023319,"[-19.31172, -14.61743, -14.4861, -1.282234, -1.119445, -0.6310957, -0.5873585, -0.5873585, -0.5001009, -0.3618749, -0.3618749]","[0.0, -0.0, -0.96993, -0.0, 0.0, 0.76086, 0.0, -0.0, 0.20907]",1.44,5.2
2_butyne,-155.835091756176,6,0.000191679419866,"[-10.2146, -0.8028921, -0.76085, -0.6842177, -0.4906559, -0.4441106, -0.4404106, -0.4404094, -0.4268398, -0.4268385, -0.2616979, -0.2616976]","[0.0, -0.003694, 0.411451, -0.0, -0.00169, -0.406049, 0.0, 0.007105, 0.0483, -0.0, 0.007132, -0.052909, -0.0, 0.006767, 0.002423, -0.009831, -0.005597, 0.002889, 0.009831, -0.005597, 0.002889, -0.0, 0.006966, -0.002686, 0.010003, -0.005696, -0.003154, -0.010003, -0.005696, -0.003154]",13.67,52.7
hydrogen_diatomic,-1.168488450033,4,0.0,"[-0.4409521]","[0.0, 0.0, 0.002836, -0.0, -0.0, -0.002836]",0.0,0.3
beryllium_dihydride,-15.874777513387,5,0.0,"[-4.058577, -0.3609369, -0.32487]","[0.0, -0.0, -0.0, -0.0, 0.0, -0.010928, -0.0, 0.0, 0.010928]",0.15,1.0
beryllium_monohydride,-15.226240640190,7,0.100465,"[-4.098699, -0.3576276, -0.2100056]","[-0.0, -0.0, 0.000547, 0.0, 0.0, -0.000547]",0.1,1.0
sodium_monoxide,-237.295789294526,8,3.141665,"[-38.56198, -19.11277, -2.264475, -1.177959, -1.177112, -1.174535, -0.8263616, -0.2853217, -0.2243753, -0.2130956]","[0.0, 0.0, 0.0694, -0.0, -0.0, -0.0694]",1.38,6.1
phosphino_radical,-342.388738818097,7,0.229494,"[-77.22529, -6.623858, -4.765082, -4.757254, -4.754426, -0.656019, -0.3994633, -0.3237523, -0.2665848]","[0.0, -0.0, 0.003176, 0.0, -0.00345, -0.001588, -0.0, 0.00345, -0.001588]",0.57,3.9
boron_monochloride,-484.821883445888,7,0.632449,"[-101.7556, -9.583297, -7.312958, -7.310606, -7.310606, -6.897953, -0.9125342, -0.5285971, -0.4072187, -0.4072187, -0.2748621]","[0.0, -0.0, 0.142435, -0.0, 0.0, -0.142435]",1.48,4.9
ozone,-225.271514179806,7,0.262522007087,"[-19.33677, -19.33675, -1.394458, -1.124743, -0.8207938, -0.6185421, -0.6167332, -0.6145338, -0.3823342, -0.370444, -0.3651641]","[-0.0, 0.000106, 0.070805, 0.0, -7.2e-05, -0.034819, 0.0, -3.4e-05, -0.035986]",1.1,4.4
water,-76.381048020614,6,0.730943,"[-19.21149, -1.045752, -0.5510949, -0.4109032, -0.3339475]","[0.0, -0.0, -0.045458, -0.0, -0.01986, 0.022729, -0.0, 0.01986, 0.022729]",0.2,1.1
acetate_anion,-228.362233450248,10,1.45833678116,"[-10.0434, -0.8387875, -0.7539288, -0.5523306, -0.3218871, -0.2605659, -0.2533615, -0.2386322, -0.199949, -0.1730684, -0.06217697, -0.05119023, -0.04523152]","[0.00695, 0.120949, -0.0, 0.002127, -0.124848, 0.0, 0.000433, -0.002661, 0.0, -0.008064, -0.005813, 0.00766, -0.008064, -0.005813, -0.00766, -0.035217, 0.007719, 0.0, 0.041835, 0.010468, -0.0]",7.09,34.7
tetrachlorosilane,-2129.895030896112,8,0.0,"[-3.792313, -0.9207361, -0.8716601, -0.8716601, -0.8716601, -0.5704582, -0.4666051, -0.4666051, -0.4666051, -0.3941652, -0.3941652, -0.3820955, -0.3820955, -0.3820955, -0.3520872, -0.3520872, -0.3520872]","[-0.0, 0.0, -2e-06, 0.00142, 0.00142, 0.000729, -0.00142, -0.00142, 0.00089, -0.001416, 0.001416, -0.000728, 0.001416, -0.001416, -0.000889]",19.59,91.4
oxygen_diatomic,-150.232044141981,7,0.0,"[-19.37334, -19.37313, -1.345037, -0.8738996, -0.5910343, -0.5910343, -0.5744651, -0.3319894, -0.3319894]","[-0.0, -0.0, 0.23872, 0.0, 0.0, -0.23872]",0.27,2.1
heptane,-276.145259468906,7,0.0351140002848,"[-10.21066, -0.8301693, -0.7994963, -0.7508603, -0.6895268, -0.6259714, -0.5886745, -0.5877237, -0.4936734, -0.4665118, -0.4442437, -0.4375176, -0.4266862, -0.4103727, -0.3834142, -0.3808733, -0.3676959, -0.3486319, -0.3448464, -0.332559, -0.3307445, -0.327472, -0.3137536]","[-0.0, 0.001546, -0.080274, -0.0, -0.005088, 0.087488, 0.0, 0.003608, 0.086663, -0.0, -0.000189, -0.080346, 0.0, 0.00044, -0.080675, -0.0, 0.008978, 0.035763, 0.0, -0.008887, 0.035766, 0.005814, 5.7e-05, -0.001167, -0.005814, 5.7e-05, -0.001167, 0.005309, -8.6e-05, 0.000226, -0.005309, -8.6e-05, 0.000226, -0.00527, -0.000175, 0.000131, 0.00527, -0.000175, 0.000131, -0.003922, -0.000398, -0.000125, 0.003922, -0.000398, -0.000125, 0.003934, 0.00039, -0.000139, -0.003934, 0.00039, -0.00014, 0.0, 0.00549, -0.002147, -0.000182, 0.000105, 0.000513, 0.000182, 0.000105, 0.000513, -0.0, -0.005485, -0.002149, 0.000188, -9.8e-05, 0.000517, -0.000188, -9.8e-05, 0.000517]",131.51,771.2
methylene_s,-39.088680283212,6,0.70393,"[-10.30011, -0.6933708, -0.425948, -0.2694476]","[-0.0, -0.0, -0.020104, -0.0, 4.5e-05, 0.010052, 0.0, -4.5e-05, 0.010052]",0.2,1.1
octane,-315.424887286867,19,0.000454899989009,"[-10.2078, -0.833221, -0.8096358, -0.7710153, -0.7203859, -0.6630649, -0.6105557, -0.5901677, -0.5871306, -0.4968516, -0.4753435, -0.4496251, -0.4425056, -0.4305543, -0.4259793, -0.4039072, -0.3951879, -0.368529, -0.3674069, -0.3610315, -0.3409323, -0.3381325, -0.3286809, -0.3285446, -0.3264715, -0.3158556]","[-0.027744, -0.037111, -2e-06, 0.027668, 0.038762, -2e-06, 0.028342, 0.037841, -2e-06, -0.028726, -0.039651, -5e-06, -0.029833, -0.036289, -1e-06, 0.029501, 0.036347, -1e-06, 0.016229, 0.007606, -1e-06, -0.016324, -0.007639, -1.2e-05, 0.014467, 0.007609, 0.003628, 0.014466, 0.007608, -0.003626, -0.014028, -0.007469, 0.003133, -0.014026, -0.007468, -0.00313, -0.013413, -0.007136, -0.003087, -0.013414, -0.007137, 0.003089, 0.013465, 0.007039, -0.00316, 0.013468, 0.007041, 0.003165, 0.013089, 0.008038, 0.003624, 0.013089, 0.008038, -0.003623, -0.01312, -0.008004, 0.003604, -0.013119, -0.008004, -0.003603, -0.000511, -0.007127, 0.0, -0.010328, -0.002082, -0.001878, -0.010329, -0.002082, 0.001879, 0.000495, 0.007125, -1e-06, 0.010315, 0.002071, -0.001873, 0.010321, 0.002076, 0.001885]",182.32,2779.2
beryllium_difluoride,-214.467735286617,7,0.0,"[-24.75251, -24.75251, -4.100267, -1.200424, -1.193047, -0.495002, -0.485421, -0.4528568, -0.4528568, -0.4312929, -0.4312929]","[-0.0, 0.0, -4.1e-05, 0.0, -0.0, 0.064869, 0.0, -0.0, -0.064828]",1.04,4.1
dilithium_oxide,-90.211017627025,54,0.000359302101302,"[-19.00956, -1.924307, -1.924134, -0.7374788, -0.1885968, -0.1591457, -0.1591451]","[4e-06, -8e-06, 0.000908, -2e-06, 4e-06, 0.016104, -2e-06, 4e-06, -0.017012]",1.48,25.8
thiophene,-552.763798269365,8,0.20021800001,"[-5.9634, -0.9080488, -0.7584446, -0.7466232, -0.582651, -0.5717098, -0.5332437, -0.4253487, -0.4088576, -0.4016726, -0.3996951, -0.3587857, -0.267775, -0.2525977]","[0.0, 0.001587, -0.11582, -0.0, 0.103811, 0.224792, 0.0, -0.106296, 0.224517, 0.0, -0.256993, -0.160419, -0.0, 0.258, -0.162682, 0.0, -0.016988, -0.009402, 0.0, 0.017002, -0.009439, 0.0, 0.000374, 0.004198, 0.0, -0.000497, 0.004254]",25.11,109.0
ketene,-152.487204651486,8,0.579651,"[-19.27673, -10.35324, -10.23587, -1.155053, -0.8046192, -0.5638329, -0.5087057, -0.5080314, -0.4755002, -0.4272527, -0.2625094]","[0.0, -0.0, -0.280509, -0.0, -0.0, -0.240793, 0.0, 0.0, 0.490596, 0.0, -0.009344, 0.015353, 0.0, 0.009344, 0.015353]",2.92,10.6
phosphorus_monofluoride,-440.989301717994,8,0.284061,"[-77.28486, -24.80879, -6.677265, -4.81473, -4.81473, -4.811516, -1.272109, -0.6606352, -0.5086949, -0.5086949, -0.4739371, -0.2554483, -0.2554483]","[-0.0, -0.0, 0.00202, 0.0, 0.0, -0.00202]",1.41,5.7
boron_diatomic,-49.342262428854,6,2.1e-05,"[-6.887261, -6.886508, -0.5781997, -0.3113265, -0.2654018, -0.2654018]","[-0.0, 0.0, 0.090422, 0.0, -0.0, -0.090422]",0.21,1.6
nitrogen_dioxide,-204.949606009632,7,0.139762,"[-19.32636, -19.32635, -14.63833, -1.327214, -1.17703, -0.7095633, -0.6076485, -0.6012127, -0.594858, -0.4072881, -0.4002223, -0.3099249]","[-0.0, 0.000263, 0.172526, 0.0, -0.093515, -0.085926, 0.0, 0.093252, -0.086599]",1.43,5.8
argon_dimer,-1054.767362968544,5,0.0,"[-8.734044, -8.734038, -8.734035, -0.9931207, -0.991855, -0.4469825, -0.4414289, -0.4414289, -0.4395297, -0.4395297, -0.4340831]","[-0.0, 0.0, 0.000359, 0.0, -0.0, -0.000359]",0.63,3.9
sodium_diatomic,-324.391389251953,5,0.0,"[-38.54828, -38.54828, -2.248441, -2.248303, -1.161023, -1.160044, -1.160044, -1.159791, -1.159791, -1.15899, -0.1326775]","[-0.0, 0.0, 0.005088, 0.0, -0.0, -0.005088]",1.34,6.7
dimethylamine,-135.049431258348,7,0.413252328779,"[-10.23465, -0.9221339, -0.7199, -0.6451576, -0.5025974, -0.4557072, -0.4474443, -0.3968381, -0.3750604, -0.3740849, -0.2380908]","[-0.003559, 0.037054, 0.004954, -0.001982, -0.010091, -0.022338, -0.00203, -0.009348, 0.017717, -0.002226, -0.00872, 0.000156, 0.005531, -0.002642, 2.6e-05, 0.005129, -0.002399, -0.000126, 0.000672, 0.000732, -0.002552, 0.001052, 0.000979, 0.002456, -0.001296, -0.002711, -0.006391, -0.001291, -0.002854, 0.006096]",11.29,42.7
cyclobutene,-155.836882340502,7,0.0599940114178,"[-10.22342, -0.8824241, -0.6759476, -0.6636852, -0.5291961, -0.5130137, -0.4757132, -0.393804, -0.3748442, -0.3413362, -0.3266044, -0.2623353]","[-0.0, -0.054515, 0.108084, 0.0, 0.053484, 0.086252, 0.0, -0.005085, -0.09843, 0.0, 0.006131, -0.094194, -0.0, 0.000208, -0.008778, -0.0, -0.00013, -0.008583, 0.00019, -0.003098, 0.003954, 1.4e-05, 0.003051, 0.003871, -0.00019, -0.003098, 0.003954, -1.4e-05, 0.003051, 0.003871]",18.42,71.3
acetic_acid,-228.929911268052,8,0.718608777792,"[-10.24177, -1.140609, -1.049076, -0.7892298, -0.632929, -0.5168003, -0.5028701, -0.49203, -0.4301155, -0.419206, -0.4127478, -0.3452933, -0.3014551]","[0.066955, 0.096813, -0.0, -0.014351, 0.016543, -0.0, -0.036648, -0.100535, 0.0, 0.005237, -0.003136, -0.0, -0.017361, 0.009918, -0.0, -0.005253, -0.004622, -0.0, 0.000711, -0.007491, -0.001272, 0.000711, -0.007491, 0.001272]",9.27,37.8
hydrogen_fluoride,-100.392022383393,6,0.710736,"[-24.7681, -1.237147, -0.5716062, -0.4353013, -0.4353013]","[0.0, -0.0, -0.309466, -0.0, 0.0, 0.309466]",0.11,0.8
phosphorus_diatomic,-682.462913948446,6,5e-06,"[-4.770015, -4.770015, -4.769808, -4.769808, -4.767151, -4.76493, -0.7012602, -0.4793151, -0.308269, -0.2982263, -0.2982263]","[0.0, -0.0, 0.015454, -0.0, 0.0, -0.015454]",1.52,6.5
sodium_fluoride,-262.026572282604,7,3.160075,"[-38.55827, -24.56262, -2.261272, -1.174387, -1.174387, -1.173579, -0.9790804, -0.2587638, -0.2501698, -0.2501698]","[0.0, 0.0, 0.096873, -0.0, -0.0, -0.096873]",1.32,5.2
lithium_diatomic,-14.964832440345,6,0.0,"[-2.020991, -2.020596, -0.1394704]","[0.0, -0.0, 0.003605, -0.0, 0.0, -0.003605]",0.14,1.2
difluoromethane,-238.849260599754,7,0.74965,"[-10.38431, -1.297663, -1.239556, -0.7382572, -0.5760857, -0.5736558, -0.5712003, -0.4520868, -0.4392775, -0.4300419, -0.366433]","[-0.0, -1.6e-05, -0.01867, 0.007159, -0.0, -0.012337, -0.007159, -0.0, -0.012337, 0.0, -0.030148, 0.021608, 0.0, 0.030165, 0.021736]",2.53,10.0
propene,-117.798311506107,7,0.167800301114,"[-10.21932, -10.21448, -0.8106414, -0.705961, -0.5713579, -0.4814426, -0.434524, -0.4268264, -0.3827972, -0.3577104, -0.2702059]","[-0.104628, 0.050804, -0.0, 0.106341, -0.070111, -0.0, 0.011847, 0.01296, -0.0, -0.002802, 0.004432, 0.0, 0.005697, 0.005359, 0.0, 0.004086, -0.008189, 0.0, -0.002652, 0.006384, 0.0, -0.008945, -0.00082, -0.000621, -0.008945, -0.00082, 0.000621]",10.55,37.5
difluorine_monoxide,-274.509598069116,7,0.130636,"[-19.44073, -1.383401, -1.272564, -0.9835094, -0.6446111, -0.6003424, -0.5769501, -0.4886202, -0.4753729, -0.4688535, -0.3640381]","[-0.0, -9e-06, -0.042832, 0.0, -0.013022, 0.021057, 0.0, 0.013031, 0.021775]",1.05,4.2
phosphorus_monoxide,-416.380985500746,8,0.779974,"[-77.28313, -19.24849, -6.678575, -4.816287, -4.814407, -4.809822, -1.05907, -0.5801891, -0.4296351, -0.4116072, -0.4104902, -0.21697]","[0.0, -0.0, -0.083625, -0.0, 0.0, 0.083625]",1.6,6.3
tert_butyl_radical,-157.653667794987,8,0.100025000405,"[-10.21138, -0.8287114, -0.7104979, -0.7104975, -0.5519727, -0.4612396, -0.453017, -0.4530166, -0.3981499, -0.3981495, -0.3768362, -0.3535108, -0.3535106, -0.1884374]","[-0.000304, 0.014356, -0.024431, -4.3e-05, -0.072865, 0.017439, -0.021685, 0.02629, 0.015517, 0.022004, 0.026146, 0.016333, -3e-06, 0.002928, -0.004319, -0.002321, 0.004151, -0.000778, 0.002319, 0.004156, -0.000776, 0.00408, -0.00411, -0.002612, 0.004639, -0.001208, -0.003115, -0.000532, 0.002739, -0.00375, -0.004075, -0.004118, -0.002637, 0.000571, 0.002719, -0.003767, -0.004649, -0.001183, -0.003105]",27.74,157.0
lithium_fluoride,-107.349590781016,6,2.446392,"[-24.60114, -2.006935, -1.027056, -0.3073074, -0.292293, -0.292293]","[-0.0, -0.0, -0.035875, 0.0, 0.0, 0.035875]",0.52,1.7
acetyl_fluoride,-252.932881275354,8,1.15879449571,"[-10.25585, -1.288892, -1.113463, -0.8030433, -0.6426233, -0.5447392, -0.5345596, -0.5226674, -0.4543549, -0.4490904, -0.419797, -0.3967711, -0.3328567]","[0.071151, 0.129811, -0.0, -0.007498, 0.013424, 0.0, -0.062205, -0.130486, 0.0, 0.001774, 0.007151, 0.0, -0.00902, -0.007002, -0.0, 0.002899, -0.006449, -0.006262, 0.002899, -0.006449, 0.006262]",8.35,30.7
lithium_hydroxide,-83.310403838601,7,1.765731,"[-19.09009, -1.990698, -0.876612, -0.3908258, -0.2310773, -0.2310773]","[0.0, -0.0, -0.016019, -0.0, -0.0, 0.004014, 0.0, 0.0, 0.012005]",1.18,3.2
propyne,-116.547592358164,7,0.334413000295,"[-10.251, -10.23029, -10.21264, -0.8058325, -0.723268, -0.5438287, -0.4635319, -0.449844, -0.4498299, -0.2831294, -0.2831277]","[-0.0, 0.001616, -0.133205, -0.0, 0.001647, -0.343341, 0.0, 0.00147, 0.471721, 0.0, 8.2e-05, -0.008918, 0.0, 0.001314, 0.005172, 0.005962, -0.003064, 0.004285, -0.005961, -0.003064, 0.004285]",7.28,22.3
aluminum_monosulfide,-640.391612515411,8,1.550069,"[-5.911419, -5.904023, -5.904023, -4.232083, -2.760839, -2.760839, -2.760772, -0.6867961, -0.3830129, -0.2724372, -0.266235, -0.266235]","[-0.0, 0.0, -0.059549, 0.0, -0.0, 0.059549]",3.51,11.0
boron_monocarbide,-62.597323266471,12,0.589375,"[-10.32338, -6.892415, -0.7250686, -0.3955962, -0.3205075, -0.3205075, -0.300384]","[-0.0, -0.0, -0.066734, 0.0, 0.0, 0.066734]",0.53,2.9
boron_trichloride,-1405.165760413496,7,9.3e-05,"[-6.935585, -0.9221263, -0.8720881, -0.8720801, -0.5507225, -0.4754619, -0.475457, -0.42901, -0.3692828, -0.369281, -0.363959, -0.3639539, -0.3360595]","[-0.0, 0.027768, 0.0, -0.0, -0.041075, -0.0, 0.033835, 0.006653, 0.0, -0.033835, 0.006653, -0.0]",8.66,32.2
ethyl_radical,-79.084048802498,7,0.130129114052,"[-10.22986, -10.21705, -0.7822593, -0.6297148, -0.4667338, -0.4299757, -0.405402, -0.369663, -0.2192365]","[0.011531, 0.066467, -0.0, 0.005146, -0.056459, -0.0, -0.006197, 0.000889, -0.0, -0.003657, -0.00319, 0.001008, -0.003657, -0.00319, -0.001008, -0.001583, -0.002259, 0.008193, -0.001583, -0.002259, -0.008193]",5.54,27.5
magnesium_hydroxide,-275.769917176878,17,0.479291,"[-46.92074, -19.13486, -3.156341, -1.879213, -1.879213, -1.876387, -0.9365004, -0.4636689, -0.2833913, -0.2833913, -0.1983837]","[-0.0, -0.0, 0.005357, -0.0, -0.0, -0.035805, 0.0, 0.0, 0.030447]",2.67,19.3
hydrogen_peroxide,-151.453329058679,7,0.619248,"[-19.2738, -19.27373, -1.157782, -0.9402808, -0.5403931, -0.5310668, -0.4507069, -0.3583049, -0.30675]","[0.005516, -0.018021, 0.016924, -0.005365, 0.018194, 0.017562, -0.019232, -0.014175, -0.017293, 0.019082, 0.014003, -0.017193]",0.8,3.8
propane,-119.030940282338,6,0.0345300385896,"[-10.20592, -0.8032533, -0.7004418, -0.6012232, -0.4700913, -0.4477962, -0.4112276, -0.3923292, -0.347902, -0.3449874, -0.3367334]","[0.000233, -0.053611, 4e-06, 0.006439, 0.027367, -2e-06, -0.006657, 0.027432, 2.6e-05, 2e-06, 0.012407, 0.000175, -3.5e-05, 0.012456, -0.000208, 0.000621, -0.004512, -1e-06, -0.000591, -0.004487, 5e-06, -0.002142, -0.004262, -0.00415, -0.002142, -0.004264, 0.00415, 0.002128, -0.004262, 0.004146, 0.002145, -0.004264, -0.004145]",16.03,49.3
butane,-158.310063678247,7,1e-06,"[-10.20726, -0.8179678, -0.7445525, -0.6473904, -0.5913992, -0.4824998, -0.4388129, -0.4321267, -0.422334, -0.3784759, -0.3593853, -0.3438061, -0.3317808, -0.3304708]","[0.01216, -0.049672, -0.0, -0.01678, 0.047443, -0.0, 0.018393, -0.04591, -0.0, -0.014419, 0.046337, -0.0, -0.002153, 0.000459, 0.0, 0.002251, -0.000521, 0.0, -0.006928, 0.005406, 0.003572, -0.006928, 0.005406, -0.003572, 0.006824, -0.005168, 0.003223, 0.006824, -0.005168, -0.003223, 0.012842, -0.00655, -0.003101, 0.012842, -0.00655, 0.003101, -0.012463, 0.007243, -0.003309, -0.012463, 0.007243, 0.003309]",31.26,146.6
carbon_dioxide,-188.462767657901,7,1e-06,"[-19.29354, -19.29352, -10.41587, -1.198034, -1.156299, -0.5905411, -0.5448011, -0.5403243, -0.5403243, -0.3941197, -0.3941197]","[0.0, -0.0, -0.00048, -0.0, 0.0, 0.377767, -0.0, 0.0, -0.377287]",1.27,4.6
magnesium_monohydride,-200.521695692943,7,0.502116,"[-46.92687, -3.161048, -1.883857, -1.883857, -1.880203, -0.3030142, -0.1810289]","[-0.0, -0.0, 0.014592, 0.0, 0.0, -0.014592]",0.38,3.8
cyclopropene,-116.518056876777,7,0.183408,"[-10.24236, -10.24106, -10.23569, -0.8958034, -0.6200157, -0.5839217, -0.519935, -0.4521624, -0.3623835, -0.3098881, -0.2663182]","[-0.0, 0.002975, 0.147722, 0.0, -0.065903, -0.0739, -0.0, 0.063118, -0.084614, -0.0, -0.004598, 0.017348, -0.0, 0.004224, 0.017492, -0.013604, 9.2e-05, -0.012024, 0.013604, 9.2e-05, -0.012024]",8.32,22.5
cyclobutane,-157.073391784974,7,7.48331477355e-06,"[-10.21656, -0.868208, -0.672484, -0.6724835, -0.5631389, -0.4901019, -0.490076, -0.3928277, -0.3928273, -0.3640293, -0.3232632, -0.3155549, -0.3155547]","[-0.002102, -0.023548, -0.013078, -0.002102, 0.019335, -0.013404, 0.040822, 0.002102, 0.013029, -0.036609, 0.002102, 0.013355, -6.1e-05, 0.000884, 0.006208, -5.7e-05, 0.003868, -0.00016, -6.1e-05, -0.000833, 0.006371, -5.7e-05, -0.004147, -0.000193, -0.001451, 6.1e-05, -0.006074, -0.003369, 5.7e-05, 7.5e-05, 0.0014, 6.1e-05, -0.006237, 0.003647, 5.7e-05, 0.000108]",26.58,110.3
silylene_s,-290.492812091292,6,0.0900698597812,"[-66.27024, -5.350666, -3.689579, -3.681168, -3.678731, -0.5238608, -0.3412931, -0.2518791]","[-0.0, 0.005134, 0.000439, 0.0, -0.000736, -0.000172, 0.0, -0.004397, -0.000267]",0.55,3.2
aluminum_monohydride,-242.864943105572,6,0.018833,"[-56.16779, -4.19277, -2.723433, -2.723433, -2.71627, -0.3769076, -0.2140348]","[0.0, 0.0, 0.002481, -0.0, -0.0, -0.002481]",0.37,3.0
beryllium_oxide,-89.822322925993,10,2.57448,"[-19.1266, -4.091841, -0.8700225, -0.3062334, -0.2707848, -0.2707848]","[-0.0, 0.0, -0.024743, 0.0, -0.0, 0.024743]",0.63,2.4
