 argument  1 = OH.nw
                                         
                                         
 
 
              Northwest Computational Chemistry Package (NWChem) 6.6
              ------------------------------------------------------
 
 
                    Environmental Molecular Sciences Laboratory
                       Pacific Northwest National Laboratory
                                Richland, WA 99352
 
                              Copyright (c) 1994-2015
                       Pacific Northwest National Laboratory
                            Battelle Memorial Institute
 
             NWChem is an open-source computational chemistry package
                        distributed under the terms of the
                      Educational Community License (ECL) 2.0
             A copy of the license is included with this distribution
                              in the LICENSE.TXT file
 
                                  ACKNOWLEDGMENT
                                  --------------

            This software and its documentation were developed at the
            EMSL at Pacific Northwest National Laboratory, a multiprogram
            national laboratory, operated for the U.S. Department of Energy
            by Battelle under Contract Number DE-AC05-76RL01830. Support
            for this work was provided by the Department of Energy Office
            of Biological and Environmental Research, Office of Basic
            Energy Sciences, and the Office of Advanced Scientific Computing.


           Job information
           ---------------

    hostname        = cn-mem
    program         = nwchem
    date            = Sun Jun 17 16:55:10 2018

    compiled        = Mon_Jan_29_13:00:04_2018
    source          = /gpfs/home/bsundahl/nwchem-6.6
    nwchem branch   = 6.6
    nwchem revision = 27746
    ga revision     = 10594
    input           = OH.nw
    prefix          = OH.
    data base       = /gpfs/scratch/bsundahl/OH.db
    status          = startup
    nproc           =       14
    time left       =     -1s



           Memory information
           ------------------

    heap     =  308019194 doubles =   2350.0 Mbytes
    stack    =  150732799 doubles =   1150.0 Mbytes
    global   =   65536000 doubles =    500.0 Mbytes (distinct from heap & stack)
    total    =  524287993 doubles =   4000.0 Mbytes
    verify   = yes
    hardfail = no 


           Directory information
           ---------------------
 
  0 permanent = /gpfs/scratch/bsundahl
  0 scratch   = /gpfs/scratch/bsundahl/
 
 
 
 
                                NWChem Input Module
                                -------------------
 
 

 Scaling coordinates for geometry "geometry" by  1.889725989
 (inverse scale =  0.529177249)

 
 
                             Geometry "geometry" -> ""
                             -------------------------
 
 Output coordinates in angstroms (scale by  1.889725989 to convert to a.u.)
 
  No.       Tag          Charge          X              Y              Z
 ---- ---------------- ---------- -------------- -------------- --------------
    1 O                    8.0000     0.00000000     0.00000000    -0.20164925
    2 H                    1.0000     0.00000000     0.00000000     1.61319396
 
      Atomic Mass 
      ----------- 
 
      O                 15.994910
      H                  1.007825
 

 Effective nuclear repulsion energy (a.u.)       2.3326632123

            Nuclear Dipole moment (a.u.) 
            ----------------------------
        X                 Y               Z
 ---------------- ---------------- ----------------
     0.0000000000     0.0000000000     0.0000000000
 
 
            XYZ format geometry
            -------------------
     2
 geometry
 O                     0.00000000     0.00000000    -0.20164925
 H                     0.00000000     0.00000000     1.61319396
 


 Summary of "ao basis" -> "" (spherical)
 ------------------------------------------------------------------------------
       Tag                 Description            Shells   Functions and Types
 ---------------- ------------------------------  ------  ---------------------
 *                        aug-cc-pvqz                 on all atoms 


 
                                 NWChem DFT Module
                                 -----------------
 
 
                      Basis "ao basis" -> "ao basis" (spherical)
                      -----
  O (Oxygen)
  ----------
            Exponent  Coefficients 
       -------------- ---------------------------------------------------------
  1 S  6.14200000E+04  0.000090
  1 S  9.19900000E+03  0.000698
  1 S  2.09100000E+03  0.003664
  1 S  5.90900000E+02  0.015218
  1 S  1.92300000E+02  0.052423
  1 S  6.93200000E+01  0.145921
  1 S  2.69700000E+01  0.305258
  1 S  1.11000000E+01  0.398508
  1 S  4.68200000E+00  0.216980
 
  2 S  6.14200000E+04 -0.000020
  2 S  9.19900000E+03 -0.000159
  2 S  2.09100000E+03 -0.000829
  2 S  5.90900000E+02 -0.003508
  2 S  1.92300000E+02 -0.012156
  2 S  6.93200000E+01 -0.036261
  2 S  2.69700000E+01 -0.082992
  2 S  1.11000000E+01 -0.152090
  2 S  4.68200000E+00 -0.115331
 
  3 S  1.42800000E+00  1.000000
 
  4 S  5.54700000E-01  1.000000
 
  5 S  2.06700000E-01  1.000000
 
  6 S  6.95900000E-02  1.000000
 
  7 P  6.34200000E+01  0.006044
  7 P  1.46600000E+01  0.041799
  7 P  4.45900000E+00  0.161143
 
  8 P  1.53100000E+00  1.000000
 
  9 P  5.30200000E-01  1.000000
 
 10 P  1.75000000E-01  1.000000
 
 11 P  5.34800000E-02  1.000000
 
 12 D  3.77500000E+00  1.000000
 
 13 D  1.30000000E+00  1.000000
 
 14 D  4.44000000E-01  1.000000
 
 15 D  1.54000000E-01  1.000000
 
 16 F  2.66600000E+00  1.000000
 
 17 F  8.59000000E-01  1.000000
 
 18 F  3.24000000E-01  1.000000
 
 19 G  1.84600000E+00  1.000000
 
 20 G  7.14000000E-01  1.000000
 
  H (Hydrogen)
  ------------
            Exponent  Coefficients 
       -------------- ---------------------------------------------------------
  1 S  8.26400000E+01  0.002006
  1 S  1.24100000E+01  0.015343
  1 S  2.82400000E+00  0.075579
 
  2 S  7.97700000E-01  1.000000
 
  3 S  2.58100000E-01  1.000000
 
  4 S  8.98900000E-02  1.000000
 
  5 S  2.36300000E-02  1.000000
 
  6 P  2.29200000E+00  1.000000
 
  7 P  8.38000000E-01  1.000000
 
  8 P  2.92000000E-01  1.000000
 
  9 P  8.48000000E-02  1.000000
 
 10 D  2.06200000E+00  1.000000
 
 11 D  6.62000000E-01  1.000000
 
 12 D  1.90000000E-01  1.000000
 
 13 F  1.39700000E+00  1.000000
 
 14 F  3.60000000E-01  1.000000
 


 Summary of "ao basis" -> "ao basis" (spherical)
 ------------------------------------------------------------------------------
       Tag                 Description            Shells   Functions and Types
 ---------------- ------------------------------  ------  ---------------------
 O                        aug-cc-pvqz               20       80   6s5p4d3f2g
 H                        aug-cc-pvqz               14       46   5s4p3d2f




 Summary of "ao basis" -> "ao basis" (spherical)
 ------------------------------------------------------------------------------
       Tag                 Description            Shells   Functions and Types
 ---------------- ------------------------------  ------  ---------------------
 O                        aug-cc-pvqz               20       80   6s5p4d3f2g
 H                        aug-cc-pvqz               14       46   5s4p3d2f


  Caching 1-el integrals 
 
            General Information
            -------------------
          SCF calculation type: DFT
          Wavefunction type:  closed shell.
          No. of atoms     :     2
          No. of electrons :    10
           Alpha electrons :     5
            Beta electrons :     5
          Charge           :    -1
          Spin multiplicity:     1
          Use of symmetry is: off; symmetry adaption is: off
          Maximum number of iterations: 150
          This is a Direct SCF calculation.
          AO basis - number of functions:   126
                     number of shells:    34
          Convergence on energy requested: 1.00D-06
          Convergence on density requested: 1.00D-05
          Convergence on gradient requested: 5.00D-04
 
              XC Information
              --------------
                         PBE0 Method XC Functional
                     Hartree-Fock (Exact) Exchange  0.250          
          PerdewBurkeErnzerhof Exchange Functional  0.750          
            Perdew 1991 LDA Correlation Functional  1.000 local    
           PerdewBurkeErnz. Correlation Functional  1.000 non-local
 
             Grid Information
             ----------------
          Grid used for XC integration:  medium    
          Radial quadrature: Mura-Knowles        
          Angular quadrature: Lebedev. 
          Tag              B.-S. Rad. Rad. Pts. Rad. Cut. Ang. Pts.
          ---              ---------- --------- --------- ---------
          O                   0.60       49          12.0       434
          H                   0.35       45          11.0       434
          Grid pruning is: on 
          Number of quadrature shells:    94
          Spatial weights used:  Erf1
 
          Convergence Information
          -----------------------
          Convergence aids based upon iterative change in 
          total energy or number of iterations. 
          Levelshifting, if invoked, occurs when the 
          HOMO/LUMO gap drops below (HL_TOL): 1.00D-02
          DIIS, if invoked, will attempt to extrapolate 
          using up to (NFOCK): 10 stored Fock matrices.

                    Damping( 0%)  Levelshifting(0.5)       DIIS
                  --------------- ------------------- ---------------
          dE  on:    start            ASAP                start   
          dE off:    2 iters        150 iters           150 iters 

 
      Screening Tolerance Information
      -------------------------------
          Density screening/tol_rho: 1.00D-10
          AO Gaussian exp screening on grid/accAOfunc:  14
          CD Gaussian exp screening on grid/accCDfunc:  20
          XC Gaussian exp screening on grid/accXCfunc:  20
          Schwarz screening/accCoul: 1.00D-08

 
      Superposition of Atomic Density Guess
      -------------------------------------
 
 Sum of atomic energies:         -75.28567006

 Renormalizing density from       9.00 to     10
 
      Non-variational initial energy
      ------------------------------

 Total energy =     -79.362292
 1-e energy   =    -120.424941
 2-e energy   =      38.729986
 HOMO         =       0.219131
 LUMO         =       0.219131
 
   Time after variat. SCF:      0.4
   Time prior to 1st pass:      0.4

 Grid_pts file          = /gpfs/scratch/bsundahl//OH.gridpts.00
 Record size in doubles =  12289        No. of grid_pts per rec  =   3070
 Max. records in memory =      3        Max. recs in file   = 307101847


           Memory utilization after 1st SCF pass: 
           Heap Space remaining (MW):      307.98           307978122
          Stack Space remaining (MW):      150.73           150732068

   convergence    iter        energy       DeltaE   RMS-Dens  Diis-err    time
 ---------------- ----- ----------------- --------- --------- ---------  ------
 d= 0,ls=0.0,diis     1    -73.1990468258 -7.55D+01  1.92D-01  1.23D+01     0.8
 d= 0,ls=0.0,diis     2    -71.7468229204  1.45D+00  7.06D-03  4.60D+01     1.1
 d= 0,ls=0.0,diis     3    -74.2289875916 -2.48D+00  6.91D-03  1.10D+01     1.3
 d= 0,ls=0.0,diis     4    -75.5470450837 -1.32D+00  1.31D-03  4.31D-01     1.6
 d= 0,ls=0.0,diis     5    -75.5750999920 -2.81D-02  6.62D-04  2.25D-01     1.9
  Resetting Diis
 d= 0,ls=0.0,diis     6    -75.5966348698 -2.15D-02  4.80D-04  6.12D-02     2.2
 d= 0,ls=0.0,diis     7    -75.6029502429 -6.32D-03  8.44D-04  6.41D-03     2.4
 d= 0,ls=0.0,diis     8    -75.5936511761  9.30D-03  6.46D-04  8.34D-02     2.7
 d= 0,ls=0.0,diis     9    -75.6037486043 -1.01D-02  8.24D-06  1.05D-05     3.0
 d= 0,ls=0.0,diis    10    -75.6037498774 -1.27D-06  1.65D-06  2.69D-07     3.3
 d= 0,ls=0.0,diis    11    -75.6037499022 -2.48D-08  5.36D-07  2.55D-09     3.5


         Total DFT energy =      -75.603749902234
      One electron energy =     -111.922786423632
           Coulomb energy =       42.812713479857
    Exchange-Corr. energy =       -8.826340170725
 Nuclear repulsion energy =        2.332663212266

 Numeric. integr. density =       10.000000530568

     Total iterative time =      3.1s


 
                       DFT Final Molecular Orbital Analysis
                       ------------------------------------
 
 Vector    1  Occ=2.000000D+00  E=-1.893104D+01
              MO Center= -1.5D-19,  3.1D-18, -2.0D-01, r^2= 1.5D-02
   Bfn.  Coefficient  Atom+Function         Bfn.  Coefficient  Atom+Function  
  ----- ------------  ---------------      ----- ------------  ---------------
     1      0.996793  1 O  s          
 
 Vector    2  Occ=2.000000D+00  E=-5.879462D-01
              MO Center=  9.7D-16,  8.8D-17, -1.8D-01, r^2= 4.9D-01
   Bfn.  Coefficient  Atom+Function         Bfn.  Coefficient  Atom+Function  
  ----- ------------  ---------------      ----- ------------  ---------------
     4      0.547667  1 O  s                  2      0.334467  1 O  s          
     5      0.291463  1 O  s                  3      0.284548  1 O  s          
 
 Vector    3  Occ=2.000000D+00  E=-5.689066D-02
              MO Center=  5.9D-16, -1.8D-15,  8.4D-01, r^2= 1.8D+00
   Bfn.  Coefficient  Atom+Function         Bfn.  Coefficient  Atom+Function  
  ----- ------------  ---------------      ----- ------------  ---------------
    83      0.283061  2 H  s                 15      0.246426  1 O  pz         
    84      0.217301  2 H  s                 12      0.196163  1 O  pz         
    18      0.173386  1 O  pz                82      0.157149  2 H  s          
 
 Vector    4  Occ=2.000000D+00  E=-2.000634D-03
              MO Center= -6.7D-16, -4.9D-17, -1.9D-01, r^2= 9.0D-01
   Bfn.  Coefficient  Atom+Function         Bfn.  Coefficient  Atom+Function  
  ----- ------------  ---------------      ----- ------------  ---------------
    13      0.387688  1 O  px                10      0.316380  1 O  px         
    16      0.279765  1 O  px                 7      0.178789  1 O  px         
 
 Vector    5  Occ=2.000000D+00  E=-2.000389D-03
              MO Center= -4.5D-16, -4.6D-16, -1.9D-01, r^2= 9.0D-01
   Bfn.  Coefficient  Atom+Function         Bfn.  Coefficient  Atom+Function  
  ----- ------------  ---------------      ----- ------------  ---------------
    14      0.387688  1 O  py                11      0.316379  1 O  py         
    17      0.279765  1 O  py                 8      0.178789  1 O  py         
 
 Vector    6  Occ=0.000000D+00  E= 1.213057D-01
              MO Center= -8.9D-15, -1.5D-15,  1.2D+00, r^2= 8.2D+00
   Bfn.  Coefficient  Atom+Function         Bfn.  Coefficient  Atom+Function  
  ----- ------------  ---------------      ----- ------------  ---------------
    85      1.013510  2 H  s                  6     -0.831348  1 O  s          
    84      0.538533  2 H  s                 21     -0.429517  1 O  pz         
    18     -0.330136  1 O  pz                15     -0.217463  1 O  pz         
    83      0.206810  2 H  s                 12     -0.192974  1 O  pz         
    97     -0.164523  2 H  pz         
 
 Vector    7  Occ=0.000000D+00  E= 1.756727D-01
              MO Center= -8.7D-15,  1.4D-16,  1.4D+00, r^2= 1.1D+01
   Bfn.  Coefficient  Atom+Function         Bfn.  Coefficient  Atom+Function  
  ----- ------------  ---------------      ----- ------------  ---------------
     6      2.152791  1 O  s                 85     -1.602949  2 H  s          
    97      1.030429  2 H  pz                21      0.726145  1 O  pz         
    84     -0.656835  2 H  s                 18      0.307257  1 O  pz         
    15     -0.248762  1 O  pz                39      0.240438  1 O  d  0       
    94      0.202631  2 H  pz                82      0.170242  2 H  s          
 
 Vector    8  Occ=0.000000D+00  E= 2.434577D-01
              MO Center=  1.6D-14,  2.4D-15, -1.1D+00, r^2= 9.6D+00
   Bfn.  Coefficient  Atom+Function         Bfn.  Coefficient  Atom+Function  
  ----- ------------  ---------------      ----- ------------  ---------------
    84      3.889181  2 H  s                  6     -2.933688  1 O  s          
    21     -2.424421  1 O  pz                97     -1.860138  2 H  pz         
     5     -0.771469  1 O  s                 18     -0.761512  1 O  pz         
    39     -0.485737  1 O  d  0              94     -0.348002  2 H  pz         
   110      0.344375  2 H  d  0              85      0.249951  2 H  s          
 
 Vector    9  Occ=0.000000D+00  E= 2.745582D-01
              MO Center=  3.3D-15,  2.0D-14, -9.5D-02, r^2= 7.9D+00
   Bfn.  Coefficient  Atom+Function         Bfn.  Coefficient  Atom+Function  
  ----- ------------  ---------------      ----- ------------  ---------------
    20      1.184655  1 O  py                17     -0.488772  1 O  py         
    19      0.193302  1 O  px         
 
 Vector   10  Occ=0.000000D+00  E= 2.745583D-01
              MO Center=  1.9D-14, -1.6D-15, -9.5D-02, r^2= 7.9D+00
   Bfn.  Coefficient  Atom+Function         Bfn.  Coefficient  Atom+Function  
  ----- ------------  ---------------      ----- ------------  ---------------
    19      1.184654  1 O  px                16     -0.488772  1 O  px         
    20     -0.193302  1 O  py         
 
 Vector   11  Occ=0.000000D+00  E= 3.334614D-01
              MO Center= -3.4D-16, -4.7D-15,  1.4D+00, r^2= 7.1D+00
   Bfn.  Coefficient  Atom+Function         Bfn.  Coefficient  Atom+Function  
  ----- ------------  ---------------      ----- ------------  ---------------
    96      1.628143  2 H  py                20     -1.026776  1 O  py         
    38     -0.309135  1 O  d -1              95      0.266907  2 H  px         
   109     -0.184976  2 H  d -1              19     -0.168323  1 O  px         
 
 Vector   12  Occ=0.000000D+00  E= 3.334615D-01
              MO Center= -9.3D-15,  2.1D-15,  1.4D+00, r^2= 7.1D+00
   Bfn.  Coefficient  Atom+Function         Bfn.  Coefficient  Atom+Function  
  ----- ------------  ---------------      ----- ------------  ---------------
    95      1.628143  2 H  px                19     -1.026777  1 O  px         
    40      0.309135  1 O  d  1              96     -0.266907  2 H  py         
   111      0.184976  2 H  d  1              20      0.168323  1 O  py         
 
 Vector   13  Occ=0.000000D+00  E= 3.507499D-01
              MO Center= -2.0D-14, -1.3D-14,  9.5D-01, r^2= 7.0D+00
   Bfn.  Coefficient  Atom+Function         Bfn.  Coefficient  Atom+Function  
  ----- ------------  ---------------      ----- ------------  ---------------
     6      1.997554  1 O  s                 84     -1.373207  2 H  s          
    21      1.293229  1 O  pz                 5     -1.240183  1 O  s          
    97     -0.713396  2 H  pz                39      0.317882  1 O  d  0       
    94      0.248403  2 H  pz         
 
 Vector   14  Occ=0.000000D+00  E= 3.783485D-01
              MO Center=  1.4D-15, -4.0D-15,  8.9D-01, r^2= 1.0D+01
   Bfn.  Coefficient  Atom+Function         Bfn.  Coefficient  Atom+Function  
  ----- ------------  ---------------      ----- ------------  ---------------
     6      6.426818  1 O  s                 84     -4.454420  2 H  s          
    97      3.399352  2 H  pz                18      1.921827  1 O  pz         
    21      1.601061  1 O  pz                85     -1.393120  2 H  s          
   110     -0.622110  2 H  d  0              39      0.561006  1 O  d  0       
    83     -0.538663  2 H  s                 94      0.510755  2 H  pz         
 
 Vector   15  Occ=0.000000D+00  E= 5.752117D-01
              MO Center=  4.2D-15,  3.7D-15,  1.1D+00, r^2= 6.8D+00
   Bfn.  Coefficient  Atom+Function         Bfn.  Coefficient  Atom+Function  
  ----- ------------  ---------------      ----- ------------  ---------------
    84      8.515245  2 H  s                  6     -6.074725  1 O  s          
    97     -3.403706  2 H  pz                21     -2.299364  1 O  pz         
    18     -2.215887  1 O  pz                83     -1.597237  2 H  s          
     5     -1.416716  1 O  s                 39     -0.919497  1 O  d  0       
    94     -0.848719  2 H  pz               110      0.757836  2 H  d  0       
 

 center of mass
 --------------
 x =   0.00000000 y =   0.00000000 z =  -0.17777731

 moments of inertia (a.u.)
 ------------------
          11.151262399601           0.000000000000           0.000000000000
           0.000000000000          11.151262399601           0.000000000000
           0.000000000000           0.000000000000           0.000000000000
 
     Multipole analysis of the density
     ---------------------------------
 
     L   x y z        total         alpha         beta         nuclear
     -   - - -        -----         -----         ----         -------
     0   0 0 0     -1.000000     -5.000000     -5.000000      9.000000
 
     1   1 0 0     -0.000000     -0.000000     -0.000000      0.000000
     1   0 1 0      0.000000      0.000000      0.000000      0.000000
     1   0 0 1     -0.247409     -0.123704     -0.123704      0.000000
 
     2   2 0 0     -8.318320     -4.159160     -4.159160      0.000000
     2   1 1 0     -0.000002     -0.000001     -0.000001      0.000000
     2   1 0 1      0.000000      0.000000      0.000000      0.000000
     2   0 2 0     -8.318335     -4.159167     -4.159167      0.000000
     2   0 1 1      0.000000      0.000000      0.000000      0.000000
     2   0 0 2     -8.658907     -9.556946     -9.556946     10.454984
 

 Task  times  cpu:        3.5s     wall:        3.7s
 
 
                                NWChem Input Module
                                -------------------
 
 
 Summary of allocated global arrays
-----------------------------------
  No active global arrays



                         GA Statistics for process    0
                         ------------------------------

       create   destroy   get      put      acc     scatter   gather  read&inc
calls:  184      184     1366     1088      258        0        0      316     
number of processes/call 1.86e+00 1.35e+00 3.37e+00 0.00e+00 0.00e+00
bytes total:             4.26e+07 9.09e+06 1.90e+07 0.00e+00 0.00e+00 2.53e+03
bytes remote:            2.32e+07 2.31e+06 1.25e+07 0.00e+00 0.00e+00 0.00e+00
Max memory consumed for GA by this process: 1843200 bytes
 
MA_summarize_allocated_blocks: starting scan ...
MA_summarize_allocated_blocks: scan completed: 0 heap blocks, 0 stack blocks
MA usage statistics:

	allocation statistics:
					      heap	     stack
					      ----	     -----
	current number of blocks	         0	         0
	maximum number of blocks	        22	        52
	current total bytes		         0	         0
	maximum total bytes		    328624	  89022616
	maximum total K-bytes		       329	     89023
	maximum total M-bytes		         1	        90
 
 
                                     CITATION
                                     --------
                Please cite the following reference when publishing
                           results obtained with NWChem:
 
                 M. Valiev, E.J. Bylaska, N. Govind, K. Kowalski,
              T.P. Straatsma, H.J.J. van Dam, D. Wang, J. Nieplocha,
                        E. Apra, T.L. Windus, W.A. de Jong
                 "NWChem: a comprehensive and scalable open-source
                  solution for large scale molecular simulations"
                      Comput. Phys. Commun. 181, 1477 (2010)
                           doi:10.1016/j.cpc.2010.04.018
 
                                      AUTHORS
                                      -------
          E. Apra, E. J. Bylaska, W. A. de Jong, N. Govind, K. Kowalski,
       T. P. Straatsma, M. Valiev, H. J. J. van Dam, D. Wang, T. L. Windus,
        J. Hammond, J. Autschbach, K. Bhaskaran-Nair, J. Brabec, K. Lopata,
       S. A. Fischer, S. Krishnamoorthy, W. Ma, M. Klemm, O. Villa, Y. Chen,
    V. Anisimov, F. Aquino, S. Hirata, M. T. Hackler, T. Risthaus, M. Malagoli,
       A. Marenich, A. Otero-de-la-Roza, J. Mullin, P. Nichols, R. Peverati,
     J. Pittner, Y. Zhao, P.-D. Fan, A. Fonari, M. Williamson, R. J. Harrison,
       J. R. Rehr, M. Dupuis, D. Silverstein, D. M. A. Smith, J. Nieplocha,
        V. Tipparaju, M. Krishnan, B. E. Van Kuiken, A. Vazquez-Mayagoitia,
        L. Jensen, M. Swart, Q. Wu, T. Van Voorhis, A. A. Auer, M. Nooijen,
      L. D. Crosby, E. Brown, G. Cisneros, G. I. Fann, H. Fruchtl, J. Garza,
        K. Hirao, R. A. Kendall, J. A. Nichols, K. Tsemekhman, K. Wolinski,
     J. Anchell, D. E. Bernholdt, P. Borowski, T. Clark, D. Clerc, H. Dachsel,
   M. J. O. Deegan, K. Dyall, D. Elwood, E. Glendening, M. Gutowski, A. C. Hess,
         J. Jaffe, B. G. Johnson, J. Ju, R. Kobayashi, R. Kutteh, Z. Lin,
   R. Littlefield, X. Long, B. Meng, T. Nakajima, S. Niu, L. Pollack, M. Rosing,
   K. Glaesemann, G. Sandrone, M. Stave, H. Taylor, G. Thomas, J. H. van Lenthe,
                               A. T. Wong, Z. Zhang.

 Total times  cpu:        3.5s     wall:        3.8s
