MADNESS runtime initialized with 10 threads in the pool and affinity -1 -1 -1

--------------------------------------------
   MADNESS 0.10.1 multiresolution suite
--------------------------------------------

   number of processors ... 1
    processor frequency ... 2.095038e+09
            host system ... linux-gnu
          configured by ... bsundahl
          configured on ... login
          configured at ... Mon May 21 11:22:55 EDT 2018
                    CXX ... mpicxx
               CXXFLAGS ...  -O3 -Wall -Wno-strict-aliasing -Wno-deprecated -Wno-unused-local-typedefs  -ffast-math -march=native
             tuning for ... default
                    MPI ... multiple
 multi-threaded runtime ... Intel TBB
                   BLAS ... Intel MKL 22371 22371 MFLOP/s
               compiled ... 11:23:28  on  May 21 2018
input filename:  OH.mdns

Atomic units being used to read input coordinates

XY degenerate

 The point group is C2v

Construct XC Functional from LIBXC Library

input line was:  pbe0 
 0.750 gga_x_pbe 
 1.000 gga_c_pbe 
 0.250 HF exchange 

screening parameters
 rhotol, rhomin 1.000000e-07 0.000000e+00
         ggatol 1.000000e-04
polarized  false 


Solving NDIM= 3  with thresh 1.000000e-05     k 8    conv 1.000000e-04 




 MADNESS Hartree-Fock and Density Functional Theory Program
 ----------------------------------------------------------



 geometry
   eprec 1.0e-06
   units atomic
   O             0.00000000           0.00000000          -0.20164925
   H             0.00000000           0.00000000           1.61319396
 end


             restart  false
    restart from AOs  false
 number of processes  1
   no. of io servers  1
   vnuc load bal fac  12
      load bal parts  2
     simulation cube  -5.161319e+01 5.161319e+01
        total charge  -1.000000e+00
            smearing  0.000000e+00
 number of electrons  5 5
  number of orbitals  5 5
     spin restricted  true
       xc functional   pbe0 
          xc library  libxc
 initial guess basis  6-31g
 max krylov subspace  5
    compute protocol  [1.000000e-04, 1.000000e-06]
  energy convergence  1.000000e-05
 density convergence  1.000000e-04
    maximum rotation  2.500000e-01
    polynomial order  -1
       truncate mode  1
  maximum iterations  20
 Convergence criteria are density delta & BSH residual.
        plot density  false
        plot coulomb  false
        plot orbital  0 -1
        plot npoints  101
        plot  volume  default
  canonical orbitals 
 psp or all electron  all electron
timer:           initialize     0.41s     0.41s

Solving NDIM= 3  with thresh 1.000000e-04     k 6    conv 1.000000e-04 


Solving NDIM= 3  with thresh 1.000000e-04     k 6    conv 1.000000e-04 

timer:     Project vnuclear     0.30s     0.30s
timer:     project ao basis     0.21s     0.21s
guess dens trace 9.000045e+00
timer:        guess density     0.17s     0.17s
timer:   guess Coulomb potn     0.36s     0.36s
timer:       guess lda potn     0.12s     0.12s
timer:        guess overlap     0.01s     0.01s
timer:    KEmat reconstruct     0.01s     0.01s
timer:  KEmat differentiate     0.18s     0.18s
timer:       KEmat compress     0.05s     0.05s
timer: KEmat inner products     0.03s     0.03s
timer:     guess Kinet potn     0.26s     0.26s
timer:           guess fock     0.35s     0.35s
timer:      guess eigen sol     0.00s     0.00s
grouping alpha orbitals into sets
set  0    0  -  0
set  1    1  -  4
timer: guess orbital groupi     0.01s     0.01s
timer:     project ao basis     0.23s     0.23s

Iteration 0 at time 2.6s

timer:       Make densities     0.01s     0.01s
timer:       Load balancing     0.00s     0.00s
timer:       Nuclear energy     0.00s     0.00s
timer:              Coulomb     0.13s     0.13s
timer:        DFT potential     0.50s     0.50s
timer:                V*psi     0.15s     0.15s
timer:          HF exchange     1.38s     1.38s
timer:        Truncate Vpsi     0.05s     0.05s
timer:            PE matrix     0.01s     0.01s
timer:    KEmat reconstruct     0.01s     0.01s
timer:  KEmat differentiate     0.10s     0.10s
timer:       KEmat compress     0.03s     0.03s
timer: KEmat inner products     0.02s     0.02s
timer:            KE matrix     0.16s     0.16s
timer: Make fock matrix res     0.00s     0.00s
timer: Diagonalization Fock     0.00s     0.00s
timer: Diagonalization rest     0.09s     0.09s

              kinetic      78.50567610
         nonlocal psp       0.00000000
   nuclear attraction    -198.81082955
              coulomb      50.13479677
                  PCM       0.00000000
 exchange-correlation      -9.64762872
    nuclear-repulsion       4.40809429
                total     -75.40989111

timer: Compute residual stu     0.02s     0.02s
entering apply
timer:            Apply BSH     0.86s     0.86s
timer:     Truncate new psi     0.07s     0.07s
residuals [6.336808e-03, 2.769525e-01, 6.249052e-01, 6.408659e-01, 6.408659e-01]
BSH residual: rms 5.076746e-01    max 6.408659e-01
timer:         BSH residual     0.02s     0.02s
timer: Update subspace stuf     0.01s     0.01s
Subspace solution [*]   1.00000000

timer:   Subspace transform     0.00s     0.00s
  restricting step for alpha orbitals: 1 2 3 4
Norm of vector changes alpha : rms 5.076746e-01    max 6.408659e-01
ORTHOG2a: maxq trantol 3.003210e-03 2.000000e-06
timer:       Orthonormalize     0.03s     0.03s

Iteration 1 at time 6.4s

timer:       Make densities     0.02s     0.02s
timer:       Load balancing     0.00s     0.00s
delta rho 1.949247e-01 1.949247e-01 residuals 6.408659e-01 0.000000e+00
timer:       Nuclear energy     0.00s     0.00s
timer:              Coulomb     0.17s     0.17s
timer:        DFT potential     0.52s     0.52s
timer:                V*psi     0.16s     0.16s
timer:          HF exchange     1.36s     1.36s
timer:        Truncate Vpsi     0.05s     0.05s
timer:            PE matrix     0.01s     0.01s
timer:    KEmat reconstruct     0.01s     0.01s
timer:  KEmat differentiate     0.13s     0.13s
timer:       KEmat compress     0.03s     0.03s
timer: KEmat inner products     0.03s     0.03s
timer:            KE matrix     0.20s     0.20s
timer: Make fock matrix res     0.00s     0.00s
timer: Diagonalization Fock     0.00s     0.00s
timer: Diagonalization rest     0.08s     0.08s

              kinetic      74.05398778
         nonlocal psp       0.00000000
   nuclear attraction    -189.50466334
              coulomb      44.25795358
                  PCM       0.00000000
 exchange-correlation      -8.88547980
    nuclear-repulsion       4.40809429
                total     -75.67010749

timer: Compute residual stu     0.02s     0.02s
entering apply
timer:            Apply BSH     0.79s     0.79s
timer:     Truncate new psi     0.07s     0.07s
residuals [1.623113e-03, 1.573947e-01, 1.458207e-01, 9.160737e-02, 9.160737e-02]
BSH residual: rms 1.120921e-01    max 1.573947e-01
timer:         BSH residual     0.02s     0.02s
timer: Update subspace stuf     0.03s     0.03s
Subspace solution [*]   0.16561684   0.83438316

timer:   Subspace transform     0.01s     0.01s
Norm of vector changes alpha : rms 7.043522e-02    max 1.220402e-01
ORTHOG2a: maxq trantol 7.153547e-03 2.000000e-06
timer:       Orthonormalize     0.04s     0.04s

Iteration 2 at time 10.2s

timer:       Make densities     0.02s     0.02s
delta rho 5.189268e-02 5.189268e-02 residuals 1.573947e-01 0.000000e+00
timer:       Nuclear energy     0.01s     0.01s
timer:              Coulomb     0.18s     0.18s
timer:        DFT potential     0.53s     0.53s
timer:                V*psi     0.16s     0.16s
timer:          HF exchange     1.43s     1.43s
timer:        Truncate Vpsi     0.05s     0.05s
timer:            PE matrix     0.01s     0.01s
timer:    KEmat reconstruct     0.01s     0.01s
timer:  KEmat differentiate     0.10s     0.10s
timer:       KEmat compress     0.03s     0.03s
timer: KEmat inner products     0.02s     0.02s
timer:            KE matrix     0.16s     0.16s
timer: Make fock matrix res     0.00s     0.00s
timer: Diagonalization Fock     0.00s     0.00s
timer: Diagonalization rest     0.07s     0.07s

              kinetic      75.19014123
         nonlocal psp       0.00000000
   nuclear attraction    -191.64032497
              coulomb      45.33637627
                  PCM       0.00000000
 exchange-correlation      -9.03954903
    nuclear-repulsion       4.40809429
                total     -75.74526221

timer: Compute residual stu     0.02s     0.02s
entering apply
timer:            Apply BSH     0.84s     0.84s
timer:     Truncate new psi     0.06s     0.06s
residuals [4.068464e-04, 2.876225e-02, 2.597048e-02, 6.943432e-02, 6.943432e-02]
BSH residual: rms 4.721048e-02    max 6.943432e-02
timer:         BSH residual     0.02s     0.02s
timer: Update subspace stuf     0.04s     0.04s
Subspace solution [*]  -0.12878981  -0.33898276   1.46777257

timer:   Subspace transform     0.01s     0.01s
Norm of vector changes alpha : rms 6.959114e-02    max 8.420397e-02
ORTHOG2a: maxq trantol 8.153244e-03 2.000000e-06
timer:       Orthonormalize     0.03s     0.03s

Iteration 3 at time 14.1s

timer:       Make densities     0.02s     0.02s
delta rho 2.676511e-02 2.676511e-02 residuals 6.943432e-02 0.000000e+00
timer:       Nuclear energy     0.00s     0.00s
timer:              Coulomb     0.21s     0.21s
timer:        DFT potential     0.55s     0.55s
timer:                V*psi     0.17s     0.17s
timer:          HF exchange     1.42s     1.42s
timer:        Truncate Vpsi     0.05s     0.05s
timer:            PE matrix     0.01s     0.01s
timer:    KEmat reconstruct     0.01s     0.01s
timer:  KEmat differentiate     0.12s     0.12s
timer:       KEmat compress     0.03s     0.03s
timer: KEmat inner products     0.02s     0.02s
timer:            KE matrix     0.18s     0.18s
timer: Make fock matrix res     0.00s     0.00s
timer: Diagonalization Fock     0.00s     0.00s
timer: Diagonalization rest     0.07s     0.07s

              kinetic      75.66430156
         nonlocal psp       0.00000000
   nuclear attraction    -192.03190930
              coulomb      45.25155533
                  PCM       0.00000000
 exchange-correlation      -9.04164891
    nuclear-repulsion       4.40809429
                total     -75.74960703

timer: Compute residual stu     0.02s     0.02s
entering apply
timer:            Apply BSH     0.82s     0.82s
timer:     Truncate new psi     0.07s     0.07s
residuals [2.689544e-04, 1.788973e-02, 5.868624e-02, 2.012191e-02, 2.012191e-02]
BSH residual: rms 3.024557e-02    max 5.868624e-02
timer:         BSH residual     0.02s     0.02s
timer: Update subspace stuf     0.05s     0.05s
Subspace solution [*]  -0.01430212   0.05293626   0.30970785   0.65165801

timer:   Subspace transform     0.01s     0.01s
Norm of vector changes alpha : rms 2.487446e-02    max 3.897783e-02
ORTHOG2a: maxq trantol 3.252800e-03 2.000000e-06
timer:       Orthonormalize     0.03s     0.03s

Iteration 4 at time 18.0s

timer:       Make densities     0.02s     0.02s
delta rho 1.119942e-02 1.119942e-02 residuals 5.868624e-02 0.000000e+00
timer:       Nuclear energy     0.00s     0.00s
timer:              Coulomb     0.18s     0.18s
timer:        DFT potential     0.55s     0.55s
timer:                V*psi     0.17s     0.17s
timer:          HF exchange     1.42s     1.42s
timer:        Truncate Vpsi     0.05s     0.05s
timer:            PE matrix     0.01s     0.01s
timer:    KEmat reconstruct     0.01s     0.01s
timer:  KEmat differentiate     0.11s     0.11s
timer:       KEmat compress     0.03s     0.03s
timer: KEmat inner products     0.02s     0.02s
timer:            KE matrix     0.17s     0.17s
timer: Make fock matrix res     0.00s     0.00s
timer: Diagonalization Fock     0.00s     0.00s
timer: Diagonalization rest     0.07s     0.07s

              kinetic      75.47574541
         nonlocal psp       0.00000000
   nuclear attraction    -191.81785429
              coulomb      45.21437747
                  PCM       0.00000000
 exchange-correlation      -9.03213644
    nuclear-repulsion       4.40809429
                total     -75.75177356

timer: Compute residual stu     0.02s     0.02s
entering apply
timer:            Apply BSH     0.81s     0.81s
timer:     Truncate new psi     0.07s     0.07s
residuals [1.238030e-04, 2.350052e-03, 1.052301e-02, 3.500013e-03, 3.500013e-03]
BSH residual: rms 5.306070e-03    max 1.052301e-02
timer:         BSH residual     0.02s     0.02s
timer: Update subspace stuf     0.06s     0.06s
Subspace solution [*]  -0.00560849   0.00322028   0.05325965   0.14662109   0.80250747

timer:   Subspace transform     0.01s     0.01s
Norm of vector changes alpha : rms 4.098023e-03    max 8.035307e-03
ORTHOG2a: maxq trantol 4.716006e-04 2.000000e-06
timer:       Orthonormalize     0.03s     0.03s

Iteration 5 at time 21.9s

timer:       Make densities     0.02s     0.02s
delta rho 1.277089e-03 1.277089e-03 residuals 1.052301e-02 0.000000e+00
timer:       Nuclear energy     0.00s     0.00s
timer:              Coulomb     0.17s     0.17s
timer:        DFT potential     0.53s     0.53s
timer:                V*psi     0.16s     0.16s
timer:          HF exchange     1.41s     1.41s
timer:        Truncate Vpsi     0.05s     0.05s
timer:            PE matrix     0.01s     0.01s
timer:    KEmat reconstruct     0.01s     0.01s
timer:  KEmat differentiate     0.11s     0.11s
timer:       KEmat compress     0.03s     0.03s
timer: KEmat inner products     0.02s     0.02s
timer:            KE matrix     0.17s     0.17s
timer: Make fock matrix res     0.00s     0.00s
timer: Diagonalization Fock     0.00s     0.00s
timer: Diagonalization rest     0.06s     0.06s

              kinetic      75.47805423
         nonlocal psp       0.00000000
   nuclear attraction    -191.80084323
              coulomb      45.19271714
                  PCM       0.00000000
 exchange-correlation      -9.02991447
    nuclear-repulsion       4.40809429
                total     -75.75189203

timer: Compute residual stu     0.02s     0.02s
entering apply
timer:            Apply BSH     0.81s     0.81s
timer:     Truncate new psi     0.06s     0.06s
residuals [8.589891e-05, 1.181744e-03, 2.387763e-03, 3.926032e-03, 3.926032e-03]
BSH residual: rms 2.754370e-03    max 3.926032e-03
timer:         BSH residual     0.02s     0.02s
timer: Update subspace stuf     0.06s     0.06s
Subspace solution [*]  -0.01333680   0.02662894  -0.07724505  -0.12821828   1.19217119

timer:   Subspace transform     0.01s     0.01s
Norm of vector changes alpha : rms 2.637280e-03    max 3.514967e-03
ORTHOG2a: maxq trantol 2.522055e-04 2.000000e-06
timer:       Orthonormalize     0.03s     0.03s

Iteration 6 at time 25.8s

timer:       Make densities     0.02s     0.02s
delta rho 1.142244e-03 1.142244e-03 residuals 3.926032e-03 0.000000e+00
timer:       Nuclear energy     0.00s     0.00s
timer:              Coulomb     0.18s     0.18s
timer:        DFT potential     0.55s     0.55s
timer:                V*psi     0.17s     0.17s
timer:          HF exchange     1.42s     1.42s
timer:        Truncate Vpsi     0.05s     0.05s
timer:            PE matrix     0.01s     0.01s
timer:    KEmat reconstruct     0.01s     0.01s
timer:  KEmat differentiate     0.10s     0.10s
timer:       KEmat compress     0.03s     0.03s
timer: KEmat inner products     0.02s     0.02s
timer:            KE matrix     0.16s     0.16s
timer: Make fock matrix res     0.00s     0.00s
timer: Diagonalization Fock     0.00s     0.00s
timer: Diagonalization rest     0.06s     0.06s

              kinetic      75.49963144
         nonlocal psp       0.00000000
   nuclear attraction    -191.85143192
              coulomb      45.22598419
                  PCM       0.00000000
 exchange-correlation      -9.03420530
    nuclear-repulsion       4.40809429
                total     -75.75192729

timer: Compute residual stu     0.02s     0.02s
entering apply
timer:            Apply BSH     0.81s     0.81s
timer:     Truncate new psi     0.06s     0.06s
residuals [5.496892e-05, 7.398346e-04, 2.944789e-03, 4.638627e-03, 4.638627e-03]
BSH residual: rms 3.232828e-03    max 4.638627e-03
timer:         BSH residual     0.02s     0.02s
timer: Update subspace stuf     0.07s     0.07s
Subspace solution [*]  -0.05750108  -0.07913667  -0.18441023   0.34264921   0.97839878

timer:   Subspace transform     0.01s     0.01s
Norm of vector changes alpha : rms 1.967115e-03    max 2.612035e-03
ORTHOG2a: maxq trantol 1.383861e-04 2.000000e-06
timer:       Orthonormalize     0.03s     0.03s

Iteration 7 at time 29.6s

timer:       Make densities     0.02s     0.02s
delta rho 9.240158e-04 9.240158e-04 residuals 4.638627e-03 0.000000e+00
timer:       Nuclear energy     0.00s     0.00s
timer:              Coulomb     0.18s     0.18s
timer:        DFT potential     0.54s     0.54s
timer:                V*psi     0.16s     0.16s
timer:          HF exchange     1.38s     1.38s
timer:        Truncate Vpsi     0.05s     0.05s
timer:            PE matrix     0.01s     0.01s
timer:    KEmat reconstruct     0.01s     0.01s
timer:  KEmat differentiate     0.10s     0.10s
timer:       KEmat compress     0.03s     0.03s
timer: KEmat inner products     0.02s     0.02s
timer:            KE matrix     0.15s     0.15s
timer: Make fock matrix res     0.00s     0.00s
timer: Diagonalization Fock     0.00s     0.00s
timer: Diagonalization rest     0.06s     0.06s

              kinetic      75.49166171
         nonlocal psp       0.00000000
   nuclear attraction    -191.81945990
              coulomb      45.19879616
                  PCM       0.00000000
 exchange-correlation      -9.03103474
    nuclear-repulsion       4.40809429
                total     -75.75194247

timer: Compute residual stu     0.02s     0.02s
entering apply
timer:            Apply BSH     0.85s     0.85s
timer:     Truncate new psi     0.06s     0.06s
residuals [7.678336e-05, 2.817909e-04, 4.823725e-04, 1.763765e-03, 1.763765e-03]
BSH residual: rms 1.143654e-03    max 1.763765e-03
timer:         BSH residual     0.02s     0.02s
timer: Update subspace stuf     0.06s     0.06s
Subspace solution [*]   0.00260836  -0.02557216  -0.21750875   0.19818618   1.04228637

timer:   Subspace transform     0.01s     0.01s
Norm of vector changes alpha : rms 7.043957e-04    max 9.817695e-04
ORTHOG2a: maxq trantol 6.643918e-05 2.000000e-06
timer:       Orthonormalize     0.03s     0.03s

Iteration 8 at time 33.5s

timer:       Make densities     0.02s     0.02s
delta rho 3.383090e-04 3.383090e-04 residuals 1.763765e-03 0.000000e+00
timer:       Nuclear energy     0.00s     0.00s
timer:              Coulomb     0.17s     0.17s
timer:        DFT potential     0.53s     0.53s
timer:                V*psi     0.16s     0.16s
timer:          HF exchange     1.31s     1.31s
timer:        Truncate Vpsi     0.05s     0.05s
timer:            PE matrix     0.01s     0.01s
timer:    KEmat reconstruct     0.01s     0.01s
timer:  KEmat differentiate     0.10s     0.10s
timer:       KEmat compress     0.03s     0.03s
timer: KEmat inner products     0.02s     0.02s
timer:            KE matrix     0.15s     0.15s
timer: Make fock matrix res     0.00s     0.00s
timer: Diagonalization Fock     0.00s     0.00s
timer: Diagonalization rest     0.06s     0.06s

              kinetic      75.49347024
         nonlocal psp       0.00000000
   nuclear attraction    -191.82639115
              coulomb      45.20465520
                  PCM       0.00000000
 exchange-correlation      -9.03177434
    nuclear-repulsion       4.40809429
                total     -75.75194575

timer: Compute residual stu     0.02s     0.02s
entering apply
timer:            Apply BSH     0.76s     0.76s
timer:     Truncate new psi     0.07s     0.07s
residuals [5.065745e-05, 1.522628e-04, 2.241672e-04, 3.857850e-04, 3.857848e-04]
BSH residual: rms 2.733719e-04    max 3.857850e-04
timer:         BSH residual     0.02s     0.02s
timer: Update subspace stuf     0.06s     0.06s
Subspace solution [*]   0.03867372   0.06837236  -0.23645773  -0.95341667   2.08282832

timer:   Subspace transform     0.01s     0.01s
Norm of vector changes alpha : rms 6.630621e-04    max 9.611365e-04
ORTHOG2a: maxq trantol 5.272409e-05 2.000000e-06
timer:       Orthonormalize     0.03s     0.03s

Iteration 9 at time 37.2s

timer:       Make densities     0.02s     0.02s
delta rho 2.463239e-04 2.463239e-04 residuals 3.857850e-04 0.000000e+00
timer:       Nuclear energy     0.00s     0.00s
timer:              Coulomb     0.18s     0.18s
timer:        DFT potential     0.53s     0.53s
timer:                V*psi     0.16s     0.16s
timer:          HF exchange     1.31s     1.31s
timer:        Truncate Vpsi     0.05s     0.05s
timer:            PE matrix     0.01s     0.01s
timer:    KEmat reconstruct     0.01s     0.01s
timer:  KEmat differentiate     0.09s     0.09s
timer:       KEmat compress     0.03s     0.03s
timer: KEmat inner products     0.02s     0.02s
timer:            KE matrix     0.15s     0.15s
timer: Make fock matrix res     0.00s     0.00s
timer: Diagonalization Fock     0.00s     0.00s
timer: Diagonalization rest     0.06s     0.06s

              kinetic      75.49218433
         nonlocal psp       0.00000000
   nuclear attraction    -191.82486075
              coulomb      45.20441451
                  PCM       0.00000000
 exchange-correlation      -9.03177925
    nuclear-repulsion       4.40809429
                total     -75.75194687

timer: Compute residual stu     0.02s     0.02s
entering apply
timer:            Apply BSH     0.74s     0.74s
timer:     Truncate new psi     0.06s     0.06s
residuals [4.262635e-05, 9.188789e-05, 1.824145e-04, 2.896580e-04, 2.896366e-04]
BSH residual: rms 2.055853e-04    max 2.896580e-04
timer:         BSH residual     0.02s     0.02s
timer: Update subspace stuf     0.06s     0.06s
Subspace solution [*]   0.05500413   0.00586066  -0.08942934  -0.92039797   1.94896253

timer:   Subspace transform     0.01s     0.01s
Norm of vector changes alpha : rms 6.518253e-04    max 1.010082e-03
ORTHOG2a: maxq trantol 1.323572e-05 2.000000e-06
timer:       Orthonormalize     0.03s     0.03s

Iteration 10 at time 40.8s

timer:       Make densities     0.02s     0.02s
timer:       Load balancing     0.00s     0.00s
delta rho 1.009130e-04 1.009130e-04 residuals 2.896580e-04 0.000000e+00
timer:       Nuclear energy     0.01s     0.01s
timer:              Coulomb     0.18s     0.18s
timer:        DFT potential     0.51s     0.51s
timer:                V*psi     0.16s     0.16s
timer:          HF exchange     1.29s     1.29s
timer:        Truncate Vpsi     0.05s     0.05s
timer:            PE matrix     0.01s     0.01s
timer:    KEmat reconstruct     0.01s     0.01s
timer:  KEmat differentiate     0.10s     0.10s
timer:       KEmat compress     0.03s     0.03s
timer: KEmat inner products     0.02s     0.02s
timer:            KE matrix     0.15s     0.15s
timer: Make fock matrix res     0.00s     0.00s
timer: Diagonalization Fock     0.00s     0.00s
timer: Diagonalization rest     0.06s     0.06s

              kinetic      75.49166227
         nonlocal psp       0.00000000
   nuclear attraction    -191.82422598
              coulomb      45.20430785
                  PCM       0.00000000
 exchange-correlation      -9.03178483
    nuclear-repulsion       4.40809429
                total     -75.75194639


Converged!

timer:              Overlap     0.01s     0.01s
timer:      focka eigen sol     0.00s     0.00s
timer:        Transform MOs     0.02s     0.02s
 
alpha eigenvalues
[*] -18.85394422  -0.62729141  -0.11471199   0.02404399   0.02404399


 Dipole Moment (a.u.)
 -----------

     x:  -5.917057e-06
     y:  -5.866543e-06
     z:  5.081986e-01
 Total Dipole Moment:  5.081986e-01 

timer:               dipole     0.00s     0.00s
Orbitals are eigenvectors - energies are eigenvalues

Analysis of alpha MO vectors
timer:      Analyze vectors     0.25s     0.25s
timer: Compute eigen gesv a     0.00s     0.00s
  MO   0 : occ=1.00 : energy= -18.85394422 : center=(-0.00,-0.00,-0.20) : radius=0.23
            O(0)   s( 0) 0.995  
  MO   1 : occ=1.00 : energy=  -0.62729141 : center=(-0.00,-0.00,0.20) : radius=1.33
            O(0)   s( 1)-0.482     O(0)   s( 5)-0.470     O(0)   s( 0) 0.216     H(1)   s( 9)-0.175  
  MO   2 : occ=1.00 : energy=  -0.11471199 : center=(-0.00,-0.00,-0.05) : radius=1.80
            O(0)  pz( 4)-0.493     O(0)   s( 5) 0.429     O(0)  pz( 8)-0.304     H(1)   s( 9)-0.283     H(1)   s(10)-0.250  
  MO   3 : occ=1.00 : energy=   0.02404399 : center=(-0.00,-0.00,-0.10) : radius=2.05
            O(0)  px( 6) 0.410     O(0)  py( 7)-0.410     O(0)  px( 2) 0.386     O(0)  py( 3)-0.386  
  MO   4 : occ=1.00 : energy=   0.02404399 : center=(0.00,0.00,-0.10) : radius=2.05
            O(0)  py( 7)-0.410     O(0)  px( 6)-0.410     O(0)  py( 3)-0.386     O(0)  px( 2)-0.386  

Solving NDIM= 3  with thresh 1.000000e-06     k 8    conv 1.000000e-04 

timer:     Project vnuclear     0.43s     0.43s
timer:     project ao basis     0.34s     0.34s

Iteration 0 at time 44.8s

timer:       Make densities     0.02s     0.02s
timer:       Load balancing     0.00s     0.00s
timer:       Nuclear energy     0.03s     0.03s
timer:              Coulomb     0.44s     0.44s
timer:        DFT potential     0.81s     0.81s
timer:                V*psi     0.28s     0.28s
timer:          HF exchange     2.74s     2.74s
timer:        Truncate Vpsi     0.07s     0.07s
timer:            PE matrix     0.01s     0.01s
timer:    KEmat reconstruct     0.01s     0.01s
timer:  KEmat differentiate     0.11s     0.11s
timer:       KEmat compress     0.03s     0.03s
timer: KEmat inner products     0.02s     0.02s
timer:            KE matrix     0.17s     0.17s
timer: Make fock matrix res     0.00s     0.00s
timer: Diagonalization Fock     0.00s     0.00s
timer: Diagonalization rest     0.15s     0.15s

              kinetic      75.49171310
         nonlocal psp       0.00000000
   nuclear attraction    -191.82426058
              coulomb      45.20432391
                  PCM       0.00000000
 exchange-correlation      -9.03179314
    nuclear-repulsion       4.40809429
                total     -75.75192241

timer: Compute residual stu     0.07s     0.07s
entering apply
timer:            Apply BSH     4.12s     4.12s
timer:     Truncate new psi     0.21s     0.21s
residuals [1.919696e-04, 2.685176e-04, 3.356934e-04, 3.609964e-04, 3.610074e-04]
BSH residual: rms 3.105765e-04    max 3.610074e-04
timer:         BSH residual     0.03s     0.03s
timer: Update subspace stuf     0.01s     0.01s
Subspace solution [*]   1.00000000

timer:   Subspace transform     0.01s     0.01s
Norm of vector changes alpha : rms 3.105765e-04    max 3.610074e-04
ORTHOG2a: maxq trantol 2.482577e-05 2.000000e-08
timer:       Orthonormalize     0.06s     0.06s

Iteration 1 at time 54.3s

timer:       Make densities     0.03s     0.03s
timer:       Load balancing     0.00s     0.00s
delta rho 2.636420e-04 2.636420e-04 residuals 3.610074e-04 0.000000e+00
timer:       Nuclear energy     0.01s     0.01s
timer:              Coulomb     0.50s     0.50s
timer:        DFT potential     1.22s     1.22s
timer:                V*psi     0.34s     0.34s
timer:          HF exchange     2.95s     2.95s
timer:        Truncate Vpsi     0.09s     0.09s
timer:            PE matrix     0.02s     0.02s
timer:    KEmat reconstruct     0.01s     0.01s
timer:  KEmat differentiate     0.17s     0.17s
timer:       KEmat compress     0.05s     0.05s
timer: KEmat inner products     0.03s     0.03s
timer:            KE matrix     0.26s     0.26s
timer: Make fock matrix res     0.00s     0.00s
timer: Diagonalization Fock     0.00s     0.00s
timer: Diagonalization rest     0.15s     0.15s

              kinetic      75.49005018
         nonlocal psp       0.00000000
   nuclear attraction    -191.82295857
              coulomb      45.20405474
                  PCM       0.00000000
 exchange-correlation      -9.03171393
    nuclear-repulsion       4.40809429
                total     -75.75247328

timer: Compute residual stu     0.09s     0.09s
entering apply
timer:            Apply BSH     5.65s     5.65s
timer:     Truncate new psi     0.28s     0.28s
residuals [7.953534e-06, 6.508497e-05, 1.892305e-04, 2.877915e-04, 2.877931e-04]
BSH residual: rms 2.028577e-04    max 2.877931e-04
timer:         BSH residual     0.03s     0.03s
timer: Update subspace stuf     0.03s     0.03s
Subspace solution [*]  -0.60455053   1.60455053

timer:   Subspace transform     0.01s     0.01s
Norm of vector changes alpha : rms 3.210553e-04    max 4.627688e-04
ORTHOG2a: maxq trantol 1.272036e-05 2.000000e-08
timer:       Orthonormalize     0.06s     0.06s

Iteration 2 at time 66.4s

timer:       Make densities     0.03s     0.03s
delta rho 1.178084e-04 1.178084e-04 residuals 2.877931e-04 0.000000e+00
timer:       Nuclear energy     0.01s     0.01s
timer:              Coulomb     0.48s     0.48s
timer:        DFT potential     1.00s     1.00s
timer:                V*psi     0.26s     0.26s
timer:          HF exchange     2.93s     2.93s
timer:        Truncate Vpsi     0.08s     0.08s
timer:            PE matrix     0.01s     0.01s
timer:    KEmat reconstruct     0.01s     0.01s
timer:  KEmat differentiate     0.17s     0.17s
timer:       KEmat compress     0.06s     0.06s
timer: KEmat inner products     0.03s     0.03s
timer:            KE matrix     0.27s     0.27s
timer: Make fock matrix res     0.00s     0.00s
timer: Diagonalization Fock     0.00s     0.00s
timer: Diagonalization rest     0.12s     0.12s

              kinetic      75.49209762
         nonlocal psp       0.00000000
   nuclear attraction    -191.82707630
              coulomb      45.20641800
                  PCM       0.00000000
 exchange-correlation      -9.03200728
    nuclear-repulsion       4.40809429
                total     -75.75247366


Converged!

timer:              Overlap     0.01s     0.01s
timer:      focka eigen sol     0.00s     0.00s
timer:        Transform MOs     0.03s     0.03s
 
alpha eigenvalues
[*] -18.85362610  -0.62721085  -0.11465933   0.02418822   0.02418822


 Dipole Moment (a.u.)
 -----------

     x:  -3.987737e-06
     y:  -3.775319e-06
     z:  5.082477e-01
 Total Dipole Moment:  5.082477e-01 

timer:               dipole     0.00s     0.00s
Orbitals are eigenvectors - energies are eigenvalues

Analysis of alpha MO vectors
timer:      Analyze vectors     0.39s     0.39s
timer: Compute eigen gesv a     0.00s     0.00s
  MO   0 : occ=1.00 : energy= -18.85362610 : center=(-0.00,-0.00,-0.20) : radius=0.23
            O(0)   s( 0)-0.995  
  MO   1 : occ=1.00 : energy=  -0.62721085 : center=(-0.00,-0.00,0.20) : radius=1.33
            O(0)   s( 1)-0.483     O(0)   s( 5)-0.470     O(0)   s( 0) 0.216     H(1)   s( 9)-0.175  
  MO   2 : occ=1.00 : energy=  -0.11465933 : center=(0.00,0.00,-0.05) : radius=1.80
            O(0)  pz( 4)-0.493     O(0)   s( 5) 0.429     O(0)  pz( 8)-0.304     H(1)   s( 9)-0.283     H(1)   s(10)-0.249  
  MO   3 : occ=1.00 : energy=   0.02418822 : center=(0.00,0.00,-0.10) : radius=2.05
            O(0)  py( 7) 0.410     O(0)  px( 6)-0.410     O(0)  py( 3) 0.386     O(0)  px( 2)-0.386  
  MO   4 : occ=1.00 : energy=   0.02418822 : center=(0.00,0.00,-0.10) : radius=2.05
            O(0)  px( 6) 0.410     O(0)  py( 7) 0.410     O(0)  px( 2) 0.386     O(0)  py( 3) 0.386  
timer:             plotting     0.00s     0.00s

    Parallel environment
    --------------------
                  #nodes    1
       #threads per node    10+main = 11
          #total threads    11

  RMI message statistics (min / avg / max)
  ----------------------
   #messages in server q    0.00e+00 / 0.00e+00 / 0.00e+00
 #messages sent per node    0.00e+00 / 0.00e+00 / 0.00e+00
    #bytes sent per node    0.00e+00 / 0.00e+00 / 0.00e+00
 #messages recv per node    0.00e+00 / 0.00e+00 / 0.00e+00
    #bytes recv per node    0.00e+00 / 0.00e+00 / 0.00e+00
        #msgs systemwide    0.00e+00
       #bytes systemwide    0.00e+00

  Thread pool statistics (min / avg / max)
  ----------------------
         #tasks per node    0.00e+00 / 0.00e+00 / 0.00e+00
     #max q len per node    0.00e+00 / 0.00e+00 / 0.00e+00
  #hi-pri tasks per node    0.00e+00 / 0.00e+00 / 0.00e+00

         Total wall time    72.6s
         Total  cpu time    72.6s

