MADNESS runtime initialized with 13 threads in the pool and affinity -1 -1 -1

--------------------------------------------
   MADNESS 0.10.1 multiresolution suite
--------------------------------------------

   number of processors ... 1
    processor frequency ... 2.095038e+09
            host system ... linux-gnu
          configured by ... bsundahl
          configured on ... login
          configured at ... Mon May 21 11:22:55 EDT 2018
                    CXX ... mpicxx
               CXXFLAGS ...  -O3 -Wall -Wno-strict-aliasing -Wno-deprecated -Wno-unused-local-typedefs  -ffast-math -march=native
             tuning for ... default
                    MPI ... multiple
 multi-threaded runtime ... Intel TBB
                   BLAS ... Intel MKL 22355 22355 MFLOP/s
               compiled ... 11:23:28  on  May 21 2018
input filename:  F.mdns

Angstrom being used to read input coordinates (1 Bohr = 1.88972613 Angstrom)

Cubic point group

 The point group is D2h

Construct XC Functional from LIBXC Library

input line was:  lda 
 1.000 lda_x 
 1.000 lda_c_vwn 

screening parameters
 rhotol, rhomin 1.000000e-07 0.000000e+00
         ggatol 1.000000e-04
polarized  false 


Solving NDIM= 3  with thresh 1.000000e-05     k 8    conv 1.000000e-04 




 MADNESS Hartree-Fock and Density Functional Theory Program
 ----------------------------------------------------------



 geometry
   eprec 1.0e-06
   units atomic
   F             0.00000000           0.00000000           0.00000000
 end


             restart  false
    restart from AOs  false
 number of processes  1
   no. of io servers  1
   vnuc load bal fac  12
      load bal parts  2
     simulation cube  -5.000000e+01 5.000000e+01
        total charge  -1.000000e+00
            smearing  0.000000e+00
 number of electrons  5 5
  number of orbitals  5 5
     spin restricted  true
       xc functional   lda 
          xc library  libxc
 initial guess basis  6-31g
 max krylov subspace  5
    compute protocol  [1.000000e-04, 1.000000e-06]
  energy convergence  1.000000e-05
 density convergence  1.000000e-04
    maximum rotation  2.500000e-01
    polynomial order  -1
       truncate mode  1
  maximum iterations  20
 Convergence criteria are density delta & BSH residual.
        plot density  false
        plot coulomb  false
        plot orbital  0 -1
        plot npoints  101
        plot  volume  default
  canonical orbitals 
    calc derivatives 
 psp or all electron  all electron
timer:           initialize     0.41s     0.41s

Solving NDIM= 3  with thresh 1.000000e-04     k 6    conv 1.000000e-04 


Solving NDIM= 3  with thresh 1.000000e-04     k 6    conv 1.000000e-04 

timer:     Project vnuclear     0.19s     0.19s
timer:     project ao basis     0.13s     0.13s
guess dens trace 8.999966e+00
timer:        guess density     0.11s     0.11s
timer:   guess Coulomb potn     0.32s     0.32s
timer:       guess lda potn     0.11s     0.11s
timer:        guess overlap     0.01s     0.01s
timer:    KEmat reconstruct     0.01s     0.01s
timer:  KEmat differentiate     0.14s     0.14s
timer:       KEmat compress     0.03s     0.03s
timer: KEmat inner products     0.03s     0.03s
timer:     guess Kinet potn     0.21s     0.21s
timer:           guess fock     0.22s     0.22s
timer:      guess eigen sol     0.00s     0.00s
grouping alpha orbitals into sets
set  0    0  -  0
set  1    1  -  4
timer: guess orbital groupi     0.01s     0.01s
timer:     project ao basis     0.17s     0.17s

Iteration 0 at time 2.1s

timer:       Make densities     0.02s     0.02s
timer:       Load balancing     0.00s     0.00s
timer:       Nuclear energy     0.01s     0.01s
timer:              Coulomb     0.18s     0.18s
timer:        DFT potential     0.06s     0.06s
timer:                V*psi     0.08s     0.08s
timer:        Truncate Vpsi     0.06s     0.06s
timer:            PE matrix     0.02s     0.02s
timer:    KEmat reconstruct     0.00s     0.00s
timer:  KEmat differentiate     0.12s     0.12s
timer:       KEmat compress     0.02s     0.02s
timer: KEmat inner products     0.03s     0.03s
timer:            KE matrix     0.19s     0.19s
timer: Make fock matrix res     0.00s     0.00s
timer: Diagonalization Fock     0.00s     0.00s
timer: Diagonalization rest     0.07s     0.07s

              kinetic     102.36666724
         nonlocal psp       0.00000000
   nuclear attraction    -249.65365571
              coulomb      58.83743655
                  PCM       0.00000000
 exchange-correlation     -10.54641687
    nuclear-repulsion       0.00000000
                total     -98.99596879

timer: Compute residual stu     0.02s     0.02s
entering apply
timer:            Apply BSH     0.51s     0.51s
timer:     Truncate new psi     0.06s     0.06s
residuals [7.990784e-03, 3.026404e-01, 5.306030e-01, 5.306030e-01, 5.306009e-01]
BSH residual: rms 4.327289e-01    max 5.306030e-01
timer:         BSH residual     0.02s     0.02s
timer: Update subspace stuf     0.02s     0.02s
Subspace solution [*]   1.00000000

timer:   Subspace transform     0.00s     0.00s
  restricting step for alpha orbitals: 1 2 3 4
Norm of vector changes alpha : rms 4.327289e-01    max 5.306030e-01
ORTHOG2a: maxq trantol 8.912941e-04 2.000000e-06
timer:       Orthonormalize     0.04s     0.04s

Iteration 1 at time 3.6s

timer:       Make densities     0.02s     0.02s
timer:       Load balancing     0.00s     0.00s
delta rho 2.322508e-01 2.322508e-01 residuals 5.306030e-01 0.000000e+00
timer:       Nuclear energy     0.01s     0.01s
timer:              Coulomb     0.16s     0.16s
timer:        DFT potential     0.05s     0.05s
timer:                V*psi     0.07s     0.07s
timer:        Truncate Vpsi     0.06s     0.06s
timer:            PE matrix     0.02s     0.02s
timer:    KEmat reconstruct     0.00s     0.00s
timer:  KEmat differentiate     0.11s     0.11s
timer:       KEmat compress     0.02s     0.02s
timer: KEmat inner products     0.03s     0.03s
timer:            KE matrix     0.16s     0.16s
timer: Make fock matrix res     0.00s     0.00s
timer: Diagonalization Fock     0.00s     0.00s
timer: Diagonalization rest     0.05s     0.05s

              kinetic      96.27672073
         nonlocal psp       0.00000000
   nuclear attraction    -237.77730220
              coulomb      52.03390581
                  PCM       0.00000000
 exchange-correlation      -9.69135624
    nuclear-repulsion       0.00000000
                total     -99.15803191

timer: Compute residual stu     0.01s     0.01s
entering apply
timer:            Apply BSH     0.43s     0.43s
timer:     Truncate new psi     0.06s     0.06s
residuals [7.743075e-04, 2.002139e-01, 2.088789e-01, 2.088789e-01, 2.088718e-01]
BSH residual: rms 1.849186e-01    max 2.088789e-01
timer:         BSH residual     0.02s     0.02s
timer: Update subspace stuf     0.04s     0.04s
Subspace solution [*]   0.30011918   0.69988082

timer:   Subspace transform     0.01s     0.01s
Norm of vector changes alpha : rms 6.811412e-02    max 1.149125e-01
ORTHOG2a: maxq trantol 4.499641e-03 2.000000e-06
timer:       Orthonormalize     0.06s     0.06s

Iteration 2 at time 5.1s

timer:       Make densities     0.02s     0.02s
delta rho 9.073761e-02 9.073761e-02 residuals 2.088789e-01 0.000000e+00
timer:       Nuclear energy     0.01s     0.01s
timer:              Coulomb     0.18s     0.18s
timer:        DFT potential     0.06s     0.06s
timer:                V*psi     0.08s     0.08s
timer:        Truncate Vpsi     0.06s     0.06s
timer:            PE matrix     0.02s     0.02s
timer:    KEmat reconstruct     0.00s     0.00s
timer:  KEmat differentiate     0.13s     0.13s
timer:       KEmat compress     0.02s     0.02s
timer: KEmat inner products     0.03s     0.03s
timer:            KE matrix     0.19s     0.19s
timer: Make fock matrix res     0.00s     0.00s
timer: Diagonalization Fock     0.00s     0.00s
timer: Diagonalization rest     0.07s     0.07s

              kinetic      98.56911996
         nonlocal psp       0.00000000
   nuclear attraction    -242.33127848
              coulomb      54.50776124
                  PCM       0.00000000
 exchange-correlation     -10.00016833
    nuclear-repulsion       0.00000000
                total     -99.25456561

timer: Compute residual stu     0.02s     0.02s
entering apply
timer:            Apply BSH     0.46s     0.46s
timer:     Truncate new psi     0.06s     0.06s
residuals [5.747805e-04, 4.663221e-02, 1.024869e-01, 1.024869e-01, 1.024765e-01]
BSH residual: rms 8.207735e-02    max 1.024869e-01
timer:         BSH residual     0.02s     0.02s
timer: Update subspace stuf     0.05s     0.05s
Subspace solution [*]  -0.36712561  -0.32278276   1.68990837

timer:   Subspace transform     0.01s     0.01s
Norm of vector changes alpha : rms 1.055450e-01    max 1.315058e-01
ORTHOG2a: maxq trantol 1.163831e-03 2.000000e-06
timer:       Orthonormalize     0.04s     0.04s

Iteration 3 at time 6.7s

timer:       Make densities     0.02s     0.02s
delta rho 3.868171e-02 3.868171e-02 residuals 1.024869e-01 0.000000e+00
timer:       Nuclear energy     0.01s     0.01s
timer:              Coulomb     0.18s     0.18s
timer:        DFT potential     0.06s     0.06s
timer:                V*psi     0.08s     0.08s
timer:        Truncate Vpsi     0.07s     0.07s
timer:            PE matrix     0.03s     0.03s
timer:    KEmat reconstruct     0.01s     0.01s
timer:  KEmat differentiate     0.17s     0.17s
timer:       KEmat compress     0.03s     0.03s
timer: KEmat inner products     0.05s     0.05s
timer:            KE matrix     0.25s     0.25s
timer: Make fock matrix res     0.00s     0.00s
timer: Diagonalization Fock     0.00s     0.00s
timer: Diagonalization rest     0.09s     0.09s

              kinetic      99.37215375
         nonlocal psp       0.00000000
   nuclear attraction    -242.76388574
              coulomb      54.11962496
                  PCM       0.00000000
 exchange-correlation      -9.97818883
    nuclear-repulsion       0.00000000
                total     -99.25029586

timer: Compute residual stu     0.02s     0.02s
entering apply
timer:            Apply BSH     0.48s     0.48s
timer:     Truncate new psi     0.06s     0.06s
residuals [2.716615e-04, 9.271512e-02, 5.364551e-02, 5.364551e-02, 5.363987e-02]
BSH residual: rms 5.870108e-02    max 9.271512e-02
timer:         BSH residual     0.02s     0.02s
timer: Update subspace stuf     0.07s     0.07s
Subspace solution [*]  -0.02658541   0.07903755   0.46272259   0.48482528

timer:   Subspace transform     0.01s     0.01s
Norm of vector changes alpha : rms 5.182434e-02    max 7.157953e-02
ORTHOG2a: maxq trantol 5.920028e-04 2.000000e-06
timer:       Orthonormalize     0.04s     0.04s

Iteration 4 at time 8.4s

timer:       Make densities     0.02s     0.02s
delta rho 2.411202e-02 2.411202e-02 residuals 9.271512e-02 0.000000e+00
timer:       Nuclear energy     0.01s     0.01s
timer:              Coulomb     0.18s     0.18s
timer:        DFT potential     0.06s     0.06s
timer:                V*psi     0.08s     0.08s
timer:        Truncate Vpsi     0.06s     0.06s
timer:            PE matrix     0.02s     0.02s
timer:    KEmat reconstruct     0.00s     0.00s
timer:  KEmat differentiate     0.12s     0.12s
timer:       KEmat compress     0.03s     0.03s
timer: KEmat inner products     0.03s     0.03s
timer:            KE matrix     0.18s     0.18s
timer: Make fock matrix res     0.00s     0.00s
timer: Diagonalization Fock     0.00s     0.00s
timer: Diagonalization rest     0.06s     0.06s

              kinetic      98.82358090
         nonlocal psp       0.00000000
   nuclear attraction    -242.29727418
              coulomb      54.17712933
                  PCM       0.00000000
 exchange-correlation      -9.97002461
    nuclear-repulsion       0.00000000
                total     -99.26658856

timer: Compute residual stu     0.01s     0.01s
entering apply
timer:            Apply BSH     0.49s     0.49s
timer:     Truncate new psi     0.06s     0.06s
residuals [1.679529e-04, 4.080469e-03, 9.091350e-03, 9.091351e-03, 9.090848e-03]
BSH residual: rms 7.274988e-03    max 9.091351e-03
timer:         BSH residual     0.02s     0.02s
Increasing subspace singular value threshold  3.725552e+00 1.000000e-12
Increasing subspace singular value threshold  3.725552e+00 1.000000e-10
Increasing subspace singular value threshold  3.725552e+00 1.000000e-08
Increasing subspace singular value threshold  3.725552e+00 1.000000e-06
timer: Update subspace stuf     0.09s     0.09s
Subspace solution [*]   0.00589557   0.04086805  -0.02020807   0.01845444   0.95499000

timer:   Subspace transform     0.01s     0.01s
Norm of vector changes alpha : rms 3.382114e-03    max 4.043412e-03
ORTHOG2a: maxq trantol 2.313430e-04 2.000000e-06
timer:       Orthonormalize     0.04s     0.04s

Iteration 5 at time 10.1s

timer:       Make densities     0.02s     0.02s
delta rho 2.286772e-03 2.286772e-03 residuals 9.091351e-03 0.000000e+00
timer:       Nuclear energy     0.01s     0.01s
timer:              Coulomb     0.18s     0.18s
timer:        DFT potential     0.05s     0.05s
timer:                V*psi     0.08s     0.08s
timer:        Truncate Vpsi     0.06s     0.06s
timer:            PE matrix     0.02s     0.02s
timer:    KEmat reconstruct     0.00s     0.00s
timer:  KEmat differentiate     0.12s     0.12s
timer:       KEmat compress     0.03s     0.03s
timer: KEmat inner products     0.03s     0.03s
timer:            KE matrix     0.17s     0.17s
timer: Make fock matrix res     0.00s     0.00s
timer: Diagonalization Fock     0.00s     0.00s
timer: Diagonalization rest     0.09s     0.09s

              kinetic      98.78564349
         nonlocal psp       0.00000000
   nuclear attraction    -242.21844295
              coulomb      54.13021857
                  PCM       0.00000000
 exchange-correlation      -9.96414365
    nuclear-repulsion       0.00000000
                total     -99.26672454

timer: Compute residual stu     0.02s     0.02s
entering apply
timer:            Apply BSH     0.47s     0.47s
timer:     Truncate new psi     0.06s     0.06s
residuals [9.110391e-05, 1.868119e-03, 1.592173e-03, 1.592173e-03, 1.592396e-03]
BSH residual: rms 1.490230e-03    max 1.868119e-03
timer:         BSH residual     0.02s     0.02s
timer: Update subspace stuf     0.08s     0.08s
Subspace solution [*]  -0.02610468  -0.05013769  -0.04196429  -0.34178761   1.45999427

timer:   Subspace transform     0.01s     0.01s
Norm of vector changes alpha : rms 2.267224e-03    max 2.693300e-03
ORTHOG2a: maxq trantol 1.445116e-04 2.000000e-06
timer:       Orthonormalize     0.04s     0.04s

Iteration 6 at time 11.7s

timer:       Make densities     0.02s     0.02s
delta rho 1.417410e-03 1.417410e-03 residuals 1.868119e-03 0.000000e+00
timer:       Nuclear energy     0.01s     0.01s
timer:              Coulomb     0.18s     0.18s
timer:        DFT potential     0.05s     0.05s
timer:                V*psi     0.07s     0.07s
timer:        Truncate Vpsi     0.06s     0.06s
timer:            PE matrix     0.02s     0.02s
timer:    KEmat reconstruct     0.00s     0.00s
timer:  KEmat differentiate     0.12s     0.12s
timer:       KEmat compress     0.03s     0.03s
timer: KEmat inner products     0.04s     0.04s
timer:            KE matrix     0.19s     0.19s
timer: Make fock matrix res     0.00s     0.00s
timer: Diagonalization Fock     0.00s     0.00s
timer: Diagonalization rest     0.07s     0.07s

              kinetic      98.80661250
         nonlocal psp       0.00000000
   nuclear attraction    -242.23054469
              coulomb      54.12059238
                  PCM       0.00000000
 exchange-correlation      -9.96343143
    nuclear-repulsion       0.00000000
                total     -99.26677124

timer: Compute residual stu     0.01s     0.01s
entering apply
timer:            Apply BSH     0.45s     0.45s
timer:     Truncate new psi     0.06s     0.06s
residuals [7.644286e-05, 2.450445e-04, 2.595074e-03, 2.595073e-03, 2.594681e-03]
BSH residual: rms 2.013309e-03    max 2.595074e-03
timer:         BSH residual     0.02s     0.02s
timer: Update subspace stuf     0.09s     0.09s
Subspace solution [*]   0.02660207  -0.00122469   0.14048354  -0.56179649   1.39593557

timer:   Subspace transform     0.01s     0.01s
Norm of vector changes alpha : rms 1.186788e-03    max 1.507156e-03
ORTHOG2a: maxq trantol 2.934039e-05 2.000000e-06
timer:       Orthonormalize     0.04s     0.04s

Iteration 7 at time 13.4s

timer:       Make densities     0.02s     0.02s
delta rho 5.869949e-04 5.869949e-04 residuals 2.595074e-03 0.000000e+00
timer:       Nuclear energy     0.01s     0.01s
timer:              Coulomb     0.17s     0.17s
timer:        DFT potential     0.06s     0.06s
timer:                V*psi     0.08s     0.08s
timer:        Truncate Vpsi     0.06s     0.06s
timer:            PE matrix     0.02s     0.02s
timer:    KEmat reconstruct     0.00s     0.00s
timer:  KEmat differentiate     0.13s     0.13s
timer:       KEmat compress     0.03s     0.03s
timer: KEmat inner products     0.03s     0.03s
timer:            KE matrix     0.20s     0.20s
timer: Make fock matrix res     0.00s     0.00s
timer: Diagonalization Fock     0.00s     0.00s
timer: Diagonalization rest     0.06s     0.06s

              kinetic      98.81600658
         nonlocal psp       0.00000000
   nuclear attraction    -242.25803115
              coulomb      54.14100032
                  PCM       0.00000000
 exchange-correlation      -9.96574964
    nuclear-repulsion       0.00000000
                total     -99.26677389

timer: Compute residual stu     0.01s     0.01s
entering apply
timer:            Apply BSH     0.47s     0.47s
timer:     Truncate new psi     0.06s     0.06s
residuals [2.999952e-05, 2.267670e-04, 1.679606e-03, 1.679605e-03, 1.679481e-03]
BSH residual: rms 1.305001e-03    max 1.679606e-03
timer:         BSH residual     0.02s     0.02s
Increasing subspace singular value threshold  3.679650e+00 1.000000e-12
Increasing subspace singular value threshold  3.679650e+00 1.000000e-10
Increasing subspace singular value threshold  3.679650e+00 1.000000e-08
Increasing subspace singular value threshold  3.679650e+00 1.000000e-06
timer: Update subspace stuf     0.09s     0.09s
Subspace solution [*]   0.00830634  -0.22638784  -0.48999226  -0.14200746   1.85008122

timer:   Subspace transform     0.01s     0.01s
Norm of vector changes alpha : rms 2.336665e-03    max 2.983471e-03
ORTHOG2a: maxq trantol 5.941355e-05 2.000000e-06
timer:       Orthonormalize     0.04s     0.04s

Iteration 8 at time 15.0s

timer:       Make densities     0.02s     0.02s
delta rho 7.443912e-04 7.443912e-04 residuals 1.679606e-03 0.000000e+00
timer:       Nuclear energy     0.01s     0.01s
timer:              Coulomb     0.17s     0.17s
timer:        DFT potential     0.05s     0.05s
timer:                V*psi     0.07s     0.07s
timer:        Truncate Vpsi     0.06s     0.06s
timer:            PE matrix     0.02s     0.02s
timer:    KEmat reconstruct     0.00s     0.00s
timer:  KEmat differentiate     0.13s     0.13s
timer:       KEmat compress     0.02s     0.02s
timer: KEmat inner products     0.03s     0.03s
timer:            KE matrix     0.19s     0.19s
timer: Make fock matrix res     0.00s     0.00s
timer: Diagonalization Fock     0.00s     0.00s
timer: Diagonalization rest     0.06s     0.06s

              kinetic      98.81090214
         nonlocal psp       0.00000000
   nuclear attraction    -242.23805111
              coulomb      54.12425052
                  PCM       0.00000000
 exchange-correlation      -9.96386868
    nuclear-repulsion       0.00000000
                total     -99.26676713

timer: Compute residual stu     0.01s     0.01s
entering apply
timer:            Apply BSH     0.46s     0.46s
timer:     Truncate new psi     0.07s     0.07s
residuals [6.801830e-05, 3.237580e-04, 2.071256e-03, 2.071255e-03, 2.071303e-03]
BSH residual: rms 1.611207e-03    max 2.071303e-03
timer:         BSH residual     0.03s     0.03s
Increasing subspace singular value threshold  3.477420e+00 1.000000e-12
Increasing subspace singular value threshold  3.477420e+00 1.000000e-10
Increasing subspace singular value threshold  3.477420e+00 1.000000e-08
Increasing subspace singular value threshold  3.477420e+00 1.000000e-06
Increasing subspace singular value threshold  3.477420e+00 1.000000e-04
timer: Update subspace stuf     0.09s     0.09s
Subspace solution [*]   0.13561999  -0.29424339  -1.17418952   0.35370137   1.97911154

timer:   Subspace transform     0.02s     0.02s
Norm of vector changes alpha : rms 3.294827e-03    max 4.252394e-03
ORTHOG2a: maxq trantol 1.901924e-05 2.000000e-06
timer:       Orthonormalize     0.04s     0.04s

Iteration 9 at time 16.7s

timer:       Make densities     0.02s     0.02s
delta rho 1.588219e-04 1.588219e-04 residuals 2.071303e-03 0.000000e+00
timer:       Nuclear energy     0.01s     0.01s
timer:              Coulomb     0.19s     0.19s
timer:        DFT potential     0.06s     0.06s
timer:                V*psi     0.07s     0.07s
timer:        Truncate Vpsi     0.06s     0.06s
timer:            PE matrix     0.02s     0.02s
timer:    KEmat reconstruct     0.00s     0.00s
timer:  KEmat differentiate     0.12s     0.12s
timer:       KEmat compress     0.02s     0.02s
timer: KEmat inner products     0.03s     0.03s
timer:            KE matrix     0.18s     0.18s
timer: Make fock matrix res     0.00s     0.00s
timer: Diagonalization Fock     0.00s     0.00s
timer: Diagonalization rest     0.05s     0.05s

              kinetic      98.80786038
         nonlocal psp       0.00000000
   nuclear attraction    -242.23129953
              coulomb      54.12008721
                  PCM       0.00000000
 exchange-correlation      -9.96341609
    nuclear-repulsion       0.00000000
                total     -99.26676803

timer: Compute residual stu     0.01s     0.01s
entering apply
timer:            Apply BSH     0.47s     0.47s
timer:     Truncate new psi     0.06s     0.06s
residuals [3.949422e-05, 4.687809e-04, 2.748566e-03, 2.748567e-03, 2.748577e-03]
BSH residual: rms 2.139403e-03    max 2.748577e-03
timer:         BSH residual     0.02s     0.02s
Increasing subspace singular value threshold  -4.625190e+00 1.000000e-12
Increasing subspace singular value threshold  -4.625190e+00 1.000000e-10
Increasing subspace singular value threshold  -4.625190e+00 1.000000e-08
Increasing subspace singular value threshold  -4.625190e+00 1.000000e-06
Increasing subspace singular value threshold  -4.625190e+00 1.000000e-04
Increasing subspace singular value threshold  -4.625190e+00 1.000000e-02
timer: Update subspace stuf     0.08s     0.08s
Subspace solution [*]  -0.01976349  -0.00372610  -0.01589787  -0.00152645   1.04091390

timer:   Subspace transform     0.01s     0.01s
Norm of vector changes alpha : rms 2.258827e-03    max 2.903230e-03
ORTHOG2a: maxq trantol 5.419714e-06 2.000000e-06
timer:       Orthonormalize     0.04s     0.04s

Iteration 10 at time 18.3s

timer:       Make densities     0.02s     0.02s
timer:       Load balancing     0.00s     0.00s
delta rho 1.630517e-03 1.630517e-03 residuals 2.748577e-03 0.000000e+00
timer:       Nuclear energy     0.01s     0.01s
timer:              Coulomb     0.17s     0.17s
timer:        DFT potential     0.06s     0.06s
timer:                V*psi     0.07s     0.07s
timer:        Truncate Vpsi     0.05s     0.05s
timer:            PE matrix     0.01s     0.01s
timer:    KEmat reconstruct     0.00s     0.00s
timer:  KEmat differentiate     0.11s     0.11s
timer:       KEmat compress     0.02s     0.02s
timer: KEmat inner products     0.02s     0.02s
timer:            KE matrix     0.16s     0.16s
timer: Make fock matrix res     0.00s     0.00s
timer: Diagonalization Fock     0.00s     0.00s
timer: Diagonalization rest     0.06s     0.06s

              kinetic      98.84474726
         nonlocal psp       0.00000000
   nuclear attraction    -242.31903196
              coulomb      54.17778350
                  PCM       0.00000000
 exchange-correlation      -9.97025924
    nuclear-repulsion       0.00000000
                total     -99.26676044

timer: Compute residual stu     0.01s     0.01s
entering apply
timer:            Apply BSH     0.44s     0.44s
timer:     Truncate new psi     0.05s     0.05s
residuals [3.038577e-05, 1.356973e-03, 8.616580e-03, 8.616581e-03, 8.616430e-03]
BSH residual: rms 6.701882e-03    max 8.616581e-03
timer:         BSH residual     0.02s     0.02s
timer: Update subspace stuf     0.07s     0.07s
Subspace solution [*]  -1.56862200   1.45036589   2.78739520  -1.21652138  -0.45261770

timer:   Subspace transform     0.01s     0.01s
Norm of vector changes alpha : rms 8.785714e-03    max 1.134230e-02
ORTHOG2a: maxq trantol 2.092370e-05 2.000000e-06
timer:       Orthonormalize     0.03s     0.03s

Iteration 11 at time 19.8s

timer:       Make densities     0.01s     0.01s
delta rho 1.011399e-03 1.011399e-03 residuals 8.616581e-03 0.000000e+00
timer:       Nuclear energy     0.01s     0.01s
timer:              Coulomb     0.17s     0.17s
timer:        DFT potential     0.05s     0.05s
timer:                V*psi     0.07s     0.07s
timer:        Truncate Vpsi     0.05s     0.05s
timer:            PE matrix     0.01s     0.01s
timer:    KEmat reconstruct     0.00s     0.00s
timer:  KEmat differentiate     0.10s     0.10s
timer:       KEmat compress     0.02s     0.02s
timer: KEmat inner products     0.02s     0.02s
timer:            KE matrix     0.15s     0.15s
timer: Make fock matrix res     0.00s     0.00s
timer: Diagonalization Fock     0.00s     0.00s
timer: Diagonalization rest     0.05s     0.05s

              kinetic      98.82173692
         nonlocal psp       0.00000000
   nuclear attraction    -242.26609975
              coulomb      54.14373154
                  PCM       0.00000000
 exchange-correlation      -9.96613847
    nuclear-repulsion       0.00000000
                total     -99.26676977

timer: Compute residual stu     0.01s     0.01s
entering apply
timer:            Apply BSH     0.46s     0.46s
timer:     Truncate new psi     0.05s     0.05s
residuals [2.644963e-05, 3.770032e-04, 1.786841e-03, 1.786840e-03, 1.787035e-03]
BSH residual: rms 1.394412e-03    max 1.787035e-03
timer:         BSH residual     0.02s     0.02s
timer: Update subspace stuf     0.07s     0.07s
Subspace solution [*]   0.32327507  -1.59300668   1.43168913  -0.19668205   1.03472453

timer:   Subspace transform     0.01s     0.01s
Norm of vector changes alpha : rms 3.126206e-03    max 4.034851e-03
ORTHOG2a: maxq trantol 3.831914e-06 2.000000e-06
timer:       Orthonormalize     0.04s     0.04s

Iteration 12 at time 21.3s

timer:       Make densities     0.01s     0.01s
delta rho 4.243399e-04 4.243399e-04 residuals 1.787035e-03 0.000000e+00
timer:       Nuclear energy     0.01s     0.01s
timer:              Coulomb     0.16s     0.16s
timer:        DFT potential     0.05s     0.05s
timer:                V*psi     0.07s     0.07s
timer:        Truncate Vpsi     0.05s     0.05s
timer:            PE matrix     0.02s     0.02s
timer:    KEmat reconstruct     0.00s     0.00s
timer:  KEmat differentiate     0.11s     0.11s
timer:       KEmat compress     0.02s     0.02s
timer: KEmat inner products     0.02s     0.02s
timer:            KE matrix     0.16s     0.16s
timer: Make fock matrix res     0.00s     0.00s
timer: Diagonalization Fock     0.00s     0.00s
timer: Diagonalization rest     0.05s     0.05s

              kinetic      98.81284117
         nonlocal psp       0.00000000
   nuclear attraction    -242.24899837
              coulomb      54.13438993
                  PCM       0.00000000
 exchange-correlation      -9.96500697
    nuclear-repulsion       0.00000000
                total     -99.26677425

timer: Compute residual stu     0.01s     0.01s
entering apply
timer:            Apply BSH     0.44s     0.44s
timer:     Truncate new psi     0.05s     0.05s
residuals [2.776786e-05, 4.873990e-05, 5.727083e-04, 5.727072e-04, 5.727865e-04]
BSH residual: rms 4.443466e-04    max 5.727865e-04
timer:         BSH residual     0.02s     0.02s
Increasing subspace singular value threshold  4.326031e+01 1.000000e-12
Increasing subspace singular value threshold  4.326031e+01 1.000000e-10
Increasing subspace singular value threshold  4.326031e+01 1.000000e-08
Increasing subspace singular value threshold  4.326031e+01 1.000000e-06
Increasing subspace singular value threshold  4.326031e+01 1.000000e-04
timer: Update subspace stuf     0.07s     0.07s
Subspace solution [*]  -2.44491866   1.29745003  -0.16426376  -0.44127688   2.75300926

timer:   Subspace transform     0.01s     0.01s
Norm of vector changes alpha : rms 3.743406e-03    max 4.829582e-03
ORTHOG2a: maxq trantol 2.157667e-05 2.000000e-06
timer:       Orthonormalize     0.03s     0.03s

Iteration 13 at time 22.7s

timer:       Make densities     0.02s     0.02s
delta rho 3.927351e-04 3.927351e-04 residuals 5.727865e-04 0.000000e+00
timer:       Nuclear energy     0.01s     0.01s
timer:              Coulomb     0.16s     0.16s
timer:        DFT potential     0.05s     0.05s
timer:                V*psi     0.07s     0.07s
timer:        Truncate Vpsi     0.05s     0.05s
timer:            PE matrix     0.01s     0.01s
timer:    KEmat reconstruct     0.00s     0.00s
timer:  KEmat differentiate     0.10s     0.10s
timer:       KEmat compress     0.02s     0.02s
timer: KEmat inner products     0.02s     0.02s
timer:            KE matrix     0.15s     0.15s
timer: Make fock matrix res     0.00s     0.00s
timer: Diagonalization Fock     0.00s     0.00s
timer: Diagonalization rest     0.05s     0.05s

              kinetic      98.81010137
         nonlocal psp       0.00000000
   nuclear attraction    -242.24521639
              coulomb      54.13325323
                  PCM       0.00000000
 exchange-correlation      -9.96491398
    nuclear-repulsion       0.00000000
                total     -99.26677577

timer: Compute residual stu     0.01s     0.01s
entering apply
timer:            Apply BSH     0.47s     0.47s
timer:     Truncate new psi     0.05s     0.05s
residuals [3.840093e-05, 9.432091e-05, 1.060052e-03, 1.060049e-03, 1.060209e-03]
BSH residual: rms 8.224146e-04    max 1.060209e-03
timer:         BSH residual     0.02s     0.02s
Increasing subspace singular value threshold  4.559997e+00 1.000000e-12
Increasing subspace singular value threshold  4.559997e+00 1.000000e-10
Increasing subspace singular value threshold  4.559997e+00 1.000000e-08
Increasing subspace singular value threshold  4.559997e+00 1.000000e-06
Increasing subspace singular value threshold  4.559997e+00 1.000000e-04
Increasing subspace singular value threshold  8.847745e+00 1.000000e-02
timer: Update subspace stuf     0.07s     0.07s
Subspace solution [*]  -0.00829778  -0.02365786   0.00290826  -0.00088559   1.02993297

timer:   Subspace transform     0.01s     0.01s
Norm of vector changes alpha : rms 8.376107e-04    max 1.079945e-03
ORTHOG2a: maxq trantol 6.780076e-06 2.000000e-06
timer:       Orthonormalize     0.03s     0.03s

Iteration 14 at time 24.1s

timer:       Make densities     0.01s     0.01s
delta rho 2.239253e-04 2.239253e-04 residuals 1.060209e-03 0.000000e+00
timer:       Nuclear energy     0.01s     0.01s
timer:              Coulomb     0.17s     0.17s
timer:        DFT potential     0.05s     0.05s
timer:                V*psi     0.07s     0.07s
timer:        Truncate Vpsi     0.06s     0.06s
timer:            PE matrix     0.02s     0.02s
timer:    KEmat reconstruct     0.00s     0.00s
timer:  KEmat differentiate     0.12s     0.12s
timer:       KEmat compress     0.03s     0.03s
timer: KEmat inner products     0.03s     0.03s
timer:            KE matrix     0.19s     0.19s
timer: Make fock matrix res     0.00s     0.00s
timer: Diagonalization Fock     0.00s     0.00s
timer: Diagonalization rest     0.06s     0.06s

              kinetic      98.80728293
         nonlocal psp       0.00000000
   nuclear attraction    -242.23556795
              coulomb      54.12555674
                  PCM       0.00000000
 exchange-correlation      -9.96404866
    nuclear-repulsion       0.00000000
                total     -99.26677693

timer: Compute residual stu     0.01s     0.01s
entering apply
timer:            Apply BSH     0.47s     0.47s
timer:     Truncate new psi     0.06s     0.06s
residuals [3.187644e-05, 1.648224e-04, 1.465719e-03, 1.465670e-03, 1.465781e-03]
BSH residual: rms 1.137824e-03    max 1.465781e-03
timer:         BSH residual     0.02s     0.02s
Increasing subspace singular value threshold  -5.089536e+00 1.000000e-12
Increasing subspace singular value threshold  -5.089536e+00 1.000000e-10
Increasing subspace singular value threshold  -5.089536e+00 1.000000e-08
Increasing subspace singular value threshold  -5.089536e+00 1.000000e-06
Increasing subspace singular value threshold  -5.089536e+00 1.000000e-04
Increasing subspace singular value threshold  -5.089536e+00 1.000000e-02
timer: Update subspace stuf     0.08s     0.08s
Subspace solution [*]  -0.32670400  -0.05721349  -0.01582229  -0.03092112   1.43066090

timer:   Subspace transform     0.01s     0.01s
Norm of vector changes alpha : rms 4.012245e-03    max 5.167864e-03
ORTHOG2a: maxq trantol 2.842443e-06 2.000000e-06
timer:       Orthonormalize     0.04s     0.04s

Iteration 15 at time 25.7s

timer:       Make densities     0.02s     0.02s
delta rho 2.325522e-03 2.325522e-03 residuals 1.465781e-03 0.000000e+00
timer:       Nuclear energy     0.01s     0.01s
timer:              Coulomb     0.18s     0.18s
timer:        DFT potential     0.06s     0.06s
timer:                V*psi     0.08s     0.08s
timer:        Truncate Vpsi     0.06s     0.06s
timer:            PE matrix     0.02s     0.02s
timer:    KEmat reconstruct     0.00s     0.00s
timer:  KEmat differentiate     0.12s     0.12s
timer:       KEmat compress     0.02s     0.02s
timer: KEmat inner products     0.03s     0.03s
timer:            KE matrix     0.18s     0.18s
timer: Make fock matrix res     0.00s     0.00s
timer: Diagonalization Fock     0.00s     0.00s
timer: Diagonalization rest     0.05s     0.05s

              kinetic      98.86157573
         nonlocal psp       0.00000000
   nuclear attraction    -242.36145975
              coulomb      54.20686014
                  PCM       0.00000000
 exchange-correlation      -9.97371103
    nuclear-repulsion       0.00000000
                total     -99.26673490

timer: Compute residual stu     0.01s     0.01s
entering apply
timer:            Apply BSH     0.49s     0.49s
timer:     Truncate new psi     0.06s     0.06s
residuals [4.613524e-05, 2.330547e-03, 1.421593e-02, 1.421593e-02, 1.421566e-02]
BSH residual: rms 1.106078e-02    max 1.421593e-02
timer:         BSH residual     0.02s     0.02s
timer: Update subspace stuf     0.08s     0.08s
Subspace solution [*]   1.38241393  -1.17739685   2.87620217  -1.71598531  -0.36523394

timer:   Subspace transform     0.01s     0.01s
Norm of vector changes alpha : rms 8.171611e-03    max 1.054568e-02
ORTHOG2a: maxq trantol 2.981837e-06 2.000000e-06
timer:       Orthonormalize     0.04s     0.04s

Iteration 16 at time 27.3s

timer:       Make densities     0.02s     0.02s
delta rho 2.145131e-03 2.145131e-03 residuals 1.421593e-02 0.000000e+00
timer:       Nuclear energy     0.01s     0.01s
timer:              Coulomb     0.18s     0.18s
timer:        DFT potential     0.06s     0.06s
timer:                V*psi     0.07s     0.07s
timer:        Truncate Vpsi     0.06s     0.06s
timer:            PE matrix     0.02s     0.02s
timer:    KEmat reconstruct     0.00s     0.00s
timer:  KEmat differentiate     0.12s     0.12s
timer:       KEmat compress     0.03s     0.03s
timer: KEmat inner products     0.03s     0.03s
timer:            KE matrix     0.18s     0.18s
timer: Make fock matrix res     0.00s     0.00s
timer: Diagonalization Fock     0.00s     0.00s
timer: Diagonalization rest     0.06s     0.06s

              kinetic      98.81105315
         nonlocal psp       0.00000000
   nuclear attraction    -242.24601097
              coulomb      54.13302142
                  PCM       0.00000000
 exchange-correlation      -9.96483800
    nuclear-repulsion       0.00000000
                total     -99.26677441

timer: Compute residual stu     0.01s     0.01s
entering apply
timer:            Apply BSH     0.48s     0.48s
timer:     Truncate new psi     0.06s     0.06s
residuals [2.805125e-05, 6.497521e-05, 5.186947e-04, 5.179551e-04, 5.180763e-04]
BSH residual: rms 4.026744e-04    max 5.186947e-04
timer:         BSH residual     0.02s     0.02s
timer: Update subspace stuf     0.08s     0.08s
Subspace solution [*]  -0.54279224   1.36590125  -0.74118294  -0.10637553   1.02444946

timer:   Subspace transform     0.01s     0.01s
Norm of vector changes alpha : rms 1.861829e-03    max 2.402935e-03
ORTHOG2a: maxq trantol 5.987989e-06 2.000000e-06
timer:       Orthonormalize     0.04s     0.04s

Iteration 17 at time 29.0s

timer:       Make densities     0.02s     0.02s
delta rho 1.885075e-04 1.885075e-04 residuals 5.186947e-04 0.000000e+00
timer:       Nuclear energy     0.01s     0.01s
timer:              Coulomb     0.18s     0.18s
timer:        DFT potential     0.06s     0.06s
timer:                V*psi     0.08s     0.08s
timer:        Truncate Vpsi     0.07s     0.07s
timer:            PE matrix     0.02s     0.02s
timer:    KEmat reconstruct     0.00s     0.00s
timer:  KEmat differentiate     0.15s     0.15s
timer:       KEmat compress     0.03s     0.03s
timer: KEmat inner products     0.03s     0.03s
timer:            KE matrix     0.21s     0.21s
timer: Make fock matrix res     0.00s     0.00s
timer: Diagonalization Fock     0.00s     0.00s
timer: Diagonalization rest     0.06s     0.06s

              kinetic      98.81313431
         nonlocal psp       0.00000000
   nuclear attraction    -242.25102959
              coulomb      54.13638291
                  PCM       0.00000000
 exchange-correlation      -9.96526243
    nuclear-repulsion       0.00000000
                total     -99.26677481

timer: Compute residual stu     0.02s     0.02s
entering apply
timer:            Apply BSH     0.50s     0.50s
timer:     Truncate new psi     0.06s     0.06s
residuals [3.143207e-05, 1.304641e-04, 1.030204e-03, 1.030141e-03, 1.030189e-03]
BSH residual: rms 8.002263e-04    max 1.030204e-03
timer:         BSH residual     0.02s     0.02s
Increasing subspace singular value threshold  4.683708e+00 1.000000e-12
Increasing subspace singular value threshold  4.683708e+00 1.000000e-10
Increasing subspace singular value threshold  4.683708e+00 1.000000e-08
Increasing subspace singular value threshold  4.683708e+00 1.000000e-06
Increasing subspace singular value threshold  4.683708e+00 1.000000e-04
timer: Update subspace stuf     0.08s     0.08s
Subspace solution [*]   0.09287578   0.13988105  -0.04560780   0.03515755   0.77769342

timer:   Subspace transform     0.01s     0.01s
Norm of vector changes alpha : rms 9.564830e-04    max 1.234603e-03
ORTHOG2a: maxq trantol 1.201315e-05 2.000000e-06
timer:       Orthonormalize     0.04s     0.04s

Iteration 18 at time 30.7s

timer:       Make densities     0.02s     0.02s
delta rho 6.711234e-05 6.711234e-05 residuals 1.030204e-03 0.000000e+00
timer:       Nuclear energy     0.01s     0.01s
timer:              Coulomb     0.17s     0.17s
timer:        DFT potential     0.05s     0.05s
timer:                V*psi     0.08s     0.08s
timer:        Truncate Vpsi     0.06s     0.06s
timer:            PE matrix     0.02s     0.02s
timer:    KEmat reconstruct     0.00s     0.00s
timer:  KEmat differentiate     0.13s     0.13s
timer:       KEmat compress     0.02s     0.02s
timer: KEmat inner products     0.03s     0.03s
timer:            KE matrix     0.19s     0.19s
timer: Make fock matrix res     0.00s     0.00s
timer: Diagonalization Fock     0.00s     0.00s
timer: Diagonalization rest     0.06s     0.06s

              kinetic      98.81306167
         nonlocal psp       0.00000000
   nuclear attraction    -242.24965705
              coulomb      54.13492721
                  PCM       0.00000000
 exchange-correlation      -9.96510706
    nuclear-repulsion       0.00000000
                total     -99.26677524

timer: Compute residual stu     0.02s     0.02s
entering apply
timer:            Apply BSH     0.45s     0.45s
timer:     Truncate new psi     0.06s     0.06s
residuals [3.134388e-05, 9.289835e-05, 7.686086e-04, 7.686168e-04, 7.687101e-04]
BSH residual: rms 5.970023e-04    max 7.687101e-04
timer:         BSH residual     0.02s     0.02s
Increasing subspace singular value threshold  -5.414923e+00 1.000000e-12
Increasing subspace singular value threshold  -5.414923e+00 1.000000e-10
Increasing subspace singular value threshold  -5.414923e+00 1.000000e-08
Increasing subspace singular value threshold  -5.414923e+00 1.000000e-06
Increasing subspace singular value threshold  -5.414923e+00 1.000000e-04
Increasing subspace singular value threshold  -5.412013e+00 1.000000e-02
timer: Update subspace stuf     0.08s     0.08s
Subspace solution [*]   0.01275301  -0.06006587   0.00412272  -0.00175792   1.04494807

timer:   Subspace transform     0.01s     0.01s
Norm of vector changes alpha : rms 7.502505e-04    max 9.683044e-04
ORTHOG2a: maxq trantol 1.566674e-05 2.000000e-06
timer:       Orthonormalize     0.04s     0.04s

Iteration 19 at time 32.2s

timer:       Make densities     0.03s     0.03s
delta rho 1.165562e-04 1.165562e-04 residuals 7.687101e-04 0.000000e+00
timer:       Nuclear energy     0.01s     0.01s
timer:              Coulomb     0.17s     0.17s
timer:        DFT potential     0.05s     0.05s
timer:                V*psi     0.08s     0.08s
timer:        Truncate Vpsi     0.06s     0.06s
timer:            PE matrix     0.02s     0.02s
timer:    KEmat reconstruct     0.00s     0.00s
timer:  KEmat differentiate     0.13s     0.13s
timer:       KEmat compress     0.03s     0.03s
timer: KEmat inner products     0.03s     0.03s
timer:            KE matrix     0.19s     0.19s
timer: Make fock matrix res     0.00s     0.00s
timer: Diagonalization Fock     0.00s     0.00s
timer: Diagonalization rest     0.06s     0.06s

              kinetic      98.81581350
         nonlocal psp       0.00000000
   nuclear attraction    -242.25567516
              coulomb      54.13863719
                  PCM       0.00000000
 exchange-correlation      -9.96555099
    nuclear-repulsion       0.00000000
                total     -99.26677546

timer:              Overlap     0.01s     0.01s
timer:      focka eigen sol     0.00s     0.00s
timer:        Transform MOs     0.02s     0.02s
 
alpha eigenvalues
[*] -23.66964530  -0.61057755   0.04336786   0.04336786   0.04336798


 Dipole Moment (a.u.)
 -----------

     x:  -1.264298e-05
     y:  5.139055e-08
     z:  -2.183957e-06
 Total Dipole Moment:  1.283033e-05 

timer:               dipole     0.00s     0.00s
Orbitals are eigenvectors - energies are eigenvalues

Analysis of alpha MO vectors
timer:      Analyze vectors     0.25s     0.25s
timer: Compute eigen gesv a     0.00s     0.00s
  MO   0 : occ=1.00 : energy= -23.66964530 : center=(-0.00,-0.00,0.00) : radius=0.21
            F(0)   s( 0)-0.994  
  MO   1 : occ=1.00 : energy=  -0.61057755 : center=(-0.00,-0.00,0.00) : radius=1.16
            F(0)   s( 5) 0.596     F(0)   s( 1) 0.493     F(0)   s( 0)-0.241  
  MO   2 : occ=1.00 : energy=   0.04336786 : center=(0.00,-0.00,0.00) : radius=1.68
            F(0)  pz( 4)-0.429     F(0)  pz( 8)-0.402     F(0)  px( 2)-0.397     F(0)  px( 6)-0.372  
  MO   3 : occ=1.00 : energy=   0.04336786 : center=(0.00,-0.00,-0.00) : radius=1.68
            F(0)  px( 2) 0.429     F(0)  px( 6) 0.402     F(0)  pz( 4)-0.397     F(0)  pz( 8)-0.372  
  MO   4 : occ=1.00 : energy=   0.04336798 : center=(0.00,0.00,0.00) : radius=1.68
            F(0)  py( 3) 0.585     F(0)  py( 7) 0.548  

Solving NDIM= 3  with thresh 1.000000e-06     k 8    conv 1.000000e-04 

timer:     Project vnuclear     0.29s     0.29s
timer:     project ao basis     0.27s     0.27s

Iteration 0 at time 34.2s

timer:       Make densities     0.02s     0.02s
timer:       Load balancing     0.00s     0.00s
timer:       Nuclear energy     0.03s     0.03s
timer:              Coulomb     0.41s     0.41s
timer:        DFT potential     0.06s     0.06s
timer:                V*psi     0.14s     0.14s
timer:        Truncate Vpsi     0.12s     0.12s
timer:            PE matrix     0.02s     0.02s
timer:    KEmat reconstruct     0.00s     0.00s
timer:  KEmat differentiate     0.11s     0.11s
timer:       KEmat compress     0.03s     0.03s
timer: KEmat inner products     0.02s     0.02s
timer:            KE matrix     0.17s     0.17s
timer: Make fock matrix res     0.00s     0.00s
timer: Diagonalization Fock     0.00s     0.00s
timer: Diagonalization rest     0.09s     0.09s

              kinetic      98.81564669
         nonlocal psp       0.00000000
   nuclear attraction    -242.25545668
              coulomb      54.13855851
                  PCM       0.00000000
 exchange-correlation      -9.96554339
    nuclear-repulsion       0.00000000
                total     -99.26679487

timer: Compute residual stu     0.04s     0.04s
entering apply
timer:            Apply BSH     1.88s     1.88s
timer:     Truncate new psi     0.13s     0.13s
residuals [1.736996e-04, 2.649267e-04, 1.430303e-03, 1.430791e-03, 1.437767e-03]
BSH residual: rms 1.118969e-03    max 1.437767e-03
timer:         BSH residual     0.02s     0.02s
timer: Update subspace stuf     0.01s     0.01s
Subspace solution [*]   1.00000000

timer:   Subspace transform     0.00s     0.00s
Norm of vector changes alpha : rms 1.118969e-03    max 1.437767e-03
ORTHOG2a: maxq trantol 1.978566e-06 2.000000e-08
timer:       Orthonormalize     0.05s     0.05s

Iteration 1 at time 37.6s

timer:       Make densities     0.03s     0.03s
timer:       Load balancing     0.00s     0.00s
delta rho 8.113558e-04 8.113558e-04 residuals 1.437767e-03 0.000000e+00
timer:       Nuclear energy     0.01s     0.01s
timer:              Coulomb     0.35s     0.35s
timer:        DFT potential     0.09s     0.09s
timer:                V*psi     0.12s     0.12s
timer:        Truncate Vpsi     0.10s     0.10s
timer:            PE matrix     0.02s     0.02s
timer:    KEmat reconstruct     0.01s     0.01s
timer:  KEmat differentiate     0.14s     0.14s
timer:       KEmat compress     0.04s     0.04s
timer: KEmat inner products     0.03s     0.03s
timer:            KE matrix     0.21s     0.21s
timer: Make fock matrix res     0.00s     0.00s
timer: Diagonalization Fock     0.00s     0.00s
timer: Diagonalization rest     0.07s     0.07s

              kinetic      98.80197686
         nonlocal psp       0.00000000
   nuclear attraction    -242.21822175
              coulomb      54.11170132
                  PCM       0.00000000
 exchange-correlation      -9.96247414
    nuclear-repulsion       0.00000000
                total     -99.26701770

timer: Compute residual stu     0.03s     0.03s
entering apply
timer:            Apply BSH     1.91s     1.91s
timer:     Truncate new psi     0.13s     0.13s
residuals [1.675714e-05, 6.461472e-04, 3.969568e-03, 3.970133e-03, 3.971491e-03]
BSH residual: rms 3.089011e-03    max 3.971491e-03
timer:         BSH residual     0.03s     0.03s
timer: Update subspace stuf     0.03s     0.03s
Subspace solution [*]   0.61593598   0.38406402

timer:   Subspace transform     0.01s     0.01s
Norm of vector changes alpha : rms 1.120563e-03    max 1.441069e-03
ORTHOG2a: maxq trantol 6.205340e-06 2.000000e-08
timer:       Orthonormalize     0.05s     0.05s

Iteration 2 at time 41.1s

timer:       Make densities     0.02s     0.02s
delta rho 9.946873e-04 9.946873e-04 residuals 3.971491e-03 0.000000e+00
timer:       Nuclear energy     0.01s     0.01s
timer:              Coulomb     0.35s     0.35s
timer:        DFT potential     0.08s     0.08s
timer:                V*psi     0.12s     0.12s
timer:        Truncate Vpsi     0.10s     0.10s
timer:            PE matrix     0.02s     0.02s
timer:    KEmat reconstruct     0.01s     0.01s
timer:  KEmat differentiate     0.13s     0.13s
timer:       KEmat compress     0.03s     0.03s
timer: KEmat inner products     0.03s     0.03s
timer:            KE matrix     0.20s     0.20s
timer: Make fock matrix res     0.00s     0.00s
timer: Diagonalization Fock     0.00s     0.00s
timer: Diagonalization rest     0.07s     0.07s

              kinetic      98.82572174
         nonlocal psp       0.00000000
   nuclear attraction    -242.27283781
              coulomb      54.14672823
                  PCM       0.00000000
 exchange-correlation      -9.96663209
    nuclear-repulsion       0.00000000
                total     -99.26701994

timer: Compute residual stu     0.03s     0.03s
entering apply
timer:            Apply BSH     1.88s     1.88s
timer:     Truncate new psi     0.12s     0.12s
residuals [5.431519e-06, 4.053954e-04, 2.819922e-03, 2.819630e-03, 2.818985e-03]
BSH residual: rms 2.191498e-03    max 2.819922e-03
timer:         BSH residual     0.02s     0.02s
Increasing subspace singular value threshold  -3.017396e+00 1.000000e-12
Increasing subspace singular value threshold  -3.017396e+00 1.000000e-10
Increasing subspace singular value threshold  -3.017396e+00 1.000000e-08
Increasing subspace singular value threshold  -3.017396e+00 1.000000e-06
Increasing subspace singular value threshold  -3.017396e+00 1.000000e-04
Increasing subspace singular value threshold  -3.017396e+00 1.000000e-02
timer: Update subspace stuf     0.04s     0.04s
Subspace solution [*]   0.06221666   0.31074192   0.62704142

timer:   Subspace transform     0.01s     0.01s
Norm of vector changes alpha : rms 9.865022e-04    max 1.271513e-03
ORTHOG2a: maxq trantol 7.454961e-07 2.000000e-08
timer:       Orthonormalize     0.05s     0.05s

Iteration 3 at time 44.5s

timer:       Make densities     0.02s     0.02s
delta rho 6.451477e-04 6.451477e-04 residuals 2.819922e-03 0.000000e+00
timer:       Nuclear energy     0.01s     0.01s
timer:              Coulomb     0.33s     0.33s
timer:        DFT potential     0.08s     0.08s
timer:                V*psi     0.12s     0.12s
timer:        Truncate Vpsi     0.10s     0.10s
timer:            PE matrix     0.02s     0.02s
timer:    KEmat reconstruct     0.01s     0.01s
timer:  KEmat differentiate     0.13s     0.13s
timer:       KEmat compress     0.04s     0.04s
timer: KEmat inner products     0.03s     0.03s
timer:            KE matrix     0.20s     0.20s
timer: Make fock matrix res     0.00s     0.00s
timer: Diagonalization Fock     0.00s     0.00s
timer: Diagonalization rest     0.08s     0.08s

              kinetic      98.81140191
         nonlocal psp       0.00000000
   nuclear attraction    -242.23833163
              coulomb      54.12385842
                  PCM       0.00000000
 exchange-correlation      -9.96395047
    nuclear-repulsion       0.00000000
                total     -99.26702178

timer: Compute residual stu     0.03s     0.03s
entering apply
timer:            Apply BSH     1.91s     1.91s
timer:     Truncate new psi     0.14s     0.14s
residuals [4.789037e-06, 2.639275e-04, 2.089322e-03, 2.089332e-03, 2.089473e-03]
BSH residual: rms 1.622723e-03    max 2.089473e-03
timer:         BSH residual     0.03s     0.03s
Increasing subspace singular value threshold  -4.748782e+00 1.000000e-12
Increasing subspace singular value threshold  -4.748782e+00 1.000000e-10
Increasing subspace singular value threshold  -4.748782e+00 1.000000e-08
Increasing subspace singular value threshold  -4.748782e+00 1.000000e-06
Increasing subspace singular value threshold  -4.748782e+00 1.000000e-04
timer: Update subspace stuf     0.08s     0.08s
Subspace solution [*]   1.50141803   1.51183177   0.20093106  -2.21418086

timer:   Subspace transform     0.02s     0.02s
Norm of vector changes alpha : rms 4.073160e-03    max 5.258734e-03
ORTHOG2a: maxq trantol 9.285932e-06 2.000000e-08
timer:       Orthonormalize     0.05s     0.05s

Iteration 4 at time 47.9s

timer:       Make densities     0.02s     0.02s
delta rho 2.826477e-04 2.826477e-04 residuals 2.089473e-03 0.000000e+00
timer:       Nuclear energy     0.01s     0.01s
timer:              Coulomb     0.36s     0.36s
timer:        DFT potential     0.09s     0.09s
timer:                V*psi     0.13s     0.13s
timer:        Truncate Vpsi     0.10s     0.10s
timer:            PE matrix     0.03s     0.03s
timer:    KEmat reconstruct     0.01s     0.01s
timer:  KEmat differentiate     0.13s     0.13s
timer:       KEmat compress     0.04s     0.04s
timer: KEmat inner products     0.03s     0.03s
timer:            KE matrix     0.21s     0.21s
timer: Make fock matrix res     0.00s     0.00s
timer: Diagonalization Fock     0.00s     0.00s
timer: Diagonalization rest     0.09s     0.09s

              kinetic      98.81445565
         nonlocal psp       0.00000000
   nuclear attraction    -242.24930046
              coulomb      54.13274919
                  PCM       0.00000000
 exchange-correlation      -9.96492413
    nuclear-repulsion       0.00000000
                total     -99.26701975

timer: Compute residual stu     0.04s     0.04s
entering apply
timer:            Apply BSH     1.96s     1.96s
timer:     Truncate new psi     0.13s     0.13s
residuals [2.092757e-05, 3.927314e-05, 5.339123e-04, 5.339617e-04, 5.342226e-04]
BSH residual: rms 4.141381e-04    max 5.342226e-04
timer:         BSH residual     0.03s     0.03s
Increasing subspace singular value threshold  9.178429e+00 1.000000e-12
Increasing subspace singular value threshold  9.178429e+00 1.000000e-10
Increasing subspace singular value threshold  9.178429e+00 1.000000e-08
Increasing subspace singular value threshold  9.178429e+00 1.000000e-06
timer: Update subspace stuf     0.08s     0.08s
Subspace solution [*]  -1.58953678  -0.10356181   0.86567041   0.45888130   1.36854689

timer:   Subspace transform     0.02s     0.02s
Norm of vector changes alpha : rms 8.223300e-04    max 1.060305e-03
ORTHOG2a: maxq trantol 7.687097e-06 2.000000e-08
timer:       Orthonormalize     0.05s     0.05s

Iteration 5 at time 51.6s

timer:       Make densities     0.03s     0.03s
delta rho 2.425967e-04 2.425967e-04 residuals 5.342226e-04 0.000000e+00
timer:       Nuclear energy     0.01s     0.01s
timer:              Coulomb     0.36s     0.36s
timer:        DFT potential     0.09s     0.09s
timer:                V*psi     0.13s     0.13s
timer:        Truncate Vpsi     0.10s     0.10s
timer:            PE matrix     0.02s     0.02s
timer:    KEmat reconstruct     0.01s     0.01s
timer:  KEmat differentiate     0.14s     0.14s
timer:       KEmat compress     0.04s     0.04s
timer: KEmat inner products     0.03s     0.03s
timer:            KE matrix     0.22s     0.22s
timer: Make fock matrix res     0.00s     0.00s
timer: Diagonalization Fock     0.00s     0.00s
timer: Diagonalization rest     0.08s     0.08s

              kinetic      98.81915004
         nonlocal psp       0.00000000
   nuclear attraction    -242.25457434
              coulomb      54.13351358
                  PCM       0.00000000
 exchange-correlation      -9.96510924
    nuclear-repulsion       0.00000000
                total     -99.26701996

timer: Compute residual stu     0.03s     0.03s
entering apply
timer:            Apply BSH     1.93s     1.93s
timer:     Truncate new psi     0.13s     0.13s
residuals [1.249569e-05, 5.102911e-05, 4.607161e-04, 4.608026e-04, 4.609630e-04]
BSH residual: rms 3.577277e-04    max 4.609630e-04
timer:         BSH residual     0.02s     0.02s
Increasing subspace singular value threshold  -3.437399e+01 1.000000e-12
Increasing subspace singular value threshold  -3.437399e+01 1.000000e-10
Increasing subspace singular value threshold  -3.437399e+01 1.000000e-08
Increasing subspace singular value threshold  -3.437399e+01 1.000000e-06
Increasing subspace singular value threshold  1.614668e+01 1.000000e-04
timer: Update subspace stuf     0.08s     0.08s
Subspace solution [*]   0.01819740   0.04727136   0.03824136  -0.00439130   0.90068118

timer:   Subspace transform     0.02s     0.02s
Norm of vector changes alpha : rms 4.584418e-04    max 5.912077e-04
ORTHOG2a: maxq trantol 7.648901e-07 2.000000e-08
timer:       Orthonormalize     0.05s     0.05s

Iteration 6 at time 55.2s

timer:       Make densities     0.02s     0.02s
delta rho 6.004229e-05 6.004229e-05 residuals 4.609630e-04 0.000000e+00
timer:       Nuclear energy     0.01s     0.01s
timer:              Coulomb     0.34s     0.34s
timer:        DFT potential     0.08s     0.08s
timer:                V*psi     0.12s     0.12s
timer:        Truncate Vpsi     0.09s     0.09s
timer:            PE matrix     0.02s     0.02s
timer:    KEmat reconstruct     0.01s     0.01s
timer:  KEmat differentiate     0.14s     0.14s
timer:       KEmat compress     0.03s     0.03s
timer: KEmat inner products     0.03s     0.03s
timer:            KE matrix     0.20s     0.20s
timer: Make fock matrix res     0.00s     0.00s
timer: Diagonalization Fock     0.00s     0.00s
timer: Diagonalization rest     0.07s     0.07s

              kinetic      98.81754954
         nonlocal psp       0.00000000
   nuclear attraction    -242.25207831
              coulomb      54.13247390
                  PCM       0.00000000
 exchange-correlation      -9.96496543
    nuclear-repulsion       0.00000000
                total     -99.26702029


Converged!

timer:              Overlap     0.01s     0.01s
timer:      focka eigen sol     0.00s     0.00s
timer:        Transform MOs     0.02s     0.02s
 
alpha eigenvalues
[*] -23.67052588  -0.61121403   0.04283884   0.04283886   0.04283887


 Dipole Moment (a.u.)
 -----------

     x:  5.223811e-06
     y:  7.920256e-07
     z:  4.091081e-07
 Total Dipole Moment:  5.299328e-06 

timer:               dipole     0.00s     0.00s
Orbitals are eigenvectors - energies are eigenvalues

Analysis of alpha MO vectors
timer:      Analyze vectors     0.28s     0.28s
timer: Compute eigen gesv a     0.00s     0.00s
  MO   0 : occ=1.00 : energy= -23.67052588 : center=(0.00,0.00,-0.00) : radius=0.21
            F(0)   s( 0) 0.994  
  MO   1 : occ=1.00 : energy=  -0.61121403 : center=(0.00,-0.00,-0.00) : radius=1.16
            F(0)   s( 5)-0.596     F(0)   s( 1)-0.493     F(0)   s( 0) 0.241  
  MO   2 : occ=1.00 : energy=   0.04283884 : center=(-0.00,0.00,0.00) : radius=1.68
            F(0)  py( 3) 0.582     F(0)  py( 7) 0.545  
  MO   3 : occ=1.00 : energy=   0.04283886 : center=(-0.00,-0.00,0.00) : radius=1.68
            F(0)  px( 2)-0.434     F(0)  px( 6)-0.407     F(0)  pz( 4) 0.389     F(0)  pz( 8) 0.365  
  MO   4 : occ=1.00 : energy=   0.04283887 : center=(-0.00,-0.00,-0.00) : radius=1.68
            F(0)  pz( 4)-0.433     F(0)  pz( 8)-0.405     F(0)  px( 2)-0.391     F(0)  px( 6)-0.367  
timer:          derivatives     0.52s     0.52s

 Derivatives (a.u.)
 -----------

  atom        x            y            z          dE/dx        dE/dy        dE/dz
 ------ ------------ ------------ ------------ ------------ ------------ ------------
     0     0.000000     0.000000     0.000000     0.000018     0.000013    -0.000005
timer:             plotting     0.00s     0.00s

    Parallel environment
    --------------------
                  #nodes    1
       #threads per node    13+main = 14
          #total threads    14

  RMI message statistics (min / avg / max)
  ----------------------
   #messages in server q    0.00e+00 / 0.00e+00 / 0.00e+00
 #messages sent per node    0.00e+00 / 0.00e+00 / 0.00e+00
    #bytes sent per node    0.00e+00 / 0.00e+00 / 0.00e+00
 #messages recv per node    0.00e+00 / 0.00e+00 / 0.00e+00
    #bytes recv per node    0.00e+00 / 0.00e+00 / 0.00e+00
        #msgs systemwide    0.00e+00
       #bytes systemwide    0.00e+00

  Thread pool statistics (min / avg / max)
  ----------------------
         #tasks per node    0.00e+00 / 0.00e+00 / 0.00e+00
     #max q len per node    0.00e+00 / 0.00e+00 / 0.00e+00
  #hi-pri tasks per node    0.00e+00 / 0.00e+00 / 0.00e+00

         Total wall time    57.4s
         Total  cpu time    57.4s

