,Energy,Iterations,Dipole Moment,Eigens,Derivatives,Derivative Time,Wall Time
bicyclo[3.1.0]hexane,-234.40795052,13,0.07638692,"[-9.88380109, -9.88364802, -9.87681845, -9.87678494, -9.87634545, -9.87612909, -0.8048589, -0.68962532, -0.63730849, -0.5569716, -0.49543461, -0.48576856, -0.46060961, -0.41374376, -0.38870463, -0.36096035, -0.34761654, -0.31008168, -0.29704863, -0.29393423, -0.28694127, -0.24252474, -0.231274]","[0.003186, -0.000972, -1.7e-05, 0.001952, -0.000637, 9.4e-05, -0.001377, -0.001124, 0.001566, -0.001011, -0.001307, -0.001969, -0.002073, 0.001727, 0.000469, -0.001844, 0.001533, -0.000139, -0.000624, -0.005858, -3e-06, -0.005377, 0.001803, -2e-06, -0.005641, 0.00014, 4e-06, 0.000422, 0.005264, 2e-06, -0.002704, 0.000722, -0.004878, -0.002714, 0.000721, 0.004879, 0.004734, 0.00247, 0.002063, 0.004743, 0.002475, -0.002063, 0.003732, -0.00322, -0.003248, 0.003723, -0.003211, 0.003225]",2.25,192.6
phosphine,-342.99714701,9,0.2364959,"[-76.29095705, -6.30179914, -4.51795164, -4.51795138, -4.5136633, -0.58677366, -0.34615237, -0.34615071, -0.24687381]","[-0.013797, 0.000426, -1.9e-05, 0.002489, 0.002235, 0.0, 0.002488, -0.001125, -0.00195, 0.002488, -0.001125, 0.00195]",0.69,29.2
beryllium_sulfide,-412.72167782,13,1.976142,"[-88.00003692, -7.63025495, -5.64891347, -5.64667533, -5.64667515, -3.91799882, -0.58447736, -0.2759414, -0.21564976, -0.21564976]","[-0.0, -1e-06, 0.003777, 5.7e-05, -4e-06, -0.005228]",0.52,55.5
lithium_oxide,-82.61685005,11,2.501899,"[-18.69183229, -1.86172231, -0.74558434, -0.24436781, -0.19841791, -0.18717961]","[0.0, -0.0, 0.004007, 0.0, 0.0, -0.002814]",0.41,37.1
carbon_monoxide,-113.24260307,10,0.08744626,"[-18.85764473, -9.99987991, -1.07674801, -0.51921044, -0.43584735, -0.43584734, -0.33228329]","[-0.0, -0.0, 0.019004, -0.0, -0.0, -0.013395]",0.45,22.7
magnesium_oxide,-275.07946681,12,2.792871,"[-46.22867747, -18.66710482, -2.95530797, -1.74645211, -1.74645204, -1.74476302, -0.71756509, -0.2239868, -0.17647202, -0.176472]","[-8.8e-05, -9.4e-05, -0.005676, -3e-06, 4e-06, 0.000215]",0.54,37.7
aluminum_nitride,-296.88599429,16,1.162217,"[-55.40172862, -14.01762771, -3.95917384, -2.56409589, -2.5605615, -2.55965291, -0.68118876, -0.32003671, -0.26754498, -0.2269515, -0.22607062]","[-7e-06, 1.1e-05, -0.013547, -1e-06, -4e-06, 0.005104]",0.54,118.7
imidogen,-55.17648048,10,0.5694084,"[-14.07316909, -0.7707626, -0.36348165, -0.29088019, -0.29088019]","[0.0, 0.0, 0.014837, 0.0, 0.0, -0.013967]",0.3,25.2
methyl_formate,-228.92118375,12,0.7480113,"[-18.81411675, -18.75170355, -10.0100328, -9.94458087, -1.02515434, -0.94074624, -0.67893964, -0.54544539, -0.48354036, -0.44138397, -0.42864427, -0.38182176, -0.36023476, -0.32708502, -0.27970528, -0.24713362]","[-0.00313, 0.01006, 3e-06, 0.001914, -0.001899, -0.000284, 0.00169, -0.006117, 3.2e-05, -0.000956, -0.003383, 3.4e-05, -0.00281, -0.004644, 0.0, 0.004077, -0.000702, 3e-06, -0.000525, 0.002475, -0.003011, -0.000537, 0.002463, 0.003017]",1.35,74.4
hypochlorite,-535.11983098,15,0.5503959,"[-100.75762979, -18.83934152, -9.26794204, -7.09191164, -7.0866893, -7.07709622, -1.00997168, -0.7240274, -0.45006059, -0.4277595, -0.39797025, -0.27918727, -0.24390446]","[1e-06, 2e-06, 0.005676, 1.6e-05, -2.7e-05, 0.010438]",0.63,158.2
methanol,-115.64218965,11,0.6278613,"[-18.7505752, -9.92499585, -0.93425215, -0.61978054, -0.45888726, -0.3919413, -0.3839695, -0.2928235, -0.23022141]","[-0.006092, 0.007553, -5.5e-05, 0.001797, -0.018445, 5.9e-05, -0.004126, -0.001246, 3e-06, 0.005347, 0.000886, -0.002938, 0.00535, 0.000892, 0.002945, -0.002932, 0.010855, 0.0]",0.82,34.1
vinyl_fluoride,-177.71377783,12,0.4933402,"[-24.27044852, -9.9708821, -9.88965456, -1.12806484, -0.70161254, -0.55502556, -0.47902756, -0.43423273, -0.40782617, -0.36898898, -0.3261582, -0.2397159]","[0.005737, -0.004195, -0.0, -0.01024, 0.000601, 6e-06, -0.008824, -0.004989, 3.7e-05, 0.003635, 0.006563, 0.0, 0.002389, -0.001223, 0.0, 0.00527, 0.003581, 1e-06]",1.88,133.1
formaldehyde,-114.42925423,12,0.8747344,"[-18.77348616, -9.98389667, -0.98015769, -0.57786528, -0.44755266, -0.40438547, -0.37152218, -0.23020509]","[7e-06, 1e-05, -0.005068, 6e-06, 5e-06, 0.00081, 0.0, -0.003042, 0.002245, 0.0, 0.003042, 0.002244]",0.64,30.8
sulfur_diatomic,-796.08926671,11,6.098565e-07,"[-88.09336416, -88.09336208, -7.72273435, -7.72257212, -5.74149492, -5.74068253, -5.74057672, -5.74057657, -5.74051056, -5.7405104, -0.77155764, -0.57270041, -0.36795549, -0.33968789, -0.33968786, -0.21254889, -0.21254885]","[3.8e-05, 1.2e-05, 0.00753, 2e-06, -1.6e-05, -0.00753]",1.53,430.7
acetaldehyde,-153.71969699,12,1.106461,"[-18.75558734, -9.97912637, -9.89967719, -0.95936897, -0.69093415, -0.52870988, -0.4320008, -0.40686995, -0.39019502, -0.35673355, -0.33220226, -0.21924455]","[-0.009117, -0.008047, -2e-06, 0.009674, 0.0121, 2e-06, 0.005484, 0.00213, -0.0, 0.001042, -0.00612, -0.0, -0.001072, 0.003565, -0.0, -0.002088, -0.002064, -0.002563, -0.002088, -0.002064, 0.002563]",1.07,54.5
boron_monosulfide,-422.79484543,15,0.2672136,"[-88.05353805, -7.68569437, -6.6101577, -5.70407852, -5.70198368, -5.70198367, -0.67677434, -0.392673, -0.28180305, -0.28180304, -0.2690534]","[0.0, 0.0, -0.015636, 2.8e-05, -1.2e-05, -0.015792]",0.56,124.7
beryllium_monofluoride,-114.54093892,11,0.4320285,"[-24.23753972, -3.89104618, -1.06587495, -0.41304579, -0.36987723, -0.36987723, -0.19747094]","[-1e-06, -2e-06, -0.001962, -1.7e-05, -4.1e-05, -0.011813]",0.49,44.4
phosphorus_tribromide,-8062.80707334,25,0.12014,"[-480.95275044, -480.95273662, -480.95270829, -76.41317708, -61.78215847, -61.78214918, -61.78214436, -55.69046302, -55.69044561, -55.69043843, -55.68749763, -55.68746805, -55.68743989, -55.68740496, -55.68738425, -55.68737628, -8.42651049, -8.42650263, -8.42650185, -6.41118515, -6.30117517, -6.30116661, -6.30116551, -6.2924057, -6.29239846, -6.2923984, -6.29218183, -6.29217396, -6.29217323, -4.62832089, -4.62832045, -4.62407398, -2.50309277, -2.50308162, -2.50307742, -2.50078351, -2.50077682, -2.50076772, -2.50061167, -2.50060225, -2.50059814, -2.49404847, -2.49404569, -2.49404146, -2.49403965, -2.49403871, -2.49403736, -0.7804883, -0.7270581, -0.72705376, -0.55149052, -0.39289957, -0.39289707, -0.35183034, -0.30411063, -0.30410902, -0.27591883, -0.27591582, -0.26636264, -0.25075835]","[-0.00822, -9.3e-05, 2.2e-05, 0.000571, -0.008029, 3.6e-05, 0.002943, 0.003383, 0.00732, 0.002794, 0.003342, -0.007539]",2.15,1211.3
sulfur_dioxide,-548.43159234,14,0.5839243,"[-88.20542404, -18.81120908, -18.81120836, -7.81906245, -5.84112047, -5.83781361, -5.83420773, -1.06346377, -0.97392257, -0.57853449, -0.45609441, -0.44613656, -0.44569071, -0.34776632, -0.32314584, -0.29661536]","[-7e-06, -8e-06, 0.018488, 4e-06, -0.022343, -0.012339, -2e-06, 0.022343, -0.012339]",1.69,277.3
methanethiol_radical,-437.87169455,16,0.6921753,"[-88.05605132, -9.92018458, -7.68545396, -5.71190863, -5.7039777, -5.69430424, -0.71783242, -0.57236439, -0.40223151, -0.39531526, -0.33910581, -0.24792605, -0.21060239]","[0.00925, -0.000799, 0.005956, -0.003074, 0.000547, 0.002812, -0.007434, 0.000274, -0.000401, 0.000529, -0.003904, -0.003733, 0.000508, 0.004189, -0.003627]",0.83,172.0
hydroxyl_radical,-75.69002531,10,0.6236742,"[-18.83348513, -0.93726372, -0.43370665, -0.36459473, -0.2983921]","[0.0, 0.0, 0.0153, 0.0, 0.0, -0.013995]",0.32,26.7
lithium_monosulfide,-405.53266696,11,2.664685,"[-87.98563644, -7.61543469, -5.64395855, -5.62835632, -5.62778195, -1.89354646, -0.55592569, -0.21694016, -0.20107236, -0.17865464]","[-0.0, 0.0, 0.001179, 1.4e-05, 9e-06, -0.003047]",0.54,96.0
phosphorus_dioxide,-491.60562634,23,0.4968138,"[-76.40494492, -18.80884068, -18.80884057, -6.40855986, -4.62742898, -4.62457355, -4.62089212, -0.99113346, -0.94595742, -0.51481886, -0.418675, -0.40512554, -0.40422892, -0.33894368, -0.32990237, -0.27107639]","[3e-06, 0.0, 0.019986, 2e-06, -0.022237, 0.013607, -3e-06, 0.022236, 0.013609]",0.83,273.7
formaldoxime_zwitterion,-169.7055213,12,1.299086,"[-18.74467888, -14.131771, -9.93223261, -1.02912529, -0.79064091, -0.60437639, -0.49964359, -0.44051674, -0.41177369, -0.38156173, -0.22088807, -0.21423553]","[-0.000248, -0.0009, -0.000571, 0.000994, 0.000398, -3.2e-05, -0.000152, 2.7e-05, -1e-06, -0.000156, 0.00043, -0.000273, 0.000195, -0.000722, 0.000225, -0.000537, 0.000268, 0.001113]",0.94,54.4
tetrafluoroethylene,-475.30726118,12,1.274602e-06,"[-24.31808938, -24.31808715, -24.31808428, -24.31807867, -10.06485628, -10.06403239, -1.21731, -1.2037608, -1.16115758, -1.15026809, -0.74520688, -0.61062329, -0.57010911, -0.56562232, -0.52303326, -0.50663752, -0.46279307, -0.43511651, -0.41302867, -0.4070301, -0.4040545, -0.40365324, -0.38369316, -0.23120388]","[3e-06, -1e-06, -0.020168, -1e-06, -0.0, 0.020169, -4e-06, -0.008725, -0.003226, -7e-06, 0.008726, -0.003227, 8e-06, 0.008725, 0.003226, -5e-06, -0.008725, 0.003226]",2.97,363.3
boron_dioxide,-175.20209423,11,1.679343e-06,"[-18.83415185, -18.83415153, -6.58709155, -0.96556346, -0.96460787, -0.4391978, -0.42170571, -0.42166588, -0.39344041, -0.3600387, -0.32524148]","[1e-06, -2e-06, 0.0, -3e-06, -2.9e-05, -0.010312, 4e-06, 1.8e-05, 0.010306]",0.63,72.6
cyano_radical,-92.64938379,14,0.4485865,"[-14.05421641, -10.00550389, -0.87771513, -0.44754211, -0.35544028, -0.35544028, -0.35499129]","[5e-06, -1e-06, -0.031878, 9e-06, -6e-06, 0.001364]",0.42,52.8
boron_nitride,-79.34349271,13,0.7213538,"[-14.04667449, -6.60683755, -0.77538811, -0.36593822, -0.3339351, -0.29451945, -0.28344937]","[1e-06, 1e-06, -0.014105, -7e-06, -2e-06, -0.016615]",0.4,46.2
acetyl_chloride,-613.19116402,13,1.069206,"[-100.66724808, -18.78493312, -10.03632436, -9.92532667, -9.18329295, -7.0052515, -6.99775059, -6.99603287, -1.009803, -0.78322653, -0.69632723, -0.51354861, -0.44747274, -0.43567711, -0.42770171, -0.37590298, -0.36524955, -0.29387257, -0.28717313, -0.26152727]","[0.004596, 0.009339, 0.0, 0.007585, 0.001592, 1e-06, 0.004493, -0.008512, 2e-06, -0.008362, 0.002727, 1.7e-05, -0.005886, -0.001331, 0.0, -0.001743, -0.002021, 0.004989, -0.001743, -0.002021, -0.004989]",1.26,134.3
magnesium_diatomic,-399.91455511,8,1.69557e-05,"[-46.20201474, -46.20201246, -2.92457578, -2.92457501, -1.71579436, -1.71579429, -1.71579168, -1.71579162, -1.71532802, -1.71530479, -0.19263235, -0.15771241]","[-9.8e-05, 5.7e-05, -0.000792, -3.3e-05, 3.6e-05, 0.000794]",0.63,31.8
methyl_chloride,-499.91018144,14,0.7145595,"[-100.65496672, -9.9461714, -9.17018677, -6.99378576, -6.98301871, -6.9830186, -0.77932769, -0.61115294, -0.39723939, -0.3972344, -0.38257728, -0.26119842, -0.26119747]","[0.019657, 0.000167, 8e-06, -0.002336, -2e-06, 0.000119, -0.007228, -0.008929, 5e-06, -0.007224, 0.004453, 0.007716, -0.007142, 0.004481, -0.007756]",0.84,77.4
dimethyl_ether,-154.90286014,14,0.4548478,"[-18.75488023, -9.92288599, -9.922885, -0.95042257, -0.65590115, -0.57574606, -0.4302341, -0.42476301, -0.4243978, -0.35277521, -0.33720322, -0.27754519, -0.2146771]","[0.000154, -1e-06, -0.016657, 0.000138, -0.004865, -0.001352, 0.000139, 0.004866, -0.001353, 0.0, -0.001614, -0.002068, 0.0, 0.001614, -0.002068, 0.003969, 0.003741, 0.005664, -0.003977, 0.003728, 0.005654, -0.003977, -0.003728, 0.005654, 0.003969, -0.003741, 0.005664]",1.28,66.9
methyl_ketene,-191.77614547,15,0.7091649,"[-18.80705314, -9.98983419, -9.89913978, -9.89691028, -1.02043813, -0.73042159, -0.62264745, -0.47704391, -0.44388922, -0.41204772, -0.40215783, -0.37154738, -0.36091841, -0.34319777, -0.19873553]","[0.011049, -0.004799, -2.1e-05, -0.005061, 0.004498, -7e-06, -0.004317, -0.001113, 8e-06, -0.011427, 0.003449, 2e-05, 0.001082, -0.00673, 5e-06, -0.000841, 0.005119, 2e-06, 0.004098, -0.000673, 0.004896, 0.004092, -0.000672, -0.0049]",1.31,100.9
tetrafluorosilane,-688.85137917,11,7.241529e-06,"[-65.51736867, -24.29211582, -24.292114, -24.29210855, -24.29210369, -5.16250382, -3.57311403, -3.57311378, -3.5731137, -1.16562038, -1.12988793, -1.12988614, -1.12988346, -0.55531341, -0.48916995, -0.48916897, -0.48916748, -0.43640767, -0.43640735, -0.42916065, -0.42916053, -0.42916043, -0.39226628, -0.39226482, -0.39226411]","[-1.4e-05, 6e-06, -1e-05, -0.004001, 0.015066, -0.011077, 0.004022, -0.015068, -0.011077, 0.015059, 0.00405, 0.011085, -0.015075, -0.003991, 0.011082]",2.76,424.4
silicon_monosulfide,-687.42476884,11,0.6001364,"[-88.03885026, -65.44277412, -7.67014806, -5.68770147, -5.68770143, -5.68628082, -5.09242137, -3.50494742, -3.5049473, -3.49784044, -0.64966643, -0.39881724, -0.26520726, -0.26520725, -0.25516292]","[1.9e-05, 1.1e-05, 0.015589, 3e-06, 2.7e-05, -0.011671]",1.51,213.6
sulfur_monochloride,-858.05085383,13,0.08095022,"[-100.71469472, -88.10243564, -9.22845306, -7.72918207, -7.05106382, -7.04518258, -7.03954578, -5.75261502, -5.75240814, -5.73686926, -0.83175095, -0.62757117, -0.40540642, -0.3694457, -0.35132857, -0.25302627, -0.22273895]","[1e-06, 2e-06, -0.000704, -1.9e-05, 1.1e-05, 0.003161]",1.48,484.6
neon_dimer,-257.73304732,9,2.105775e-06,"[-30.48953187, -30.48952736, -1.3336005, -1.33300663, -0.49444248, -0.49121129, -0.49121119, -0.49003066, -0.49003056, -0.48687037]","[-3.7e-05, -4.1e-05, 0.00056, 3.6e-05, -2.4e-05, -0.000558]",0.54,26.0
formaldoxime,-169.71283062,11,0.1076902,"[-18.79947651, -14.04805144, -9.91840002, -1.00463243, -0.79310752, -0.55822682, -0.48654079, -0.41970916, -0.37885716, -0.3717559, -0.24987914, -0.24003659]","[-0.002072, 0.00882, 4e-06, -0.003291, -0.003536, 1e-06, 0.010691, -0.006919, -1.4e-05, 0.002306, -0.00678, 0.0, 0.002846, -0.000728, -0.0, -0.010798, 0.010211, 0.0]",1.01,50.5
lithium_chloride,-467.61249731,11,2.692654,"[-100.56285049, -9.07946185, -6.89618181, -6.89560306, -6.89560263, -1.89705489, -0.64345338, -0.2373836, -0.21598109, -0.21598106]","[-0.0, -0.0, 0.000722, -2.2e-05, -3e-06, 0.005255]",0.5,52.9
isopropyl_radical,-118.35360738,23,0.126042,"[-9.89424037, -9.87622069, -9.87620961, -0.71101603, -0.62563305, -0.51200488, -0.40682874, -0.38421316, -0.36551112, -0.34365968, -0.31363841, -0.30711699, -0.14863567]","[-0.014452, -0.008766, 3e-06, 0.003377, 0.005092, 0.005422, 0.003378, 0.005081, -0.005431, -0.000169, 0.005218, 1e-06, 9.7e-05, 0.001595, -0.003147, 9.8e-05, 0.001598, 0.003151, -0.004401, -0.002352, -0.001519, 0.001598, -0.003985, -0.000562, 0.0016, -0.003991, 0.000565, -0.004404, -0.002354, 0.001519]",1.21,257.9
cyanogen,-185.52700391,12,1.828922e-07,"[-14.05379249, -14.05379126, -9.99539341, -9.99496272, -0.90381753, -0.8866092, -0.68839698, -0.41686777, -0.41686776, -0.38130849, -0.36961515, -0.34529591, -0.34529591]","[-0.0, 0.0, 0.043623, -0.0, 0.0, -0.043623, 1e-06, 1e-06, -0.034335, 1e-06, 1e-06, 0.034336]",0.84,66.8
boron_monohydride,-25.24152027,9,0.6049652,"[-6.60693882, -0.43875886, -0.20329604]","[-0.0, -0.0, 0.006548, 0.0, 0.0, -0.006526]",0.27,10.1
thiirane,-476.57083795,13,0.7236873,"[-88.03635315, -9.92770814, -9.927522, -7.66535106, -5.68723288, -5.68442568, -5.67594407, -0.79388523, -0.5627593, -0.55978585, -0.44836572, -0.41010675, -0.34552494, -0.29479973, -0.28678336, -0.19696983]","[5.1e-05, -0.000325, -0.009431, 8e-06, -0.002663, -0.002222, 4.8e-05, 0.002583, -0.002183, -0.003413, 0.002825, 0.001779, 0.003407, 0.002812, 0.001741, 0.003391, -0.002809, 0.001752, -0.003394, -0.002807, 0.001758]",2.18,258.0
sodium_chloride,-622.29774721,11,3.340405,"[-100.54410464, -37.94428086, -9.06016829, -6.87752855, -6.87608223, -6.87608222, -2.10002683, -1.07668294, -1.07668293, -1.0746217, -0.62029171, -0.21186995, -0.19449224, -0.19449223]","[0.0, 3.3e-05, 0.001974, -4e-06, 2.9e-05, 0.003147]",1.29,174.5
magnesium_sulfide,-597.99688123,13,2.855319,"[-87.97982214, -46.25537496, -7.60827372, -5.63072614, -5.62306163, -5.62306145, -2.98062993, -1.77131295, -1.77115485, -1.77115473, -0.54569392, -0.24152162, -0.17911484, -0.17911482]","[2e-06, 9e-06, 0.000332, 6e-06, 4.2e-05, -0.004719]",0.63,76.5
methyl_silane,-331.02447562,10,0.323245,"[-65.38000365, -9.87556605, -5.03634736, -3.44601551, -3.44601528, -3.44552314, -0.63718051, -0.46724842, -0.36990187, -0.36989201, -0.29462202, -0.29461566, -0.29077217]","[0.002272, 1.7e-05, 0.0, -0.002354, -0.00222, 1.5e-05, 0.000749, 0.001389, 0.0, 0.000733, -0.000684, 0.00118, 0.000733, -0.000684, -0.00118, -0.001949, -0.0039, 0.0, -0.001955, 0.001968, 0.003386, -0.001955, 0.001968, -0.003386]",1.24,52.4
aluminum_trichloride,-1622.64846,11,0.0001067089,"[-100.66983527, -100.66982283, -100.66976884, -55.44846009, -9.18698973, -9.18698762, -9.18698599, -7.00595291, -7.00594362, -7.00594171, -7.00238375, -7.00237962, -7.00237779, -7.00142471, -7.00142336, -7.0014211, -4.00519348, -2.61118049, -2.6051265, -2.60512579, -0.77257165, -0.75666195, -0.75665895, -0.4252537, -0.36578755, -0.36578342, -0.33355359, -0.31672791, -0.31672643, -0.31175352, -0.3117519, -0.29426338]","[-2e-06, 2.9e-05, -0.000238, -6e-06, 1.9e-05, -0.005788, 4e-06, -0.005805, 0.00411, -3e-06, 0.005841, 0.004108]",1.43,213.6
methanethiol,-438.51280691,14,0.618349,"[-88.03623172, -9.91832039, -7.66680117, -5.6886918, -5.68475225, -5.67791413, -0.7123045, -0.58396591, -0.40583994, -0.38607852, -0.36171434, -0.29184613, -0.20429884]","[0.0002, -0.008905, -0.000654, 0.000456, 0.024171, 0.008203, -2.5e-05, -0.013371, -0.002083, -0.003283, 0.003546, -0.003652, 8.4e-05, -0.006461, 0.004755, 0.002944, 0.003174, -0.003898]",0.98,89.9
hypochlorous_acid,-535.76962248,13,0.5895087,"[-100.70496317, -18.82525229, -9.21659904, -7.04485516, -7.02782461, -7.02742947, -0.99340688, -0.73339369, -0.49224243, -0.40865808, -0.36560603, -0.28064142, -0.24380651]","[-0.004068, 0.011447, 3e-06, -0.004109, -0.010021, 0.0, 0.009302, 0.001838, -0.000129]",0.74,72.9
lithium_hydride,-8.04734927,10,2.210462,"[-1.86853214, -0.16031717]","[0.0, 0.0, 0.00092, -0.0, -0.0, -0.000935]",0.24,8.4
monosulfur_monofluoride,-497.78088799,17,0.2114367,"[-88.1299142, -24.31539547, -7.75422528, -5.77917888, -5.77814124, -5.76049169, -1.15538873, -0.66763094, -0.46637109, -0.44761652, -0.43128214, -0.26697023, -0.22974011]","[-1.2e-05, 5e-06, 0.009805, -2e-06, 1.2e-05, -0.011573]",0.62,172.5
ammonia,-56.51727225,10,0.5804209,"[-13.96349944, -0.77903906, -0.41567354, -0.41565627, -0.22722293]","[0.00619, -4.7e-05, -0.0, -0.00244, 0.006474, 0.0, -0.002424, -0.003222, -0.00558, -0.002424, -0.003222, 0.00558]",0.49,17.1
boron_monofluoride,-124.58627265,11,0.4124808,"[-24.34627703, -6.61530547, -1.19819158, -0.55898953, -0.4741246, -0.4741246, -0.24961233]","[-0.0, -0.0, 0.004867, -0.0, 0.0, -0.004657]",0.46,30.0
carbon_tetrafluoride,-437.30413672,11,5.743352e-06,"[-24.31919836, -24.319195, -24.3191941, -24.31919136, -10.21129365, -1.28479407, -1.16983708, -1.16983607, -1.1698355, -0.67118811, -0.58850042, -0.58849991, -0.58849956, -0.45102915, -0.45102888, -0.4298381, -0.42983807, -0.42983779, -0.38204874, -0.38204851, -0.38204794]","[2e-06, -5e-06, -2e-06, -0.001597, 0.017502, -0.012929, 0.001561, -0.017515, -0.012925, 0.017556, 0.001558, 0.012876, -0.017526, -0.001574, 0.012926]",1.37,147.1
silicon_diatomic,-578.59754637,11,4.303143e-06,"[-65.4236671, -65.42365974, -5.0745576, -5.07441753, -3.4883749, -3.4883749, -3.48829235, -3.48829234, -3.4786027, -3.47765272, -0.48777055, -0.34102401, -0.21503722, -0.21503722, -0.19298822]","[-7e-06, 1.7e-05, 0.017958, -1.8e-05, 1.4e-05, -0.017956]",1.36,351.3
acetylene,-77.25888173,11,3.18891e-05,"[-9.89514245, -9.89296266, -0.68361732, -0.51658148, -0.44843612, -0.26454055, -0.26454055]","[0.0, -0.0, -0.002455, -0.0, 0.0, 0.00206, 0.0, -0.0, -0.005256, 0.0, 0.0, 0.005256]",0.56,30.2
phosphorus_trichloride,-1721.43289895,12,0.1795321,"[-100.68562033, -100.68559485, -100.68557767, -76.42056695, -9.20191032, -9.20190878, -9.20189544, -7.02334557, -7.02334293, -7.02333041, -7.01590212, -7.01590095, -7.01588677, -7.01558294, -7.01558178, -7.01556723, -6.41728777, -4.63474976, -4.63474897, -4.62968104, -0.83424235, -0.77317648, -0.77317402, -0.56048593, -0.42142173, -0.42142104, -0.37903745, -0.33392868, -0.33392515, -0.3021405, -0.30213888, -0.29154955, -0.26030092]","[0.006996, -0.000246, 1.6e-05, -0.004248, -0.01036, 1e-06, -0.004425, 0.005004, -0.009357, -0.004414, 0.004931, 0.009454]",3.05,526.9
magnesium_monochloride,-660.05395429,11,1.282054,"[-100.60978697, -46.24281, -9.12673085, -6.94498926, -6.94216207, -6.94216207, -2.96967353, -1.76190338, -1.76190338, -1.75816406, -0.69377072, -0.30397607, -0.25985984, -0.25985984, -0.18072749]","[-2.5e-05, -1e-05, -0.010825, -2e-05, 1.1e-05, -0.005849]",0.66,144.3
carbon_disulfide,-834.18493067,11,8.235854e-07,"[-88.0749533, -88.07495044, -10.00033517, -7.70575459, -7.70575212, -5.72535115, -5.72534883, -5.72157018, -5.72157018, -5.72156918, -5.72156917, -0.78506807, -0.70442897, -0.4636851, -0.39039159, -0.353488, -0.353488, -0.25011032, -0.25011031]","[-1e-06, 3e-06, 0.0, 3e-05, -9.9e-05, -0.008979, -5.3e-05, -8.1e-05, 0.008985]",0.9,103.2
magnesium_monofluoride,-299.80623002,13,1.219317,"[-46.22141498, -24.1550089, -2.95016967, -1.74292494, -1.7429249, -1.73814975, -0.96662451, -0.31253614, -0.28450759, -0.28450759, -0.17956931]","[1.1e-05, 4e-06, -0.005462, -0.0, 3e-06, -0.012431]",0.56,102.8
methyl_radical,-39.79265379,10,1.70156e-05,"[-9.90307481, -0.6235132, -0.38053053, -0.38052798, -0.19719078]","[-0.0, -2.9e-05, -8.4e-05, -0.0, 1e-06, -0.005837, -0.0, 0.005098, 0.002936, -0.0, -0.005107, 0.002941]",0.48,28.4
ethylene,-78.50867028,10,0.0002391464,"[-9.88734543, -9.88668694, -0.68977673, -0.52318933, -0.42273239, -0.37234637, -0.31510526, -0.24774414]","[-0.0, -0.0, 0.010176, -0.0, -0.0, -0.010261, -0.0, -0.001942, -0.002489, -0.0, 0.001942, -0.002489, -0.0, -0.001967, 0.002485, -0.0, 0.001967, 0.002485]",0.73,29.2
trifluoroacetate_anion,-526.03358543,22,1.858555,"[-24.12028862, -24.12028415, -24.11912632, -18.52543499, -18.52416729, -9.94036595, -9.7963547, -1.04145218, -0.95540668, -0.95514528, -0.76743742, -0.69071214, -0.48258536, -0.37987688, -0.3667796, -0.36412345, -0.24584391, -0.24557318, -0.24012139, -0.2123004, -0.20521523, -0.18945929, -0.18591814, -0.18073589, -0.16978401, -0.04797915, -0.03067451, -0.02589494]","[-0.007251, 0.000265, 1e-06, -0.004052, -0.000413, -2e-06, 0.006682, -0.014134, 7e-06, 0.005677, 0.006938, -0.012086, 0.005676, 0.006938, 0.012086, -0.003821, -0.004404, -2e-06, -0.003737, 0.004883, -1e-06]",3.36,690.4
bromoform,-7760.16685572,19,0.3283598,"[-480.95298174, -480.95297595, -480.95292847, -61.78219272, -61.78218262, -61.78217831, -55.69133283, -55.69129988, -55.69129035, -55.68712468, -55.68709897, -55.68709757, -55.68706615, -55.68705908, -55.68704062, -10.05096264, -8.42661367, -8.42659682, -8.42659602, -6.30352272, -6.3035058, -6.30350492, -6.29128447, -6.29126722, -6.29126636, -6.29121113, -6.29119501, -6.29119418, -2.50480065, -2.5047645, -2.50475482, -2.50165075, -2.5016375, -2.50160733, -2.50158857, -2.50156947, -2.50156251, -2.4924481, -2.4924475, -2.49243279, -2.4924319, -2.49242924, -2.49242833, -0.81755167, -0.72816137, -0.72815151, -0.58434385, -0.44040979, -0.40969744, -0.40969049, -0.2940461, -0.29404372, -0.27097917, -0.26952953, -0.26952094, -0.25232491]","[-0.017522, 9e-05, -5e-06, 0.012551, 2e-06, 0.0, 0.002314, 0.009766, -7.9e-05, 0.001324, -0.001799, 0.008335, 0.001354, -0.00188, -0.008132]",2.56,749.0
nitrogen_trifluoride,-353.9543785,14,0.04368759,"[-24.33339148, -24.33334408, -24.33334373, -14.27082041, -1.28390207, -1.15527534, -1.15524704, -0.76002251, -0.58859784, -0.58858447, -0.52721529, -0.43953893, -0.43953563, -0.39615647, -0.3961395, -0.37918173, -0.30962636]","[0.028738, 5.8e-05, 3e-06, -0.010065, -0.021413, 7e-05, -0.009924, 0.010783, -0.018274, -0.009941, 0.010754, 0.018272]",0.96,113.5
phosphorus_tetramer,-1364.9561736,12,0.0001470445,"[-76.32422283, -76.32421714, -76.32420533, -76.32418511, -6.32990332, -6.32980199, -6.32979975, -6.3297973, -4.54596639, -4.54551852, -4.54551579, -4.5455124, -4.54487001, -4.54486923, -4.54481276, -4.54481248, -4.54481085, -4.5446879, -4.54468524, -4.54468477, -0.73707483, -0.49146671, -0.49146613, -0.49146015, -0.31988941, -0.27206332, -0.27205937, -0.27205537, -0.24281121, -0.24280882]","[0.001141, -0.00087, -3.3e-05, -0.000685, -0.000582, -0.000139, -0.000367, 0.001577, 0.001904, -0.000297, 0.001654, -0.001875]",2.71,457.2
phosphorus_monochloride,-801.22738427,12,0.1266926,"[-100.69038842, -76.35150556, -9.2059381, -7.0261464, -7.02081134, -7.0208112, -6.3581012, -4.57457078, -4.5745704, -4.57417519, -0.79692831, -0.54570908, -0.36111056, -0.34201427, -0.34201427, -0.20704435, -0.20704432]","[-1e-05, -4e-06, 0.003586, -2.4e-05, 2e-05, -0.00045]",0.67,165.4
mercapto_radical,-398.59296573,11,0.2915992,"[-88.07682625, -7.70688758, -5.73417336, -5.72456229, -5.71570314, -0.67432526, -0.3769183, -0.28642977, -0.24352241]","[-4e-06, -5e-06, 0.013036, -0.0, 0.0, -0.007911]",0.48,82.9
pentane,-197.56177843,11,0.03834801,"[-9.87449582, -9.87449128, -9.87232415, -9.86680681, -9.86680518, -0.72975391, -0.68073595, -0.60915676, -0.53658711, -0.51575538, -0.42729047, -0.39198607, -0.38502855, -0.36059619, -0.34855713, -0.33172117, -0.310721, -0.29131308, -0.28608037, -0.27820593, -0.27583554]","[0.0, -1e-06, 0.005804, 0.0, 0.001101, -0.005086, 0.0, -0.001101, -0.005086, -0.0, -0.002825, 0.003124, -0.0, 0.002825, 0.003124, 0.004501, -0.0, -0.003951, -0.004501, -0.0, -0.003951, 0.004658, 0.000152, 0.00408, -0.004658, 0.000152, 0.00408, -0.004658, -0.000152, 0.00408, 0.004658, -0.000152, 0.00408, -0.0, 0.005346, 0.003098, -0.0, -0.005346, 0.003097, -0.004824, 0.000773, -0.003857, 0.004824, 0.000773, -0.003857, 0.004824, -0.000773, -0.003857, -0.004824, -0.000773, -0.003857]",2.15,152.3
isopropyl_alcohol,-194.20132144,11,0.615314,"[-18.74795507, -9.93511683, -9.87594712, -9.87016802, -0.93243437, -0.70295636, -0.62585774, -0.52793143, -0.46418241, -0.4075959, -0.38957312, -0.34758263, -0.3384631, -0.32480449, -0.31302237, -0.28447124, -0.22849836]","[-0.002754, -0.006534, 0.004392, 0.001537, 0.001396, -0.000958, -0.001099, 0.000805, 0.000375, -0.000738, -0.000381, -0.000101, 0.001622, -0.00018, -0.002258, -0.003678, -0.000646, -5.2e-05, 0.003709, 0.000658, -0.000812, 0.003676, 0.000879, 0.000655, -0.000896, -0.001345, -0.003128, -0.000875, -0.000942, 0.002959, -0.000828, 0.002715, -0.000786, -0.001104, 0.0031, 0.000169]",1.58,87.6
glyoxal_trans,-227.68448814,13,2.975167e-07,"[-18.79880461, -18.79880227, -10.00572692, -10.00560041, -1.00847896, -0.99583685, -0.65188773, -0.54431153, -0.44844139, -0.44522255, -0.41915471, -0.41366708, -0.37211481, -0.28987697, -0.2345321]","[0.002694, 0.004432, 1e-06, -0.002694, -0.004432, -1e-06, -0.007113, -0.006169, 0.0, 0.007113, 0.006169, -0.0, 0.001877, 0.006047, -1e-06, -0.001877, -0.006046, -5e-06]",1.05,89.3
ethanol,-154.92005854,11,0.6208558,"[-18.74746848, -9.92460906, -9.87315897, -0.93171456, -0.68159033, -0.54825668, -0.46505983, -0.4207811, -0.35944161, -0.34120398, -0.32381831, -0.29165052, -0.22631872]","[-0.009373, -0.011768, -1.9e-05, -0.005503, 0.010414, -4.8e-05, -0.008923, 0.001371, -0.000103, -0.001174, 0.005144, -2e-06, 0.003952, 0.005629, 5e-06, 0.00568, 0.00337, -0.004531, 0.005658, 0.003348, 0.004514, 0.004137, -0.009257, -0.008378, 0.004142, -0.009257, 0.008372]",1.17,59.6
nitrogen_monofluoride,-154.36598493,23,0.1226595,"[-24.35744095, -14.13311859, -1.22479302, -0.7354914, -0.48444504, -0.48444503, -0.47414056, -0.25405986, -0.25405985]","[-5e-06, -5e-06, 0.011166, -1e-06, 1e-06, -0.010805]",0.46,111.9
vinyl_chloride,-537.96102519,13,0.5176675,"[-100.66856249, -9.95120833, -9.89706172, -9.18397866, -7.00688779, -6.99757426, -6.99668252, -0.8041839, -0.68275861, -0.53054284, -0.44492376, -0.40609832, -0.34817291, -0.33325841, -0.27733948, -0.23598222]","[0.005524, 0.001553, -3e-06, -0.007939, -0.005905, -2e-06, -0.003349, -0.00246, 2.1e-05, -0.001289, 0.000713, -0.0, 0.001214, 0.006562, -0.0, 0.006442, -0.002074, -0.0]",2.31,258.2
ammonia_oxide,-131.61139091,12,1.989331,"[-18.67792964, -14.12622127, -0.97208017, -0.73680007, -0.52175393, -0.52174846, -0.38201795, -0.17052124, -0.17051889]","[-0.018468, 3.3e-05, 0.0, 0.000324, -5.8e-05, -6e-06, 0.007087, 0.011106, -0.0, 0.007032, -0.005575, 0.009654, 0.007033, -0.005575, -0.009655]",0.77,37.3
methylenecyclopropane,-155.81814926,12,0.1694224,"[-9.90072982, -9.89697754, -9.89687171, -9.87984251, -0.79418474, -0.64571566, -0.55331754, -0.48057107, -0.43218398, -0.42166405, -0.38028059, -0.33064243, -0.27832714, -0.25688703, -0.22839166]","[-9e-06, 0.0, 0.005578, -6e-06, -0.0, -0.020079, -8.8e-05, -0.002663, -0.000119, -8.9e-05, 0.002663, -0.000118, 3e-06, -0.004449, 0.002023, 3e-06, 0.004449, 0.002023, -0.001634, 0.001307, 0.002876, 0.001624, 0.001324, 0.002847, 0.001624, -0.001324, 0.002847, -0.001634, -0.001307, 0.002876]",1.41,71.8
oxygen_monofluoride,-174.80585157,29,0.09240154,"[-24.37084138, -18.90854286, -1.2314082, -0.87099851, -0.53194708, -0.49708947, -0.46698406, -0.32944385, -0.2808546]","[0.0, 1e-06, 0.002825, -1.7e-05, -3e-06, -0.000718]",0.48,233.4
methylamine,-95.77668483,11,0.487746,"[-13.96471993, -9.89672229, -0.7982176, -0.59633821, -0.44179124, -0.39468353, -0.35901771, -0.32457243, -0.19759288]","[-0.001233, -0.004215, -0.0, 0.005896, 0.001861, 0.0, -0.004717, 0.002273, -0.0, 0.00244, 0.002009, -0.00396, 0.00244, 0.002009, 0.00396, -0.002831, -0.002009, 0.004328, -0.002831, -0.002009, -0.004328]",0.9,36.8
hydrogen_chloride,-460.6443669,11,0.4207957,"[-100.66998819, -9.18644113, -7.00923425, -6.99948241, -6.99948205, -0.77552165, -0.43287368, -0.29554906, -0.29554904]","[0.0, -0.0, 0.007432, 2.5e-05, -1.6e-05, -0.007749]",0.47,46.4
ethanethiol,-477.78857039,12,0.637053,"[-88.03337484, -9.91840099, -9.88651264, -7.66421279, -5.6859029, -5.68227198, -5.67542687, -0.73288971, -0.64094946, -0.54381885, -0.41805102, -0.41634782, -0.35183896, -0.326598, -0.32396001, -0.29299661, -0.20412589]","[0.004046, -0.005123, -0.0, -0.005452, 0.005239, -0.0, -0.003334, 0.015755, 3e-05, -0.002439, 0.000306, -0.0, -0.001072, 0.002203, -0.003076, -0.001072, 0.002203, 0.003076, 0.000304, -0.002878, -0.003458, 0.000304, -0.002878, 0.003458, 0.010522, -0.011808, 0.0]",1.38,112.4
acetamide,-209.07483342,12,1.468876,"[-18.7176051, -14.01301892, -9.98576644, -9.90184611, -0.94870724, -0.82576294, -0.66862237, -0.53319874, -0.48635928, -0.42001532, -0.4030681, -0.36000872, -0.35203537, -0.32843841, -0.24176811, -0.21282506]","[0.00151, 0.004064, -0.012524, -0.000652, 0.005971, 0.000263, -0.001707, 0.003808, 0.002142, 0.00021, -0.006844, 0.00344, -0.001557, 0.014024, 0.011989, -0.012231, -0.00774, 0.000195, 0.012612, -0.006866, 0.000609, 0.00069, 0.001552, -0.006986, 0.001474, -0.008164, 0.001692]",1.34,79.1
nitromethane,-244.88843652,13,1.349863,"[-18.7925087, -18.7914126, -14.21859879, -9.95168201, -1.14600246, -0.98194868, -0.75346588, -0.56845499, -0.50885475, -0.49240858, -0.47461324, -0.40787183, -0.39675591, -0.29215955, -0.27157786, -0.2539175]","[-0.001922, -0.005326, -1.7e-05, 0.002639, -0.000323, -0.000221, -0.002742, -0.001872, -3e-06, -0.002626, 0.003845, -0.001897, -0.002658, 0.003862, 0.001919, 0.003387, 0.011887, 5.6e-05, 0.005804, -0.012213, 0.000111]",1.28,80.4
hydrogen_sulfide,-399.24280821,11,0.3800357,"[-88.04777414, -7.67963534, -5.70095784, -5.69760415, -5.69101782, -0.6824834, -0.40784351, -0.33362442, -0.23173014]","[-3.3e-05, -1.2e-05, 0.018082, 0.0, -0.008306, -0.008403, 0.0, 0.008306, -0.008404]",0.51,45.4
monosodium_sulfide,-560.2217654,12,3.101097,"[-87.97748773, -37.93839387, -7.60671761, -5.63500601, -5.62071223, -5.61848806, -2.09367889, -1.07076361, -1.07003791, -1.06824974, -0.54299496, -0.20467364, -0.18603423, -0.1654439]","[1.3e-05, -9e-06, 0.000831, -1.1e-05, -5e-06, -0.005359]",0.63,136.2
silicon_nitride,-343.9607292,20,1.130973,"[-65.43926802, -14.01804484, -5.09195761, -3.50238022, -3.5020464, -3.50204622, -0.71830606, -0.39050431, -0.28025829, -0.2629651, -0.26296509]","[-1.1e-05, 1.5e-05, -0.0098, -1e-06, -0.0, 0.018667]",1.02,379.4
hydrogen_cyanide,-93.3547774,10,1.159845,"[-14.00991135, -9.94048974, -0.84491373, -0.5574359, -0.33585503, -0.33160083, -0.33160083]","[-0.0, 0.0, 0.002293, -0.0, 0.0, -0.008057, -0.0, 0.0, 0.001505]",0.52,23.2
carbonyl_sulfide,-511.33983882,12,0.3016419,"[-88.07786475, -18.8327379, -10.03427928, -7.70870835, -5.72991447, -5.72367815, -5.72367806, -1.04993114, -0.75436017, -0.49401126, -0.43052202, -0.43052201, -0.42801243, -0.27519268, -0.27519267]","[-1e-06, -0.0, 0.009884, 2e-06, -0.0, -0.01678, -2e-06, 1.2e-05, 0.011008]",0.82,84.2
chlorine_trifluoride,-759.26819418,15,0.2156433,"[-100.89065372, -24.34587046, -24.27526079, -24.27525781, -9.3839439, -7.20993608, -7.20825445, -7.18939364, -1.21778401, -1.10389341, -1.10285515, -0.81748732, -0.56747412, -0.56077899, -0.50174696, -0.44546316, -0.39843169, -0.3939738, -0.38231803, -0.36158711, -0.35164929, -0.29295369]","[1.2e-05, -0.0, -0.011869, -2e-06, 4e-06, 0.024062, 1e-06, -0.018682, -0.002281, -1.1e-05, 0.018682, -0.00228]",1.18,164.9
ethanol_radical,-154.24506008,14,0.8351083,"[-18.79279801, -9.94806087, -9.87803299, -0.93084592, -0.67743985, -0.56099928, -0.45266332, -0.41195263, -0.37029367, -0.34345727, -0.34220693, -0.28357432, -0.23306736]","[0.005804, -0.016854, 1e-06, 0.012558, 0.056898, -3e-06, -0.012497, -0.020233, -2e-06, -0.008412, -0.009006, -0.003512, -0.008412, -0.009006, 0.003512, 0.008598, -0.000411, -0.0, -1.2e-05, 0.00171, -0.002672, -1.2e-05, 0.00171, 0.002672]",1.12,129.9
phosphorus_trifluoride,-640.73707853,13,0.1248651,"[-76.42657887, -24.30411359, -24.30409505, -24.30409356, -6.42208848, -4.6403743, -4.64037428, -4.63281012, -1.20044719, -1.14781387, -1.14780606, -0.61692857, -0.51996065, -0.51995687, -0.48478371, -0.44851547, -0.44851199, -0.4102643, -0.41025941, -0.39414597, -0.26946819]","[-0.072292, -0.000644, 5e-06, 0.024857, -0.034997, 8e-06, 0.024616, 0.017505, 0.030382, 0.024615, 0.017504, -0.030381]",2.29,353.3
nitrogen_diatomic,-109.46023726,9,7.060513e-05,"[-14.08305506, -14.08172441, -1.03812006, -0.49589782, -0.4277523, -0.4277523, -0.37735967]","[-1e-05, -2e-05, 0.015469, -1.6e-05, -3.1e-05, -0.015378]",0.43,21.1
acetone,-193.00565426,12,1.191933,"[-18.7402662, -9.97628634, -9.89201078, -9.89200883, -0.94917034, -0.70407413, -0.64797939, -0.48152153, -0.41925903, -0.41418263, -0.40502198, -0.36462673, -0.35118926, -0.33778878, -0.31491824, -0.20875101]","[8e-06, 4e-06, 0.009559, -1e-06, 0.0, -0.009428, 2e-06, 0.000464, -0.003878, 2e-06, -0.000463, -0.003878, 0.0, -0.003035, -0.001216, 0.0, 0.003035, -0.001216, 0.002369, -8.7e-05, 0.002643, -0.002369, -8.7e-05, 0.002643, -0.002369, 8.7e-05, 0.002643, 0.002369, 8.7e-05, 0.002643]",1.43,79.7
glycine_zwitterion,-284.2248506,15,3.87584,"[-18.68832418, -18.67678012, -14.13338044, -9.95396546, -9.95163834, -0.95991443, -0.92225658, -0.85262278, -0.67794745, -0.57772851, -0.55795411, -0.47547512, -0.43983414, -0.40644142, -0.36686337, -0.33474395, -0.32367836, -0.20628937, -0.19609717, -0.18092196]","[-0.006353, -0.00376, -3e-06, -0.00041, 0.005089, 1e-06, -0.00331, 0.013648, 3e-06, 0.013468, -0.006107, -7e-06, 0.003616, -0.005875, 1e-06, -0.000294, -0.003266, -0.004659, -0.000294, -0.003266, 0.004659, 0.001621, 0.004181, -0.004689, 0.001621, 0.004181, 0.004689, -0.006893, -0.003553, 0.0]",1.69,125.6
hexane,-236.83568324,14,0.0002287563,"[-9.87444424, -9.87443844, -9.87243618, -9.8723051, -9.86667087, -9.86662093, -0.73406492, -0.69736957, -0.64070438, -0.57396, -0.52092342, -0.51622642, -0.43118583, -0.39876652, -0.3904739, -0.37601164, -0.35359127, -0.33827864, -0.33428023, -0.31022238, -0.29914944, -0.28501596, -0.2838607, -0.27757267, -0.26993317]","[-0.003124, 0.002893, -0.0, 0.002835, -0.002788, -4.4e-05, -0.000561, 0.005798, -0.0, 0.000519, -0.005484, -1e-05, -0.001555, 0.005685, -2.2e-05, 0.001442, -0.005157, -1e-06, -0.005082, -0.003454, -1e-06, 0.005087, 0.003444, -0.0, 0.00106, -0.003828, -0.004828, 0.00106, -0.003828, 0.004828, -0.001054, 0.003824, 0.00483, -0.001075, 0.003814, -0.004794, -0.000142, 0.004077, 0.004665, -0.000143, 0.004077, -0.004665, 0.00014, -0.004077, 0.004666, 0.000149, -0.00408, -0.004666, 0.000307, -0.003949, -0.004466, 0.000307, -0.003949, 0.004466, -0.000306, 0.003949, 0.004463, -0.000308, 0.003948, -0.004465]",2.75,223.2
pyridine,-248.07959086,11,0.8771344,"[-13.9862997, -9.92376717, -9.92376662, -9.91217558, -9.90292362, -9.90291337, -0.86290547, -0.73604024, -0.69495172, -0.57316727, -0.57184857, -0.48095566, -0.43543736, -0.42308889, -0.38515962, -0.36472252, -0.36136087, -0.323617, -0.26860537, -0.24672334, -0.21868243]","[1e-06, -1e-06, 0.003281, 0.0, -2.2e-05, -0.000804, -1e-06, 0.003842, -0.001987, -0.0, -0.003842, -0.001988, 1e-06, -4.4e-05, -7.9e-05, 1e-06, 0.000159, -3e-06, 0.0, 0.0, 0.002364, 0.0, -0.002858, -0.001382, 0.0, 0.002858, -0.001382, 0.0, 0.002389, 0.001249, 0.0, -0.002389, 0.001248]",3.49,345.3
silane,-291.734015,10,7.473332e-07,"[-65.38853175, -5.04584745, -3.45527951, -3.45527946, -3.4552793, -0.49476396, -0.31320296, -0.31320293, -0.31320289]","[4e-06, 1.2e-05, 2e-06, -0.001274, 0.003184, -0.002423, 0.001274, -0.003184, -0.002423, 0.003184, 0.001274, 0.002423, -0.003184, -0.001274, 0.002423]",1.47,130.2
isobutylene,-157.06903273,11,0.2384308,"[-9.8966076, -9.8784088, -9.8784064, -9.86596262, -0.7332371, -0.62733189, -0.61279938, -0.46966089, -0.40540448, -0.39722697, -0.38842134, -0.3437039, -0.32616276, -0.32138418, -0.29895398, -0.21796345]","[-1e-06, 0.0, 0.002923, 4e-06, 0.0, 0.00046, 0.0, -0.001874, -0.002884, -1e-06, 0.001874, -0.002885, 0.0, 0.003234, -0.001412, 0.0, -0.003234, -0.001412, -0.0, 0.002369, -0.001356, 0.002467, 0.000232, 0.002624, -0.002467, 0.000232, 0.002624, 0.0, -0.002369, -0.001356, -0.002467, -0.000232, 0.002624, 0.002467, -0.000232, 0.002624]",1.65,77.0
fluorine_diatomic,-199.43664626,12,2.620008e-07,"[-24.36338284, -24.36338242, -1.24726747, -1.01536865, -0.56711597, -0.4721122, -0.47211219, -0.34738241, -0.34738241]","[9e-06, 4e-06, 0.000319, 1.3e-05, -6e-06, -0.000319]",0.48,38.5
ethylamine,-135.05406721,12,0.5120872,"[-13.9648638, -9.90428242, -9.87333503, -0.80421442, -0.66028431, -0.5497466, -0.44836972, -0.3938443, -0.36700946, -0.36427684, -0.31924236, -0.29719913, -0.20150932]","[-0.001053, -0.001087, 0.0, -0.000608, 0.001203, -0.0, -0.000275, -0.000467, -0.0, 0.00305, -0.00188, 0.0, 0.000638, 0.00213, -0.002623, 0.000638, 0.00213, 0.002623, 0.000284, -0.002715, 0.00262, 0.000284, -0.002715, -0.00262, -0.00128, 0.001548, -0.001767, -0.00128, 0.001548, 0.001767]",1.31,83.4
aluminum_diatomic,-484.5319612,11,1.442088e-06,"[-55.38716459, -55.38714571, -3.94302778, -3.9429879, -2.54756932, -2.54753377, -2.54530211, -2.54526653, -2.5436192, -2.54319426, -0.34565107, -0.25246308, -0.143339, -0.14278415]","[5.7e-05, 7e-06, -0.003024, -1.6e-05, 1.3e-05, 0.003027]",0.61,121.3
methyl_nitrite,-244.88007955,14,0.923123,"[-18.8356053, -18.81981145, -14.15072413, -9.9508415, -1.11836374, -0.97561346, -0.70416106, -0.5732269, -0.50231776, -0.46870678, -0.45787196, -0.39849916, -0.3759516, -0.33552992, -0.29613322, -0.24244882]","[-0.002596, -0.002761, -0.000564, -0.009071, -0.003233, 0.000146, -0.000802, -0.017093, 3.8e-05, -0.00409, -0.000473, 3e-06, 0.000773, 0.002078, -0.002784, 0.000778, 0.002066, 0.002778, 0.012271, 0.028629, 2.2e-05]",1.28,81.7
isobutane,-158.28956677,12,0.05981918,"[-9.88650918, -9.86782179, -9.8678214, -9.86780797, -0.73022837, -0.6143673, -0.61436398, -0.50036302, -0.4155774, -0.38455052, -0.38454863, -0.3377296, -0.33772641, -0.31719002, -0.2871876, -0.28718623, -0.27998818]","[-0.001021, 4.9e-05, -0.0, 0.001311, 0.000327, 0.0, 0.001294, -0.000156, 0.000365, 0.001293, -0.000156, -0.000365, 0.003396, 1e-06, -0.0, -0.003386, -0.000757, -0.0, 0.000691, -0.001963, 0.002368, 0.000691, -0.001963, -0.002368, -0.003391, 0.000376, -0.000656, 0.000692, -0.001075, -0.002891, 0.000692, 0.003035, -0.000518, -0.003391, 0.000376, 0.000656, 0.000692, 0.003035, 0.000518, 0.000692, -0.001075, 0.002891]",1.75,121.0
boron_trifluoride,-324.40724989,11,1.650625e-05,"[-24.29320929, -24.29316436, -24.29315759, -6.65685097, -1.1752912, -1.1375623, -1.13754327, -0.54749652, -0.51345207, -0.51344298, -0.47869284, -0.41073039, -0.41072035, -0.40485847, -0.40483905, -0.36924604]","[0.0, -1e-06, 3.3e-05, -1.1e-05, 6e-06, -0.016073, -7e-06, -0.014073, 0.008001, 1e-05, 0.014072, 0.008003]",0.97,84.2
nitrosyl_chloride,-589.88402567,18,0.6856984,"[-100.66036565, -18.91815057, -14.19992546, -9.17523127, -6.99682273, -6.99064333, -6.98792437, -1.20745423, -0.7578317, -0.63995297, -0.51698154, -0.51411958, -0.48295135, -0.29115111, -0.2805934, -0.27300562]","[0.009171, 0.00056, 0.000137, 0.005458, -0.005925, 3e-06, -0.007932, 0.004184, -1e-06]",0.8,117.2
silicon_monophosphide,-630.49179095,13,0.5775151,"[-76.31629625, -65.45451504, -6.32272526, -5.1033766, -4.54233807, -4.53633197, -4.53633196, -3.51484805, -3.51332481, -3.51332481, -0.55657379, -0.3894992, -0.25477607, -0.22381101, -0.223811]","[1.9e-05, -2.4e-05, -0.057584, 9e-06, -1.3e-05, 0.04866]",1.31,410.7
pyrrole,-210.00268834,12,0.7294911,"[-14.03139238, -9.90110425, -9.90109551, -9.86710545, -9.86676421, -0.8968003, -0.7026187, -0.65112585, -0.53630188, -0.50881969, -0.4899654, -0.3833812, -0.37719949, -0.36498201, -0.3404535, -0.33125433, -0.21850475, -0.1886904]","[2e-06, -0.000171, 0.010371, -0.0, -1.3e-05, -0.013578, -3e-06, -0.000304, 0.002663, 1e-06, -0.000376, 0.002962, -2e-06, -0.001295, -0.004417, -6e-06, 0.001608, -0.004487, -0.0, -0.004895, -0.002677, -0.0, 0.004895, -0.002703, -1e-06, -0.003668, 0.004942, -0.0, 0.003634, 0.004923]",3.57,221.2
aluminum_monoxide,-317.46190269,17,1.675101,"[-55.39764037, -18.71689782, -3.95842524, -2.56155187, -2.56155178, -2.55821759, -0.80067218, -0.32675357, -0.24560692, -0.24560689, -0.24129363]","[2.5e-05, 1.6e-05, -0.018703, -2e-06, -2e-06, -0.004723]",0.54,129.6
trifluoromethane,-338.08914469,11,0.5211853,"[-24.29962126, -24.29957758, -24.29957639, -10.12812984, -1.22490088, -1.14173926, -1.14170915, -0.65877067, -0.55204771, -0.54664272, -0.54663009, -0.41976047, -0.41975646, -0.38825889, -0.38824235, -0.36470331, -0.34301951]","[0.032874, 7.1e-05, -1e-06, 0.003316, 3e-06, -0.0, -0.011412, -0.010876, 1.5e-05, -0.011228, 0.005528, -0.009353, -0.01123, 0.005526, 0.009354]",2.2,235.6
silicon_monofluoride,-389.14286001,12,0.267229,"[-65.45749673, -24.27202727, -5.10490723, -3.51957665, -3.51391326, -3.51336987, -1.10786845, -0.49262512, -0.40660353, -0.4040462, -0.32910698, -0.14408308]","[-7e-06, 1.6e-05, 0.014105, -5e-06, 1e-05, -0.016653]",1.27,309.2
ethyl_chloride,-539.18872319,12,0.8065325,"[-100.6464064, -9.94282161, -9.88927444, -9.16212835, -6.98524518, -6.97517816, -6.97510577, -0.78473103, -0.67624004, -0.56108184, -0.43099817, -0.41197309, -0.37000898, -0.33496148, -0.33440291, -0.25774313, -0.25600169]","[0.000527, 0.004643, -0.008487, 8.2e-05, -0.001033, -0.003351, -0.001193, 0.002791, 0.001984, -8e-06, -0.001668, 0.005759, 0.004016, 0.002838, 0.001077, -0.003997, 0.002888, 0.001042, 0.005071, -0.003748, -0.000807, -0.004718, -0.004219, 0.000377]",1.21,114.2
bicyclo[1.1.0]butane,-155.80713885,12,0.2896565,"[-9.89908996, -9.89888021, -9.89839265, -9.89835217, -0.84709577, -0.62149974, -0.51768676, -0.51638322, -0.46687123, -0.38303353, -0.38147706, -0.3287782, -0.28831547, -0.27992525, -0.2107058]","[-0.0, -0.00447, -0.001337, -0.0, 0.00447, -0.001338, -0.004619, -0.0, 0.000982, 0.00462, -0.0, 0.000982, -0.007486, -0.0, -0.002716, 0.007486, -0.0, -0.002716, -0.000474, -0.0, -0.004037, 0.000474, -0.0, -0.004037, 0.0, 0.005565, 0.007031, 0.0, -0.005565, 0.007031]",1.36,72.5
silyl_radical,-291.08819591,10,0.01891543,"[-65.40134199, -5.05880802, -3.47250086, -3.46673519, -3.46673491, -0.49304998, -0.32357275, -0.32357189, -0.19617655]","[0.023865, 0.000323, -3e-06, 0.00228, 0.009438, 0.0, 0.00228, -0.004719, 0.008174, 0.00228, -0.004719, -0.008174]",1.2,200.0
cyclopentane,-196.35915399,12,0.01114992,"[-9.87241792, -9.87230046, -9.87218084, -9.87213564, -9.87195139, -0.75783992, -0.63613547, -0.63573774, -0.50890424, -0.4995878, -0.42966402, -0.42834727, -0.36643954, -0.36492729, -0.29449682, -0.2938202, -0.29293298, -0.28923176, -0.28105722, -0.26993031]","[0.002798, -0.001119, -0.001338, 0.001802, 0.002315, -0.000294, 0.000231, 0.000736, 0.002971, -0.002197, -0.001982, 0.000821, -0.002871, 0.000297, -0.001753, -0.005478, -0.002564, 0.000563, 0.003101, -0.00529, -0.000439, 0.0044, -0.001619, -0.004015, -0.004691, -0.000557, -0.003969, 0.005609, 0.002203, -0.000677, -0.002782, 0.00446, -0.003173, 0.001723, 0.004632, 0.003604, -0.005883, 0.000744, 0.000909, 0.005887, -9.6e-05, 0.001325, -0.00185, -0.002097, 0.005465]",1.95,155.5
dimethyl_sulfoxide,-552.95744891,14,1.50887,"[-88.13001105, -18.71199097, -9.90919869, -9.90919009, -7.74807353, -5.76836146, -5.76823627, -5.76198964, -0.93252236, -0.72798842, -0.66229257, -0.54622779, -0.43468708, -0.41650403, -0.41347822, -0.38437293, -0.36244889, -0.35683087, -0.31633271, -0.23901403, -0.19772638]","[0.012967, -3e-05, -1.1e-05, -0.007664, -0.013662, 1e-06, -0.007205, 0.018854, 0.019981, -0.007205, 0.018854, -0.019977, 0.003306, -0.016379, -0.0244, 0.003306, -0.01638, 0.0244, 0.000657, 0.004686, 0.002909, -0.00036, -0.000984, -0.003768, 0.000657, 0.004686, -0.002909, -0.00036, -0.000984, 0.003768]",1.62,162.1
trifluoroacetic_acid,-526.55485213,13,0.6976543,"[-24.31489217, -24.31488713, -24.31095943, -18.83113317, -18.78214496, -10.15492773, -10.05030191, -1.24693822, -1.15985482, -1.15700255, -1.05956991, -0.97488842, -0.70922504, -0.62192687, -0.56925418, -0.5679684, -0.54304865, -0.46222362, -0.44663402, -0.43756408, -0.43026031, -0.41963958, -0.39831318, -0.39523851, -0.37649882, -0.36720016, -0.32100641, -0.27495948]","[-0.020465, -0.008738, -1e-06, -0.016795, 0.018105, 2e-06, 0.025253, 0.012894, 2e-06, -0.000578, -0.027639, 3e-06, 0.009716, -0.013533, -6e-06, 0.009817, 0.011854, -0.017968, 0.009816, 0.011855, 0.017969, -0.015167, -0.004276, -0.0]",3.98,499.7
nitric_oxide,-129.82539741,23,0.09809728,"[-18.8906956, -14.1195258, -1.15743108, -0.62209451, -0.47506532, -0.47368177, -0.43384518, -0.16280097]","[-0.0, 0.0, 0.010463, 1e-06, -1e-06, -0.009996]",0.52,111.4
hydrazine,-111.78775385,10,1.03815,"[-13.99605775, -13.99602308, -0.88010875, -0.68485569, -0.46141045, -0.44273831, -0.39109473, -0.25259439, -0.19475709]","[-0.003318, 0.006806, -0.000816, 0.003317, -0.006806, -0.000819, -0.009795, 0.006214, -0.006223, 0.009795, -0.006214, -0.006223, -0.002211, -0.00633, 0.006567, 0.002211, 0.00633, 0.006567]",0.77,31.7
aluminum_carbide,-280.1723932,15,0.7480852,"[-55.39863159, -9.9541585, -3.95527508, -2.55897825, -2.55897806, -2.55507496, -0.54466109, -0.29685213, -0.2194387, -0.21943869, -0.19855814]","[1e-05, -5.3e-05, 0.005053, 2e-06, 1e-06, 0.004071]",0.53,109.3
sulfur_monoxide,-473.19309284,14,0.5452755,"[-88.13273528, -18.82227445, -7.7593084, -5.77793806, -5.77793792, -5.77756348, -1.00356, -0.62011768, -0.41260712, -0.40517242, -0.40517241, -0.22319605, -0.22319604]","[-1.5e-05, 1.6e-05, -0.001994, 3e-06, 0.0, -0.021369]",1.15,381.3
hydroxymethyl_radical,-114.98578014,24,0.5596003,"[-18.7950792, -9.93364975, -0.97706941, -0.61331022, -0.48207151, -0.40801741, -0.35563369, -0.31375941, -0.14537522]","[-0.020797, -0.002887, 0.008254, 0.001525, 0.001013, -0.000971, -0.000774, -0.000376, 0.000826, 0.000171, 0.005375, -0.001378, -6e-06, -0.005353, -0.003071]",0.75,169.4
dimethyl_sulfide,-477.78865087,13,0.615993,"[-88.0325165, -9.90538029, -9.90537766, -7.66146374, -5.6836538, -5.67983507, -5.67232429, -0.72795739, -0.63938353, -0.53959134, -0.39708865, -0.39394324, -0.38231246, -0.36295018, -0.32572272, -0.28064483, -0.18686348]","[0.000585, 0.001025, -9.8e-05, 0.000584, -0.001025, -9.8e-05, 0.000633, 1.4e-05, -0.005336, 2e-06, 0.002515, -0.002206, 0.003197, -0.000261, 0.001883, -0.003206, -0.000288, 0.001876, 2e-06, -0.002515, -0.002206, -0.003206, 0.000288, 0.001876, 0.003197, 0.000261, 0.001883]",1.33,109.8
beryllium_monochloride,-474.76508353,12,0.2941125,"[-100.65798653, -9.17555929, -6.9934449, -6.99096616, -6.99096604, -3.91214933, -0.7504676, -0.36958575, -0.30759873, -0.30759872, -0.19299763]","[-1e-06, -0.0, -0.006455, -7e-06, 3.2e-05, -0.010752]",0.55,115.6
n_propyl_chloride,-578.46238499,15,0.842791,"[-100.64601213, -9.94656586, -9.90154791, -9.8923086, -9.16154665, -6.98472725, -6.97460015, -6.97451564, -0.78237214, -0.70619407, -0.60533565, -0.53738542, -0.43643355, -0.40291421, -0.38539465, -0.36829966, -0.32960653, -0.32063908, -0.30522166, -0.25554091, -0.25489382]","[-0.006388, -0.00081, -1.2e-05, 0.003855, 0.007248, -0.0, -0.003437, -0.005712, -1.5e-05, 0.01012, 0.002372, -8.7e-05, -0.000416, -0.00519, 0.008011, -0.000417, -0.00519, -0.008012, 0.000162, 0.004243, 0.006724, 0.000163, 0.004242, -0.006725, -0.000749, -0.004408, 0.006784, -0.000755, -0.004404, -0.006771, -0.005579, 0.007186, 2e-06]",1.62,169.7
chloroform,-1418.79337944,11,0.4225139,"[-100.68509154, -100.68507233, -100.6850644, -10.0681244, -9.20094914, -9.20094334, -9.20094161, -7.02472747, -7.02472201, -7.02472002, -7.01365441, -7.01364739, -7.01364556, -7.01361039, -7.01360327, -7.01360139, -0.87660287, -0.77302412, -0.77302219, -0.60093608, -0.47294224, -0.44116336, -0.44116304, -0.3222188, -0.32221872, -0.29703792, -0.28957153, -0.28956949, -0.27225293]","[0.025461, 9.3e-05, -2e-06, -0.011953, 1e-06, -0.0, -0.003336, -0.01247, -1e-05, -0.004024, 0.006403, -0.010284, -0.003952, 0.006547, 0.010254]",1.33,190.7
phosphorus_monosulfide,-739.24839596,13,0.1923904,"[-88.07188626, -76.34465623, -7.70178334, -6.35139717, -5.72133109, -5.71891425, -5.71743491, -4.57089092, -4.56612262, -4.56418698, -0.70740419, -0.49099435, -0.31566682, -0.30530826, -0.30198789, -0.16818665]","[-3e-06, 1.3e-05, -0.000255, 2e-05, 2e-06, 0.000917]",0.7,172.3
cyclopropane,-117.78054093,13,0.0003057755,"[-9.88288547, -9.88264691, -9.88263773, -0.7785516, -0.53553168, -0.53553015, -0.44557323, -0.41932928, -0.31826345, -0.31826075, -0.25992174, -0.25991906]","[-0.000202, 0.000105, 0.002098, 6.7e-05, -0.001652, -0.000913, -0.000196, 0.001744, -0.000916, -0.002955, 0.0, 0.002457, -0.00299, -0.00213, -0.001236, -0.002965, 0.002131, -0.001238, 0.002978, -2e-06, 0.002448, 0.002992, -0.002149, -0.001244, 0.002983, 0.002133, -0.001244]",1.14,71.4
formyl_radical,-113.78223349,12,0.6084609,"[-18.82268223, -9.99321666, -1.01748786, -0.57166319, -0.45076689, -0.39700891, -0.38457567, -0.18743037]","[-0.053291, 0.018776, 3e-06, 0.024194, 0.01962, -0.0, 0.018517, -0.003812, -1.2e-05]",0.65,61.0
spiropentane,-195.09100268,13,0.0003784472,"[-9.89781496, -9.88389231, -9.8838836, -9.88376415, -9.88375715, -0.80659378, -0.72862718, -0.54168912, -0.54168177, -0.48515635, -0.43815107, -0.42370348, -0.42369735, -0.32849784, -0.31541979, -0.30964169, -0.25115802, -0.25115522, -0.23862896]","[2.3e-05, 1.3e-05, -4e-06, 0.003675, 0.000558, 0.001512, -0.003766, -0.000858, 0.001642, -0.000718, 0.0037, -0.001526, 0.001081, -0.003734, -0.001632, -0.00483, 0.003982, -0.002287, -0.00239, -0.005774, -0.002275, 0.004833, -0.003979, -0.002276, 0.00239, 0.005804, -0.00229, 0.005778, -0.002391, 0.002283, -0.003981, -0.004833, 0.002283, -0.005787, 0.00238, 0.002278, 0.003989, 0.004855, 0.002291]",3.63,319.7
acetonitrile,-132.50793622,12,1.803737,"[-13.98048016, -9.95461995, -9.93024035, -0.8338126, -0.78818066, -0.54033475, -0.46236898, -0.33788113, -0.3142243, -0.3045559, -0.25169646]","[-0.002346, -0.021784, -3e-05, 0.010287, 0.02923, -7e-06, -0.004107, -0.017905, -1.3e-05, -0.03722, 0.011518, 0.037333, -0.037244, 0.011509, -0.037302, 0.070512, -0.013351, -1e-05]",0.89,47.9
disilane,-582.29629629,11,3.792024e-07,"[-65.38582456, -65.38581757, -5.04374231, -5.0436522, -3.45357871, -3.45302857, -3.45302796, -3.45297427, -3.45297341, -3.4529181, -0.51811838, -0.45832821, -0.32906865, -0.32906278, -0.30469937, -0.3046931, -0.26399791]","[-0.000542, 0.008175, 3.1e-05, 0.000552, -0.008168, 2.1e-05, -0.007841, -0.004193, -0.0, 0.003907, -0.004185, 0.006768, 0.003907, -0.004185, -0.006768, 0.007841, 0.004193, 0.0, -0.003907, 0.004185, 0.006768, -0.003907, 0.004185, -0.006768]",1.17,95.6
methylene_chloride,-959.35417481,11,0.631178,"[-100.67226341, -100.67224977, -10.00368517, -9.18788371, -9.18788105, -7.01142836, -7.01142703, -7.00096999, -7.00096967, -7.00043738, -7.00043162, -0.83366627, -0.75875641, -0.61082259, -0.45494014, -0.42563825, -0.41238557, -0.2972118, -0.29148364, -0.27556423, -0.27097334]","[-1e-06, 0.0, 0.017018, -0.01367, 0.0, -0.008881, 0.013671, -0.0, -0.008881, -0.000125, 0.007933, 0.003392, 0.000135, -0.007942, 0.00338]",1.11,128.5
methlidyne_radical,-38.43359396,9,0.5397214,"[-10.00666726, -0.59101635, -0.28507144, -0.21616234]","[-0.0, -0.0, 0.00232, 0.0, -0.0, -0.001774]",0.28,20.3
trifluoro_acetonitrile,-430.2467928,12,0.6301615,"[-24.33531735, -24.33529935, -24.33529887, -14.03486147, -10.19606767, -9.96696987, -1.26712492, -1.1794687, -1.17946359, -0.87332235, -0.72536909, -0.61949719, -0.58844665, -0.58844372, -0.45551747, -0.45551603, -0.42592438, -0.42592128, -0.41760672, -0.39735493, -0.35385956, -0.35156496, -0.35156434]","[2.9e-05, -0.025033, -0.0, -1e-05, 0.010775, 0.0, 2.4e-05, -0.012351, 4e-06, -0.013501, 0.009183, -8e-06, 0.006556, 0.009236, 0.011287, 0.006557, 0.009235, -0.011286]",3.0,364.0
acetyl_radical,-153.07498118,17,0.9810422,"[-18.79829893, -9.98535461, -9.91891862, -0.99938776, -0.69968244, -0.49629725, -0.42156104, -0.41963335, -0.41696214, -0.35605982, -0.34338275, -0.16347168]","[-0.002387, 0.001101, -0.0, 0.006761, 0.04005, -1e-06, 0.000302, 0.004643, -0.0, -0.001935, -0.002072, -0.002512, -0.001935, -0.002072, 0.002512, -0.012264, -0.001506, -4e-06]",0.97,164.9
silylene_t,-290.44397842,10,0.02067203,"[-65.42233977, -5.0773134, -3.48970635, -3.48942949, -3.48400419, -0.48243718, -0.33942142, -0.23340842, -0.17397471]","[3.1e-05, 1.2e-05, 0.037785, -0.0, 0.003141, -0.001184, 0.0, -0.003141, -0.001184]",1.06,188.2
oxygen_water,-152.78520004,10,0.969356,"[-18.78199502, -18.7247425, -0.95819154, -0.89985219, -0.51154984, -0.45978415, -0.37245308, -0.31642806, -0.2909608, -0.24050515]","[-0.007209, -0.004286, -0.006047, 0.006984, 0.006454, -0.005729, 0.000854, 0.007912, 0.003003, 0.00726, -0.003083, 0.002938, -0.00161, -0.001394, 0.007931, -0.005644, -0.005474, -0.003268]",0.83,38.7
chlorine_monofluoride,-559.76631524,13,0.2815981,"[-100.74220516, -24.31579616, -9.25208693, -7.08279755, -7.06214944, -7.06214944, -1.14986703, -0.76574207, -0.50112426, -0.43248813, -0.43248811, -0.28840596, -0.28840595]","[0.0, 2e-06, 0.011422, -3.2e-05, -5e-05, -0.009518]",0.62,75.4
sodium_hydride,-162.74085013,10,2.265803,"[-37.9102817, -2.06567295, -1.04275776, -1.04275775, -1.03972239, -0.155673]","[-2.9e-05, -5.7e-05, 0.002373, -0.0, -0.0, -0.00068]",0.87,59.5
nitrogen_tribromide,-7776.13386958,20,0.1854585,"[-480.96892173, -480.96883549, -480.96869211, -61.79742265, -61.79741521, -61.79739522, -55.70739675, -55.70733287, -55.7072989, -55.70207943, -55.70206796, -55.70203724, -55.70201622, -55.70200189, -55.70198271, -14.14254207, -8.44153136, -8.44151387, -8.44149817, -6.32054362, -6.32052743, -6.32051315, -6.30513808, -6.30512176, -6.30510639, -6.30505636, -6.30503525, -6.30502083, -2.52111295, -2.52105776, -2.52104086, -2.5172323, -2.51722106, -2.51721234, -2.51719307, -2.51718709, -2.51715476, -2.50575888, -2.50575633, -2.50573998, -2.50573735, -2.50572378, -2.50572194, -0.89016774, -0.73785018, -0.73783442, -0.62849631, -0.43875079, -0.43874098, -0.38651642, -0.30364931, -0.30363867, -0.27181847, -0.27180937, -0.25625827, -0.24552436]","[-0.004749, -0.000169, -2e-06, 0.001706, -0.013297, -4.4e-05, 0.00014, 0.008256, -0.013314, 9.7e-05, 0.008562, 0.013013]",2.44,775.4
phosphorus_pentafluoride,-840.40252871,13,9.710165e-05,"[-76.5385201, -24.32372012, -24.32371838, -24.3236995, -24.28130179, -24.28128979, -6.51912234, -4.7374491, -4.73744848, -4.73456057, -1.2406756, -1.17831865, -1.17831163, -1.14065488, -1.10935172, -0.64977434, -0.55807999, -0.55807211, -0.542732, -0.4833941, -0.48339059, -0.46911665, -0.46911311, -0.44977694, -0.4277838, -0.40644923, -0.39052396, -0.39052241, -0.36467849, -0.36467559]","[1.3e-05, -1.8e-05, -0.0002, -6e-06, 3.1e-05, -0.025181, 0.0, 0.022102, 0.012772, 5e-06, -0.022106, 0.012775, -0.019477, 6e-06, 1e-05, 0.019478, -4.6e-05, -8e-06]",3.29,576.4
aminyl_radical,-55.83634933,10,0.6718403,"[-14.02375533, -0.78447177, -0.43293655, -0.28958546, -0.27272813]","[0.0, -0.0, 0.013808, 0.0, -0.007616, -0.007046, 0.0, 0.007616, -0.007046]",0.41,28.0
allene,-116.55048048,10,5.013475e-06,"[-9.90967896, -9.89191395, -9.89189525, -0.72005425, -0.63997262, -0.47090997, -0.4048566, -0.40084255, -0.40084254, -0.24134395, -0.24134395]","[1e-06, -2e-06, 1e-06, -1e-06, -1e-06, 0.004056, 5e-06, -2e-06, -0.004057, -0.001928, 0.000841, -0.002316, 0.001928, -0.00084, -0.002316, 0.000841, 0.001929, 0.002316, -0.000841, -0.001928, 0.002316]",0.99,43.7
methane,-40.46810264,11,0.0002014558,"[-9.86272555, -0.62736472, -0.34754472, -0.34753214, -0.3475314]","[-8e-06, -4.6e-05, -4.3e-05, -0.004129, 0.001548, -0.00312, 0.001533, 0.004092, 0.003093, -0.001546, -0.004129, 0.003122, 0.00413, -0.001545, -0.00312]",0.52,18.5
carbon_monosulfide,-436.03797026,12,0.7899809,"[-88.09501698, -9.98271719, -7.7282607, -5.74579479, -5.74579441, -5.74394172, -0.76750621, -0.4791434, -0.3282006, -0.32820059, -0.27129429]","[0.0, 0.0, 0.010314, 2e-05, 4.7e-05, -0.013661]",0.58,58.1
sulfur_hexafluoride,-996.82264347,13,4.361502e-07,"[-88.42592692, -24.31951263, -24.31951076, -24.31950994, -24.31950718, -24.31950638, -24.31950229, -8.00564224, -6.02746867, -6.02746715, -6.02746713, -1.31188635, -1.18989494, -1.18989457, -1.18988839, -1.13796889, -1.13796301, -0.74475818, -0.61049406, -0.61049381, -0.61048577, -0.50632516, -0.50632091, -0.50632073, -0.48609008, -0.48608291, -0.42111094, -0.42111023, -0.42111017, -0.41397904, -0.41397565, -0.41397546, -0.37233191, -0.37232659, -0.37232636]","[1.5e-05, 1.7e-05, -1.2e-05, 9e-06, 1.4e-05, -0.026009, 0.018525, 0.018535, 1e-05, -0.018532, 0.018525, 1.1e-05, -0.018529, -0.018536, -1.5e-05, 0.018534, -0.018529, -1.1e-05, -1e-05, 3e-06, 0.026009]",4.14,743.3
nonane,-354.65740819,11,0.03875482,"[-9.8741973, -9.87419674, -9.87236795, -9.87226351, -9.87219009, -9.87208282, -9.87208063, -9.86650462, -9.86650366, -0.74004973, -0.72173911, -0.69179215, -0.65189742, -0.60497719, -0.55649311, -0.5214343, -0.51659086, -0.51183664, -0.43666553, -0.41988377, -0.39371993, -0.39016214, -0.38413145, -0.36154445, -0.35747229, -0.3570811, -0.32846603, -0.32601491, -0.30761923, -0.30079612, -0.29836973, -0.2880451, -0.28359386, -0.28225299, -0.27714253, -0.27713536, -0.25924525]","[4e-05, -0.0, 0.005742, -9.3e-05, -9.4e-05, -0.005453, -9.2e-05, 9.4e-05, -0.005452, 2.6e-05, -0.000171, 0.005664, 2.6e-05, 0.000171, 0.005664, -4.5e-05, 0.001463, -0.005273, -4.5e-05, -0.001463, -0.005274, 8e-06, -0.002878, 0.003197, 8e-06, 0.002878, 0.003197, 0.004427, -0.0, -0.003926, -0.004434, -0.0, -0.003963, 0.004436, 1.2e-05, 0.003946, -0.004442, 1.1e-05, 0.003953, -0.004442, -1.1e-05, 0.003953, 0.004436, -1.2e-05, 0.003946, 0.00446, 5.9e-05, -0.003931, -0.00447, 6.1e-05, -0.003963, -0.00447, -6.1e-05, -0.003963, 0.00446, -5.9e-05, -0.003931, -0.004626, 0.000163, 0.004065, 0.004624, 0.000163, 0.004061, 0.004624, -0.000163, 0.004061, -0.004626, -0.000164, 0.004065, -0.0, 0.005334, 0.00309, -0.004813, 0.000781, -0.003847, 0.004813, 0.000779, -0.003848, -0.0, -0.005334, 0.00309, 0.004813, -0.000779, -0.003848, -0.004813, -0.000781, -0.003847]",4.0,330.2
furan,-229.85486863,11,0.2314434,"[-18.82194455, -9.93345735, -9.93344936, -9.88789173, -9.88759518, -1.02560235, -0.7286146, -0.67885085, -0.54398006, -0.51526985, -0.49142644, -0.40614625, -0.40125084, -0.36611808, -0.35314111, -0.33004572, -0.25349613, -0.2084639]","[-1.2e-05, -0.000189, -0.004309, 3e-06, -0.002907, 0.0017, -2e-06, 0.002818, 0.00185, -6e-06, 0.006017, -0.002264, -5e-06, -0.005892, -0.002606, 0.0, -0.004404, -0.002786, -0.0, 0.004435, -0.002786, -0.0, -0.005152, 0.003338, -0.0, 0.005207, 0.003376]",1.5,88.4
methanol_radical,-114.97130421,24,0.8540073,"[-18.79670203, -9.9450709, -0.93157605, -0.61708457, -0.43548223, -0.41566802, -0.38847725, -0.2832516, -0.24121402]","[-0.010502, 0.028377, -7e-06, 0.001833, -0.013501, -0.0, 0.008751, -0.004362, -4e-06, 0.000251, -0.003843, -0.007056, 0.000248, -0.003844, 0.007051]",0.7,179.6
sodium_lithium,-169.66425094,10,0.08379775,"[-37.90164212, -2.05563856, -1.87528531, -1.03197727, -1.03197726, -1.03189073, -0.11689418]","[1e-06, 0.0, 0.000744, 1.4e-05, -5e-06, 0.000827]",0.94,69.8
ethylene_oxide,-153.68064804,11,0.6861339,"[-18.76827376, -9.93668175, -9.93644898, -0.99512164, -0.61330242, -0.5752186, -0.46644449, -0.43774826, -0.35876305, -0.34371852, -0.28358601, -0.2307723]","[-8e-06, 1.7e-05, -0.013705, 2.6e-05, 0.002382, 0.000676, 7.8e-05, -0.002439, 0.000704, -0.004465, 0.004219, 0.002216, 0.004479, 0.004224, 0.002224, 0.004478, -0.004227, 0.002217, -0.00448, -0.004225, 0.002218]",1.0,48.8
chlorine_diatomic,-920.0543996,12,7.424971e-06,"[-100.71495106, -100.71494623, -9.22749879, -9.22747396, -7.05486929, -7.05473162, -7.0388941, -7.03889409, -7.03888377, -7.03888376, -0.86243563, -0.70235164, -0.4409889, -0.3676068, -0.36760678, -0.26847898, -0.26847896]","[-2.1e-05, -3e-06, 0.008348, 3.5e-05, 1e-05, -0.00836]",0.7,90.8
aziridine,-133.81218818,12,0.6414542,"[-13.98393868, -9.9116377, -9.91095646, -0.87696544, -0.5962398, -0.55489555, -0.47019906, -0.42168802, -0.33383442, -0.30667327, -0.3001816, -0.21240332]","[0.013044, 0.001583, 0.001721, -0.004179, -0.002754, 0.002371, -0.006816, -0.002979, -0.002091, -0.00386, -0.002221, -0.001488, -0.004452, 0.007423, -0.001815, 0.004885, -0.004216, -0.004652, 0.003249, 0.002436, 0.002275, -0.003278, 0.000837, 0.003806]",1.03,73.7
methoxyethane,-194.18287474,11,0.4317864,"[-18.75419197, -9.92733095, -9.9208046, -9.87297092, -0.94734486, -0.69291262, -0.60883013, -0.54539737, -0.44157588, -0.43092532, -0.40487946, -0.37408075, -0.3405525, -0.32094771, -0.31043539, -0.28007272, -0.21490955]","[0.002074, 0.000592, -1e-05, -0.002499, 0.003634, 0.0, -0.002284, 0.004272, -0.0, 0.001337, -0.002331, -2e-06, 0.000814, -0.002403, -0.003322, 0.000814, -0.002403, 0.003322, 0.003374, 0.00237, -0.0, 0.00096, -0.002435, 0.003473, 0.00096, -0.002435, -0.003473, -0.001223, 0.002283, 0.002945, -0.001223, 0.002283, -0.002945, -0.002449, -0.001757, -0.0]",1.63,83.2
ethane,-79.73991368,11,0.0004366999,"[-9.87074736, -9.87063074, -0.68057018, -0.55277962, -0.38724373, -0.38724286, -0.32356327, -0.30054173, -0.30053947]","[0.00897, 6.6e-05, -0.000253, -0.00897, -6.5e-05, -0.000253, -0.002505, -0.003947, -1e-06, -0.002525, 0.001959, -0.003405, -0.002504, 0.001988, 0.003456, 0.002505, 0.003947, -1e-06, 0.002504, -0.001988, 0.003456, 0.002525, -0.001959, -0.003405]",0.92,35.7
carbon_tetrabromide,-10333.3902099,19,1.44789e-05,"[-480.9600262, -480.95999954, -480.9599993, -480.9599929, -61.789093, -61.78908961, -61.78908799, -61.78908562, -55.69842136, -55.69841976, -55.69841881, -55.69839338, -55.69393047, -55.69392366, -55.69392178, -55.69392079, -55.69391145, -55.69391054, -55.6939083, -55.69390507, -10.09923201, -8.43344028, -8.43343709, -8.4334359, -8.43343567, -6.31083695, -6.31083575, -6.31083502, -6.31083282, -6.29783284, -6.29783237, -6.29783178, -6.29783129, -6.29783031, -6.29783007, -6.29782948, -6.29782885, -2.51196677, -2.51191742, -2.51191618, -2.51191599, -2.50862807, -2.50862801, -2.50862425, -2.5086242, -2.50862355, -2.50858956, -2.50858931, -2.5085889, -2.49892087, -2.49892062, -2.49892009, -2.49891824, -2.49891778, -2.49891207, -2.49891196, -2.49891144, -0.83799647, -0.73419235, -0.73419161, -0.73419146, -0.56157708, -0.42635293, -0.42635251, -0.42635135, -0.30914558, -0.30914482, -0.28786495, -0.28786403, -0.28786388, -0.25721715, -0.25721712, -0.25721675]","[0.0, 1e-06, -1e-06, -0.008003, -0.000189, -0.006306, 0.007877, -0.000359, -0.006076, 9e-06, 0.008048, 0.006345, -0.00039, -0.008147, 0.006102]",2.91,1060.2
beryllium_diatomic,-29.2755154,8,1.373885e-06,"[-3.89688971, -3.89684894, -0.26470204, -0.1676451]","[0.0, 0.0, 4e-05, 0.0, 0.0, -4e-05]",0.33,12.5
tetrachloroethylene,-1916.295609,11,2.681649e-05,"[-100.69751912, -100.69750547, -100.69749035, -100.69746989, -10.0221291, -10.02154266, -9.21260167, -9.21260127, -9.21259594, -9.21259506, -7.03628004, -7.03627886, -7.03627541, -7.03627391, -7.02574763, -7.02574635, -7.02574039, -7.02573562, -7.02507892, -7.02507874, -7.02507725, -7.02507651, -0.88734728, -0.8383994, -0.7986589, -0.77635452, -0.66876383, -0.52377361, -0.47298736, -0.47163375, -0.41204392, -0.40856814, -0.35022299, -0.32812643, -0.31827957, -0.31625272, -0.31064835, -0.30504164, -0.27649717, -0.227791]","[-1.4e-05, -2e-06, -0.001482, -1e-06, -0.0, 0.001386, -1.6e-05, -0.005806, -0.002807, -1.2e-05, 0.005807, -0.002793, -4.1e-05, 0.006205, 0.003133, -4.5e-05, -0.006214, 0.003204]",4.09,754.6
silicon_monoxide,-364.56274077,13,1.141138,"[-65.43173819, -18.74065716, -5.08461928, -3.49740465, -3.49740463, -3.48917046, -0.86096879, -0.3928626, -0.29830522, -0.29830522, -0.27434109]","[-3e-05, 2.3e-05, 0.018094, 4e-06, 6e-06, -0.018023]",1.22,176.6
trimethylamine,-174.30831016,11,0.2076331,"[-13.98193551, -9.89901716, -9.89898839, -9.8989724, -0.84555057, -0.63725321, -0.63723058, -0.53048076, -0.41945168, -0.41944234, -0.41822499, -0.34901818, -0.34900929, -0.32143247, -0.31905533, -0.31904954, -0.17851666]","[0.006831, -0.0001, 1.2e-05, 0.015763, 0.003528, -0.004207, 0.015568, 0.001586, 0.005106, 0.015609, -0.00493, -0.001633, -0.015385, 0.002053, -0.00212, -0.015412, 0.000812, 0.00284, -0.015391, -0.00287, -0.000722, -0.001352, 0.002053, 0.00562, -0.001368, -0.005727, -0.001861, -0.001352, -0.005882, -0.001035, -0.001347, 0.004452, -0.003994, -0.001364, 0.003861, -0.004602, -0.001361, 0.001221, 0.005893]",3.35,203.3
carbonyl_fluoride,-312.88013221,14,0.4365259,"[-24.33515523, -24.33515261, -18.79912066, -10.13402986, -1.24309566, -1.17345119, -1.02717515, -0.63749764, -0.57333461, -0.52656426, -0.49064562, -0.42958911, -0.42312311, -0.4080901, -0.36322243, -0.31272275]","[-2e-06, 1e-06, -0.019201, 1e-06, -1e-06, -0.004436, -1e-06, -0.013782, 0.010669, 5e-06, 0.013783, 0.01067]",0.95,98.2
phosphorus_mononitride,-395.90115885,13,1.069916,"[-76.33740263, -14.01898578, -6.34908446, -4.56599247, -4.56599223, -4.55985817, -0.77831055, -0.45100196, -0.30656116, -0.30656115, -0.28491315]","[1e-06, -4e-06, 0.008407, 1.8e-05, 3.3e-05, -0.008915]",0.56,61.5
carbon_tetrachloride,-1878.2288986,12,2.750988e-05,"[-100.6954539, -100.69540671, -100.69539492, -100.69539443, -10.12452559, -9.21124605, -9.2112454, -9.21124321, -9.21124267, -7.03537846, -7.03537766, -7.03537543, -7.03537483, -7.02376722, -7.02376689, -7.02376639, -7.02376612, -7.02376374, -7.02376336, -7.02376321, -7.02376106, -0.90766465, -0.78587917, -0.78587814, -0.7858773, -0.57891629, -0.465307, -0.4653063, -0.46530596, -0.33998049, -0.33998045, -0.31705492, -0.31705479, -0.31705423, -0.2820472, -0.28204669, -0.28204637]","[-3e-06, 1.2e-05, -5e-06, -0.002371, 0.006652, -0.004964, 0.00237, -0.00671, -0.00492, -0.006693, -0.002281, 0.004944, 0.00649, 0.002385, 0.005133]",1.78,306.2
acrylonitrile,-170.6930343,11,1.557598,"[-13.99649546, -9.9493858, -9.93686868, -9.9313184, -0.82803687, -0.74968071, -0.6028372, -0.49380559, -0.43762766, -0.37613679, -0.34793502, -0.32108933, -0.30410881, -0.26867395]","[-0.000984, 0.002203, -5e-06, -0.004628, -0.006619, -2e-06, -0.028322, -0.006659, -0.0, -0.000763, -0.003037, 0.0, 0.003221, 0.001262, -0.0, -0.000142, 0.003718, 0.0, 0.032517, 0.009772, -1e-05]",1.16,59.7
sodium_hydroxide,-237.98598677,11,2.576773,"[-37.908209, -18.60574432, -2.06531911, -1.04235342, -1.04235341, -1.03984351, -0.74045025, -0.28964585, -0.13981596, -0.13981596]","[-7e-06, -0.0, -0.018877, -1e-05, -3.9e-05, 0.000171, -0.0, -0.0, 0.020564]",1.28,126.8
methylene_t,-39.10860641,11,0.2332904,"[-9.94268493, -0.61638209, -0.41670524, -0.24171263, -0.21007192]","[-0.0, -6e-06, 0.021272, -0.0, -0.002287, 0.001175, -0.0, 0.002287, 0.001175]",0.37,32.6
carbon_monophosphide,-379.13043726,16,0.420555,"[-76.32500994, -9.98178732, -6.3351131, -4.55146853, -4.54955846, -4.54955837, -0.66767248, -0.41903839, -0.29252951, -0.27536588, -0.27536588]","[2e-06, 1e-06, -0.028783, -1.3e-05, -4e-06, -0.007345]",0.58,128.3
formic_acid,-189.65330161,14,0.5580205,"[-18.82195125, -18.75349223, -10.01985411, -1.03750879, -0.95157158, -0.60882823, -0.49024093, -0.44352912, -0.41394402, -0.36287451, -0.30268724, -0.24701629]","[0.021491, 0.001648, -0.0, -0.006064, 0.020541, 4e-06, 0.013334, -0.028143, -1e-06, -0.030379, 0.012334, 0.0, 0.002059, -0.005956, 0.0]",0.86,72.0
aluminum_trifluoride,-541.94649617,10,8.205187e-06,"[-55.42612922, -24.24889083, -24.24888271, -24.24887865, -3.98645966, -2.59386148, -2.58599585, -2.58599514, -1.0831976, -1.0713802, -1.07137482, -0.45385457, -0.41333002, -0.41332592, -0.39392831, -0.38115674, -0.38115248, -0.37524056, -0.37523559, -0.35672368]","[-6e-06, -4e-06, 0.000306, 7e-06, 1.2e-05, -0.009455, -8e-06, -0.008201, 0.004885, 1e-05, 0.008195, 0.004881]",1.11,113.4
vinyl_radical,-77.82725816,15,0.2867993,"[-9.9210451, -9.89499965, -0.69968109, -0.52461627, -0.42008304, -0.38790927, -0.26134174, -0.20172685]","[0.02127, -0.026677, -4e-06, -0.014565, 0.005575, 4e-06, -0.005005, -0.003205, 0.0, 0.004712, -0.008186, 1e-06, 0.004923, 0.00364, 1e-06]",1.47,199.3
nitrous_oxide,-184.58247618,12,0.053711,"[-18.85320211, -14.19870465, -14.07354888, -1.15611772, -1.00371531, -0.54979908, -0.51367346, -0.51367345, -0.42215126, -0.30843311, -0.30843309]","[0.0, 0.0, 0.02035, -0.0, 0.0, -0.01062, -0.0, 1e-06, -0.008879]",0.7,56.5
2_butyne,-155.82934565,10,2.506184e-05,"[-9.90645948, -9.90645029, -9.87476422, -9.87279601, -0.7055603, -0.6703819, -0.59750479, -0.42711371, -0.3846545, -0.38164002, -0.38163859, -0.37000931, -0.37000766, -0.21798368, -0.21798326]","[-8e-06, -0.005367, 1e-06, 1e-06, 0.005538, -3e-06, -0.0, -0.000971, 0.000439, 1e-06, 4.5e-05, 0.000341, -0.0, 0.002413, -0.009673, 0.008361, 0.002416, 0.004815, -0.008361, 0.002416, 0.004816, -0.0, -0.002413, -0.009685, -0.008381, -0.002415, 0.004831, 0.008381, -0.002415, 0.004831]",1.4,63.9
hydrogen_diatomic,-1.16669608,7,2.970694e-10,"[-0.38146504]","[-0.0, 0.0, 0.005959, 0.0, 0.0, -0.005959]",0.17,4.4
beryllium_dihydride,-15.86568947,8,3.199605e-08,"[-3.84726639, -0.30935025, -0.27536709]","[0.0, 0.0, -0.0, 0.0, -0.0, -0.003055, 0.0, 0.0, 0.003055]",0.34,9.8
beryllium_monohydride,-15.21842444,10,0.1028153,"[-3.88820246, -0.30566512, -0.17198831]","[-0.0, -0.0, -0.009563, -0.0, -0.0, -0.001836]",0.28,18.0
sodium_monoxide,-237.29515329,13,2.871909,"[-37.91792734, -18.68224647, -2.07391633, -1.05165489, -1.05068727, -1.04815805, -0.72694149, -0.22697281, -0.18176211, -0.1679506]","[1e-05, 4.4e-05, 0.00529, -8e-06, -6e-06, -0.007103]",1.12,209.3
phosphino_radical,-342.3620484,11,0.2082819,"[-76.30991397, -6.31979322, -4.54026889, -4.53431159, -4.53115985, -0.57982254, -0.35111924, -0.28049741, -0.22031081]","[-3e-05, 9e-06, 0.009608, 0.0, -0.001693, -0.002361, 0.0, 0.001694, -0.002361]",0.5,81.8
boron_monochloride,-484.78971024,11,0.6724094,"[-100.71243056, -9.2299267, -7.04783892, -7.04537199, -7.04537185, -6.6154855, -0.81730375, -0.46879451, -0.35731912, -0.3573191, -0.2301911]","[0.0, -1e-06, 0.004826, -4e-06, -1.5e-05, -0.012119]",0.55,57.0
ozone,-225.34063694,14,0.2508868,"[-19.04241777, -18.86868591, -18.86868455, -1.26041097, -1.00836409, -0.71573306, -0.54698323, -0.54217308, -0.53148236, -0.33658018, -0.29720215, -0.29415527]","[1e-06, -0.0, -0.016046, -1.2e-05, -0.003432, 0.003954, -1.4e-05, 0.003431, 0.003954]",0.78,55.6
water,-76.38851649,10,0.7066852,"[-18.75498178, -0.93206667, -0.48530132, -0.34325924, -0.26654557]","[-0.0, -0.0, -0.01173, -0.0, -0.008765, 0.006357, -0.0, 0.008765, 0.006357]",0.8,56.9
acetate_anion,-228.38705452,23,1.343328,"[-18.49365838, -18.49205072, -9.76661899, -9.70394151, -0.7243463, -0.6448707, -0.46273688, -0.2500082, -0.20197905, -0.19244511, -0.17242246, -0.13826132, -0.11815714, -0.01511069, 0.00211806, 0.01265716]","[-0.001946, 0.000502, -0.0, 0.011005, -0.000616, -0.0, -0.000187, -0.001733, -0.0, -6.4e-05, 0.00073, 0.001494, -6.4e-05, 0.00073, -0.001494, -0.00383, 0.009089, -1e-06, -0.004798, -0.008733, 1e-06]",1.2,174.7
tetrachlorosilane,-2129.74854669,13,9.238478e-06,"[-100.68432106, -100.68431967, -100.68431261, -100.68429464, -65.52665798, -9.20146506, -9.20146496, -9.20146298, -9.201458, -7.02181666, -7.02181638, -7.02181611, -7.02181495, -7.01567814, -7.01567726, -7.01567699, -7.01567695, -7.01567612, -7.01567597, -7.01567564, -7.0156744, -5.1687887, -3.57931171, -3.57931164, -3.57931147, -0.82124744, -0.77548401, -0.7754838, -0.77548359, -0.50539584, -0.40967602, -0.40967578, -0.40967568, -0.33853917, -0.33853905, -0.32936917, -0.32936913, -0.3293689, -0.29977607, -0.2997759, -0.2997758]","[1e-06, 1.1e-05, -2e-06, -2.1e-05, 0.006562, -0.004722, 1.7e-05, -0.006509, -0.004749, 0.006518, 6e-06, 0.004719, -0.006498, 7e-06, 0.004786]",4.06,985.7
oxygen_diatomic,-150.25919736,13,6.1324e-07,"[-18.90545138, -18.90537269, -1.20921487, -0.75266658, -0.50121103, -0.49626794, -0.49626793, -0.24795528, -0.24795527]","[-2e-06, 6e-06, 0.015257, -1e-06, 5e-06, -0.015257]",0.46,74.1
heptane,-276.11063286,13,0.03839059,"[-9.87929676, -9.87929122, -9.87738839, -9.87725983, -9.8772023, -9.87192404, -9.8718396, -0.73273285, -0.70456922, -0.66001195, -0.60389223, -0.54593993, -0.51377446, -0.51180654, -0.43037152, -0.40527367, -0.38533595, -0.37922556, -0.3684911, -0.35384432, -0.32839307, -0.32734369, -0.31424229, -0.29610567, -0.29386987, -0.28309923, -0.27972639, -0.27706655, -0.26559081]","[-1.4e-05, 4.8e-05, 0.002808, -6.9e-05, 8.4e-05, -0.002456, -6e-06, -4.7e-05, -0.00246, 4.2e-05, 0.000844, 0.002622, -2e-06, -0.000985, 0.002308, 0.000667, -0.000472, -0.001247, 5e-06, 0.000543, -0.001734, 0.00168, -1e-06, 0.000601, -0.00168, -0.0, 0.000627, 0.001683, 9.2e-05, -0.000636, -0.001681, 9.4e-05, -0.000636, -0.001679, -0.000101, -0.000637, 0.001682, -0.0001, -0.000639, -0.001585, 0.000137, 0.000544, 0.001587, 0.000151, 0.000553, 0.001589, -0.000136, 0.000552, -0.001587, -0.000137, 0.000551, -5e-06, -0.001298, 0.001412, -0.001746, 0.000447, -0.000811, 0.00168, 0.000395, -0.000803, -0.0, 0.001307, 0.001426, 0.001697, -0.000412, -0.0008, -0.001697, -0.000412, -0.0008]",3.04,250.5
methylene_s,-39.08383282,9,0.6827328,"[-9.96391269, -0.61510859, -0.36996359, -0.21896524]","[-0.0, -0.0, -0.011127, 0.0, -0.005327, 0.005752, 0.0, 0.005327, 0.005752]",0.37,13.0
octane,-315.38426487,13,0.001900861,"[-9.87717808, -9.87710617, -9.87558992, -9.87547015, -9.87519758, -9.87515581, -9.86921952, -9.86898, -0.73551514, -0.71383853, -0.67845853, -0.63211673, -0.57973057, -0.53199603, -0.51508301, -0.51147708, -0.43317601, -0.41329174, -0.39032863, -0.38296469, -0.37308728, -0.36798848, -0.3472396, -0.34000168, -0.31564828, -0.31335131, -0.30835642, -0.28881849, -0.28752161, -0.27944781, -0.27757568, -0.27596417, -0.26769873]","[4e-05, -0.001025, -0.0, 8.2e-05, 0.000858, 1e-06, -0.000962, 0.000678, -6e-06, 0.00094, -0.000756, -0.0, -0.001136, -0.000799, 8e-06, 0.001356, 0.000518, 0.0, -0.003168, -8.5e-05, -0.000498, 0.002987, -0.00013, -0.0, -8.8e-05, 0.003057, -0.00283, -8.8e-05, 0.003057, 0.00283, 8e-05, -0.003057, -0.002831, 8e-05, -0.003057, 0.002831, 5.3e-05, -0.003013, 0.002749, 5.5e-05, -0.003015, -0.002756, -6.3e-05, 0.003011, 0.002751, -6.3e-05, 0.003011, -0.002751, -1e-06, 0.002625, -0.002526, 1.3e-05, 0.002628, 0.002527, 2e-06, -0.002646, -0.002552, 2e-06, -0.002646, 0.002552, 0.001919, 0.002634, 4e-06, 0.000157, -0.002369, 0.003098, 0.000205, -0.002358, -0.003043, -0.001923, -0.002647, -0.0, -0.000161, 0.002386, 0.003116, -0.000161, 0.002386, -0.003116]",3.63,302.2
beryllium_difluoride,-214.48766408,10,7.964089e-07,"[-24.23983518, -24.23983383, -3.88162928, -1.06800302, -1.06063619, -0.41700971, -0.4083546, -0.37829144, -0.37829143, -0.35707491, -0.35707491]","[-0.0, 2e-06, -0.0, 7e-06, -1e-05, 0.009768, -1.6e-05, -2.4e-05, -0.009767]",0.65,46.8
dilithium_oxide,-90.2205642,12,2.334517e-07,"[-18.56459167, -1.77791274, -1.77775835, -0.63801981, -0.13383794, -0.11674829, -0.11674829]","[-0.0, 1e-06, -3e-06, 0.0, 0.0, -0.004432, -0.0, -0.0, 0.004431]",0.52,35.3
thiophene,-552.73789067,13,0.1763284,"[-88.07296448, -9.91269727, -9.91266401, -9.89318537, -9.89285704, -7.70163839, -5.72213804, -5.71810986, -5.71632892, -0.80674915, -0.66927191, -0.65576193, -0.50944993, -0.50042898, -0.46677899, -0.36715918, -0.3514624, -0.34843133, -0.34501335, -0.30912573, -0.22982199, -0.21550335]","[1.3e-05, -0.000965, 0.001778, 1e-06, -0.000645, 0.00146, 1e-06, 0.000587, 0.001315, -0.0, -0.000405, -0.002234, 2e-06, 0.000474, -0.001928, -0.0, -0.002026, -0.000903, -0.0, 0.002043, -0.000912, -0.0, -0.001232, 0.00202, -0.0, 0.001232, 0.002021]",3.04,397.4
ketene,-152.50235341,12,0.5368587,"[-18.81663643, -10.00170087, -9.89501237, -1.033719, -0.70888331, -0.48738109, -0.44626764, -0.43874726, -0.40688873, -0.37156033, -0.21706143]","[5e-06, 1e-06, -0.006199, 8e-06, -3e-06, 0.016871, 0.0, -2.2e-05, -0.020164, -0.0, -0.003381, 0.003898, 0.0, 0.00338, 0.003898]",0.82,47.8
phosphorus_monofluoride,-440.979201,12,0.2315938,"[-76.36381187, -24.2951087, -6.36903223, -4.58571479, -4.58537114, -4.58537091, -1.13872746, -0.57799667, -0.42911114, -0.42911109, -0.41236516, -0.20588911, -0.2058891]","[-6e-06, -2.2e-05, 0.014088, 6e-06, -0.0, -0.01702]",0.6,128.0
boron_diatomic,-49.34646259,10,3.272814e-07,"[-6.60700622, -6.60637439, -0.50619936, -0.27631429, -0.22490472, -0.22490472]","[0.0, 0.0, 0.015342, 0.0, 0.0, -0.015342]",0.36,32.0
nitrogen_dioxide,-204.99636051,14,0.1059606,"[-18.86272221, -18.86271972, -14.21790276, -1.19467277, -1.05539193, -0.61119267, -0.52361232, -0.52057481, -0.51898522, -0.3469796, -0.33303809, -0.23572461]","[-2e-06, 0.0, -0.021467, -3e-06, -0.018886, -0.016365, 1e-06, 0.018886, -0.016365]",0.69,135.6
argon_dimer,-1054.69240272,10,1.323272e-06,"[-114.1644862, -114.16448073, -10.83088411, -10.83088317, -8.44364703, -8.44364193, -8.44364059, -8.44363849, -8.44363751, -8.4436035, -0.88481558, -0.88362333, -0.38418802, -0.37895321, -0.37895316, -0.37708383, -0.37708379, -0.3719249]","[4e-06, -3e-05, -0.000272, 2.9e-05, 5e-06, 0.000238]",0.72,80.6
sodium_diatomic,-324.37340357,10,8.916136e-07,"[-37.90420874, -37.90420788, -2.05816823, -2.05801895, -1.03547186, -1.03449811, -1.03449811, -1.03425992, -1.03425992, -1.03336211, -0.11493289]","[1.3e-05, -1.5e-05, 0.000537, -1.4e-05, 7e-06, -0.000538]",1.2,131.0
dimethylamine,-135.04138787,11,0.3907844,"[-13.97290706, -9.89582087, -9.89582014, -0.81934111, -0.63334767, -0.56539914, -0.43998446, -0.39376391, -0.39022805, -0.34112092, -0.3219015, -0.32095644, -0.18620972]","[-0.004301, -0.000418, 0.0, 0.005534, 0.000798, 0.010949, 0.005535, 0.000798, -0.010949, 7.6e-05, -0.001222, 0.0, -0.00659, 0.003202, -0.000728, -0.00659, 0.003203, 0.000728, 0.001267, 0.00066, -0.002414, 0.001267, 0.00066, 0.002414, 0.001205, -0.00409, -0.007235, 0.001205, -0.00409, 0.007235]",1.47,67.9
cyclobutene,-155.82763001,11,0.07253764,"[-9.88760504, -9.88751312, -9.88358632, -9.88294488, -0.78178207, -0.59079305, -0.58079321, -0.45959885, -0.44869067, -0.41467014, -0.33802506, -0.321611, -0.29040761, -0.27585349, -0.22214216]","[2.1e-05, -0.001287, 0.002561, -7.7e-05, 0.001195, 0.002208, -2e-05, 0.000344, -0.006353, -5.3e-05, -0.000414, -0.006195, 0.0, 0.003794, -0.003654, -0.0, -0.003804, -0.003671, 0.001229, 0.001973, 0.003854, -0.001257, -0.001995, 0.003879, -0.001233, 0.001971, 0.00386, 0.001221, -0.001961, 0.003846]",1.37,69.6
acetic_acid,-228.94803556,12,0.6952204,"[-18.80418674, -18.74570659, -10.01828215, -9.90177853, -1.02025083, -0.93324611, -0.69673537, -0.55874389, -0.44389526, -0.43051083, -0.42805677, -0.37157867, -0.35405765, -0.35404007, -0.28893494, -0.2403881]","[0.001806, 0.00603, 1e-06, 0.001672, 0.003375, 2e-06, -0.001992, -0.003657, 8e-06, 0.004246, -0.003411, 1e-06, -0.001029, -0.001164, 0.0, -0.002091, 0.002226, 0.0, -0.001508, -0.002213, -0.002538, -0.001508, -0.002213, 0.002538]",1.25,77.1
hydrogen_fluoride,-100.40256549,9,0.6881516,"[-24.25267519, -1.10412514, -0.49542377, -0.35451228, -0.35451228]","[0.0, 0.0, 0.012477, -0.0, 0.0, -0.010778]",0.37,14.5
phosphorus_diatomic,-682.42546492,11,2.986082e-07,"[-76.3180901, -76.31808591, -6.32679313, -6.32635301, -4.54346127, -4.54346126, -4.54326771, -4.54326771, -4.5393417, -4.53716413, -0.62141205, -0.42394252, -0.26479222, -0.26197684, -0.26197684]","[-2.1e-05, -7e-06, 0.007607, -3.4e-05, -6.2e-05, -0.007607]",0.64,75.1
sodium_fluoride,-262.03115709,12,3.038895,"[-37.91436882, -24.06190365, -2.07144621, -1.04877657, -1.04877649, -1.04731315, -0.85876926, -0.19631135, -0.18760033, -0.18760032]","[-2.9e-05, 3.1e-05, 0.00442, -1.1e-05, 6e-06, -0.004583]",1.15,132.5
lithium_diatomic,-14.95603125,9,5.663451e-10,"[-1.87053785, -1.87010934, -0.11852889]","[-0.0, -0.0, 0.001576, -0.0, -0.0, -0.001576]",0.28,10.2
difluoromethane,-238.86917288,10,0.7003691,"[-24.27128504, -24.27128451, -10.03845386, -1.16249689, -1.10587737, -0.64666724, -0.49801206, -0.4975507, -0.49742593, -0.36997332, -0.36706666, -0.35262687, -0.29921459]","[-0.0, -0.0, -0.002705, -0.009545, 0.0, -0.006261, 0.009545, 0.0, -0.00626, 5e-06, 0.012904, 0.008406, 5e-06, -0.012903, 0.008407]",0.93,66.2
propene,-117.78910803,11,0.1772174,"[-9.89094943, -9.88095227, -9.8740064, -0.7139316, -0.61892674, -0.49826027, -0.41835999, -0.37514305, -0.37019869, -0.32743652, -0.30463673, -0.22948489]","[0.002932, 0.003551, 3.9e-05, -0.000485, -0.004873, 8.6e-05, -0.003639, 0.001265, 0.000842, 0.00039, -0.003948, -1e-06, -0.003108, 0.002, 3e-06, -0.000122, 0.003549, 1e-06, 0.000177, -0.003196, -4e-06, 0.002473, 0.001352, -0.002508, 0.002493, 0.001337, 0.002494]",2.31,137.9
difluorine_monoxide,-274.56459705,17,0.1100919,"[-24.34073179, -24.34072919, -18.96752118, -1.24425647, -1.13685311, -0.86761069, -0.57960955, -0.52504273, -0.48414939, -0.40166309, -0.39963352, -0.38804932, -0.28100911]","[-5e-06, -0.0, -0.006052, 1.6e-05, -0.013139, 0.004914, 1.2e-05, 0.013131, 0.004923]",0.74,79.2
phosphorus_monoxide,-416.37647229,13,0.6973699,"[-76.36254997, -18.79133438, -6.36908179, -4.58933383, -4.58393555, -4.58123624, -0.94438347, -0.50748335, -0.36244746, -0.35965245, -0.35204075, -0.16753315]","[8e-06, -8e-06, 0.020153, 4.8e-05, -1e-06, -0.004714]",1.14,177.6
tert_butyl_radical,-157.63422554,23,0.09048534,"[-9.8970102, -9.87378502, -9.87378462, -9.87377879, -0.73053086, -0.6247809, -0.62478039, -0.47881419, -0.39808968, -0.39417016, -0.39416981, -0.34319558, -0.34319508, -0.32279449, -0.30309485, -0.30309481, -0.1380058]","[-0.020143, 1.1e-05, -0.0, 0.004618, 0.005578, -0.0, 0.004667, -0.002755, 0.004869, 0.004666, -0.002755, -0.004869, -0.004881, -0.001982, 0.0, 0.00052, -0.002116, 0.002867, 0.00052, -0.002116, -0.002867, -0.004889, 0.00099, -0.001715, 0.000518, -0.001429, -0.003269, 0.000516, 0.003539, -0.000399, -0.004889, 0.00099, 0.001715, 0.000516, 0.003539, 0.000399, 0.000518, -0.001429, 0.003269]",3.35,885.0
lithium_fluoride,-107.35973978,10,2.397246,"[-24.09421642, -1.85456264, -0.90058004, -0.23570994, -0.22510102, -0.22510099]","[-0.0, 0.0, 0.003403, -0.0, 0.0, -0.002985]",0.4,20.1
acetyl_fluoride,-252.95372665,12,1.110964,"[-24.28563249, -18.77062617, -10.0474685, -9.91506888, -1.15279105, -0.9925979, -0.70853478, -0.56013817, -0.47167532, -0.46238886, -0.44360198, -0.39123228, -0.38538164, -0.34833511, -0.33853551, -0.27026966]","[-0.024862, 0.001837, -2e-06, 0.005892, 0.003403, -1e-06, 0.015415, 0.016386, -1.7e-05, 0.009718, -0.01768, 1e-06, -0.001147, 0.00612, -0.0, -0.001476, -0.004866, -0.007829, -0.001476, -0.004866, 0.007829]",1.18,73.7
lithium_hydroxide,-83.31818131,10,1.721457,"[-18.64041727, -1.84038032, -0.77101495, -0.32994544, -0.17608969, -0.17608969]","[-0.0, 0.0, -0.013663, -0.0, -0.0, 0.001123, 0.0, 0.0, 0.011075]",0.46,19.8
propyne,-116.5449803,10,0.3470877,"[-9.91201775, -9.88844277, -9.87125983, -0.70986826, -0.63364843, -0.47488215, -0.40293952, -0.39185337, -0.39184019, -0.23843923, -0.23843768]","[-0.000131, -0.00957, 1e-06, -0.0, 0.007864, -3e-06, -1.5e-05, 0.001806, -2e-06, -1e-06, -0.010378, 0.0, 0.005614, 0.0033, 0.0, -0.002795, 0.003305, 0.004867, -0.002795, 0.003305, -0.004867]",2.15,120.5
aluminum_monosulfide,-640.35214654,13,1.433147,"[-88.01583726, -55.41855697, -7.64621264, -5.66789014, -5.66149668, -5.66149619, -3.97710034, -2.57989307, -2.57989305, -2.5777766, -0.60475477, -0.33392816, -0.23107623, -0.22784803, -0.22784802]","[1.9e-05, -2e-05, -0.023022, -4e-06, 2.2e-05, -0.007887]",0.64,157.8
boron_monocarbide,-62.59629394,14,0.3585399,"[-9.9920834, -6.61064778, -0.64055153, -0.3367224, -0.27968556, -0.27968556, -0.24865694]","[0.0, 0.0, -0.006253, -3e-06, -3e-06, -0.006813]",0.38,43.3
boron_trichloride,-1405.07089681,12,9.804422e-05,"[-100.68487875, -100.68484755, -100.68483789, -9.20180805, -9.20178494, -9.20178163, -7.02210414, -7.02208077, -7.02208, -7.01723979, -7.0172161, -7.0172132, -7.01490403, -7.01488257, -7.01488212, -6.64676536, -0.82167823, -0.77599464, -0.77598205, -0.48478167, -0.41707161, -0.41706388, -0.37350019, -0.31594229, -0.31594194, -0.31271971, -0.31271073, -0.28338857]","[1e-06, 0.0, 6.8e-05, -1.2e-05, -6e-06, -0.006323, -6e-06, -0.003934, 0.002237, 9e-06, 0.003955, 0.002222]",1.33,179.4
ethyl_radical,-79.0726628,13,0.1574305,"[-9.89431624, -9.8803846, -0.68935845, -0.54996675, -0.40752682, -0.37186398, -0.3523225, -0.31740714, -0.16613661]","[-0.002532, 0.010176, 0.000157, 0.006193, -0.009845, 0.000106, 0.006756, -0.003821, -1e-06, -0.002078, -0.003094, -0.005459, -0.002079, -0.003095, 0.005458, 0.000338, 0.004359, 0.007179, 0.00034, 0.004361, -0.007174]",0.88,99.9
magnesium_hydroxide,-275.76479705,12,0.4861435,"[-46.2066404, -18.68255889, -2.93548922, -1.72799217, -1.72799217, -1.72364867, -0.82737954, -0.39919296, -0.22536326, -0.22536326, -0.16904119]","[2e-06, -3e-06, -0.01067, 1e-05, -9e-06, 0.00976, -0.0, 0.0, 0.01856]",0.63,101.9
hydrogen_peroxide,-151.4776956,12,0.5985603,"[-18.81318024, -18.81317745, -1.0381169, -0.83389207, -0.48004948, -0.45537548, -0.38393672, -0.28894371, -0.23706484]","[0.009332, 0.007366, 0.012167, -0.009333, -0.007366, 0.012167, -0.015187, -0.018193, -0.011574, 0.015187, 0.018193, -0.011574]",0.65,49.7
propane,-119.01396237,10,0.03814183,"[-9.87892389, -9.86756703, -9.8675527, -0.70801228, -0.61388017, -0.52411653, -0.40847402, -0.38822925, -0.35469947, -0.3364654, -0.29631053, -0.29368095, -0.28502897]","[9e-06, -2.9e-05, 0.005197, -0.0, -0.001438, -0.007943, 2.4e-05, 0.001465, -0.007985, -0.002578, -1e-06, -0.001885, 0.002544, 3e-05, -0.001838, -0.0, -0.003667, -0.001218, 4e-06, 0.003643, -0.001192, -0.005404, 0.000683, 0.004049, 0.005405, 0.000683, 0.004048, 0.005405, -0.000679, 0.004047, -0.005403, -0.000694, 0.004042]",3.08,146.4
butane,-158.28836074,11,0.0004486693,"[-9.87635582, -9.87622748, -9.86892448, -9.86881796, -0.7215568, -0.65427013, -0.56550321, -0.51563762, -0.419991, -0.38007372, -0.37405198, -0.36441033, -0.32411317, -0.30597195, -0.29328073, -0.28159775, -0.279468]","[-0.001488, 0.001185, 0.001366, 0.001397, -0.002481, 0.00011, -0.001582, 0.002572, 3.1e-05, 0.001528, -0.002155, 4e-06, 0.002714, 0.001822, -0.0, -0.002685, -0.001756, -0.0, 0.001004, -0.002232, -0.002667, 0.001029, -0.002204, 0.002586, -0.001022, 0.002202, -0.002601, -0.001023, 0.002203, 0.002602, -0.000418, 0.002392, 0.002503, -0.000416, 0.002401, -0.002502, 0.000414, -0.002385, 0.002504, 0.000411, -0.002383, -0.002498]",1.72,86.7
carbon_dioxide,-188.49237248,12,9.442014e-07,"[-18.83125408, -18.83125401, -10.05913836, -1.0722162, -1.03537522, -0.50692632, -0.46852954, -0.46852954, -0.46641424, -0.33387037, -0.33387037]","[-0.0, 2e-06, 0.0, -1.6e-05, 8e-06, -0.018252, -1.6e-05, 5e-06, 0.018252]",0.67,53.9
magnesium_monohydride,-200.50671633,10,0.4910282,"[-46.21379795, -2.94065372, -1.7333661, -1.73336607, -1.72805609, -0.25601935, -0.14989649]","[-3e-06, -1.4e-05, -0.014058, -0.0, -0.0, -0.003598]",0.4,42.0
cyclopropene,-116.51488037,14,0.1805467,"[-9.90178743, -9.90080974, -9.89582434, -0.79611252, -0.54021018, -0.5108479, -0.45544767, -0.39282489, -0.30863889, -0.262513, -0.22472526]","[-0.000162, 0.0, 0.003774, -5e-05, -0.00308, -0.002377, -3.9e-05, 0.003544, -0.002158, -2e-06, 0.006539, 0.003859, -3e-06, -0.006545, 0.003871, 0.003789, 1e-06, -0.003679, -0.003772, 3e-06, -0.003692]",0.98,52.9
cyclobutane,-157.05600224,11,0.0001985792,"[-9.87811609, -9.87800739, -9.8780036, -9.87789616, -0.76910132, -0.58818043, -0.58817706, -0.49002031, -0.4284553, -0.42667103, -0.33686466, -0.33686022, -0.31309167, -0.27264983, -0.26623483, -0.26623343]","[0.001135, 0.002093, 0.002114, 0.001098, -0.002227, -0.002209, -0.001075, -0.002196, 0.002338, -0.00102, 0.002301, -0.002316, 0.001279, 0.001642, 0.001641, -0.002804, 0.00079, 0.000786, 0.001283, -0.001629, -0.001629, -0.002825, -0.000802, -0.000802, -0.001275, -0.001632, 0.001636, 0.002788, -0.00079, 0.000784, -0.001274, 0.001633, -0.001633, 0.002786, 0.000783, -0.00079]",1.55,106.2
silylene_s,-290.4698395,10,0.07185282,"[-65.42244402, -5.07232493, -3.49047535, -3.47970541, -3.47687944, -0.46168965, -0.29347604, -0.21418448]","[3.3e-05, -2.9e-05, -0.011333, 0.0, 0.003814, 0.005158, -0.0, -0.003811, 0.005153]",1.06,106.4
aluminum_monohydride,-242.84640226,10,0.04017985,"[-55.3884439, -3.94282547, -2.54803804, -2.54803801, -2.5388511, -0.32756992, -0.18036551]","[7.2e-05, -9.5e-05, 0.006684, 0.0, 0.0, -0.005367]",0.44,31.7
beryllium_oxide,-89.8387342,14,2.36131,"[-18.6809149, -3.87654091, -0.76888664, -0.25263154, -0.22578475, -0.22578475]","[1e-06, 1e-06, 0.005978, -0.0, -0.0, -0.005735]",0.42,25.0
