,Energy,Iterations,Dipole Moment,Eigens,Derivatives,Derivative Time,Wall Time
bicyclo[3.1.0]hexane,-234.73929366,17,0.07401152,"[-10.17122972, -10.1709596, -10.16516579, -10.16514018, -10.16501634, -10.16415872, -0.88148591, -0.76098611, -0.70669218, -0.62065148, -0.55458027, -0.54443555, -0.51248455, -0.4642889, -0.43683469, -0.40894827, -0.39556504, -0.35493319, -0.33908197, -0.33887443, -0.33053177, -0.28152234, -0.26963767]","[-0.000138, 0.003311, 6.7e-05, 0.000859, -0.002226, 8e-05, 9.7e-05, 0.000547, -0.002528, 0.000112, 0.000467, 0.002483, -0.000119, -0.001911, 0.001102, -0.000209, -0.001749, -0.001184, -0.000686, -7.9e-05, -1e-06, -7.3e-05, -0.001265, -2e-06, 4.9e-05, 0.001065, 2e-06, -0.000484, -0.00017, 0.0, 0.000606, 0.000405, -0.000454, 0.000604, 0.000401, 0.000449, -0.000195, 0.00032, 0.000891, -0.000191, 0.000319, -0.000891, -6.9e-05, 0.000291, -0.000327, -7.3e-05, 0.000292, 0.000309]",2.29,376.1
phosphine,-343.19075284,10,0.2186483,"[-77.05297962, -6.54726961, -4.70815812, -4.70815732, -4.70447103, -0.64750777, -0.38814873, -0.38814734, -0.28216683]","[0.003294, 0.000586, 0.000105, -0.000953, -0.001121, 0.0, -0.000955, 0.000555, 0.000955, -0.000955, 0.000555, -0.000955]",0.67,55.1
beryllium_sulfide,-412.94671643,13,2.108761,"[-88.8043274, -7.88683559, -5.84716271, -5.84540581, -5.84540563, -4.11043382, -0.64571493, -0.30874017, -0.24493882, -0.24493881]","[-0.0, -0.0, -0.00226, -1.4e-05, -3e-05, 0.000903]",0.54,91.4
lithium_oxide,-82.73155307,11,2.556059,"[-19.06410516, -1.99690997, -0.83391229, -0.29874239, -0.25113538, -0.23670173]","[1e-06, 1e-06, 9e-06, -0.0, -0.0, 0.000457]",0.41,54.6
carbon_monoxide,-113.37014767,10,0.03377336,"[-19.23848532, -10.29714363, -1.17216749, -0.58454148, -0.48496235, -0.48496235, -0.38701122]","[-0.0, -0.0, -0.008154, -1e-06, -0.0, 0.012704]",0.43,35.3
magnesium_oxide,-275.29034309,14,2.955893,"[-46.8210887, -19.03853863, -3.12967151, -1.87373761, -1.87373758, -1.87180526, -0.79510612, -0.25052732, -0.21880411, -0.2188041]","[-2e-06, -1.6e-05, -0.007558, -4e-06, -6e-06, 0.005391]",0.55,95.9
aluminum_nitride,-297.10532398,17,1.149143,"[-56.05034561, -14.34684868, -4.15658618, -2.71052969, -2.70807706, -2.70759728, -0.76361653, -0.36967134, -0.3141376, -0.26952247, -0.25828349]","[1e-05, -1.2e-05, -0.008103, -1e-06, -1e-06, 0.006856]",0.57,203.9
imidogen,-55.24975171,10,0.5873744,"[-14.40381341, -0.851741, -0.41488846, -0.34476539, -0.34476539]","[0.0, -0.0, 0.005143, 0.0, -0.0, -0.006843]",0.3,36.6
methyl_formate,-229.18264919,23,0.7600579,"[-19.19032799, -19.13088287, -10.31271958, -10.23743769, -1.11790959, -1.03137816, -0.74751092, -0.60801332, -0.5425224, -0.49596369, -0.48696021, -0.43409692, -0.40751211, -0.37899825, -0.32544229, -0.29953392]","[-0.00441, 0.016404, -2e-06, 0.004462, -0.000968, -1.7e-05, 0.009908, -0.024106, -4e-06, -0.009343, 0.006804, -6e-06, -4.5e-05, 0.001849, 0.0, -0.001322, 0.001635, 4e-06, 0.000538, -0.001187, 0.001835, 0.000535, -0.001189, -0.001836]",1.32,245.2
hypochlorite,-535.39001008,28,0.5423439,"[-101.62143988, -19.22724151, -9.55117141, -7.31326875, -7.3097848, -7.30106007, -1.10537768, -0.80095015, -0.49875124, -0.49013637, -0.45574944, -0.33446642, -0.29765873]","[1e-05, -1.7e-05, -0.000279, 0.000168, 8.1e-05, 0.003932]",0.65,772.5
methanol,-115.78794211,14,0.6590328,"[-19.12794184, -10.21821929, -1.023004, -0.68766104, -0.512471, -0.44589884, -0.43481042, -0.34382953, -0.28371049]","[-0.002754, 0.007489, 0.000178, 0.003185, -0.009502, 8.8e-05, -0.006838, 0.003861, -2e-06, 0.003148, -0.002132, 0.001881, 0.003174, -0.002137, -0.001899, -0.000397, 0.002718, 2e-06]",0.82,77.3
vinyl_fluoride,-177.91931751,12,0.5479425,"[-24.69409566, -10.26638923, -10.18240107, -1.23075533, -0.77776543, -0.61928454, -0.53754152, -0.49218935, -0.47053849, -0.42096962, -0.38592673, -0.27723933]","[0.009588, -0.005558, -1e-06, -0.015685, 0.003136, 0.0, -0.002891, -0.001882, 4e-05, 0.005049, -0.000277, 0.0, 0.002462, 0.004763, 0.0, 1.5e-05, 0.000554, 0.0]",2.23,255.7
formaldehyde,-114.5635109,13,0.9458104,"[-19.15178045, -10.28062606, -1.07076635, -0.64377866, -0.50566654, -0.46310294, -0.41214087, -0.28198989]","[3e-06, 5e-06, 0.011719, -1e-06, 0.0, -0.007825, -0.0, 0.003015, -0.001964, -0.0, -0.003015, -0.001964]",0.68,60.7
sulfur_diatomic,-796.45799613,12,3.836172e-07,"[-88.90530818, -88.90530418, -7.98624258, -7.98603269, -5.94741337, -5.94741305, -5.94734847, -5.94734814, -5.94626586, -5.9454054, -0.84465775, -0.63646098, -0.40584519, -0.38256469, -0.38256467, -0.24954091, -0.24954089]","[1e-05, 1e-06, -0.000358, 3.1e-05, -1.6e-05, 0.00035]",0.67,311.9
acetaldehyde,-153.91112635,12,1.164727,"[-19.134215, -10.27554838, -10.19092308, -1.0500015, -0.76378234, -0.5914109, -0.48795714, -0.45472756, -0.44526579, -0.40741388, -0.37377053, -0.27035543]","[-0.023123, -0.017605, -1.7e-05, 0.021037, 0.015029, 3e-06, 0.002628, 0.003335, 1e-06, 0.00128, 0.001113, 0.0, -0.00139, -0.001983, 0.0, 0.000809, -9.2e-05, 0.001564, 0.000809, -9.2e-05, -0.001564]",1.12,89.1
boron_monosulfide,-423.02402795,15,0.3414487,"[-88.86074206, -7.94512053, -6.85314016, -5.90592527, -5.90326707, -5.90326691, -0.74432507, -0.43644994, -0.31188948, -0.31188947, -0.31115087]","[-0.0, -1e-06, -0.020412, 6e-06, -5e-06, -0.005664]",0.56,209.1
beryllium_monofluoride,-114.676796,12,0.4847051,"[-24.65960649, -4.08006763, -1.16736059, -0.47697518, -0.42915884, -0.42915879, -0.22631091]","[-3e-06, -2e-06, -0.007102, -2.7e-05, -2e-06, -0.005841]",0.45,72.6
phosphorus_tribromide,-8064.2021672,24,0.1626835,"[-482.80243847, -482.80242174, -482.80238495, -77.18001367, -62.47463617, -62.47462535, -62.47461917, -56.28584849, -56.28583394, -56.28582432, -56.28324214, -56.28321512, -56.28320228, -56.28317319, -56.28315528, -56.28314763, -8.71171669, -8.71170614, -8.71170205, -6.66233516, -6.53881321, -6.53880039, -6.53879785, -6.53069249, -6.53068402, -6.53067866, -6.53049576, -6.5304851, -6.53048111, -4.82351211, -4.82351158, -4.81964894, -2.65395699, -2.65394355, -2.65393791, -2.65154205, -2.65153131, -2.65152493, -2.65138472, -2.65137267, -2.65136792, -2.64474055, -2.6447376, -2.6447316, -2.64472916, -2.64472647, -2.64472368, -0.8525041, -0.7956313, -0.79562499, -0.60526897, -0.43039263, -0.43038924, -0.3918099, -0.34183625, -0.34183408, -0.31206847, -0.31206466, -0.30252417, -0.28314604]","[-0.008327, -0.000195, -3.2e-05, -0.000112, -0.009206, -2e-05, 0.002171, 0.005044, 0.007759, 0.002188, 0.004801, -0.00747]",2.6,2576.8
sulfur_dioxide,-548.7523093,14,0.6552593,"[-89.03429148, -19.19169272, -19.19168634, -8.09784747, -6.06165256, -6.05855579, -6.05540564, -1.15800955, -1.06550229, -0.64461755, -0.50593075, -0.50465638, -0.50340598, -0.39021341, -0.37529398, -0.34645363]","[8e-06, 1.1e-05, -0.001544, -0.0, -0.001885, -0.001624, -3e-06, 0.001885, -0.001624]",0.83,189.6
methanethiol_radical,-438.12507842,15,0.6698868,"[-88.86700097, -10.20869743, -7.94815659, -5.9178308, -5.90800136, -5.90018726, -0.7893319, -0.63590713, -0.45034546, -0.44389088, -0.37727984, -0.28799897, -0.24843245]","[0.008441, -0.000717, -0.00239, -0.003121, 0.000275, 0.005251, -0.001936, 0.000194, 0.001812, -0.001728, 0.001219, -0.001814, -0.001814, -0.000946, -0.00171]",0.88,284.4
hydroxyl_radical,-75.77589603,10,0.6438089,"[-19.21299205, -1.03128582, -0.49189598, -0.42928199, -0.35956689]","[1e-05, 9e-06, 0.005429, -0.0, -0.0, -0.005795]",0.32,39.4
lithium_monosulfide,-405.7569916,10,2.719451,"[-88.79150169, -7.87319529, -5.84425441, -5.82860454, -5.828195, -2.02977571, -0.62033604, -0.2515819, -0.23488891, -0.2112185]","[0.0, 0.0, 0.000422, -8e-06, -3e-06, -0.001212]",0.5,147.7
phosphorus_dioxide,-491.91964596,21,0.5673617,"[-77.17810157, -19.18766667, -19.18766285, -6.66401142, -4.82732429, -4.825451, -4.82124887, -1.08502266, -1.03869175, -0.57689144, -0.47871849, -0.45894634, -0.45407452, -0.38443644, -0.38146188, -0.31968306]","[5e-06, 0.0, 0.025995, 4e-06, -0.00228, 0.005288, 2e-06, 0.002279, 0.005289]",0.85,596.3
formaldoxime_zwitterion,-169.89021031,13,1.416543,"[-19.11886686, -14.47312939, -10.22953676, -1.1181099, -0.86951993, -0.67043641, -0.55934157, -0.49541633, -0.46158253, -0.43323621, -0.27191257, -0.24837596]","[-0.000404, -0.003836, -0.009621, 0.001156, -0.000442, 0.008153, -0.000185, -0.002939, 0.007546, -0.000172, -0.005703, -0.000684, 0.000239, 0.003212, -0.004668, -0.000647, 0.009141, 0.000577]",0.93,124.8
tetrafluoroethylene,-475.76017001,20,3.023072e-06,"[-24.74745227, -24.74745142, -24.74744333, -24.74743619, -10.36983337, -10.36878566, -1.32610347, -1.31212648, -1.26848634, -1.25763115, -0.82699318, -0.6811594, -0.63921625, -0.63065149, -0.58614607, -0.57662011, -0.53303922, -0.50621618, -0.48394916, -0.47763524, -0.47274628, -0.47061491, -0.45345283, -0.27885449]","[8e-06, -5e-06, -0.014917, -7e-06, -4e-06, 0.014916, 2.1e-05, -0.000248, 0.001925, 3.3e-05, 0.000247, 0.00192, -3.4e-05, 0.000247, -0.00192, -5e-06, -0.000241, -0.001929]",1.46,392.6
boron_dioxide,-175.39379162,12,1.60936e-06,"[-19.21749682, -19.21749177, -6.83711417, -1.06317984, -1.06186071, -0.50288041, -0.48568562, -0.48296905, -0.45135203, -0.42096199, -0.3813063]","[-0.0, 2e-06, -0.0, -1e-05, -8e-06, 0.006817, 7e-06, 2e-05, -0.006818]",0.65,133.3
cyano_radical,-92.75500727,14,0.5361984,"[-14.39027455, -10.30124965, -0.96448751, -0.50785227, -0.41414364, -0.39645525, -0.39645525]","[-5e-06, -0.0, -0.052424, 2e-06, -7e-06, 0.025732]",0.42,79.9
boron_nitride,-79.45070806,13,0.8246024,"[-14.37482982, -6.8505954, -0.85346914, -0.41594173, -0.37261589, -0.33075765, -0.32997738]","[-2e-06, 2e-06, -0.025113, 3e-06, -1e-06, 2e-05]",0.39,68.3
acetyl_chloride,-613.57161023,22,1.106585,"[-101.53160213, -19.16497281, -10.33643375, -10.21733789, -9.46745792, -7.22799447, -7.22154823, -7.22030407, -1.10322328, -0.861137, -0.76912504, -0.57276595, -0.50108015, -0.48548473, -0.48530817, -0.42544967, -0.41124909, -0.33560848, -0.33135872, -0.30823092]","[0.008868, -0.006403, 1e-06, 0.010722, 0.005044, 1e-06, -0.001845, 0.0109, 2e-06, -0.003681, 0.000855, 3e-05, -0.011264, -0.000145, 0.0, -0.00076, -0.005275, 0.009301, -0.00076, -0.005275, -0.009301]",1.29,355.5
magnesium_diatomic,-400.20754254,9,2.094055e-05,"[-46.78978302, -46.78977864, -3.09478875, -3.09478773, -1.83824914, -1.83824906, -1.83824735, -1.83824726, -1.83799572, -1.8379695, -0.21517174, -0.17704496]","[-4.2e-05, 3.3e-05, 0.000509, -2.5e-05, 3.3e-05, -0.000396]",0.61,72.8
methyl_chloride,-500.17669684,20,0.7346268,"[-101.51718827, -10.23811753, -9.45217023, -7.21387099, -7.20519046, -7.20519044, -0.85511786, -0.67767808, -0.44742784, -0.44742609, -0.42273702, -0.30368305, -0.30368263]","[0.027625, 9e-05, 7.7e-05, 0.00194, -0.000123, 0.0002, -0.009485, -0.014318, 1e-06, -0.009476, 0.007146, 0.012377, -0.009439, 0.007156, -0.012392]",0.85,169.6
dimethyl_ether,-155.10787064,10,0.5000097,"[-19.12908077, -10.21519663, -10.21519078, -1.03820075, -0.72389859, -0.64207175, -0.47968558, -0.47824426, -0.47760062, -0.40169822, -0.38479012, -0.32568431, -0.26496826]","[0.000461, -1e-06, -0.01025, 0.000786, -0.004169, -0.001317, 0.00079, 0.004168, -0.001317, -9e-06, -0.006243, 0.001394, -9e-06, 0.006243, 0.001394, -0.001156, 0.00377, 0.001851, 0.001046, 0.003673, 0.001867, 0.001046, -0.003673, 0.001867, -0.001156, -0.00377, 0.001851]",1.32,88.8
methyl_ketene,-192.01252928,23,0.7623207,"[-19.18729395, -10.29118018, -10.18994673, -10.1877071, -1.11414712, -0.80716849, -0.69187615, -0.53658324, -0.50157006, -0.46175386, -0.4572158, -0.42214724, -0.40781442, -0.39031476, -0.23615078]","[0.000953, 0.000251, -2.4e-05, -0.012433, 0.003377, -1e-05, -0.000688, 0.000743, 8e-06, 0.008947, -0.003947, 2.7e-05, 0.000262, -0.000547, 7e-06, 0.000715, 2.9e-05, -1e-06, 0.000955, 0.000125, 0.00034, 0.000951, 0.000122, -0.00034]",1.31,225.1
tetrafluorosilane,-689.3995709,11,1.85998e-05,"[-66.23712405, -24.72087714, -24.72087607, -24.72087496, -24.72086934, -5.39665166, -3.75580453, -3.75580414, -3.75580412, -1.27448897, -1.23805741, -1.23805681, -1.23805427, -0.62605054, -0.55822302, -0.55822226, -0.55822101, -0.50578194, -0.50578108, -0.49670812, -0.49670706, -0.49670696, -0.45997606, -0.45997403, -0.45997352]","[1e-06, 2.7e-05, -5e-06, -0.001792, 0.006781, -0.005006, 0.001829, -0.006785, -0.004992, 0.00678, 0.001813, 0.004999, -0.006789, -0.00178, 0.004991]",1.5,381.9
silicon_monosulfide,-687.77612571,11,0.6977731,"[-88.84389121, -66.15090203, -7.92751688, -5.88688681, -5.88688668, -5.88590251, -5.31736102, -3.67642846, -3.67642836, -3.67060648, -0.71349256, -0.4404335, -0.29377823, -0.29377821, -0.28836372]","[2.2e-05, 0.0, 0.007689, 4.7e-05, 1.5e-05, -0.004608]",0.7,136.1
sulfur_monochloride,-858.43692248,13,0.02096288,"[-101.57421229, -88.91711494, -9.50784096, -7.99557421, -7.26869727, -7.26446024, -7.25936179, -5.96261311, -5.9591679, -5.94642107, -0.90676625, -0.69341486, -0.44258737, -0.41394226, -0.39523006, -0.29382218, -0.26144436]","[2.2e-05, 2e-06, 0.000846, 9e-06, -1.3e-05, 0.001914]",0.68,336.0
neon_dimer,-257.96185109,12,6.365982e-08,"[-30.96972868, -30.9697259, -1.45995381, -1.45934753, -0.57887016, -0.57560803, -0.57560802, -0.57447084, -0.57447082, -0.571254]","[-1.1e-05, -1.5e-05, 0.000156, 7e-06, -2e-06, -0.000165]",0.54,82.8
formaldoxime,-169.90426212,11,0.15487,"[-19.17627669, -14.3856682, -10.21478654, -1.09348074, -0.8724786, -0.61884473, -0.54287741, -0.47507076, -0.43185891, -0.42253487, -0.30019089, -0.28230673]","[-0.010152, 0.015405, -1.7e-05, 0.009299, -0.015161, 7e-06, 0.004815, 0.001243, -2.6e-05, 0.002346, -0.000254, -0.0, -0.002098, -0.00405, -1e-06, -0.004928, 0.003141, -0.0]",1.03,89.1
lithium_chloride,-467.85086587,10,2.733045,"[-101.4231308, -9.35952041, -7.11571589, -7.1152635, -7.11526349, -2.03327872, -0.71642714, -0.27816591, -0.25536593, -0.2553659]","[-0.0, 0.0, 0.000117, -2.5e-05, 3e-05, 0.008586]",0.56,82.0
isopropyl_radical,-118.53899813,23,0.1152039,"[-10.1795686, -10.16563837, -10.16562633, -0.78523369, -0.69353846, -0.57328363, -0.45640901, -0.43426359, -0.41236001, -0.39078667, -0.35811508, -0.35225838, -0.1890257]","[-0.012732, -0.003379, 2.4e-05, 0.002767, 0.001546, -0.000251, 0.002771, 0.001528, 0.000263, 0.00084, 1e-06, 0.0, -0.001081, -0.00153, 0.001085, -0.00108, -0.001531, -0.001083, 0.000669, -0.000232, -0.000419, -0.001516, 0.000556, -0.00067, -0.001514, 0.000555, 0.000671, 0.000668, -0.000234, 0.000421]",1.2,435.5
cyanogen,-185.74087594,12,5.848668e-07,"[-14.39337225, -14.39336966, -10.29131988, -10.29074036, -0.99029628, -0.97189131, -0.75546708, -0.4621778, -0.4621778, -0.44123069, -0.42962012, -0.38354686, -0.38354686]","[0.0, 0.0, 0.013263, 0.0, 0.0, -0.013263, 1e-06, 1e-06, -0.001602, 1e-06, 1e-06, 0.001602]",0.87,114.4
boron_monohydride,-25.30184099,9,0.6172425,"[-6.84290843, -0.48796398, -0.24027384]","[-0.0, -0.0, -0.000371, -0.0, -0.0, -0.000585]",0.26,13.5
thiirane,-476.86845421,12,0.7383921,"[-88.8455028, -10.21762294, -10.21731166, -7.92690173, -5.88996415, -5.8875958, -5.88065592, -0.86772203, -0.62571919, -0.62113914, -0.50056833, -0.4570808, -0.39432765, -0.33065444, -0.32112402, -0.23353811]","[0.000176, 0.000445, -0.010234, -0.00015, -0.000919, 0.000894, -0.000526, 0.000951, 0.001072, 0.002018, 2.5e-05, 0.000401, -0.002024, 2e-05, 0.000396, -0.002012, -1.5e-05, 0.00038, 0.002011, -4.1e-05, 0.000415]",1.19,173.4
sodium_chloride,-622.63381693,10,3.414769,"[-101.40285812, -38.48238757, -9.33866991, -7.09531415, -7.09425913, -7.09425913, -2.25229249, -1.18479562, -1.18479562, -1.18314751, -0.69158284, -0.2494757, -0.23287339, -0.23287339]","[4.2e-05, 2e-06, 0.001814, 5e-06, -3.7e-05, 0.004774]",0.69,115.2
magnesium_sulfide,-598.32567394,13,2.981075,"[-88.78414858, -46.84984568, -7.86492775, -5.82856405, -5.82199713, -5.82199702, -3.15704997, -1.90047326, -1.90046255, -1.90046241, -0.60503148, -0.26622847, -0.20901516, -0.20901514]","[1.8e-05, 1.6e-05, -0.001018, -1.1e-05, -1.5e-05, -0.002951]",0.7,134.6
methyl_silane,-331.27769711,15,0.3025852,"[-66.09047284, -10.16179113, -5.26232819, -3.62013883, -3.6201388, -3.61963949, -0.70510067, -0.52109362, -0.41640443, -0.41639314, -0.33741093, -0.33740435, -0.3306318]","[0.005262, -2.4e-05, 0.0, -0.003197, -0.000668, 1.8e-05, -0.000901, -0.003481, 0.0, -0.000916, 0.001756, -0.003042, -0.000916, 0.001756, 0.003042, -0.000216, 0.000488, -0.0, -0.000226, -0.000232, -0.000401, -0.000226, -0.000232, 0.000401]",1.14,146.1
aluminum_trichloride,-1623.41393458,11,0.0001358296,"[-101.53101475, -101.53099922, -101.53094527, -56.10688279, -9.46802193, -9.46801673, -9.46801431, -7.22599126, -7.22597492, -7.22597196, -7.2230976, -7.22309305, -7.22309031, -7.22233081, -7.22232643, -7.22232378, -4.2120846, -2.76827243, -2.76317041, -2.76317021, -0.84822346, -0.8314651, -0.83146095, -0.47038338, -0.40795213, -0.40794947, -0.37542769, -0.35842808, -0.35842635, -0.35260045, -0.35259708, -0.33510174]","[3e-06, 4.2e-05, -0.000444, 7e-06, -4e-05, -0.003563, -2e-06, -0.004002, 0.003026, 7e-06, 0.004074, 0.00306]",1.55,452.0
methanethiol,-438.76930329,17,0.6182993,"[-88.84742935, -10.20809366, -7.92992246, -5.89314299, -5.88983461, -5.88428966, -0.78315998, -0.64728401, -0.45325064, -0.43520962, -0.40454219, -0.33087199, -0.24148957]","[0.000173, -0.009177, -0.005246, 0.000285, 0.018212, 0.008225, -2.1e-05, -0.008146, -0.003142, -0.008029, 0.006338, -0.002263, 7.5e-05, -0.011598, 0.006563, 0.00773, 0.005941, -0.002551]",0.99,180.1
hypochlorous_acid,-536.04664484,13,0.5992567,"[-101.57141897, -19.20510907, -9.50253413, -7.26809542, -7.25410269, -7.25377608, -1.08242726, -0.80664833, -0.54387985, -0.45673227, -0.42233014, -0.32646965, -0.2933963]","[-0.001068, 0.000786, 7e-06, -0.002916, -0.001112, -0.0, 0.008619, 0.002622, -8.1e-05]",0.77,137.0
lithium_hydride,-8.08876699,8,2.253098,"[-2.00288577, -0.19540382]","[-0.0, -0.0, -0.000872, 0.0, 0.0, 0.001134]",0.23,9.3
monosulfur_monofluoride,-498.05994157,20,0.2950668,"[-88.94704133, -24.73592805, -8.02244308, -5.99003129, -5.98748587, -5.97216418, -1.25587522, -0.73716813, -0.51584403, -0.51136206, -0.49579823, -0.31292071, -0.27275446]","[-4e-06, -6e-06, 0.003476, -0.0, 7e-06, -0.004468]",0.61,335.6
ammonia,-56.59466939,10,0.5984929,"[-14.29809917, -0.85808707, -0.46725301, -0.46723501, -0.27589128]","[-0.002413, -1.3e-05, 1e-06, 0.000446, 0.00073, 0.0, 0.000461, -0.000355, -0.000611, 0.000461, -0.000354, 0.000611]",0.47,24.8
boron_monofluoride,-124.72963873,10,0.3730821,"[-24.77011948, -6.85836234, -1.30261718, -0.62626965, -0.53584177, -0.53584177, -0.28911976]","[0.0, -0.0, -0.004813, 1e-06, -1e-06, 0.003543]",0.43,43.8
carbon_tetrafluoride,-437.71401766,12,0.0001904992,"[-24.75067141, -24.75063401, -24.7506306, -24.75062688, -10.52369639, -1.39667196, -1.27931317, -1.27929904, -1.27929704, -0.74839613, -0.65938965, -0.65938337, -0.65938243, -0.5248426, -0.52484139, -0.49821336, -0.49821205, -0.49821008, -0.45368786, -0.45368702, -0.45368002]","[-2e-05, -1e-05, -3.2e-05, -0.000883, 0.008861, -0.006837, 0.00085, -0.008861, -0.006826, 0.008949, 0.000841, 0.006744, -0.00889, -0.000826, 0.006813]",1.42,298.8
silicon_diatomic,-578.9251343,12,5.106104e-06,"[-66.12615119, -66.12614554, -5.2938665, -5.29368719, -3.65462758, -3.65462758, -3.65453822, -3.65453822, -3.64586364, -3.6448904, -0.53723865, -0.37612597, -0.23378182, -0.23378181, -0.21787217]","[-7e-06, 5e-06, 0.011118, -1.8e-05, -6e-06, -0.011117]",0.6,241.3
acetylene,-77.37166616,10,7.701268e-05,"[-10.1862544, -10.18370989, -0.75912464, -0.57474491, -0.50511945, -0.30100023, -0.30100023]","[0.0, 0.0, 0.013343, 0.0, 0.0, -0.013783, -0.0, 0.0, 0.001267, 0.0, 0.0, -0.001274]",0.58,43.3
phosphorus_trichloride,-1722.20062267,12,0.2222468,"[-101.54750392, -101.54747944, -101.54747509, -77.18905875, -9.48372549, -9.48372475, -9.48371983, -7.24373122, -7.2437292, -7.24372849, -7.23752318, -7.23752261, -7.23752045, -7.2372699, -7.23726976, -7.23726644, -6.66974774, -4.8312928, -4.83129187, -4.82673257, -0.91194844, -0.84830675, -0.84830451, -0.61627454, -0.46351446, -0.46351184, -0.42357587, -0.37630095, -0.37629908, -0.34295063, -0.34294831, -0.33213531, -0.29554925]","[0.006801, -0.000345, 2.6e-05, -0.004081, -0.010161, -2.5e-05, -0.0042, 0.00506, -0.00933, -0.004221, 0.005044, 0.00939]",1.49,508.1
magnesium_monochloride,-660.40320879,11,1.37447,"[-101.46706295, -46.83693352, -9.40380365, -7.16142391, -7.1589125, -7.15891249, -3.14561029, -1.8898116, -1.88981159, -1.88741723, -0.76497535, -0.34276501, -0.29724896, -0.29724895, -0.20446]","[-9e-06, -2.6e-05, -0.009218, -7e-06, -9e-06, -0.005814]",0.65,254.8
carbon_disulfide,-834.59636414,11,8.832133e-07,"[-88.8867692, -88.88676891, -10.29879176, -7.96955038, -7.96954211, -5.93091253, -5.9309122, -5.92754322, -5.92754322, -5.9275424, -5.92754239, -0.86200172, -0.77410513, -0.51380688, -0.43615087, -0.39423316, -0.39423315, -0.27965823, -0.27965822]","[2e-06, 3e-06, 0.0, 1.7e-05, -5.7e-05, 0.000459, -3.7e-05, -6.1e-05, -0.000457]",0.89,195.2
magnesium_monofluoride,-300.0462697,12,1.298745,"[-46.81413261, -24.57412057, -3.12460178, -1.86937912, -1.8693791, -1.8660898, -1.0649369, -0.37135067, -0.34171503, -0.34171503, -0.20369279]","[-1.8e-05, 5.2e-05, -0.007205, -5e-06, -1e-06, -0.006964]",0.57,163.5
methyl_radical,-39.86339306,10,2.876379e-05,"[-10.18915977, -0.69202963, -0.42812407, -0.42812236, -0.23747016]","[-0.0, 3.6e-05, -0.000132, -0.0, 1e-06, -0.000477, -0.0, 0.000453, 0.000252, -0.0, -0.00047, 0.000264]",0.48,40.1
ethylene,-78.6315487,10,0.0002705784,"[-10.17823435, -10.17735407, -0.76397509, -0.58438774, -0.47532092, -0.42426706, -0.36315962, -0.28025108]","[-0.0, -0.0, 0.013886, -0.0, 0.0, -0.014114, -0.0, 0.003265, 0.000649, -0.0, -0.003265, 0.000649, -0.0, 0.003244, -0.000659, -0.0, -0.003244, -0.000659]",0.75,44.2
trifluoroacetate_anion,-526.54210074,16,1.882741,"[-24.55082871, -24.55082773, -24.54963421, -18.9046024, -18.90268376, -10.2476354, -10.10106948, -1.15172032, -1.06406541, -1.06378118, -0.86140962, -0.78121642, -0.55921672, -0.45107927, -0.43345188, -0.43093746, -0.3164417, -0.31624085, -0.30673191, -0.27971122, -0.27475308, -0.25634657, -0.2517994, -0.24029313, -0.22320778, -0.09099778, -0.08293428, -0.07947545]","[0.001519, 7.3e-05, 0.0, -0.012229, 0.000168, 1e-06, 0.002367, -0.004354, 4e-06, 0.002075, 0.002137, -0.003922, 0.002075, 0.002139, 0.003923, 0.003906, 0.011022, -1e-06, 0.002844, -0.010967, 4e-06]",1.87,464.7
bromoform,-7761.44351894,24,0.3415694,"[-482.80375162, -482.8037491, -482.80370151, -62.47566133, -62.47564602, -62.47564118, -56.28759557, -56.2875627, -56.28755474, -56.28394451, -56.28392446, -56.28391599, -56.28388759, -56.28388072, -56.2838516, -10.34222118, -8.71277909, -8.71276198, -8.71275976, -6.54186241, -6.54184556, -6.54184343, -6.53065286, -6.53063519, -6.53063293, -6.53061457, -6.5305982, -6.53059592, -2.65663569, -2.6566006, -2.65659056, -2.65333081, -2.65331671, -2.65329399, -2.65329283, -2.65327665, -2.65327067, -2.64413545, -2.64413493, -2.64411886, -2.64411829, -2.64411617, -2.64411572, -0.89156523, -0.79658518, -0.79657677, -0.64364988, -0.48698972, -0.44788169, -0.447877, -0.33233459, -0.33233395, -0.30907925, -0.30656931, -0.30656246, -0.28941497]","[-0.023879, 7.4e-05, 7e-06, 0.019302, -1e-06, -0.0, 0.002577, 0.009496, -4.2e-05, 0.001358, -0.001378, 0.008257, 0.001477, -0.001278, -0.00794]",2.64,2372.2
nitrogen_trifluoride,-354.26777575,13,0.07364899,"[-24.76541686, -24.76541175, -24.76538757, -14.6236778, -1.39336068, -1.26267669, -1.2626736, -0.84068886, -0.65081512, -0.6508148, -0.60184025, -0.51078786, -0.51078135, -0.46626733, -0.46626496, -0.45072098, -0.37036831]","[0.015979, -1.2e-05, 4e-06, -0.004972, -0.009505, 6e-05, -0.004764, 0.004744, -0.007902, -0.004783, 0.0047, 0.007898]",1.0,211.4
phosphorus_tetramer,-1365.61807915,18,0.0001430626,"[-77.08103398, -77.08102823, -77.08102001, -77.08100004, -6.571633, -6.57147608, -6.57147368, -6.57147146, -4.73197669, -4.73150933, -4.73150631, -4.73150421, -4.73104901, -4.73104711, -4.73096947, -4.73096759, -4.73096708, -4.73085209, -4.73084842, -4.73084777, -0.80208984, -0.54170341, -0.54170282, -0.54169687, -0.35144462, -0.29950651, -0.29950326, -0.2994984, -0.26915223, -0.26914998]","[0.003944, -0.001756, -1e-05, -0.002402, -0.002962, -0.000126, -0.000829, 0.003141, 0.004204, -0.000739, 0.003169, -0.004271]",1.42,518.1
phosphorus_monochloride,-801.60246786,12,0.1940374,"[-101.54936717, -77.11179287, -9.4847676, -7.24356005, -7.23977816, -7.23977794, -6.60217453, -4.76478909, -4.76478877, -4.76184648, -0.87054337, -0.60359987, -0.39741012, -0.38399393, -0.38399392, -0.24123782, -0.24123778]","[-5e-06, -1e-06, 0.002662, -1.8e-05, -1.4e-05, -0.002864]",0.68,307.5
mercapto_radical,-398.78959696,11,0.2914283,"[-88.88784821, -7.96928533, -5.93955461, -5.9285865, -5.92131554, -0.74223631, -0.41862824, -0.32536918, -0.2808464]","[3e-06, 1.1e-05, 0.006478, -0.0, -0.0, -0.003279]",0.46,139.1
pentane,-197.86907714,23,0.03650233,"[-10.1628646, -10.16285335, -10.16066421, -10.15631028, -10.15630837, -0.8048327, -0.7529219, -0.67709116, -0.59998024, -0.57674475, -0.47918325, -0.44074858, -0.43479399, -0.4062171, -0.39674418, -0.37916382, -0.35557251, -0.33733312, -0.3296479, -0.32369224, -0.31783514]","[0.0, -1e-06, 0.000892, -0.0, 0.000864, -0.000482, 0.0, -0.000866, -0.000482, 0.0, 0.000756, 0.000569, 0.0, -0.000757, 0.000568, 0.00012, -0.0, -0.000623, -0.00012, -0.0, -0.000623, 0.000311, 0.000334, 0.000784, -0.000311, 0.000334, 0.000784, -0.000311, -0.000334, 0.000784, 0.000311, -0.000334, 0.000783, 0.0, 0.000918, 0.000193, -0.0, -0.000917, 0.000193, -0.000556, 0.000685, -0.000701, 0.000555, 0.000685, -0.000701, 0.000555, -0.000685, -0.000701, -0.000556, -0.000685, -0.000701]",2.16,394.8
isopropyl_alcohol,-194.46247573,23,0.6466085,"[-19.12489147, -10.22557201, -10.16607699, -10.15972991, -1.02100857, -0.7763763, -0.69480378, -0.58847197, -0.51786118, -0.45859614, -0.44030559, -0.39567908, -0.3856714, -0.37338661, -0.36051208, -0.33145831, -0.2800412]","[-0.006873, -0.005616, 0.012578, -0.001223, 0.00121, -0.00209, -0.0001, 0.001967, -0.002777, 0.000696, 0.001003, 0.002788, 0.004735, 0.002303, -0.010048, 0.002657, -0.000939, -2.8e-05, -0.001799, 0.000485, -0.000913, -0.00182, 0.000767, 0.00087, 0.000822, 0.001812, 0.001039, 0.000789, 0.001331, -0.001589, 0.001105, -0.002153, -0.000275, 0.000847, -0.002059, 0.000158]",1.56,311.7
glyoxal_trans,-227.93463197,13,3.224909e-07,"[-19.17887269, -19.17887073, -10.30400048, -10.30376686, -1.10086759, -1.0874803, -0.7226052, -0.60789101, -0.50746808, -0.50688645, -0.47273109, -0.46250797, -0.41161717, -0.34613532, -0.28541857]","[-0.007473, 0.002808, 2e-06, 0.007474, -0.002808, 1e-06, -0.009135, -0.013371, 0.0, 0.009135, 0.013371, -0.0, 0.018846, 0.014697, 1e-06, -0.018846, -0.014698, -8e-06]",1.06,151.5
ethanol,-155.12388259,14,0.6513225,"[-19.124818, -10.21655092, -10.16304838, -1.02040605, -0.75371281, -0.61220629, -0.51831672, -0.4748132, -0.40910278, -0.38785501, -0.37308496, -0.34023368, -0.2793767]","[-0.007319, -0.010271, -6e-06, -0.00645, 0.007862, -2.4e-05, -0.012885, -0.007321, -7e-06, 0.005177, 0.010855, -1e-06, 0.000391, 0.009371, 2e-06, 0.005978, 0.000242, -1.5e-05, 0.005971, 0.000234, 1.5e-05, 0.004528, -0.005636, -0.003346, 0.00453, -0.005636, 0.003347]",1.2,168.6
nitrogen_monofluoride,-154.51705254,23,0.04995851,"[-24.78012214, -14.47552359, -1.32786583, -0.81871641, -0.55584462, -0.55584462, -0.53049642, -0.31949562, -0.31949561]","[-4e-06, -6e-06, 0.001211, 1e-06, 3e-06, -0.005813]",0.52,190.3
vinyl_chloride,-538.27440772,22,0.5477498,"[-101.53041098, -10.24278281, -10.18926124, -9.46565408, -7.22692475, -7.21915082, -7.21856488, -0.88109951, -0.75537541, -0.59028506, -0.49601346, -0.45630184, -0.39394185, -0.3754472, -0.31996692, -0.26985976]","[0.014678, 0.001098, -1e-06, -0.011677, -0.009179, 2e-06, -0.004423, -0.002211, -1.8e-05, -0.001237, 0.007255, -0.0, 0.001958, 0.000533, 0.0, 0.000981, 0.000569, 0.0]",2.14,696.2
ammonia_oxide,-131.75552309,15,2.064254,"[-19.05352127, -14.46240554, -1.05823405, -0.81237182, -0.57787907, -0.5778768, -0.4309708, -0.22129393, -0.22129284]","[-0.003386, 2.2e-05, -7.6e-05, -0.004872, -1.4e-05, -7.6e-05, 0.002579, 0.003259, 9e-06, 0.002586, -0.001643, 0.002845, 0.002605, -0.001622, -0.002826]",0.77,81.9
methylenecyclopropane,-156.03859238,19,0.1651729,"[-10.19003985, -10.18602018, -10.18582466, -10.17039152, -0.86999012, -0.71637072, -0.61667423, -0.53704015, -0.4820193, -0.4741746, -0.43037896, -0.37780614, -0.318261, -0.29821669, -0.2611504]","[1.7e-05, -1e-05, 0.00945, -2.7e-05, 4e-06, -0.02601, -0.000102, -0.005438, -0.000358, -9.9e-05, 0.005439, -0.000359, 3e-06, 0.000593, 0.005553, 3e-06, -0.000596, 0.005554, 0.003312, 0.004366, 0.001597, -0.003321, 0.004377, 0.00158, -0.003322, -0.004377, 0.00158, 0.003312, -0.004366, 0.001597]",1.39,202.0
oxygen_monofluoride,-174.96586307,23,0.01464435,"[-24.79306015, -19.30337358, -1.33504371, -0.96857351, -0.58294603, -0.57205112, -0.54007862, -0.40489795, -0.35297204]","[-0.0, 5e-06, -0.003209, -8e-06, -3e-06, 0.005506]",0.49,196.2
methylamine,-95.91319986,13,0.5041349,"[-14.29702151, -10.18827726, -0.87740885, -0.66313006, -0.49417517, -0.44386022, -0.40748575, -0.37242065, -0.24411518]","[-0.000152, 0.000432, 1e-06, -0.000947, -0.000774, -0.0, 0.000562, -0.000309, -0.0, -0.000208, -0.000177, 0.000394, -0.000208, -0.000178, -0.000394, 0.000403, 0.000481, -0.000967, 0.000403, 0.000481, 0.000967]",0.9,80.3
hydrogen_chloride,-460.85298257,11,0.4274369,"[-101.53465367, -9.47046976, -7.2316864, -7.22365182, -7.22365164, -0.8513471, -0.47920004, -0.33920145, -0.33920145]","[0.0, -0.0, 0.002661, 1.9e-05, 2.2e-05, -0.003251]",0.48,81.3
ethanethiol,-478.10321187,23,0.6363477,"[-88.84427054, -10.20689313, -10.17606867, -7.92711108, -5.89017211, -5.88706409, -5.88152516, -0.80575844, -0.7081255, -0.6056359, -0.4672136, -0.46489408, -0.39720005, -0.3709056, -0.36874143, -0.33174456, -0.24115045]","[0.000433, -0.002788, -0.0, -0.00709, 0.000836, -1e-06, -0.001336, 0.008317, 5e-06, 0.002084, 0.003045, -0.0, -0.001493, -0.001003, 0.001325, -0.001493, -0.001003, -0.001325, 0.000565, 0.000441, 0.001456, 0.000565, 0.000441, -0.001456, 0.007841, -0.00714, 0.0]",1.35,277.7
acetamide,-209.32538124,23,1.519604,"[-19.0954156, -14.34600308, -10.28517495, -10.19395221, -1.03987751, -0.90708764, -0.74074742, -0.59218826, -0.54025846, -0.47572891, -0.45316639, -0.41326933, -0.40268532, -0.37533837, -0.28393653, -0.2636508]","[0.001578, 0.004027, -0.015063, -0.000657, -0.003461, 0.005252, -0.003695, 0.003327, 0.002806, 0.000304, 0.010476, -0.001099, -0.001893, 0.018282, 0.015235, -0.016398, -0.011103, 0.001292, 0.017044, -0.009741, 0.001823, 0.001405, 0.003521, -0.013711, 0.002428, -0.015504, 0.00325]",1.34,267.9
nitromethane,-245.13927121,23,1.424621,"[-19.17526252, -19.17375522, -14.56594996, -10.24827332, -1.24350518, -1.07182925, -0.83045227, -0.63608766, -0.56452884, -0.55355422, -0.53559221, -0.46149339, -0.44816452, -0.33308204, -0.32609032, -0.31201537]","[-0.002973, -0.005404, -5.4e-05, 0.011497, -0.000521, -6.7e-05, -0.000638, 0.003774, -3e-06, -0.000718, 0.001079, 0.002845, -0.000759, 0.001104, -0.002805, -0.00456, -0.006235, 5e-06, -0.002266, 0.006153, 1.7e-05]",1.25,264.0
hydrogen_sulfide,-399.44178723,11,0.3786849,"[-88.86030451, -7.94377629, -5.90659083, -5.90371767, -5.8983454, -0.750279, -0.45233353, -0.37460387, -0.26917137]","[6e-06, -2e-06, 0.010058, -0.0, -0.005284, -0.004316, 0.0, 0.005284, -0.004316]",0.53,76.1
monosodium_sulfide,-560.54337815,12,3.215755,"[-88.78152465, -38.47656215, -7.86259362, -5.83349884, -5.81882977, -5.81714717, -2.2461616, -1.17898698, -1.17834537, -1.17680781, -0.60539925, -0.23811378, -0.21610214, -0.19690855]","[9e-06, -1.6e-05, 0.000191, -1.4e-05, 1.3e-05, -0.004647]",0.63,236.1
silicon_nitride,-344.18364745,21,1.149387,"[-66.14588353, -14.34982976, -5.314431, -3.67303293, -3.67136062, -3.67136056, -0.79975693, -0.44115069, -0.3238892, -0.30159944, -0.30159944]","[-2e-05, 1.8e-05, -0.016188, 0.0, -1.3e-05, 0.030192]",0.59,262.2
hydrogen_cyanide,-93.47108594,15,1.194925,"[-14.34773471, -10.23448097, -0.92964211, -0.61786601, -0.39407536, -0.37243018, -0.37243018]","[-0.0, 0.0, 0.027407, -0.0, 0.0, -0.001383, 0.0, 1e-06, -0.025633]",0.52,54.7
carbonyl_sulfide,-511.64069951,15,0.3346792,"[-88.89025948, -19.21532933, -10.33860991, -7.97317093, -5.93594661, -5.93041683, -5.93041661, -1.14584936, -0.82929794, -0.55744479, -0.48375541, -0.4837554, -0.4794054, -0.3108345, -0.31083449]","[-1e-06, -2e-06, -0.010868, -6e-06, 5e-06, 0.009825, 7e-06, 1.5e-05, 0.002995]",0.79,175.5
chlorine_trifluoride,-759.71857408,25,0.2397262,"[-101.77425871, -24.78140449, -24.70049339, -24.70049149, -9.68579431, -7.44973563, -7.4477526, -7.43217243, -1.32766996, -1.20776503, -1.20757427, -0.90061026, -0.6264578, -0.62199139, -0.57348406, -0.51679032, -0.46933419, -0.4504267, -0.4501273, -0.42736579, -0.40454059, -0.35286032]","[0.0, -8e-06, -0.008543, -0.0, 1e-06, 0.008865, -0.0, -0.008402, -0.00088, -1e-06, 0.008401, -0.00088]",1.22,544.7
ethanol_radical,-154.44550948,18,0.8086413,"[-19.17747512, -10.23714626, -10.16755935, -1.02928371, -0.74942687, -0.62392916, -0.50846591, -0.46732496, -0.42174261, -0.39601961, -0.39011009, -0.34150158, -0.29033792]","[0.008838, -0.014315, 1e-06, 0.015987, 0.041304, -0.0, -0.012313, -0.020294, -4e-06, -0.008439, -0.003248, 0.002128, -0.008439, -0.003248, -0.002128, 0.004131, 0.003134, -0.0, -0.000182, -0.001205, 0.001636, -0.000182, -0.001205, -0.001636]",1.07,323.9
phosphorus_trifluoride,-641.19125635,12,0.1853427,"[-77.19969882, -24.73125964, -24.73123866, -24.73123298, -6.67784722, -4.84051904, -4.84051883, -4.83378488, -1.30833421, -1.25490012, -1.25489163, -0.68752818, -0.58637526, -0.58637114, -0.55281608, -0.51580773, -0.51580475, -0.47644643, -0.47644091, -0.45996362, -0.31427995]","[-0.062034, -0.000645, 2.3e-05, 0.020547, -0.024711, 8e-06, 0.020274, 0.012321, 0.021441, 0.020273, 0.012306, -0.021451]",1.1,263.8
nitrogen_diatomic,-109.58061857,9,3.769674e-05,"[-14.4255751, -14.42376186, -1.13205728, -0.56048426, -0.47393464, -0.47393464, -0.43982361]","[3.8e-05, -8e-06, -0.015857, 3.5e-05, -1e-06, 0.015707]",0.42,32.0
acetone,-193.25489786,12,1.243581,"[-19.11892973, -10.27176975, -10.18333325, -10.18333002, -1.03995281, -0.77825191, -0.71865728, -0.54047516, -0.46842058, -0.46765571, -0.45919894, -0.41271516, -0.40324603, -0.38643642, -0.35662393, -0.25942676]","[2.5e-05, 1.6e-05, 0.026336, 6e-06, 0.0, -0.022202, -0.0, -0.002401, -0.002776, 2e-06, 0.0024, -0.002777, -0.0, 0.001168, 0.002359, 0.0, -0.001168, 0.002359, -0.0018, 0.000182, -0.000817, 0.0018, 0.000182, -0.000817, 0.0018, -0.000182, -0.000817, -0.0018, -0.000182, -0.000817]",1.44,142.7
glycine_zwitterion,-284.54314769,23,4.051928,"[-19.06130023, -19.05100902, -14.47149824, -10.25336345, -10.24581277, -1.04682206, -1.01037276, -0.93862848, -0.74869147, -0.63630951, -0.61572315, -0.52883719, -0.49642707, -0.45882978, -0.42192139, -0.39008399, -0.37076893, -0.24569555, -0.24303873, -0.22808852]","[0.000921, 0.000656, 0.0, -0.000659, 0.00053, 0.0, 0.000339, -0.002435, -0.0, -0.002517, 0.001802, -4e-06, 0.000188, -0.000146, 0.0, 2.4e-05, 0.000183, 0.000334, 2.4e-05, 0.000183, -0.000334, -5.8e-05, -0.000355, 0.000496, -5.8e-05, -0.000355, -0.000496, 0.000525, 0.000251, 0.0]",1.67,382.2
hexane,-237.20097531,11,0.0004082893,"[-10.16297634, -10.16292574, -10.16093191, -10.16069136, -10.15636156, -10.15615848, -0.80940148, -0.7705358, -0.71047964, -0.63971327, -0.58317749, -0.57709554, -0.48328511, -0.44921544, -0.43876317, -0.42384807, -0.40191327, -0.38376481, -0.38048991, -0.35687473, -0.34382978, -0.32962567, -0.32827276, -0.32301559, -0.31138335]","[0.000293, 0.000486, -1e-06, 1.8e-05, -0.000302, -0.00095, -0.000236, 0.00075, -2e-06, 0.000259, -0.000512, -6.5e-05, -0.001035, 0.000602, -2.4e-05, 0.000878, -0.000167, -1e-06, -0.00093, -0.000319, 9e-06, 0.000949, 0.000295, -0.0, 0.000763, -0.000735, -0.00062, 0.000763, -0.000735, 0.00062, -0.00074, 0.000703, 0.00062, -0.000807, 0.00067, -0.000501, 0.000275, 0.000829, 0.000366, 0.000275, 0.000829, -0.000367, -0.00029, -0.000819, 0.000337, -0.000274, -0.000835, -0.000342, 6.1e-05, -0.000675, -0.00011, 6e-05, -0.000674, 0.00011, -6.3e-05, 0.000676, 0.000123, -6.6e-05, 0.000675, -0.000129]",2.99,286.8
pyridine,-248.39911789,11,0.8993713,"[-14.319384, -10.2161758, -10.21617108, -10.20310374, -10.19268213, -10.19266188, -0.94541474, -0.81174173, -0.7680496, -0.63597026, -0.63587885, -0.53631804, -0.48830228, -0.47743661, -0.43670554, -0.4128022, -0.40624719, -0.37200831, -0.2982688, -0.27395464, -0.266837]","[-0.0, 0.0, 0.012814, 0.0, 0.0, -0.001518, -0.0, 0.004259, -0.003653, 0.0, -0.004258, -0.003655, 0.0, -0.000499, -0.000305, -0.0, 0.000499, -0.000306, 0.0, 0.0, -0.003884, -0.0, 0.002658, 0.002243, 0.0, -0.002658, 0.002243, 0.0, -0.003198, -0.001835, -0.0, 0.003198, -0.001835]",1.72,245.8
silane,-291.92957541,10,1.104776e-06,"[-66.09891715, -5.27148667, -3.62907386, -3.62907379, -3.62907371, -0.54953057, -0.35541933, -0.3554193, -0.35541925]","[1e-06, -2.3e-05, 9e-06, 0.000135, -0.000339, 0.000259, -0.000135, 0.000339, 0.000259, -0.000339, -0.000135, -0.000259, 0.000339, 0.000135, -0.000259]",0.65,76.0
isobutylene,-157.30679396,23,0.2281225,"[-10.18521006, -10.16796793, -10.16796724, -10.1563695, -0.80912848, -0.6960174, -0.68157726, -0.52668279, -0.45577592, -0.44774199, -0.43660349, -0.39067537, -0.37381496, -0.36895565, -0.3433965, -0.25057343]","[1e-06, -0.0, 0.006928, -0.0, 0.0, -0.009702, -0.0, 0.001973, -0.000685, -0.0, -0.001973, -0.000685, 0.0, -0.002126, 0.001743, -0.0, 0.002126, 0.001743, -0.0, -0.002015, 0.002044, -0.001811, 4.1e-05, -0.000742, 0.001811, 4.1e-05, -0.000742, -0.0, 0.002015, 0.002044, 0.001811, -4.1e-05, -0.000742, -0.001811, -4.1e-05, -0.000742]",1.61,263.0
fluorine_diatomic,-199.61184184,13,3.923572e-05,"[-24.79778287, -24.79772791, -1.35720836, -1.1188647, -0.61341439, -0.55154046, -0.55154045, -0.42347816, -0.42347816]","[2.8e-05, 8e-06, -0.011779, -1.4e-05, 2e-06, 0.01178]",0.51,65.9
ethylamine,-135.24808394,23,0.5352294,"[-14.29690153, -10.19461724, -10.16354976, -0.88344498, -0.73162652, -0.61266458, -0.50088332, -0.44195429, -0.4160515, -0.41210903, -0.36523447, -0.3436644, -0.24711453]","[0.001716, 0.001437, -0.0, -0.000782, -0.00445, -1e-06, 0.002157, 0.007127, 0.0, -0.001599, 0.001095, 0.0, 0.000524, -0.000939, 0.001659, 0.000524, -0.000939, -0.001659, 0.000408, 0.000772, -0.001869, 0.000408, 0.000772, 0.001869, -0.001706, -0.002609, 0.003523, -0.001706, -0.002609, -0.003523]",1.34,209.3
aluminum_diatomic,-484.84060329,10,3.005607e-06,"[-56.03292493, -56.03290737, -4.13837021, -4.13831601, -2.6917181, -2.69167865, -2.69066524, -2.69062506, -2.68974177, -2.6893034, -0.38256861, -0.27979912, -0.16219481, -0.15712372]","[7.2e-05, -1e-05, -0.001032, -6.8e-05, -1e-06, 0.001048]",0.61,194.9
methyl_nitrite,-245.13216633,23,0.9131743,"[-19.21403469, -19.2050114, -14.50194016, -10.24415112, -1.21632728, -1.06573685, -0.77479254, -0.64075691, -0.56224581, -0.52376251, -0.51812058, -0.44702654, -0.42967683, -0.38907075, -0.34184279, -0.29582305]","[-0.003558, -0.001404, -1.1e-05, 0.006078, 0.005362, 3e-05, -0.008795, -0.042888, 3e-06, 0.001361, 0.001553, -1e-06, -0.000556, -0.001571, 0.002024, -0.000559, -0.001568, -0.002026, 0.006318, 0.040646, 6e-06]",1.26,246.3
isobutane,-158.53800941,11,0.0569831,"[-10.17378791, -10.15721936, -10.15721878, -10.15719925, -0.80515806, -0.68268707, -0.68268457, -0.56024719, -0.46633282, -0.43318906, -0.43318743, -0.38512517, -0.38512282, -0.3643247, -0.33021959, -0.33021892, -0.32449511]","[0.003042, 6.6e-05, -1e-06, -0.000189, -0.0039, -0.0, -0.000228, 0.001974, -0.003322, -0.000228, 0.001974, 0.003323, -0.002213, 1e-06, -0.0, 0.001991, -0.000746, -0.0, -0.001028, 0.000587, -0.00202, -0.001028, 0.000587, 0.00202, 0.001986, 0.00037, -0.000646, -0.001027, 0.001451, 0.001512, -0.001026, -0.002041, -0.000505, 0.001986, 0.00037, 0.000646, -0.001026, -0.002041, 0.000505, -0.001026, 0.001451, -0.001512]",1.78,200.8
boron_trifluoride,-324.73558746,11,0.0001263245,"[-24.72204859, -24.7220391, -24.72201225, -6.91309018, -1.28472179, -1.24573809, -1.24572866, -0.61958443, -0.584176, -0.58417149, -0.54593516, -0.4798319, -0.47982529, -0.47118732, -0.47117772, -0.43870326]","[1e-06, -0.0, -5.6e-05, -1e-05, 1.2e-05, -0.006369, -9e-06, -0.005564, 0.003167, 1e-05, 0.005569, 0.003159]",0.97,157.0
nitrosyl_chloride,-590.19988932,23,0.7068781,"[-101.52324039, -19.30698137, -14.55502836, -9.45775504, -7.21826023, -7.21219049, -7.21051748, -1.30976683, -0.83460953, -0.71412756, -0.57415756, -0.56994787, -0.54974956, -0.3296906, -0.32319764, -0.31321154]","[0.001979, -0.001049, 0.000142, -0.012152, 0.01718, 4e-06, 0.01028, -0.015686, -5e-06]",0.81,264.0
silicon_monophosphide,-630.82449705,14,0.6345393,"[-77.0712785, -66.16094778, -6.56224785, -5.32635243, -4.72719469, -4.72033049, -4.72033048, -3.6858031, -3.68318834, -3.68318834, -0.61628033, -0.43019677, -0.28746003, -0.24745116, -0.24745116]","[-8e-06, 2.5e-05, -0.05575, -3e-06, -8e-06, 0.051911]",0.64,292.6
pyrrole,-210.27231898,22,0.7209055,"[-14.36292365, -10.19273804, -10.19272866, -10.15675035, -10.15624769, -0.97944996, -0.77561776, -0.72134571, -0.59500364, -0.56734192, -0.54704455, -0.43414878, -0.42685759, -0.41178215, -0.39065596, -0.37931691, -0.25127437, -0.21761889]","[7e-06, 7e-05, 0.008746, 0.0, -0.0, -0.006249, -0.0, 0.000613, 0.005839, 2e-06, -0.001096, 0.005991, -1e-06, -0.004007, -0.006941, -1e-06, 0.004344, -0.007002, 0.0, 0.000845, 1.3e-05, 1e-06, -0.000833, -0.0, -0.0, 8.8e-05, 1.4e-05, 0.0, -0.000109, -4e-06]",1.6,264.8
aluminum_monoxide,-317.68958684,17,1.748555,"[-56.04759659, -19.09259019, -4.15696244, -2.70944515, -2.70944514, -2.70801389, -0.89028953, -0.37836773, -0.29107815, -0.29107813, -0.27761812]","[2.7e-05, 2.9e-05, -0.017769, -0.0, 2e-06, 0.003065]",0.57,215.8
trifluoromethane,-338.41516665,13,0.5645487,"[-24.72860704, -24.72859633, -24.72858787, -10.43422772, -1.33356993, -1.24880748, -1.24878945, -0.73390887, -0.62129591, -0.61276505, -0.61275897, -0.4890984, -0.48909655, -0.45681173, -0.4568034, -0.43382294, -0.4041213]","[0.033339, 3.5e-05, -0.0, -0.004378, 2e-06, 0.0, -0.009243, -0.002397, 6e-06, -0.009147, 0.001249, -0.002018, -0.00914, 0.001245, 0.002019]",2.06,536.7
silicon_monofluoride,-389.40542149,11,0.3326645,"[-66.16247051, -24.69243994, -5.32634905, -3.6868304, -3.68430741, -3.68191642, -1.20873323, -0.55246584, -0.46738665, -0.46383213, -0.36938645, -0.17337806]","[-2.4e-05, 8e-06, 0.007283, -1.3e-05, 1.3e-05, -0.008892]",0.6,190.1
ethyl_chloride,-539.5141135,23,0.8267273,"[-101.50812532, -10.23368173, -10.17956577, -9.44370147, -7.20500284, -7.19687628, -7.19682762, -0.86107733, -0.7474531, -0.62454419, -0.48327756, -0.45917235, -0.41533348, -0.38230211, -0.37771213, -0.29966784, -0.29839394]","[7.3e-05, 0.003244, -0.00616, 9.4e-05, 0.0016, -0.000263, -0.001335, -0.003548, 0.004311, -1.1e-05, 0.000937, 0.001108, -0.000408, -0.000332, 0.001484, 0.000428, -0.000284, 0.00145, 5.8e-05, -0.000122, -0.000916, 0.000386, -0.000709, 0.000417]",1.29,318.8
bicyclo[1.1.0]butane,-156.02129942,17,0.2860975,"[-10.18808274, -10.18803782, -10.18649638, -10.18625192, -0.92343096, -0.68806366, -0.57759894, -0.57685125, -0.51933492, -0.43054812, -0.43044952, -0.37538187, -0.33066476, -0.31790083, -0.24586537]","[-2e-06, -0.006444, 0.000792, 0.0, 0.006442, 0.000793, -0.004211, 1e-06, 0.000618, 0.004212, 0.0, 0.000618, -0.008271, 0.0, 0.003349, 0.008271, -0.0, 0.003349, 0.004479, -0.0, -0.007327, -0.004479, 0.0, -0.007327, 0.0, 0.001791, 0.002017, 0.0, -0.001791, 0.002017]",1.43,158.9
silyl_radical,-291.27492362,11,0.03766294,"[-66.10891311, -5.28186976, -3.64419394, -3.63761268, -3.63761246, -0.54633975, -0.36452361, -0.36452261, -0.22549691]","[0.022962, 0.000136, -4.1e-05, 0.001399, 0.005324, 0.0, 0.001397, -0.002662, 0.004612, 0.001397, -0.002662, -0.004612]",0.65,142.8
cyclopentane,-196.64967858,13,0.009977401,"[-10.16092444, -10.16074885, -10.16066939, -10.16051864, -10.16035133, -0.83376164, -0.70579256, -0.70536022, -0.56948094, -0.56007778, -0.48135829, -0.47856472, -0.41527635, -0.41372147, -0.3390557, -0.33835259, -0.33444668, -0.33056347, -0.32610683, -0.31505784]","[0.000689, 0.001707, 0.00138, 0.000365, -0.002289, 0.000259, 5.1e-05, -0.000641, -0.002018, -0.000594, 0.002362, -0.001422, -0.000413, -0.000832, 0.002362, -0.000287, -0.001027, -6.2e-05, 1.7e-05, -0.000825, -5e-06, 0.000132, -0.000248, -0.000855, -0.000156, -0.000246, -0.000888, 0.000324, 0.000861, -0.000607, 3.5e-05, 0.000716, -0.000415, -0.0002, 0.000588, 0.000498, -0.000496, 0.0009, 0.000684, 0.00047, -0.000429, 0.001047, 0.000181, -0.000244, 0.000753]",2.04,234.8
dimethyl_sulfoxide,-553.33794097,23,1.601841,"[-88.94813402, -19.08510006, -10.20093159, -10.20092131, -8.01761421, -5.97969263, -5.97965707, -5.97431886, -1.01876295, -0.80214991, -0.73273532, -0.60799998, -0.48677513, -0.46489373, -0.46405922, -0.43403317, -0.40989807, -0.40454088, -0.36335715, -0.28241584, -0.23934505]","[0.007164, -0.005083, 4e-06, -0.000925, -0.002168, 1e-06, -0.007129, 0.019771, 0.017327, -0.007129, 0.019774, -0.017325, 0.00116, -0.013916, -0.019497, 0.00116, -0.013916, 0.019497, -0.001838, -0.000307, 0.0029, 0.005261, -0.001538, -0.004874, -0.001838, -0.000307, -0.0029, 0.005261, -0.001538, 0.004874]",1.61,405.1
trifluoroacetic_acid,-527.06613263,23,0.7125508,"[-24.74527916, -24.745269, -24.7410325, -19.2126677, -19.16566092, -10.46343163, -10.35631439, -1.35729827, -1.26855047, -1.26547258, -1.15646877, -1.06900571, -0.78629332, -0.69147665, -0.63679735, -0.63564596, -0.6076502, -0.52798247, -0.51207711, -0.50792233, -0.49354586, -0.48481914, -0.46783449, -0.46222629, -0.44699032, -0.42882182, -0.37113711, -0.33095713]","[-0.015896, -0.009141, 0.0, -0.026037, 0.011028, -1e-06, 0.020056, -4.8e-05, 2e-06, 0.010293, -0.008664, -0.0, 0.005235, -0.002621, -7e-06, 0.006734, 0.005674, -0.007966, 0.006733, 0.005676, 0.007965, -0.006973, -0.001389, 0.0]",4.09,1269.1
nitric_oxide,-129.95567495,23,0.05145656,"[-19.27323748, -14.4632324, -1.25446317, -0.69795345, -0.54604204, -0.51956576, -0.49628987, -0.22567327]","[-0.0, 1.3e-05, -0.013199, -5e-06, 4e-06, 0.014856]",0.49,186.8
hydrazine,-111.92568269,14,1.063152,"[-14.33041658, -14.33029272, -0.96207099, -0.75723661, -0.51548333, -0.49223787, -0.44030768, -0.3018762, -0.24325044]","[-0.005948, 0.002791, -0.008479, 0.005948, -0.00279, -0.008479, -0.008247, 0.003372, 0.000369, 0.008247, -0.003372, 0.000369, 0.000129, 0.0001, 0.008236, -0.000129, -0.0001, 0.008236]",0.76,76.5
aluminum_carbide,-280.38134765,15,0.7707741,"[-56.04816592, -10.23047649, -4.1537934, -2.70687312, -2.70687303, -2.70434729, -0.60834908, -0.33428276, -0.25068625, -0.25068625, -0.22836669]","[-2e-06, -3e-06, 0.005248, 1e-06, 1e-06, 0.004427]",0.54,177.8
sulfur_monoxide,-473.45017686,15,0.6155756,"[-88.94905419, -19.20258542, -8.02644004, -5.9886445, -5.98864442, -5.98599565, -1.09728925, -0.6912351, -0.46399226, -0.46399226, -0.46389931, -0.26938263, -0.26938261]","[8e-06, 3.6e-05, -0.012843, 1e-05, -1e-06, -0.003916]",0.62,266.7
hydroxymethyl_radical,-115.12521527,23,0.5714641,"[-19.17038567, -10.22449725, -1.0653544, -0.67951599, -0.53649312, -0.45930212, -0.41324237, -0.36484558, -0.19132729]","[-0.019522, -0.004507, 0.006803, 0.003145, 0.011215, -0.001529, -0.001875, -0.00844, -0.001813, 0.001431, 0.000512, 0.001167, 0.000958, -0.000502, -0.000554]",0.75,217.5
dimethyl_sulfide,-478.1025936,23,0.6186482,"[-88.8425465, -10.19495478, -10.1949545, -7.92376844, -5.88720977, -5.88393766, -5.87791204, -0.80029766, -0.70739232, -0.60040704, -0.44560944, -0.44375666, -0.42806427, -0.41130581, -0.36716087, -0.3185855, -0.22369231]","[-4e-06, 0.005574, 0.002131, -1e-05, -0.005566, 0.002133, 0.000228, 1e-05, -0.003599, 1e-06, -0.002065, 0.000918, -0.001559, -0.000141, -0.001357, 0.001556, -0.000148, -0.00136, 0.0, 0.002066, 0.000917, 0.001556, 0.000149, -0.00136, -0.001559, 0.000141, -0.001357]",1.36,279.1
beryllium_monochloride,-475.00862672,12,0.3602691,"[-101.51640469, -9.45385445, -7.21112339, -7.20886614, -7.20886612, -4.10223325, -0.82316897, -0.41104344, -0.34541455, -0.34541451, -0.22219103]","[-0.0, -0.0, -0.006751, -1.2e-05, 7e-06, -0.008851]",0.55,191.5
n_propyl_chloride,-578.84404422,23,0.8595808,"[-101.5077609, -10.23745918, -10.19083278, -10.18206399, -9.44314164, -7.20449676, -7.19631856, -7.19626147, -0.85869692, -0.77893718, -0.67185214, -0.59913468, -0.4884533, -0.44847332, -0.43172735, -0.41685065, -0.3713804, -0.36540977, -0.35117719, -0.29723469, -0.29719431]","[-0.005486, 0.000257, -1.2e-05, 0.00662, 0.013249, 2e-06, -0.004443, -0.009991, -3e-06, 0.014077, 0.003534, -1.8e-05, -0.00085, -0.008696, 0.013021, -0.00085, -0.008696, -0.013021, 0.001034, 0.007439, 0.011158, 0.001035, 0.007439, -0.011159, -0.001587, -0.00741, 0.011028, -0.00159, -0.00741, -0.011026, -0.009131, 0.011001, 0.0]",1.65,393.0
chloroform,-1419.44145967,23,0.441223,"[-101.54845835, -101.54843711, -101.54843321, -10.36153406, -9.48406489, -9.48406333, -9.48405695, -7.24600483, -7.24600382, -7.24599747, -7.23683451, -7.23683355, -7.23682851, -7.2368136, -7.23681252, -7.2368066, -0.9560086, -0.84789679, -0.84789354, -0.66365515, -0.52317972, -0.4840606, -0.48405914, -0.36542359, -0.36542252, -0.3397113, -0.33135613, -0.33135477, -0.31409739]","[0.020232, 0.000146, 1e-06, -0.004914, -2e-06, 0.0, -0.006019, -0.007113, 1.6e-05, -0.006211, 0.004183, -0.006071, -0.006189, 0.004315, 0.006048]",1.42,596.2
phosphorus_monosulfide,-739.60645965,13,0.2532205,"[-88.87957591, -77.10602528, -7.96158468, -6.59682785, -5.92238804, -5.92060588, -5.92052033, -4.75979469, -4.75791128, -4.75415286, -0.77469646, -0.54301079, -0.35166819, -0.34165826, -0.33255247, -0.20165444]","[6e-06, 0.0, -0.006497, 2e-06, 6e-06, 0.007964]",0.65,313.2
cyclopropane,-117.9552974,14,8.736573e-05,"[-10.17193031, -10.17151614, -10.17150951, -0.85349345, -0.59856362, -0.59855962, -0.49763583, -0.4689437, -0.36601414, -0.36601043, -0.29932051, -0.29931904]","[9.7e-05, 2e-06, 0.004311, 0.000161, -0.003438, -0.002244, 0.000161, 0.003439, -0.002239, 0.001949, 0.0, -0.000524, 0.001965, 0.00046, 0.000261, 0.001965, -0.00046, 0.000261, -0.001967, -0.0, -0.000544, -0.001969, 0.000465, 0.000263, -0.001969, -0.000465, 0.000263]",1.13,124.6
formyl_radical,-113.91005795,11,0.6702935,"[-19.20178845, -10.28865355, -1.11018954, -0.63848385, -0.512113, -0.44540345, -0.4399904, -0.23861962]","[-0.065239, 0.022185, 5e-06, 0.020002, 0.014285, -0.0, 0.03916, -0.00982, 6e-06]",0.61,90.5
spiropentane,-195.36482272,16,0.0003802168,"[-10.1849672, -10.17270701, -10.17269312, -10.17247112, -10.17246911, -0.88326535, -0.79918631, -0.60482027, -0.60481894, -0.54271377, -0.48867243, -0.47450838, -0.47450747, -0.37650991, -0.36303677, -0.35143132, -0.2910305, -0.29102925, -0.27524451]","[1e-05, -5e-06, -6e-06, 0.002115, 0.00054, 0.001115, -0.002062, -0.000433, 0.001124, -0.000588, 0.002085, -0.001111, 0.000647, -0.001995, -0.001132, -0.001178, -0.000333, -0.000772, -0.001201, -0.000257, -0.000766, 0.001179, 0.000336, -0.000763, 0.001204, 0.000283, -0.000772, 0.000257, -0.001202, 0.000769, 0.000334, -0.001178, 0.000766, -0.000257, 0.001199, 0.000763, -0.00031, 0.001201, 0.000778]",1.79,264.3
acetonitrile,-132.67470406,23,1.831967,"[-14.31773767, -10.24388199, -10.22404238, -0.91716521, -0.86174126, -0.59542176, -0.51080747, -0.38413208, -0.36998392, -0.34467808, -0.29046561]","[0.007396, -0.017935, -2.7e-05, 0.012429, -0.000578, -7.4e-05, -0.006676, 0.013006, 0.000123, -0.039786, 0.010344, 0.032882, -0.039808, 0.010334, -0.032851, 0.066495, -0.016007, -9e-06]",0.92,149.0
disilane,-582.66705234,16,2.106842e-06,"[-66.09393369, -66.09392111, -5.26765469, -5.26754677, -3.62552529, -3.62509113, -3.62509045, -3.62503035, -3.62502973, -3.62484004, -0.57379836, -0.51008049, -0.37104447, -0.37103677, -0.34635798, -0.34634945, -0.29743332]","[-0.000544, 0.003402, 3.2e-05, 0.000541, -0.003405, 3.5e-05, -0.003471, -0.002872, -0.0, 0.001721, -0.002868, 0.002985, 0.001721, -0.002868, -0.002985, 0.003471, 0.002872, 0.0, -0.001721, 0.002868, 0.002985, -0.001721, 0.002868, -0.002985]",1.16,200.8
methylene_chloride,-959.81294198,23,0.6531218,"[-101.53506661, -101.53505489, -10.29659075, -9.47044081, -9.47044066, -7.23214829, -7.23214744, -7.22356899, -7.22356879, -7.2231916, -7.22318787, -0.91152692, -0.83306662, -0.67602458, -0.50894464, -0.47085541, -0.45291194, -0.33911507, -0.33481041, -0.3166669, -0.31413979]","[0.0, 0.0, 0.009464, -0.007949, 0.0, -0.00532, 0.007949, -0.0, -0.00532, -5e-06, 0.00409, 0.000893, 7e-06, -0.004095, 0.000892]",1.12,361.6
methlidyne_radical,-38.50030832,9,0.5553197,"[-10.28882792, -0.65151264, -0.32956851, -0.26270099]","[-0.0, -0.0, -0.005875, -0.0, -0.0, 0.005179]",0.29,28.4
trifluoro_acetonitrile,-430.67043882,12,0.6009647,"[-24.76512612, -24.76512162, -24.76509761, -14.37627075, -10.50479409, -10.26397776, -1.37689229, -1.28753614, -1.28752628, -0.96108212, -0.80178642, -0.68918218, -0.65561564, -0.65561242, -0.52595465, -0.52595387, -0.49387104, -0.49386534, -0.48269121, -0.46749531, -0.41490652, -0.39650028, -0.39649988]","[-1.4e-05, -0.019982, 0.0, -8e-06, -0.017474, -0.0, 9e-06, 0.019206, 5e-06, -0.003025, 0.006394, 2e-06, 0.001368, 0.006447, 0.002221, 0.001368, 0.006446, -0.002222]",1.41,286.1
acetyl_radical,-153.26026755,23,1.034438,"[-19.17653858, -10.2794616, -10.21021868, -1.0915213, -0.77302397, -0.55808995, -0.47827562, -0.47184636, -0.46748754, -0.39970375, -0.39797463, -0.21130238]","[-0.004834, 0.001334, -0.0, 0.022641, 0.043325, -2e-06, 0.000237, -0.001151, 0.0, 0.000743, 7.8e-05, 0.001691, 0.000743, 7.8e-05, -0.001691, -0.028544, -0.013474, 2e-06]",0.96,336.6
silylene_t,-290.61989845,10,0.04647051,"[-66.12758856, -5.29835967, -3.65924539, -3.65875064, -3.65246943, -0.53411044, -0.37937934, -0.26530921, -0.19906245]","[2e-06, 6e-06, 0.035212, 0.0, 0.006681, -0.002645, 0.0, -0.006681, -0.002645]",0.5,117.2
oxygen_water,-152.95576937,23,0.9784832,"[-19.16201978, -19.10520584, -1.0483109, -0.99000758, -0.56726018, -0.51626374, -0.42933182, -0.37383954, -0.34767092, -0.29782391]","[-0.000487, -0.000494, -0.000631, 0.000393, 0.000299, 0.000171, -0.000208, 0.000715, 0.000434, 0.000496, -0.000331, 0.000391, 0.000104, 2.3e-05, -0.00101, -0.000464, -0.000194, -0.000421]",0.85,143.5
chlorine_monofluoride,-560.05660734,13,0.3355218,"[-101.6113722, -24.74156181, -9.54050507, -7.30812321, -7.29103426, -7.29103399, -1.2522778, -0.84177052, -0.54783888, -0.49925592, -0.49925589, -0.33894053, -0.33894052]","[9e-06, 1e-05, 0.005131, -1.6e-05, 5.6e-05, -0.002297]",0.66,134.2
sodium_hydride,-162.87862576,9,2.373318,"[-38.44710675, -2.21688622, -1.14949354, -1.14949353, -1.14676337, -0.18628989]","[-4.6e-05, -6e-05, 0.001956, -0.0, 0.0, 0.000563]",0.41,28.5
nitrogen_tribromide,-7777.40925879,24,0.2151656,"[-482.82127748, -482.82118538, -482.82106706, -62.49247129, -62.49244049, -62.49243534, -56.30520093, -56.3051334, -56.30510873, -56.30044711, -56.30043929, -56.30040637, -56.30038994, -56.30038284, -56.30036695, -14.47431094, -8.72921421, -8.72917827, -8.72917205, -6.56033599, -6.56030041, -6.56029902, -6.54593093, -6.54590482, -6.54589096, -6.54588939, -6.54586721, -6.54586535, -2.67457777, -2.67451935, -2.67450083, -2.67049131, -2.6704632, -2.67044977, -2.67042541, -2.67041576, -2.6704058, -2.65874822, -2.6587454, -2.65871078, -2.65870719, -2.658706, -2.65870403, -0.96722258, -0.80593226, -0.80591378, -0.68962028, -0.47617577, -0.47616756, -0.43114377, -0.3428344, -0.34282721, -0.30915556, -0.30914428, -0.29427389, -0.2813275]","[0.001808, -0.000237, -2e-06, 0.000121, -0.009036, 1.5e-05, -0.001688, 0.006131, -0.014029, -0.001221, 0.0063, 0.013776]",2.38,2402.2
phosphorus_pentafluoride,-841.03848634,12,1.280473e-05,"[-77.32301441, -24.75461188, -24.75461125, -24.75457867, -24.71050006, -24.71048811, -6.78402427, -4.94823023, -4.94822994, -4.94542967, -1.35190862, -1.28881095, -1.28879938, -1.24976589, -1.21815768, -0.72388719, -0.62822295, -0.62821465, -0.61367452, -0.55737851, -0.55737128, -0.5380205, -0.53801804, -0.51379072, -0.49663307, -0.47576066, -0.45988892, -0.45988839, -0.43455997, -0.43455357]","[-1e-06, -5e-06, -5.8e-05, -5e-06, 2.9e-05, -0.011739, 1e-06, 0.010516, 0.0061, -1.3e-05, -0.010505, 0.0061, -0.008247, -7e-06, 2.9e-05, 0.008244, -4e-06, 2.3e-05]",1.65,483.2
aminyl_radical,-55.91177051,10,0.6916871,"[-14.35620727, -0.8643498, -0.48377314, -0.34032953, -0.32577036]","[0.0, -0.0, 0.002704, -0.0, -0.00279, -0.002331, 0.0, 0.00279, -0.002331]",0.41,40.8
allene,-116.71867377,13,1.423619e-06,"[-10.20137259, -10.18282513, -10.18277866, -0.79634561, -0.71011773, -0.52731809, -0.45889041, -0.45040299, -0.45040298, -0.27583655, -0.27583655]","[-1e-06, 2e-06, -0.0, 1e-06, 2e-06, 0.008878, -0.0, -0.0, -0.008878, 0.002898, -0.001271, 0.000991, -0.002898, 0.001271, 0.000991, -0.001271, -0.002898, -0.000991, 0.001271, 0.002898, -0.000991]",1.01,139.3
methane,-40.54286607,10,0.0003243335,"[-10.15364824, -0.69734198, -0.39604359, -0.3960228, -0.39602244]","[9e-05, 0.000239, 0.000147, -0.000278, 9.3e-05, -0.000213, 7.7e-05, 0.000212, 0.000161, -0.000102, -0.000282, 0.000204, 0.000273, -0.000106, -0.000214]",0.53,25.6
carbon_monosulfide,-436.27367026,13,0.7737218,"[-88.90574791, -10.27700568, -7.99093346, -5.95022207, -5.95022196, -5.9490325, -0.84071728, -0.52897706, -0.36122038, -0.36122037, -0.31865437]","[2e-06, 1e-06, -0.003992, -3.5e-05, 1.6e-05, 0.005741]",0.58,102.5
sulfur_hexafluoride,-997.53855233,13,2.913885e-06,"[-89.26972515, -24.75160444, -24.75159882, -24.75159545, -24.75159523, -24.75158836, -24.75157997, -8.29672818, -6.2615954, -6.26159499, -6.26159488, -1.42439649, -1.30080512, -1.30080503, -1.30079964, -1.24848224, -1.24847722, -0.82368037, -0.6812836, -0.68128354, -0.68127853, -0.58166733, -0.58166419, -0.58166416, -0.54753442, -0.54753056, -0.49130597, -0.49130443, -0.49130441, -0.48751409, -0.48751046, -0.48751041, -0.44437691, -0.44437334, -0.44437328]","[-2e-05, 2.1e-05, -7e-06, 5e-06, 2e-06, -0.013105, 0.009461, 0.009468, 1e-06, -0.009469, 0.009464, -0.0, -0.00946, -0.009469, -1.9e-05, 0.009469, -0.00946, -2e-05, -6e-06, 1e-06, 0.013103]",1.95,627.9
nonane,-355.19671504,23,0.03692599,"[-10.16247699, -10.1624545, -10.16049267, -10.16038574, -10.16027849, -10.16014113, -10.16007396, -10.15594268, -10.15590186, -0.81553721, -0.79617579, -0.76439771, -0.72207627, -0.67233663, -0.62095155, -0.58320864, -0.57755051, -0.57268861, -0.48888754, -0.47126386, -0.44375213, -0.4378633, -0.43193477, -0.41003633, -0.4039013, -0.40334473, -0.37558853, -0.37167259, -0.35087681, -0.34694698, -0.34252147, -0.33152047, -0.3291974, -0.32519712, -0.32246107, -0.32237438, -0.29953785]","[4.7e-05, -3.1e-05, 0.000906, 1.3e-05, -3.6e-05, -0.000929, 2e-06, -0.000163, -0.000812, 2.1e-05, -0.000226, 0.00069, -3e-06, 0.000176, 0.000942, 9e-06, 0.001021, -0.00083, 1e-06, -0.001138, -0.000766, -5.1e-05, 0.001085, 0.0005, -0.0, -0.000674, 0.000627, 1.9e-05, 2e-06, -0.000616, -2.3e-05, 1e-06, -0.000614, 5.1e-05, 1.3e-05, 0.000648, -3.4e-05, 1.3e-05, 0.000614, -3.2e-05, -1e-05, 0.000618, 3.2e-05, -9e-06, 0.000618, 6.3e-05, 5.3e-05, -0.000614, -6.6e-05, 5.3e-05, -0.000617, -6.3e-05, -5.4e-05, -0.000618, 6.3e-05, -5.4e-05, -0.000618, -0.000286, 0.000353, 0.00077, 0.000286, 0.000353, 0.00077, 0.00028, -0.000348, 0.000766, -0.00028, -0.000348, 0.000766, 1e-06, 0.000892, 0.000177, -0.000541, 0.000692, -0.000693, 0.000542, 0.000688, -0.000691, -0.0, -0.000906, 0.00019, 0.000548, -0.000696, -0.000696, -0.000548, -0.000696, -0.000696]",4.25,937.5
furan,-230.13365882,12,0.2700827,"[-19.1972249, -10.22678767, -10.22677673, -10.17813095, -10.17769048, -1.11546662, -0.804699, -0.74915859, -0.60349415, -0.57569638, -0.54866523, -0.45765066, -0.45151629, -0.41828657, -0.40325329, -0.38119802, -0.28918125, -0.23854835]","[-4e-06, -0.000169, 0.006118, 0.0, -0.001852, 0.00408, 2e-06, 0.001792, 0.004052, -2e-06, 0.002965, -0.006773, -2e-06, -0.002843, -0.006738, -0.0, 0.001202, 0.000589, -0.0, -0.001184, 0.000586, -0.0, -0.001714, -0.001935, -0.0, 0.001722, -0.001935]",1.49,206.2
methanol_radical,-115.1135367,23,0.8350403,"[-19.18039466, -10.23551895, -1.02910207, -0.68507852, -0.49282438, -0.46983914, -0.44335494, -0.34384519, -0.3000652]","[-0.006054, 0.016552, -2.4e-05, 0.000915, -0.013282, 2.3e-05, 0.001685, -0.001799, -5e-06, 0.001835, -0.000335, -0.000814, 0.001838, -0.000341, 0.000798]",0.7,261.1
sodium_lithium,-169.82550589,9,0.01048962,"[-38.43504164, -2.20324, -2.00935428, -1.13513592, -1.13513588, -1.1350818, -0.13232855]","[1e-06, 1e-06, -2.2e-05, 1.6e-05, 2e-05, 0.001721]",0.44,33.0
ethylene_oxide,-153.86754245,11,0.7498233,"[-19.14381535, -10.22956909, -10.22920781, -1.08213407, -0.68358486, -0.63990921, -0.52277123, -0.49026209, -0.40394855, -0.39406408, -0.32535564, -0.28344688]","[8.7e-05, 3e-05, -0.006185, 0.000785, 0.001987, 0.000117, 3.3e-05, -0.001833, -7.9e-05, 0.001109, 0.001318, 0.000697, -0.001113, 0.001329, 0.000717, -0.001113, -0.001325, 0.000706, 0.00111, -0.001324, 0.000706]",1.01,85.7
chlorine_diatomic,-920.45470878,11,3.777832e-06,"[-101.57912833, -101.5791209, -9.5114636, -9.5114051, -7.27624425, -7.27607861, -7.26312281, -7.2631215, -7.26311529, -7.26311402, -0.94024108, -0.7724067, -0.47803448, -0.41485463, -0.41485463, -0.31082644, -0.31082644]","[8.6e-05, -7.3e-05, 0.015463, -7e-05, -4e-06, -0.015453]",0.71,158.8
aziridine,-133.98958724,11,0.6725552,"[-14.31555354, -10.20295303, -10.20216825, -0.95650138, -0.66241159, -0.61883059, -0.52324694, -0.47314484, -0.38293106, -0.34858959, -0.34409212, -0.25631681]","[0.004359, 0.002274, 0.001669, -0.003282, -0.001898, 0.001681, -0.006425, -0.002124, -0.00139, 0.002804, 0.000972, -0.001477, 0.000825, 0.007225, 0.00102, 8.3e-05, -0.006986, -0.00218, -0.001745, 0.000522, -0.000611, 0.00212, -0.000209, 0.001322]",1.09,94.3
methoxyethane,-194.44577711,10,0.4756186,"[-19.128687, -10.21881923, -10.21331559, -10.16224143, -1.03536382, -0.76423044, -0.67580686, -0.60917732, -0.49084223, -0.48587021, -0.45605051, -0.42412511, -0.38751259, -0.36586324, -0.35755629, -0.32767073, -0.2650161]","[0.003363, -0.005908, -1e-05, -0.001602, 0.000614, -0.0, 0.001051, 0.004768, -2e-06, -0.002724, -0.000502, -0.0, 0.000203, 0.001492, 0.001639, 0.000203, 0.001492, -0.00164, -0.000118, -0.002166, -0.0, -0.000253, 0.001198, -0.001393, -0.000254, 0.001198, 0.001393, -0.000744, -0.000769, -0.001434, -0.000744, -0.000769, 0.001434, 0.001213, 0.001763, -0.0]",1.65,136.5
ethane,-79.87303255,11,0.0005014766,"[-10.160337, -10.16011836, -0.75313062, -0.61745394, -0.43733956, -0.43733638, -0.36752057, -0.3471655, -0.34716134]","[0.00492, 0.000174, -0.000441, -0.004919, -0.000174, -0.000441, -0.000534, 0.00103, 2e-06, -0.000555, -0.000539, 0.000924, -0.000538, -0.000502, -0.000854, 0.000534, -0.00103, 2e-06, 0.000538, 0.000502, -0.000854, 0.000555, 0.00054, 0.000924]",0.92,65.3
carbon_tetrabromide,-10335.065539,19,1.614576e-05,"[-482.81100819, -482.81098234, -482.81098132, -482.8109757, -62.48285997, -62.48285577, -62.48285457, -62.48285197, -56.29495969, -56.29495851, -56.29495815, -56.2949274, -56.29104597, -56.29104458, -56.29103511, -56.29102059, -56.2910199, -56.29101486, -56.29101099, -56.29100543, -10.38987392, -8.71990797, -8.71990726, -8.7199064, -8.71990593, -6.54944941, -6.54944851, -6.54944693, -6.54944432, -6.53750715, -6.53750653, -6.53750596, -6.53750582, -6.5375053, -6.53750494, -6.53750433, -6.53750378, -2.6641205, -2.66407454, -2.66407371, -2.66407303, -2.66062812, -2.6606277, -2.6606233, -2.66062266, -2.66062216, -2.66059637, -2.6605959, -2.6605958, -2.65086713, -2.65086677, -2.65086639, -2.65086612, -2.65086567, -2.65086241, -2.65086217, -2.65086182, -0.91270638, -0.80290398, -0.8029034, -0.8029032, -0.61535925, -0.46575359, -0.46575334, -0.46575248, -0.34881098, -0.34881073, -0.32444215, -0.32444172, -0.32444161, -0.29468857, -0.29468826, -0.29468817]","[-2e-06, -2e-06, 1e-06, -0.008433, 0.000331, -0.006484, 0.008286, -0.000395, -0.00681, 0.000358, 0.008261, 0.00634, -0.000337, -0.008338, 0.006695]",0.94,914.8
beryllium_diatomic,-29.3534429,10,6.654001e-08,"[-4.08219498, -4.08215766, -0.29535283, -0.18711893]","[0.0, 0.0, 0.000614, 0.0, 0.0, -0.000614]",0.32,20.9
tetrachloroethylene,-1917.17747396,12,3.614824e-05,"[-101.56079562, -101.56077214, -101.56076777, -101.56074076, -10.31617418, -10.31538172, -9.49569586, -9.49569338, -9.4956911, -9.49568873, -7.25758506, -7.25758477, -7.2575808, -7.25758027, -7.24884613, -7.24884581, -7.24883624, -7.24883479, -7.24831829, -7.2483176, -7.24831693, -7.24831611, -0.96844932, -0.91604094, -0.87408995, -0.85124701, -0.73802714, -0.57607789, -0.52018415, -0.5179534, -0.46028376, -0.44891345, -0.3937383, -0.37163059, -0.36170914, -0.35938241, -0.35355654, -0.34716277, -0.31801197, -0.26201155]","[-1e-06, -1e-06, 0.012516, -0.0, 0.0, -0.012647, -3.5e-05, -0.005904, -0.00338, 5.4e-05, 0.005913, -0.003362, -2.8e-05, 0.005943, 0.003518, -3.3e-05, -0.005936, 0.003543]",2.06,632.8
silicon_monoxide,-364.80439961,12,1.261783,"[-66.14005264, -19.11304648, -5.30935578, -3.66877342, -3.6687734, -3.66189246, -0.94443758, -0.44133384, -0.33832702, -0.33832701, -0.31630119]","[8e-06, 1.9e-05, 0.001363, 6e-06, 9e-06, -0.000626]",0.58,98.7
trimethylamine,-174.56031541,23,0.2467663,"[-14.30876595, -10.18936105, -10.1893528, -10.18934715, -0.92489309, -0.70472099, -0.70470194, -0.59195364, -0.47069837, -0.46786347, -0.46785628, -0.39649402, -0.39648465, -0.3681331, -0.36320255, -0.36319775, -0.22057539]","[0.003036, -1.7e-05, 7.2e-05, 0.014695, 0.006725, -0.006938, 0.014613, 0.002674, 0.009292, 0.014736, -0.009623, -0.00227, -0.00922, 0.00174, -0.0018, -0.009219, 0.000691, 0.002406, -0.009217, -0.002431, -0.000609, -0.00329, 0.003688, 0.010697, -0.003298, -0.010851, -0.00332, -0.003291, -0.011117, -0.002166, -0.003295, 0.008298, -0.007718, -0.0033, 0.00742, -0.008565, -0.003303, 0.002538, 0.011064]",3.24,718.4
carbonyl_fluoride,-313.17853825,14,0.4345062,"[-24.76587563, -24.76586555, -19.18395092, -10.44531555, -1.35329965, -1.28218784, -1.12538465, -0.71057244, -0.64171803, -0.59410605, -0.56328867, -0.49861564, -0.49107386, -0.47816153, -0.41642959, -0.37225911]","[-1e-05, 2e-06, 0.004377, -0.0, 1e-06, -0.012845, -1e-06, -0.003714, 0.002981, 6e-06, 0.003716, 0.002977]",0.95,174.9
phosphorus_mononitride,-396.13335008,13,1.148907,"[-77.09990298, -14.35403376, -6.59555113, -4.75660553, -4.75660543, -4.7515868, -0.8552732, -0.50070821, -0.33997819, -0.33997818, -0.33294381]","[3e-06, -7e-06, -0.013929, -9e-06, -9e-06, 0.015373]",0.59,104.2
carbon_tetrachloride,-1879.0658513,23,3.599894e-05,"[-101.55932822, -101.55927778, -101.55926714, -101.55926649, -10.41836019, -9.49489236, -9.49489087, -9.49488974, -9.4948851, -7.25713694, -7.25713556, -7.2571338, -7.2571337, -7.24747958, -7.24747867, -7.24747828, -7.24747695, -7.24747646, -7.24747528, -7.247475, -7.24747298, -0.98836349, -0.86133675, -0.86133598, -0.86133533, -0.63656447, -0.51019207, -0.5101916, -0.51019135, -0.38481841, -0.38481831, -0.35851274, -0.3585127, -0.35851247, -0.32447261, -0.32447233, -0.3244718]","[-3e-06, 2e-06, 3e-06, -0.001266, 0.003787, -0.002927, 0.00134, -0.003733, -0.002897, -0.003762, -0.0013, 0.002892, 0.00367, 0.001343, 0.002973]",2.12,906.3
acrylonitrile,-170.91316284,23,1.604891,"[-14.33332227, -10.24070677, -10.2305731, -10.22388029, -0.91122259, -0.82557655, -0.66732744, -0.54935205, -0.4913391, -0.42713261, -0.38885721, -0.37739983, -0.34399657, -0.30074412]","[-0.004869, 0.005392, -1e-06, 0.003498, -0.007941, 2e-06, -0.056287, -0.014898, -1e-06, 0.000307, 0.003045, 0.0, -0.002636, -0.000682, -0.0, -0.001244, -0.002767, 0.0, 0.06119, 0.017807, -4e-06]",1.15,203.1
sodium_hydroxide,-238.19812912,11,2.608321,"[-38.44379231, -18.97913195, -2.21489107, -1.14790035, -1.14790035, -1.14590028, -0.82307821, -0.33973552, -0.18651172, -0.18651172]","[-1e-05, 0.0, -0.013068, -6e-06, -3.6e-05, 0.002181, 0.0, 0.0, 0.011955]",0.6,72.0
methylene_t,-39.17296267,24,0.2317017,"[-10.22555586, -0.68373689, -0.46385734, -0.28354987, -0.25038145]","[1e-06, -0.0002, 0.021127, 0.0, 0.002739, -7.3e-05, 0.0, -0.002756, -6.8e-05]",0.37,106.5
carbon_monophosphide,-379.3516415,20,0.4195807,"[-77.08422733, -10.26973042, -6.57834131, -4.74000616, -4.73698228, -4.73698206, -0.73866792, -0.46740546, -0.33869057, -0.30663266, -0.30663263]","[0.0, 3e-06, -0.036781, 8e-06, 3e-06, 0.010612]",0.6,244.6
formic_acid,-189.85551205,14,0.5751336,"[-19.20175406, -19.1334753, -10.32212223, -1.13151652, -1.04303179, -0.67232893, -0.54948272, -0.50626077, -0.46686035, -0.42025501, -0.34972844, -0.30000833]","[0.031298, -0.003401, -3e-06, 0.004955, 0.013497, 6e-06, -0.002886, -0.018868, -6e-06, -0.032831, 0.006261, 0.0, 0.000105, 0.002695, 0.0]",0.9,125.1
aluminum_trifluoride,-542.39104583,23,6.808748e-05,"[-56.08298349, -24.6755334, -24.67551636, -24.67551452, -4.19134933, -2.74909726, -2.74234838, -2.74234834, -1.18872829, -1.17661548, -1.1766131, -0.52002905, -0.4789316, -0.47892969, -0.45858533, -0.4468639, -0.44686305, -0.43990385, -0.43990221, -0.42219581]","[-2.1e-05, 1.7e-05, 0.000215, -6e-06, 1.2e-05, -0.001198, -2e-06, -0.001031, 0.000735, 9e-06, 0.001029, 0.000739]",1.11,351.8
vinyl_radical,-77.94423306,16,0.2733325,"[-10.20902307, -10.18529071, -0.77409378, -0.58488155, -0.47219883, -0.4393655, -0.29393526, -0.24624876]","[0.02213, -0.024535, 1e-06, -0.015951, 0.005325, -3e-06, -3.2e-05, -0.000292, 0.0, 0.001928, -0.002237, -0.0, 0.000557, -0.00115, -0.0]",1.52,355.5
nitrous_oxide,-184.75567545,14,0.01908731,"[-19.23396917, -14.551482, -14.4214195, -1.25362131, -1.0956606, -0.61459358, -0.57360905, -0.57360904, -0.4873434, -0.35361864, -0.35361863]","[3e-06, 3e-06, -0.018238, 2e-06, 2e-06, 0.014903, -5e-06, -5e-06, 0.003379]",0.77,103.7
2_butyne,-156.05519728,10,8.800347e-05,"[-10.19725412, -10.19724202, -10.16491961, -10.16260196, -0.78100339, -0.74099732, -0.66670906, -0.47871338, -0.43491464, -0.43027574, -0.43027412, -0.4176629, -0.417661, -0.25369374, -0.25369331]","[-1e-06, 0.018533, -1e-05, 1e-06, -0.018348, 9e-06, 0.0, -0.006568, 0.000449, 1e-06, 0.005776, 0.000302, -0.0, 0.004395, -0.014739, 0.012747, 0.004399, 0.007355, -0.012747, 0.004399, 0.007355, -0.0, -0.004399, -0.014756, -0.012764, -0.004402, 0.007367, 0.012764, -0.004402, 0.007367]",1.43,110.2
hydrogen_diatomic,-1.18070629,7,3.933245e-10,"[-0.43463596]","[0.0, 0.0, 0.000245, 0.0, 0.0, -0.000245]",0.17,5.1
beryllium_dihydride,-15.92621025,8,5.001156e-08,"[-4.0352157, -0.35329691, -0.31877404]","[0.0, 0.0, 0.0, -0.0, -0.0, 0.000724, -0.0, -0.0, -0.000724]",0.33,12.1
beryllium_monohydride,-15.26816422,10,0.1341359,"[-4.07351317, -0.34753603, -0.20109529]","[-0.0, -0.0, -0.011943, 0.0, 0.0, 0.002274]",0.26,23.1
sodium_monoxide,-237.50577582,12,3.054785,"[-38.45533047, -19.04738968, -2.22574941, -1.1592831, -1.15843356, -1.15602978, -0.80848273, -0.27609037, -0.22464194, -0.21276702]","[2e-06, -2e-05, 0.001554, 9e-06, -1.2e-05, -0.00346]",0.57,111.0
phosphino_radical,-342.5508186,11,0.1932543,"[-77.06926402, -6.56274516, -4.72915122, -4.72185679, -4.71909021, -0.63946997, -0.39129295, -0.31660293, -0.25262596]","[-4.2e-05, 1.8e-05, -0.000523, 0.0, 0.000838, 0.001213, 0.0, -0.000838, 0.001213]",0.52,135.6
boron_monochloride,-485.03836215,11,0.6367586,"[-101.57268599, -9.51006458, -7.26724816, -7.26502405, -7.26502393, -6.85916134, -0.89230397, -0.51534961, -0.39625591, -0.39625589, -0.26761126]","[1e-06, -1e-06, 0.00145, -1e-05, -3e-05, -0.007535]",0.55,95.7
ozone,-225.52660594,14,0.2586197,"[-19.43692772, -19.2588309, -19.2588144, -1.36352536, -1.09896752, -0.79911439, -0.60582673, -0.60310402, -0.60015785, -0.37637539, -0.36113919, -0.35631]","[-1.7e-05, 0.0, -0.033688, 1.5e-05, 0.015392, 0.014235, -1.6e-05, -0.015393, 0.014235]",0.77,104.0
water,-76.4742798,10,0.7299508,"[-19.13571155, -1.02236458, -0.54117502, -0.40048587, -0.32470005]","[-2e-06, 0.0, -0.000626, 0.0, -0.003056, 0.000875, 0.0, 0.003056, 0.000875]",1.02,99.3
acetate_anion,-228.64322471,18,1.45805,"[-18.86857829, -18.86674649, -10.06549489, -9.99547179, -0.81363147, -0.73083084, -0.53435837, -0.30809559, -0.25159856, -0.24387468, -0.22687421, -0.19077798, -0.16424033, -0.05501867, -0.04423992, -0.03706799]","[-0.003932, 0.000218, -0.0, 0.017264, -0.000719, 1e-06, 0.001904, -0.007083, 0.0, 0.001921, 0.003403, 0.005824, 0.001921, 0.003403, -0.005824, -0.008643, 0.02223, 1e-06, -0.011158, -0.021482, -4e-06]",1.19,221.9
tetrachlorosilane,-2130.71518175,23,4.659341e-05,"[-101.54626899, -101.54626514, -101.54625426, -101.54624278, -66.24479451, -9.48335219, -9.48334954, -9.48334803, -9.48333877, -7.24246219, -7.2424587, -7.24245717, -7.24245561, -7.23742135, -7.23742114, -7.23741899, -7.23741774, -7.23741642, -7.23741583, -7.23741539, -7.23741455, -5.40227126, -3.76099049, -3.76099042, -3.76099023, -0.89925902, -0.85146483, -0.85146325, -0.85146236, -0.55559598, -0.45367613, -0.45367519, -0.4536747, -0.38204585, -0.38204569, -0.37121402, -0.3712139, -0.37121376, -0.3410538, -0.34105336, -0.34105242]","[5.2e-05, 1.6e-05, 5.3e-05, 0.000812, 0.004062, -0.003019, -0.000788, -0.004029, -0.002994, 0.004061, -0.000823, 0.002912, -0.003954, 0.000807, 0.00312]",2.18,1274.4
oxygen_diatomic,-150.39940208,13,8.283398e-07,"[-19.29399644, -19.29379421, -1.31329226, -0.84781778, -0.5732344, -0.57323439, -0.562357, -0.31876659, -0.31876658]","[6e-06, 3e-06, -0.005869, 8e-06, -0.0, 0.005869]",0.47,116.5
heptane,-276.53175081,14,0.03689534,"[-10.16766595, -10.1676427, -10.16566008, -10.16549886, -10.16534123, -10.16140964, -10.1614042, -0.80780278, -0.77797938, -0.73070043, -0.67118733, -0.60967934, -0.57416256, -0.57299337, -0.48214009, -0.45575754, -0.43322749, -0.42625273, -0.41714121, -0.40075103, -0.37533267, -0.37122576, -0.359616, -0.34189668, -0.33755424, -0.3260167, -0.32494812, -0.32208949, -0.30628713]","[3.2e-05, 3e-05, -0.001925, -8.2e-05, 4.6e-05, 0.002339, -5.2e-05, -5e-06, 0.002344, 1e-06, 0.000608, -0.002097, 6e-06, -0.000808, -0.002428, -8.6e-05, 0.003282, 0.000776, 4e-06, -0.002997, 0.000727, 0.006071, -1e-06, 0.003918, -0.00608, -0.0, 0.003944, 0.006063, 9.6e-05, -0.00396, -0.006063, 9.5e-05, -0.003959, -0.006065, -9.8e-05, -0.003962, 0.006063, -9.9e-05, -0.003959, -0.005921, 0.000325, 0.003834, 0.005923, 0.000327, 0.003835, 0.005934, -0.000321, 0.003847, -0.005932, -0.000322, 0.003845, 0.0, -0.005673, 0.004348, -0.005946, 0.000315, -0.003926, 0.005947, 0.000313, -0.003925, -0.0, 0.005675, 0.004347, 0.005949, -0.000314, -0.003928, -0.005949, -0.000315, -0.003928]",3.16,467.8
methylene_s,-39.15512486,8,0.6987199,"[-10.24979546, -0.67760035, -0.41860109, -0.26260912]","[0.0, -0.0, -0.001943, 0.0, -0.000372, 0.000781, 0.0, 0.000372, 0.000781]",0.38,16.7
octane,-315.86478531,18,0.0002274683,"[-10.1654564, -10.16544297, -10.16373547, -10.16354303, -10.16332219, -10.16328492, -10.15862416, -10.15859841, -0.81074552, -0.787809, -0.75024405, -0.70107246, -0.64549915, -0.59480725, -0.57560664, -0.57248522, -0.48521839, -0.46431272, -0.43824797, -0.43243612, -0.41932909, -0.41569721, -0.39508251, -0.38570621, -0.35987934, -0.35948868, -0.35296144, -0.33451613, -0.33109785, -0.32286816, -0.32214263, -0.32111627, -0.30825665]","[-0.000227, 0.004364, 1.2e-05, 0.000261, -0.004504, 1e-06, -0.000716, -0.004706, -1e-06, 0.000667, 0.004563, -1e-06, -0.001761, 0.004543, -3e-06, 0.001732, -0.004717, 2e-06, 0.001006, -0.002466, 3.1e-05, -0.000829, 0.002443, 0.0, 4.3e-05, -0.000286, 0.001587, 4.3e-05, -0.000286, -0.001587, -4.6e-05, 0.000289, 0.001591, -4.6e-05, 0.000289, -0.001591, -7.5e-05, 0.000331, -0.001652, -7.6e-05, 0.000331, 0.001653, 7.6e-05, -0.000328, -0.001653, 7.6e-05, -0.000328, 0.001653, 0.000307, -0.000676, 0.001802, 0.000308, -0.000677, -0.001802, -0.000303, 0.000679, 0.001802, -0.000303, 0.00068, -0.001802, -0.002383, -0.000401, -0.0, -0.000162, 0.000773, -0.001137, -0.000161, 0.000773, 0.001136, 0.002387, 0.000407, 0.0, 0.000163, -0.000768, -0.00113, 0.000163, -0.000768, 0.00113]",3.6,676.9
beryllium_difluoride,-214.72023511,10,2.354784e-06,"[-24.66610162, -24.66610113, -4.07501289, -1.17280195, -1.16550045, -0.48349877, -0.47435305, -0.44269918, -0.44269918, -0.42117672, -0.42117672]","[0.0, -1e-06, -0.0, 1.5e-05, 1.6e-05, 0.016251, 1.5e-05, -1.4e-05, -0.016251]",0.69,75.8
dilithium_oxide,-90.36170261,10,3.730862e-06,"[-18.93525684, -1.90922149, -1.9090568, -0.71742706, -0.1818703, -0.15447968, -0.15447968]","[0.0, 0.0, 1.4e-05, -0.0, -0.0, -0.00028, -0.0, -0.0, 0.000278]",0.52,35.4
thiophene,-553.12583997,23,0.1849407,"[-88.88350495, -10.20230949, -10.20229721, -10.18324042, -10.18275097, -7.96441232, -5.92651371, -5.92316721, -5.92154219, -0.88357678, -0.73877693, -0.72598337, -0.56760468, -0.55685848, -0.51970672, -0.41668204, -0.39958437, -0.39216022, -0.38651054, -0.34967294, -0.25939131, -0.24440115]","[6e-06, -0.001111, 0.002494, 0.0, -0.001599, 0.006054, 1e-06, 0.001593, 0.006056, 0.0, -0.005273, -0.005319, 0.0, 0.005416, -0.005024, 0.0, 0.003857, 0.001314, -0.0, -0.003843, 0.001302, 0.0, 0.002359, -0.003015, -0.0, -0.002361, -0.003012]",1.62,425.6
ketene,-152.68095486,14,0.5829144,"[-19.19743034, -10.30335995, -10.18661347, -1.12812393, -0.78505201, -0.54890031, -0.49750231, -0.4972727, -0.46281913, -0.41808069, -0.25484921]","[-0.0, -0.0, -0.009085, 4e-06, -0.0, 0.004112, -9e-06, -4e-06, 0.003758, -0.0, 0.001794, 0.000762, 0.0, -0.001794, 0.000762]",0.86,120.3
phosphorus_monofluoride,-441.24815577,12,0.3064613,"[-77.12509787, -24.71612468, -6.61359785, -4.77622191, -4.77622169, -4.77378746, -1.24043417, -0.64123069, -0.49293922, -0.49293922, -0.46227074, -0.24219603, -0.24219602]","[8e-06, -2.3e-05, 0.005472, 1.3e-05, 4e-06, -0.009867]",0.58,219.7
boron_diatomic,-49.42675011,10,2.470193e-06,"[-6.84658195, -6.84583671, -0.56131978, -0.30252559, -0.25367279, -0.25367279]","[0.0, 0.0, 0.013212, 0.0, 0.0, -0.013212]",0.37,44.9
nitrogen_dioxide,-205.1806982,14,0.1359958,"[-19.24805957, -19.2480456, -14.57228977, -1.29721807, -1.15069505, -0.68908314, -0.59131157, -0.58686643, -0.58152847, -0.3961795, -0.39238868, -0.2988677]","[-3e-06, -0.0, -0.031058, 4e-06, 0.001818, -0.004814, 3e-06, -0.001818, -0.004814]",0.72,240.5
argon_dimer,-1055.13530257,10,1.562275e-06,"[-115.08317901, -115.08317224, -11.13636931, -11.1363683, -8.68616364, -8.68616235, -8.68616186, -8.68616088, -8.68616078, -8.68612623, -0.97113127, -0.96985355, -0.43538107, -0.42977932, -0.42977926, -0.42782636, -0.4278263, -0.42229499]","[2.5e-05, 1.6e-05, -0.000177, -2.8e-05, 3.5e-05, 0.00016]",0.71,146.1
sodium_diatomic,-324.63319287,9,1.16968e-06,"[-38.43928201, -38.43928035, -2.20740728, -2.2072626, -1.14030076, -1.1393285, -1.1393285, -1.1390737, -1.1390737, -1.13821848, -0.13031257]","[1.9e-05, -1.9e-05, 0.000219, -1.7e-05, 1.9e-05, -0.00022]",0.65,64.0
dimethylamine,-135.23611284,24,0.4129998,"[-14.30259953, -10.18683059, -10.18678783, -0.89852746, -0.7015552, -0.62954357, -0.49122027, -0.4453769, -0.43719342, -0.38913069, -0.36797, -0.36686011, -0.2306208]","[-0.009997, -0.001666, 9.9e-05, 0.00601, 0.003038, 0.006894, 0.006016, 0.002951, -0.006717, 0.004986, 0.003613, 2e-06, -0.001605, -0.000147, -0.000357, -0.001586, -0.000154, 0.000355, -0.002888, -0.003118, -0.002354, -0.0029, -0.003133, 0.002351, 0.000845, -0.000703, -0.002743, 0.00084, -0.000706, 0.002779]",1.46,268.7
cyclobutene,-156.04765836,11,0.05980044,"[-10.17587851, -10.17569258, -10.17299847, -10.17213931, -0.85775902, -0.65771929, -0.64599251, -0.51645699, -0.50093376, -0.46415817, -0.38360646, -0.36756989, -0.33352523, -0.31932897, -0.25442778]","[1.9e-05, -0.008167, -0.000833, -4e-06, 0.008086, -0.001082, -1.1e-05, 0.003979, -0.003067, 2.8e-05, -0.003954, -0.003118, 3e-06, -0.00076, 0.000892, 1e-06, 0.000769, 0.000899, -0.003523, -0.000342, 0.001817, 0.003499, 0.000324, 0.001834, 0.003526, -0.000344, 0.00182, -0.003528, 0.000353, 0.001809]",1.37,145.6
acetic_acid,-229.20811354,23,0.7175374,"[-19.18359543, -19.12538492, -10.31971266, -10.19374661, -1.11409256, -1.02439419, -0.77002022, -0.61880561, -0.50304256, -0.48992116, -0.48067417, -0.42203002, -0.40952968, -0.40402195, -0.33642134, -0.29282663]","[0.009386, 0.013196, -0.0, -0.001534, 0.003432, -0.0, -0.010518, -0.0215, -4e-06, 0.010614, 0.011006, -1e-06, -0.009199, -0.004793, 0.0, 0.000336, -0.002675, -0.0, 0.000222, 0.000841, 0.001746, 0.000222, 0.000841, -0.001746]",1.27,264.4
hydrogen_fluoride,-100.5009496,9,0.7096305,"[-24.68161337, -1.20958623, -0.5599589, -0.42434523, -0.42434523]","[0.0, 0.0, 0.003384, -1e-06, 1e-06, -0.001059]",0.33,21.9
phosphorus_diatomic,-682.77099482,11,6.342495e-07,"[-77.07652811, -77.07652133, -6.56973495, -6.56922707, -4.73050331, -4.7305033, -4.73029696, -4.73029696, -4.72734985, -4.72513001, -0.68354092, -0.46795238, -0.29927764, -0.28818315, -0.28818314]","[-2e-05, -4.3e-05, -0.001713, -2.8e-05, -6.7e-05, 0.001713]",0.65,136.3
sodium_fluoride,-262.25595345,10,3.122108,"[-38.45169821, -24.48030472, -2.22279751, -1.15600669, -1.15600666, -1.15502438, -0.95525187, -0.25208835, -0.24367669, -0.24367668]","[-5.2e-05, -3.6e-05, 0.000639, 6e-06, -1.1e-05, -0.002014]",0.51,64.5
lithium_diatomic,-15.01903302,9,7.809237e-09,"[-2.00255333, -2.00215173, -0.13420766]","[0.0, -0.0, 0.000803, 0.0, -0.0, -0.000803]",0.28,12.4
difluoromethane,-239.11274685,10,0.7546511,"[-24.6979201, -24.69791537, -10.33854038, -1.26805309, -1.21054424, -0.71981065, -0.56388526, -0.56088087, -0.55799268, -0.43947563, -0.42916327, -0.41851983, -0.35882733]","[2e-06, 5e-06, -0.003989, -0.003725, -0.0, -0.002062, 0.003725, -0.0, -0.002062, 9e-06, 0.007724, 0.005292, 1.1e-05, -0.007723, 0.005294]",0.97,109.3
propene,-117.96952521,14,0.1704387,"[-10.18083788, -10.17063365, -10.16445116, -0.78907751, -0.68769853, -0.55757316, -0.47045723, -0.42497431, -0.41761036, -0.37551224, -0.35093759, -0.26226878]","[0.006852, 0.005417, -4.6e-05, -0.008453, -0.004701, -6e-06, -0.000185, -0.001038, -0.000445, 0.000401, 0.002231, 0.0, 0.002312, -0.000787, -2e-06, -4.3e-05, -0.002654, -1e-06, 0.000664, 0.002309, 6e-06, -0.000456, -0.000222, 0.001725, -0.000443, -0.000213, -0.0017]",1.25,133.2
difluorine_monoxide,-274.80338515,13,0.1306648,"[-24.77353606, -24.77351638, -19.36084102, -1.35252048, -1.24294895, -0.95903041, -0.63214329, -0.587346, -0.56308471, -0.4758287, -0.46476059, -0.45735857, -0.35443946]","[-1e-05, 1.3e-05, 0.004279, 1.4e-05, 0.002719, -0.004419, 1.7e-05, -0.002709, -0.004427]",0.75,122.7
phosphorus_monoxide,-416.62522407,13,0.8042083,"[-77.12587609, -19.16616594, -6.61583703, -4.77953176, -4.77711257, -4.77269678, -1.03172455, -0.56444801, -0.41431621, -0.40058556, -0.39987864, -0.20608573]","[7e-06, -7e-06, 0.001058, 3.5e-05, -3.8e-05, 0.013824]",0.59,177.0
tert_butyl_radical,-157.87666063,23,0.09185669,"[-10.18089585, -10.16308343, -10.16308026, -10.16307063, -0.80583518, -0.69264024, -0.69263898, -0.53731851, -0.44923231, -0.44262186, -0.44262117, -0.3902595, -0.39025828, -0.36961847, -0.34649122, -0.34649075, -0.177365]","[-0.016738, 8e-06, -0.0, 0.003302, -0.000876, 0.0, 0.00336, 0.000488, -0.000728, 0.003359, 0.000488, 0.000728, 0.000567, -0.000608, 0.0, -0.001477, 0.000163, -0.001709, -0.001477, 0.000163, 0.001709, 0.000558, 0.000303, -0.000525, -0.001478, 0.001396, 0.000991, -0.00148, -0.001562, -0.000715, 0.000558, 0.000303, 0.000525, -0.00148, -0.001562, 0.000715, -0.001478, 0.001396, -0.000991]",1.69,669.2
lithium_fluoride,-107.48768006,11,2.435951,"[-24.51722193, -1.98971292, -1.00132447, -0.29838257, -0.28430376, -0.28430375]","[-0.0, -1e-06, 0.00058, -0.0, -0.0, 0.000365]",0.42,31.4
acetyl_fluoride,-253.22829524,13,1.159936,"[-24.71266094, -19.15168572, -10.35061206, -10.20794684, -1.25904781, -1.08755543, -0.78361921, -0.62652163, -0.53199505, -0.52192615, -0.50858307, -0.44540698, -0.43990093, -0.40992158, -0.38748146, -0.32374134]","[-0.013247, 0.009348, -1e-06, 0.002023, 0.003285, 0.0, 0.003032, -0.001768, -4e-06, 0.006651, -0.007631, -5e-06, 0.001301, 0.001069, 0.0, 0.000686, -0.001973, -0.003631, 0.000686, -0.001973, 0.00363]",1.2,178.5
lithium_hydroxide,-83.43256325,10,1.748315,"[-19.01549983, -1.97403808, -0.85528882, -0.38208196, -0.22428024, -0.22428024]","[-0.0, -0.0, -0.018416, -0.0, 0.0, -0.001465, -0.0, -0.0, 0.019579]",0.5,29.8
propyne,-116.71480099,24,0.3288368,"[-10.20226482, -10.17869484, -10.16223434, -0.7845111, -0.70483878, -0.53210197, -0.45425551, -0.44007219, -0.44005882, -0.27474964, -0.27474794]","[6e-06, -0.004599, -0.0, 9e-06, -0.016044, -1e-06, 6e-06, 0.0188, 1e-06, -2e-06, -0.00371, 0.0, 0.010883, 0.001734, 0.0, -0.005432, 0.00175, 0.009418, -0.005432, 0.00175, -0.009418]",1.0,172.0
aluminum_monosulfide,-640.69266912,14,1.53693,"[-88.82024678, -56.06990238, -7.90295979, -5.86733096, -5.86026699, -5.86026679, -4.17742128, -2.7295403, -2.7295402, -2.72911716, -0.66936203, -0.37124288, -0.26121355, -0.25701606, -0.25701604]","[3e-05, 3e-06, -0.017049, 8e-06, 2.6e-05, -0.00411]",0.65,297.2
boron_monocarbide,-62.69218251,14,0.4195534,"[-10.274311, -6.8524709, -0.70838025, -0.38253787, -0.31074992, -0.31074992, -0.29182373]","[-3e-06, -3e-06, -0.0108, -5e-06, -4e-06, 0.001436]",0.38,63.8
boron_trichloride,-1405.71461454,12,0.0001371478,"[-101.54718535, -101.54715743, -101.5471494, -9.48398501, -9.48396317, -9.48395628, -7.24309935, -7.24307819, -7.24307762, -7.23900817, -7.23898537, -7.23898311, -7.23719132, -7.23717125, -7.23717101, -6.89933905, -0.90024658, -0.85196258, -0.85194967, -0.53555508, -0.4629049, -0.46289737, -0.41651272, -0.35835758, -0.35835694, -0.3529824, -0.35297285, -0.32512155]","[1e-06, -1e-06, 5.9e-05, -1.4e-05, -4e-06, -0.006301, -3.5e-05, -0.004262, 0.002574, -4e-05, 0.004254, 0.002596]",1.34,370.1
ethyl_radical,-79.20101949,13,0.1369097,"[-10.18044878, -10.16945365, -0.76174138, -0.61385292, -0.45735405, -0.42047756, -0.39728056, -0.36364905, -0.20682273]","[-0.001745, 0.003275, 1.3e-05, 0.005336, -0.004349, 4.5e-05, 0.001579, -0.001602, -0.0, 6.4e-05, -0.000944, -0.000929, 6.4e-05, -0.000944, 0.000932, 4.8e-05, 0.001694, 0.002539, 4.8e-05, 0.001696, -0.002531]",0.89,157.7
magnesium_hydroxide,-275.99199568,15,0.5358087,"[-46.79823442, -19.0553727, -3.10880329, -1.85345051, -1.85345048, -1.8505262, -0.91102908, -0.4509524, -0.27258097, -0.27258097, -0.1913536]","[1.2e-05, -1e-06, -0.006009, -7e-06, -6e-06, 0.010593, -0.0, 0.0, 0.009999]",0.65,192.9
hydrogen_peroxide,-151.63047107,11,0.6184928,"[-19.19569216, -19.19562995, -1.13132446, -0.91836916, -0.52984643, -0.51836434, -0.43936025, -0.34876026, -0.29786952]","[0.015977, -0.003796, 0.007067, -0.015978, 0.003795, 0.007067, -0.014532, -0.010339, -0.006785, 0.014531, 0.010339, -0.006785]",0.72,77.6
propane,-119.20509259,10,0.03589571,"[-10.16750481, -10.15715959, -10.15714216, -0.78201946, -0.68238259, -0.58637343, -0.45953194, -0.43738774, -0.4018577, -0.38432894, -0.34099957, -0.33750918, -0.3309441]","[4e-06, -3.5e-05, 0.000702, 8e-06, -0.005483, -0.005597, 2.4e-05, 0.005509, -0.005641, 0.001736, -1e-06, 0.001462, -0.001768, 3.4e-05, 0.00151, 0.0, 0.000638, 0.001808, 4e-06, -0.000662, 0.001833, -0.001122, 0.001, 0.000897, 0.001124, 0.001, 0.000896, 0.001123, -0.000997, 0.000895, -0.001122, -0.001013, 0.00089]",1.46,91.4
butane,-158.53720181,23,0.0002456712,"[-10.16467837, -10.1644417, -10.15823231, -10.15819749, -0.79613107, -0.72487414, -0.63073118, -0.57681252, -0.47142452, -0.42846725, -0.42156203, -0.41311981, -0.37036857, -0.35238457, -0.33631967, -0.32491852, -0.32474497]","[0.002667, 0.000151, -3e-06, 0.000547, 0.002098, 2e-06, -0.000366, -0.002227, 1e-06, -0.002317, -0.000235, 0.0, -0.001235, -0.001886, -0.0, 0.001221, 0.001873, 0.0, 0.000395, 0.000906, 0.001696, 0.000398, 0.000906, -0.001697, -0.000395, -0.000904, 0.001691, -0.000395, -0.000904, -0.001691, 0.000304, -0.000888, -0.001876, 0.000305, -0.000888, 0.001876, -0.000298, 0.000891, -0.001879, -0.000298, 0.000891, 0.001879]",1.7,289.1
carbon_dioxide,-188.68226204,12,1.286808e-06,"[-19.21502618, -19.21501466, -10.36917888, -1.17101435, -1.1314049, -0.57423597, -0.53184676, -0.52764283, -0.52764282, -0.38455265, -0.38455262]","[2e-06, 0.0, -1e-06, -2e-05, -0.0, 0.006471, -1.7e-05, 1.2e-05, -0.006469]",0.73,89.9
magnesium_monohydride,-200.65931976,10,0.5653598,"[-46.80555113, -3.1142634, -1.85891226, -1.8589122, -1.8552875, -0.29391541, -0.1734961]","[-1e-06, 2e-05, -0.014366, 0.0, 0.0, -0.001137]",0.42,66.3
cyclopropene,-116.67784092,12,0.1802742,"[-10.19128151, -10.19003987, -10.18556844, -0.87225136, -0.60365328, -0.56964205, -0.50934712, -0.44104062, -0.35344635, -0.30140288, -0.2589288]","[-0.000396, -3.8e-05, 0.002894, 1.1e-05, -0.013519, -0.001608, -1.1e-05, 0.01367, -0.001495, 0.0, 0.000898, 0.000708, -0.0, -0.000912, 0.000716, -0.001337, 1e-06, -0.000791, 0.001352, 3e-06, -0.000798]",0.99,97.9
cyclobutane,-157.28758512,10,0.0004643151,"[-10.16672538, -10.16652688, -10.16650278, -10.16630375, -0.84417615, -0.65461711, -0.65459802, -0.54920887, -0.47836276, -0.47815023, -0.38470689, -0.38468208, -0.35372413, -0.31782681, -0.30843459, -0.30842259]","[-0.000579, 0.005398, 0.005365, -0.000617, -0.005237, -0.005224, 0.000599, -0.005308, 0.005326, 0.000552, 0.005142, -0.005281, -0.001687, -0.00172, -0.001719, 0.002513, 4.5e-05, 4.4e-05, -0.001694, 0.001694, 0.001698, 0.002583, -2.2e-05, -1.6e-05, 0.00168, 0.001702, -0.001703, -0.002586, -8e-06, 1.3e-05, 0.001682, -0.001707, 0.0017, -0.002591, 1.5e-05, -7e-06]",1.65,124.5
silylene_s,-290.65319647,10,0.0440625,"[-66.12732071, -5.29389752, -3.65747844, -3.64908729, -3.64661374, -0.51102533, -0.3332185, -0.24595117]","[3.7e-05, -1.9e-05, -0.003413, 0.0, 0.0012, 0.001585, 0.0, -0.001196, 0.001581]",0.48,58.6
aluminum_monohydride,-243.0144548,10,0.07490128,"[-56.0353637, -4.13945816, -2.69358936, -2.69358916, -2.68637309, -0.36688968, -0.20884853]","[5.6e-05, -0.000125, 0.003251, 0.0, 0.0, -0.002044]",0.42,48.0
beryllium_oxide,-89.9514564,12,2.539988,"[-19.0513322, -4.06729749, -0.8486372, -0.29832192, -0.26472438, -0.26472438]","[-1e-06, -1e-06, -0.012117, 6e-06, 2e-06, 0.008544]",0.41,33.2
